-1.416131 0.587100 9.061919
-1.418714 0.590009 9.070008
-1.421297 0.592919 9.078098
-1.554254 0.742621 9.494060
-1.686031 0.891008 9.906447
-1.817029 1.038885 10.319262
-1.950287 1.188223 10.730666
-1.423020 0.594859 9.083494
-1.553678 0.741972 9.492258
-1.554830 0.743269 9.495862
-1.685452 0.890358 9.904647
-1.686609 0.891659 9.908248
-1.816464 1.038244 10.317454
-1.817594 1.039527 10.321070
-1.949808 1.187639 10.728815
-1.430194 0.602940 9.105961
-1.546498 0.733887 9.469795
-1.562009 0.751353 9.518327
-1.678241 0.882253 9.882201
-1.693821 0.899764 9.930694
-1.809419 1.030249 10.294916
-1.824753 1.047597 10.343545
-1.943841 1.180356 10.705730
-1.445497 0.620176 9.153881
-1.462629 0.639466 9.207484
-1.479764 0.658758 9.261086
-1.496903 0.678053 9.314685
-1.514042 0.697348 9.368284
-1.531182 0.716643 9.421882
-1.577314 0.768590 9.566245
-1.594431 0.787871 9.619857
-1.611538 0.807144 9.673474
-1.628648 0.826420 9.727089
-1.645759 0.845696 9.780704
-1.662904 0.864995 9.834300
-1.709203 0.917051 9.978569
-1.726414 0.936393 10.032129
-1.743556 0.955690 10.085726
-1.760648 0.974954 10.139351
-1.777540 0.994087 10.193087
-1.794395 1.013195 10.246843
-1.840122 1.064876 10.391428
-1.857723 1.084473 10.444765
-1.875730 1.104335 10.497870
-1.894040 1.124394 10.550797
-1.912277 1.144406 10.603765
-1.929438 1.163715 10.657351
-2.616506 1.663903 10.778625
-3.633547 1.933985 10.266925
-4.671617 2.178487 9.782370
-5.717804 2.524403 9.404250
-6.359329 3.457801 9.151549
-6.909707 4.455097 8.878823
-7.524284 5.408868 8.588762
-8.236624 6.284024 8.276764
-9.065431 7.038732 7.940922
-10.005238 7.637920 7.585953
-11.035715 8.055278 7.220686
-12.120266 8.300941 6.856031
-13.230763 8.401389 6.498693
-1.950765 1.188807 10.732518
-2.614873 1.663246 10.779575
-2.618139 1.664559 10.777676
-3.631777 1.933584 10.267767
-3.635316 1.934386 10.266083
-4.669812 2.178065 9.783120
-4.673422 2.178909 9.781620
-5.716412 2.523087 9.404825
-5.719196 2.525719 9.403675
-6.358404 3.456059 9.151883
-6.360254 3.459542 9.151216
-6.908722 4.453424 8.879303
-6.910692 4.456770 8.878344
-7.523147 5.407305 8.589277
-7.525436 5.410418 8.588243
-8.235321 6.282611 8.277315
-8.237927 6.285438 8.276213
-9.063912 7.037573 7.941515
-9.066949 7.039890 7.940329
-10.003543 7.637057 7.586572
-10.006933 7.638782 7.585335
-11.033909 8.054688 7.221311
-11.037521 8.055868 7.220060
-12.118383 8.300667 6.856648
-12.122148 8.301214 6.855414
-13.228858 8.401309 6.499296
-1.956732 1.196090 10.755603
-2.595232 1.654168 10.791901
-2.638499 1.672745 10.765844
-3.609724 1.928585 10.278263
-3.657357 1.939416 10.255576
-4.647306 2.172806 9.792468
-4.695928 2.184168 9.772272
-5.696946 2.509460 9.412153
-5.736548 2.542123 9.396511
-6.346875 3.434349 9.156039
-6.371783 3.481253 9.147060
-6.896444 4.432567 8.885284
-6.922969 4.477627 8.872363
-7.509041 5.387773 8.595686
-7.539798 5.429743 8.581777
-8.219078 6.264990 8.284187
-8.254169 6.303058 8.269341
-9.044980 7.023133 7.948902
-9.085882 7.054330 7.932942
-9.982413 7.626305 7.594281
-10.028219 7.649210 7.577608
-11.011402 8.047333 7.229112
-11.060028 8.063223 7.212259
-12.094916 8.297250 6.864339
-12.145617 8.304618 6.847724
-13.205109 8.400311 6.506813
-1.980810 1.227067 10.861193
-2.037865 1.288474 11.017512
-2.145457 1.379526 11.119604
-2.281135 1.473201 11.087186
-2.392336 1.538055 10.963790
-2.510952 1.609014 10.851331
-2.732255 1.706470 10.713416
-2.885433 1.750823 10.633328
-3.038261 1.796075 10.553048
-3.192626 1.838758 10.474359
-3.350846 1.873463 10.399487
-3.509856 1.906491 10.325496
-3.756718 1.962780 10.207883
-3.913848 2.000651 10.132212
-4.071164 2.038657 10.056998
-4.228927 2.076010 9.982394
-4.387135 2.112480 9.908298
-4.546155 2.149032 9.836011
-4.798190 2.207270 9.731029
-4.961871 2.241411 9.668652
-5.125127 2.281900 9.609250
-5.284999 2.337353 9.552713
-5.444772 2.395584 9.498614
-5.604095 2.455667 9.445524
-5.811843 2.619315 9.364298
-5.922870 2.749069 9.312492
-6.034529 2.878162 9.260410
-6.132155 3.021967 9.221081
-6.214468 3.178112 9.195315
-6.294958 3.335794 9.172830
-6.423574 3.578485 9.123496
-6.505095 3.731315 9.080520
-6.587011 3.884095 9.038125
-6.670174 4.036521 8.996895
-6.755026 4.187801 8.954895
-6.841335 4.338077 8.912259
-6.978722 4.571705 8.845271
-7.068298 4.719879 8.802024
-7.160251 4.866415 8.758204
-7.254512 5.011323 8.713858
-7.349353 5.155812 8.669382
-7.445917 5.299024 8.624508
-7.604807 5.516988 8.552534
-7.707797 5.655180 8.506209
-7.812019 5.792347 8.459608
-7.921259 5.925154 8.411911
-8.033433 6.055274 8.363585
-8.146518 6.184530 8.315064
-8.328911 6.381321 8.238014
-8.450120 6.502306 8.187820
-8.573864 6.620483 8.137119
-8.699398 6.736606 8.086071
-8.827305 6.849894 8.034572
-8.959669 6.957535 7.982246
-9.171290 7.119795 7.899582
-9.307868 7.221657 7.846520
-9.449404 7.316002 7.792652
-9.594733 7.404123 7.738215
-9.740123 7.492145 7.683769
-9.887466 7.576643 7.629059
-10.124677 7.695767 7.542665
-10.278292 7.767737 7.487236
-10.433271 7.836615 7.431685
-10.590210 7.900765 7.375992
-10.749219 7.959489 7.320199
-10.909758 8.013886 7.264365
-11.162100 8.095338 7.177008
-11.325613 8.140018 7.121235
-11.490693 8.178749 7.065586
-11.655969 8.216685 7.009957
-11.821733 8.252504 6.954399
-11.988944 8.281342 6.899122
-12.251708 8.319808 6.812983
-12.420050 8.342017 6.758060
-12.588936 8.360340 6.703382
-12.758306 8.374634 6.648989
-12.927991 8.385797 6.594841
-13.097820 8.395316 6.540826
178 NaN NaN
-1.414839 0.585645 9.057874
-1.443792 0.618256 9.148547
-1.472767 0.650882 9.239206
-1.501755 0.683515 9.329859
-1.530744 0.716150 9.420512
-1.559723 0.748778 9.511169
-1.588683 0.781393 9.601838
-1.617615 0.813991 9.692521
-1.646555 0.846594 9.783201
-1.675556 0.879236 9.873846
-1.704661 0.911947 9.964434
-1.733769 0.944659 10.055020
-1.762677 0.977241 10.145717
-1.791201 1.009571 10.236625
-1.819630 1.041838 10.327586
-1.848711 1.074532 10.418186
-1.879166 1.108125 10.508002
-1.910253 1.142129 10.597447
-1.939277 1.174785 10.688070
-1.963350 1.204168 10.781209
-1.984015 1.231270 10.875873
-2.011187 1.262697 10.967399
-2.054107 1.304167 11.048022
-2.114672 1.355893 11.108895
-2.190714 1.414270 11.135346
-2.268130 1.465516 11.100429
-2.333173 1.503950 11.034198
-2.393860 1.538934 10.961976
-2.458156 1.577668 10.895064
-2.528593 1.619487 10.836718
-2.605213 1.659362 10.785189
-2.687349 1.692386 10.737453
-2.772836 1.719198 10.691693
-2.859578 1.743388 10.646817
-2.946015 1.768244 10.601721
-3.031963 1.794231 10.556325
-3.118350 1.819523 10.511376
-3.206069 1.842240 10.467660
-3.295157 1.862064 10.425317
-3.384897 1.880433 10.383693
-3.474625 1.898858 10.342070
-3.563967 1.918214 10.300040
-3.652971 1.938388 10.257680
-3.741728 1.959188 10.215103
-3.830336 1.980417 10.172427
-3.918901 2.001875 10.129779
-4.007534 2.023362 10.087284
-4.096315 2.044703 10.045028
-4.185244 2.065809 10.002964
-4.274305 2.086606 9.961025
-4.363502 2.107082 9.919219
-4.452935 2.127507 9.877894
-4.542723 2.148224 9.837497
-4.632974 2.169456 9.798421
-4.723800 2.190682 9.760695
-4.815313 2.211089 9.724201
-4.907560 2.230106 9.688821
-5.000133 2.249376 9.654443
-5.092333 2.271755 9.620983
-5.183270 2.299887 9.588449
-5.272950 2.332780 9.556857
-5.362499 2.366769 9.526057
-5.453071 2.398491 9.495846
-5.543899 2.429765 9.465940
-5.632090 2.467713 9.436029
-5.712775 2.519649 9.406326
-5.782749 2.585799 9.377435
-5.845986 2.658645 9.348882
-5.908006 2.732236 9.319549
-5.971541 2.804185 9.289386
-6.034074 2.877549 9.260603
-6.092129 2.955859 9.235887
-6.143290 3.040356 9.216962
-6.189637 3.128433 9.202288
-6.234270 3.217730 9.189753
-6.279690 3.306652 9.177387
-6.325942 3.394930 9.163584
-6.372468 3.482543 9.146813
-6.418740 3.569417 9.125988
-6.464734 3.655701 9.102273
-6.510657 3.741735 9.077523
-6.556733 3.827857 9.053379
-6.603124 3.914025 9.030007
-6.649960 4.000015 9.006873
-6.697363 4.085623 8.983473
-6.745327 4.170812 8.959699
-6.793769 4.255669 8.935702
-6.842607 4.340279 8.911633
-6.891800 4.424677 8.887546
-6.941350 4.508852 8.863409
-6.991258 4.592790 8.839186
-7.041625 4.676417 8.814836
-7.092665 4.759585 8.790319
-7.144597 4.842136 8.765592
-7.197419 4.924060 8.740663
-7.250762 5.005610 8.715617
-7.304227 5.087071 8.690544
-7.357700 5.168527 8.665468
-7.411756 5.249555 8.640257
-7.467060 5.329643 8.614760
-7.523987 5.408468 8.588896
-7.581950 5.486458 8.562801
-7.640178 5.564232 8.536647
-7.698121 5.642239 8.510557
-7.756301 5.720051 8.484413
-7.815569 5.796953 8.458028
-7.876616 5.872313 8.431254
-7.939149 5.946330 8.404160
-8.002470 6.019613 8.376898
-8.065960 6.092736 8.349600
-8.129677 6.165643 8.322252
-8.194089 6.237881 8.294758
-8.259640 6.308993 8.267027
-8.326444 6.378827 8.239039
-8.394348 6.447502 8.210828
-8.463194 6.515153 8.182427
-8.532831 6.581923 8.153868
-8.603107 6.647965 8.125183
-8.673879 6.713434 8.096404
-8.745230 6.778222 8.067514
-8.817600 6.841781 8.038431
-8.891433 6.903501 8.009074
-8.966811 6.963190 7.979438
-9.043068 7.021675 7.949648
-9.119475 7.079953 7.919833
-9.195662 7.138536 7.890057
-9.272379 7.196375 7.860189
-9.350565 7.252073 7.830074
-9.430808 7.304576 7.799633
-9.512458 7.354743 7.768983
-9.594608 7.404047 7.738262
-9.676544 7.453722 7.707572
-9.758548 7.503280 7.676871
-9.841301 7.551508 7.646068
-9.925372 7.597281 7.615094
-10.010647 7.640672 7.583980
-10.096682 7.682480 7.552784
-10.183088 7.723490 7.521553
-10.269775 7.763880 7.490295
-10.356879 7.803333 7.459000
-10.444529 7.841520 7.427660
-10.532809 7.878188 7.396273
-10.621755 7.913172 7.364847
-10.711394 7.946311 7.333391
-10.801638 7.977751 7.301917
-10.892250 8.008110 7.270438
-10.983000 8.038051 7.238956
-11.073835 8.067735 7.207473
-11.165040 8.096257 7.175993
-11.256913 8.122565 7.144532
-11.349552 8.146099 7.113118
-11.442647 8.167829 7.081746
-11.535872 8.189018 7.050390
-11.629013 8.210560 7.019023
-11.722240 8.231743 6.987668
-11.815812 8.251419 6.956363
-11.909897 8.268645 6.925155
-12.004368 8.283819 6.894042
-12.099034 8.297861 6.862988
-12.193750 8.311600 6.831952
-12.288518 8.325020 6.800935
-12.383411 8.337640 6.769965
-12.478488 8.348998 6.739072
-12.573752 8.358959 6.708270
-12.669170 8.367633 6.677558
-12.764716 8.375138 6.646935
-12.860357 8.381671 6.616389
-12.956062 8.387510 6.585898
-13.051802 8.392931 6.555441
-13.147579 8.397895 6.525023
-13.243426 8.401920 6.494685
-13.339363 8.404491 6.464480
-13.435380 8.405413 6.434432
-13.531440 8.405132 6.404505
-13.627516 8.404167 6.374647
-13.723597 8.403035 6.344806
-13.819669 8.402256 6.314929
-13.915717 8.402349 6.284964
