-2.364744 -1.477439 15.157468
-1.821685 -1.459742 16.245313
-1.327703 -1.433052 17.355532
-1.027443 -1.373035 18.529365
-0.987847 -1.272495 19.739545
-0.981940 -1.167034 20.950816
-0.930484 -1.068131 22.161695
-0.890322 -0.967589 23.372820
-2.363878 -1.477405 15.159270
-1.822577 -1.459771 16.243523
-1.820794 -1.459712 16.247103
-1.328412 -1.433115 17.353663
-1.326994 -1.432990 17.357401
-1.027704 -1.373171 18.527387
-1.027181 -1.372899 18.531344
-0.987818 -1.272674 19.737553
-0.987876 -1.272316 19.741537
-0.981998 -1.167201 20.948824
-0.981881 -1.166868 20.952808
-0.930576 -1.068293 22.159704
-0.930391 -1.067970 22.163687
-0.890349 -0.967760 23.370827
-2.352698 -1.476963 15.182541
-1.834086 -1.460151 16.220413
-1.809369 -1.459317 16.270255
-1.337569 -1.433921 17.329535
-1.318117 -1.432134 17.381632
-1.031082 -1.374928 18.501849
-1.024196 -1.371081 18.556925
-0.987443 -1.274984 19.711839
-0.988265 -1.270003 19.767250
-0.982759 -1.169349 20.923104
-0.981084 -1.164725 20.978527
-0.931766 -1.070379 22.133996
-0.929207 -1.065883 22.189395
-0.890694 -0.969969 23.345104
-2.301824 -1.475008 15.287843
-2.219971 -1.472144 15.454047
-2.137004 -1.469488 15.619701
-2.053414 -1.466949 15.785044
-1.969707 -1.464431 15.950328
-1.886344 -1.461849 16.115785
-1.757792 -1.457492 16.375217
-1.677306 -1.454374 16.542082
-1.598724 -1.450905 16.709845
-1.522620 -1.446982 16.878736
-1.449439 -1.442529 17.048899
-1.379651 -1.437467 17.220463
-1.278684 -1.428124 17.491674
-1.220115 -1.421098 17.667312
-1.166960 -1.413149 17.844626
-1.120194 -1.404132 18.023680
-1.080206 -1.394007 18.204302
-1.047626 -1.382698 18.386330
-1.012111 -1.362629 18.672951
-0.998014 -1.348482 18.857150
-0.989419 -1.333522 19.041629
-0.985354 -1.317904 19.226210
-0.984521 -1.301824 19.410796
-0.985893 -1.285430 19.595352
-0.990052 -1.259524 19.883731
-0.992466 -1.242983 20.068264
-0.993479 -1.226640 20.252827
-0.992589 -1.210567 20.437415
-0.990025 -1.194734 20.622008
-0.985985 -1.179112 20.806592
-0.977181 -1.155059 21.095026
-0.970273 -1.139853 21.279561
-0.962597 -1.124758 21.464074
-0.954378 -1.109743 21.648571
-0.945840 -1.094775 21.833057
-0.937190 -1.079823 22.017539
-0.923942 -1.056416 22.305857
-0.915951 -1.041367 22.490361
-0.908616 -1.026223 22.674885
-0.902143 -1.010954 22.859430
-0.896725 -0.995531 23.043996
-0.892565 -0.979927 23.228579
88 NaN NaN
-2.364960 -1.477447 15.157017
-2.320960 -1.475711 15.248603
-2.276423 -1.474074 15.339930
-2.231441 -1.472520 15.431040
-2.186105 -1.471033 15.521976
-2.140499 -1.469595 15.612778
-2.094707 -1.468192 15.703487
-2.048807 -1.466810 15.794141
-2.002879 -1.465433 15.884781
-1.956997 -1.464047 15.975445
-1.911236 -1.462639 16.066169
-1.865671 -1.461194 16.156991
-1.820374 -1.459698 16.247947
-1.775420 -1.458139 16.339071
-1.730881 -1.456503 16.430397
-1.686833 -1.454775 16.521960
-1.643351 -1.452943 16.613791
-1.600512 -1.450993 16.705920
-1.558393 -1.448911 16.798378
-1.517074 -1.446683 16.891194
-1.476638 -1.444295 16.984393
-1.437168 -1.441732 17.078000
-1.398752 -1.438981 17.172040
-1.361479 -1.436026 17.266532
-1.325440 -1.432853 17.361495
-1.290731 -1.429447 17.456944
-1.257450 -1.425793 17.552890
-1.225697 -1.421875 17.649343
-1.195575 -1.417680 17.746305
-1.167190 -1.413190 17.843777
-1.140650 -1.408393 17.941753
-1.116064 -1.403272 18.040220
-1.093541 -1.397814 18.139162
-1.073193 -1.392005 18.238554
-1.055130 -1.385833 18.338364
-1.039455 -1.379284 18.438553
-1.026160 -1.372368 18.539061
-1.015080 -1.365112 18.639814
-1.006037 -1.357549 18.740748
-0.998850 -1.349708 18.841810
-0.993338 -1.341620 18.942958
-0.989318 -1.333314 19.044159
-0.986611 -1.324818 19.145388
-0.985037 -1.316158 19.246627
-0.984419 -1.307361 19.347865
-0.984583 -1.298453 19.449095
-0.985355 -1.289459 19.550315
-0.986564 -1.280404 19.651525
-0.988039 -1.271310 19.752728
-0.989611 -1.262203 19.853928
-0.991110 -1.253107 19.955131
-0.992366 -1.244044 20.056339
-0.993210 -1.235040 20.157558
-0.993496 -1.226115 20.258786
-0.993214 -1.217270 20.360021
-0.992396 -1.208502 20.461261
-0.991076 -1.199806 20.562501
-0.989288 -1.191177 20.663739
-0.987064 -1.182610 20.764975
-0.984440 -1.174102 20.866205
-0.981449 -1.165646 20.967430
-0.978125 -1.157239 21.068649
-0.974503 -1.148875 21.169861
-0.970618 -1.140549 21.271066
-0.966505 -1.132256 21.372265
-0.962198 -1.123992 21.473458
-0.957732 -1.115751 21.574647
-0.953141 -1.107528 21.675831
-0.948462 -1.099318 21.777012
-0.943729 -1.091116 21.878191
-0.938977 -1.082917 21.979370
-0.934241 -1.074715 22.080549
-0.929556 -1.066506 22.181730
-0.924957 -1.058284 22.282914
-0.920479 -1.050045 22.384102
-0.916157 -1.041782 22.485295
-0.912026 -1.033492 22.586494
-0.908121 -1.025170 22.687698
-0.904477 -1.016809 22.788910
-0.901127 -1.008405 22.890128
-0.898107 -0.999954 22.991352
-0.895451 -0.991450 23.092582
-0.893192 -0.982888 23.193817
-0.891367 -0.974265 23.295056
-0.890007 -0.965574 23.396296
-0.889146 -0.956812 23.497535
-0.888818 -0.947974 23.598771
-0.889056 -0.939056 23.700000
-2.364722 -1.477542 15.156588
-2.143799 -1.563686 14.737000
-1.944256 -1.635839 14.304272
-1.766945 -1.693659 13.859872
-1.612845 -1.736726 13.405258
-1.483229 -1.764450 12.941897
-1.379282 -1.776312 12.471452
-1.301923 -1.771969 11.995783
-1.245794 -1.754831 11.517372
-1.198956 -1.732112 11.038165
-1.148997 -1.711214 10.559199
-1.090740 -1.695250 10.080974
-1.033154 -1.678935 9.602681
-0.987052 -1.655895 9.123451
-0.960929 -1.621210 8.643427
-0.950703 -1.577336 8.163528
-0.949016 -1.528558 7.683981
-0.949022 -1.478813 7.204527
-0.948271 -1.429506 6.725028
-0.947027 -1.380483 6.245501
-0.945604 -1.331564 5.765964
-0.944312 -1.282568 5.286435
-0.943462 -1.233318 4.806930
-2.363771 -1.477923 15.154870
-2.144677 -1.563354 14.738766
-2.142921 -1.564018 14.735234
-1.945040 -1.635569 14.306092
-1.943473 -1.636110 14.302452
-1.767629 -1.693452 13.861740
-1.766260 -1.693866 13.858004
-1.613426 -1.736585 13.407167
-1.612265 -1.736868 13.403350
-1.483722 -1.764363 12.943833
-1.482735 -1.764538 12.939961
-1.379661 -1.776295 12.473415
-1.378902 -1.776330 12.469488
-1.302190 -1.772020 11.997765
-1.301656 -1.771919 11.993802
-1.245996 -1.754920 11.519360
-1.245591 -1.754741 11.515384
-1.199148 -1.732208 11.040153
-1.198765 -1.732016 11.036176
-1.149224 -1.711289 10.561184
-1.148771 -1.711138 10.557213
-1.090988 -1.695313 10.082957
-1.090492 -1.695188 10.078990
-1.033374 -1.679013 9.604668
-1.032934 -1.678856 9.600695
-0.987195 -1.656018 9.125442
-0.986910 -1.655770 9.121460
-0.961004 -1.621373 8.645419
-0.960855 -1.621046 8.641436
-0.950723 -1.577531 8.165518
-0.950683 -1.577142 8.161538
-0.949016 -1.528765 7.685970
-0.949017 -1.528351 7.681991
-0.949024 -1.479019 7.206516
-0.949020 -1.478608 7.202537
-0.948275 -1.429710 6.727018
-0.948266 -1.429302 6.723038
-0.947033 -1.380686 6.247491
-0.947021 -1.380280 6.243512
-0.945610 -1.331767 5.767954
-0.945598 -1.331361 5.763975
-0.944317 -1.282772 5.288424
-0.944308 -1.282365 5.284445
-0.943465 -1.233523 4.808920
-2.355031 -1.481417 15.139093
-2.152744 -1.560303 14.754986
-2.134854 -1.567069 14.719013
-1.952236 -1.633084 14.322812
-1.936277 -1.638594 14.285732
-1.773915 -1.691549 13.878896
-1.759974 -1.695769 13.840847
-1.618882 -1.735206 13.424654
-1.606933 -1.738169 13.385818
-1.488256 -1.763559 12.961617
-1.478267 -1.765302 12.922158
-1.383147 -1.776134 12.491452
-1.375416 -1.776491 12.451452
-1.304643 -1.772485 12.015965
-1.299203 -1.771454 11.975601
-1.247869 -1.755733 11.537617
-1.243733 -1.753920 11.497126
-1.200905 -1.733091 11.058419
-1.196987 -1.731145 11.017912
-1.151303 -1.711982 10.579424
-1.146691 -1.710446 10.538973
-1.093265 -1.695887 10.101178
-1.088215 -1.694614 10.060770
-1.035395 -1.679737 9.622913
-1.030913 -1.678132 9.582450
-0.988681 -1.657055 9.143723
-0.985602 -1.654630 9.103171
-0.961688 -1.622876 8.663716
-0.960171 -1.619544 8.623139
-0.950907 -1.579322 8.183801
-0.950499 -1.575351 8.143255
-0.949007 -1.530666 7.704242
-0.949026 -1.526451 7.663719
-0.949039 -1.480906 7.224790
-0.949003 -1.476723 7.184263
-0.948313 -1.431584 6.745293
-0.948226 -1.427430 6.704763
-0.947085 -1.382552 6.265767
-0.946969 -1.378415 6.225236
-0.945664 -1.333631 5.786230
-0.945545 -1.329496 5.745699
-0.944359 -1.284644 5.306700
-0.944266 -1.280493 5.266170
-0.943487 -1.235406 4.827194
-2.330850 -1.491085 15.095438
-2.298887 -1.503773 15.036865
-2.267239 -1.516251 14.978074
-2.236161 -1.528354 14.918902
-2.205453 -1.540213 14.859489
-2.175065 -1.551862 14.799870
-2.112986 -1.575214 14.673853
-2.083939 -1.585985 14.613407
-2.055385 -1.596434 14.552668
-2.027308 -1.606574 14.491657
-1.999562 -1.616499 14.430459
-1.972301 -1.626108 14.368992
-1.916612 -1.645311 14.239342
-1.890668 -1.654073 14.177183
-1.865312 -1.662456 14.114730
-1.840301 -1.670619 14.052109
-1.815695 -1.678523 13.989294
-1.791706 -1.686033 13.926193
-1.742601 -1.701020 13.793365
-1.720050 -1.707616 13.729634
-1.697879 -1.713973 13.665747
-1.676065 -1.720103 13.601714
-1.654918 -1.725812 13.537419
-1.634175 -1.731268 13.472972
-1.592178 -1.741770 13.337307
-1.572963 -1.746268 13.272314
-1.554122 -1.750532 13.207196
-1.535868 -1.754431 13.141887
-1.518143 -1.758001 13.076415
-1.500800 -1.761334 13.010828
-1.466290 -1.767176 12.872792
-1.450551 -1.769517 12.806759
-1.435313 -1.771550 12.740598
-1.420740 -1.773175 12.674276
-1.406567 -1.774554 12.607863
-1.392886 -1.775632 12.541340
-1.366163 -1.776696 12.401470
-1.354077 -1.776802 12.334630
-1.342794 -1.776420 12.267650
-1.331927 -1.775786 12.200606
-1.321471 -1.774904 12.133498
-1.311734 -1.773587 12.066288
-1.292507 -1.770113 11.925229
-1.284031 -1.768038 11.857868
-1.275898 -1.765756 11.790472
-1.268016 -1.763325 11.723051
-1.260496 -1.760676 11.655597
-1.253226 -1.757878 11.588121
-1.238590 -1.751647 11.446605
-1.231887 -1.748508 11.379085
-1.225267 -1.745320 11.311560
-1.218735 -1.742078 11.244029
-1.212250 -1.738807 11.176494
-1.205767 -1.735535 11.108959
-1.192051 -1.728745 10.967376
-1.185374 -1.725585 10.899855
-1.178604 -1.722480 10.832341
-1.171588 -1.719521 10.764845
-1.164407 -1.716660 10.697363
-1.157058 -1.713898 10.629894
-1.140765 -1.708632 10.488520
-1.132768 -1.706255 10.421110
-1.124586 -1.703989 10.353719
-1.116310 -1.701779 10.286337
-1.107970 -1.699608 10.218962
-1.099563 -1.697477 10.151594
-1.081929 -1.693018 10.010353
-1.073564 -1.690865 9.942980
-1.065295 -1.688656 9.875597
-1.057108 -1.686400 9.808207
-1.049054 -1.684065 9.740802
-1.041208 -1.681610 9.673378
-1.025320 -1.676131 9.531965
-1.018212 -1.673242 9.464476
-1.011336 -1.670217 9.396969
-1.004716 -1.667043 9.329443
-0.998602 -1.663572 9.261884
-0.992791 -1.659924 9.194309
-0.981983 -1.651474 9.052565
-0.977527 -1.647036 8.984934
-0.973397 -1.642409 8.917294
-0.969806 -1.637468 8.849645
-0.966555 -1.632331 8.781995
-0.963581 -1.627033 8.714343
-0.958617 -1.615191 8.572517
-0.956652 -1.609310 8.504876
-0.954999 -1.603249 8.437244
-0.953628 -1.597027 8.369619
-0.952434 -1.590702 8.302001
-0.951476 -1.584242 8.234392
-0.950082 -1.570344 8.092671
-0.949635 -1.563590 8.025085
-0.949358 -1.556740 7.957508
-0.949158 -1.549844 7.889935
-0.949040 -1.542902 7.822367
-0.949013 -1.535908 7.754804
-0.949049 -1.521192 7.613159
-0.949086 -1.514161 7.545600
-0.949109 -1.507139 7.478040
-0.949118 -1.500124 7.410479
-0.949102 -1.493125 7.342917
-0.949070 -1.486134 7.275353
-0.948953 -1.471506 7.133699
-0.948872 -1.464544 7.066133
-0.948779 -1.457588 6.998566
-0.948671 -1.450641 6.930998
-0.948550 -1.443702 6.863430
-0.948420 -1.436768 6.795861
-0.948109 -1.422252 6.654195
-0.947948 -1.415336 6.586624
-0.947779 -1.408424 6.519053
-0.947601 -1.401518 6.451481
-0.947418 -1.394614 6.383909
-0.947230 -1.387714 6.316337
-0.946821 -1.373255 6.174665
-0.946621 -1.366361 6.107092
-0.946420 -1.359468 6.039519
-0.946217 -1.352575 5.971946
-0.946015 -1.345683 5.904373
-0.945814 -1.338790 5.836800
-0.945397 -1.324335 5.695128
-0.945204 -1.317438 5.627556
-0.945015 -1.310538 5.559984
-0.944831 -1.303635 5.492411
-0.944653 -1.296728 5.424840
-0.944484 -1.289817 5.357269
-0.944151 -1.275314 5.215602
-0.944009 -1.268386 5.148032
-0.943876 -1.261454 5.080463
-0.943753 -1.254516 5.012894
-0.943646 -1.247568 4.945326
-0.943550 -1.240615 4.877759
110 NaN NaN
-2.364960 -1.477447 15.157017
-2.316891 -1.496666 15.070238
-2.269736 -1.515279 14.982828
-2.223503 -1.533284 14.894800
-2.178197 -1.550677 14.806169
-2.133827 -1.567457 14.716948
-2.090400 -1.583621 14.627152
-2.047923 -1.599165 14.536793
-2.006403 -1.614087 14.445886
-1.965850 -1.628383 14.354444
-1.926270 -1.642050 14.262481
-1.887673 -1.655084 14.170009
-1.850068 -1.667482 14.077043
-1.813463 -1.679240 13.983596
-1.777867 -1.690353 13.889681
-1.743290 -1.700819 13.795312
-1.709742 -1.710631 13.700502
-1.677233 -1.719787 13.605266
-1.645774 -1.728281 13.509617
-1.615373 -1.736109 13.413570
-1.586043 -1.743266 13.317138
-1.557795 -1.749748 13.220336
-1.530639 -1.755548 13.123179
-1.504587 -1.760662 13.025682
-1.479650 -1.765085 12.927860
-1.455842 -1.768812 12.829728
-1.433172 -1.771836 12.731303
-1.411655 -1.774153 12.632600
-1.391302 -1.775757 12.533637
-1.372125 -1.776643 12.434430
-1.354138 -1.776804 12.334996
-1.337354 -1.776236 12.235354
-1.321764 -1.774944 12.135525
-1.307280 -1.772985 12.035540
-1.293790 -1.770427 11.935430
-1.281182 -1.767340 11.835219
-1.269340 -1.763791 11.734930
-1.258153 -1.759851 11.634581
-1.247505 -1.755587 11.534186
-1.237282 -1.751069 11.433758
-1.227370 -1.746364 11.333307
-1.217654 -1.741540 11.232843
-1.208020 -1.736666 11.132373
-1.198354 -1.731810 11.031906
-1.188542 -1.727038 10.931449
-1.178471 -1.722419 10.831010
-1.168026 -1.718021 10.730599
-1.157096 -1.713910 10.630228
-1.145657 -1.710102 10.529902
-1.133801 -1.706541 10.429615
-1.121629 -1.703170 10.329360
-1.109239 -1.699929 10.229126
-1.096731 -1.696760 10.128905
-1.084205 -1.693604 10.028686
-1.071761 -1.690401 9.928458
-1.059498 -1.687093 9.828212
-1.047517 -1.683620 9.727937
-1.035917 -1.679924 9.627625
-1.024800 -1.675944 9.527269
-1.014267 -1.671623 9.426864
-1.004419 -1.666900 9.326409
-0.995359 -1.661716 9.225901
-0.987188 -1.656013 9.125346
-0.979994 -1.649739 9.024751
-0.973760 -1.642908 8.924127
-0.968418 -1.635558 8.823489
-0.963899 -1.627731 8.722846
-0.960136 -1.619467 8.622207
-0.957060 -1.610807 8.521578
-0.954602 -1.601790 8.420963
-0.952694 -1.592457 8.320365
-0.951269 -1.582846 8.219785
-0.950257 -1.572997 8.119223
-0.949593 -1.562950 8.018678
-0.949207 -1.552743 7.918147
-0.949032 -1.542415 7.817629
-0.949001 -1.532005 7.717118
-0.949047 -1.521551 7.616612
-0.949102 -1.511092 7.516107
-0.949119 -1.500655 7.415599
-0.949095 -1.490242 7.315089
-0.949032 -1.479850 7.214577
-0.948934 -1.469480 7.114062
-0.948803 -1.459128 7.013546
-0.948642 -1.448793 6.913027
-0.948455 -1.438474 6.812508
-0.948243 -1.428169 6.711987
-0.948010 -1.417877 6.611464
-0.947759 -1.407595 6.510941
-0.947492 -1.397321 6.410417
-0.947212 -1.387055 6.309892
-0.946923 -1.376795 6.209366
-0.946627 -1.366539 6.108841
-0.946326 -1.356285 6.008314
-0.946025 -1.346032 5.907788
-0.945725 -1.335777 5.807262
-0.945430 -1.325520 5.706736
-0.945143 -1.315259 5.606211
-0.944866 -1.304992 5.505686
-0.944602 -1.294717 5.405162
-0.944354 -1.284433 5.304639
-0.944125 -1.274138 5.204117
-0.943918 -1.263830 5.103596
-0.943735 -1.253508 5.003077
-0.943580 -1.243170 4.902559
-0.943456 -1.232815 4.802043
-0.943365 -1.222440 4.701529
-0.943310 -1.212044 4.601017
-0.943294 -1.201626 4.500507
-0.943319 -1.191184 4.400000
-2.365278 -1.477833 15.157001
-3.543993 -1.673687 15.055077
-4.350778 -0.690111 14.911878
-4.749536 0.551002 14.781189
-5.156229 1.790073 14.651228
-5.575299 3.028166 14.564390
-6.063653 4.242424 14.503886
-6.690792 5.389818 14.437469
-7.520753 6.397836 14.362885
-8.567213 7.176709 14.281397
-9.770683 7.681651 14.197458
-11.051011 7.941342 14.115028
-12.356337 8.014195 14.035730
-2.366548 -1.479376 15.156939
-3.542230 -1.674606 15.055292
-3.545756 -1.672767 15.054863
-4.350197 -0.692012 14.912098
-4.351359 -0.688209 14.911658
-4.748927 0.549108 14.781389
-4.750145 0.552897 14.780989
-5.155613 1.788182 14.651438
-5.156846 1.791964 14.651018
-5.574624 3.026285 14.564467
-5.575974 3.030047 14.564312
-6.062825 4.240606 14.503981
-6.064480 4.244242 14.503790
-6.689699 5.388147 14.437576
-6.691884 5.391490 14.437362
-7.519321 6.396445 14.363005
-7.522185 6.399227 14.362766
-8.565479 7.175721 14.281524
-8.568948 7.177696 14.281269
-9.768771 7.681077 14.197586
-9.772594 7.682226 14.197331
-11.049029 7.941101 14.115152
-11.052992 7.941584 14.114904
-12.354341 8.014197 14.035848
-2.384156 -1.500757 15.156070
-3.517799 -1.687343 15.058264
-3.568993 -1.657971 15.051863
-4.342146 -0.718352 14.915144
-4.358747 -0.661671 14.908664
-4.740490 0.522858 14.784158
-4.758595 0.579143 14.778219
-5.147071 1.761980 14.654343
-5.165382 1.818163 14.648077
-5.565269 3.000222 14.565540
-5.585379 3.056089 14.563188
-6.051362 4.215411 14.505304
-6.076030 4.269397 14.502462
-6.674563 5.364982 14.439060
-6.707107 5.414598 14.435874
-7.499479 6.377171 14.364664
-7.542075 6.418450 14.361105
-8.541444 7.162040 14.283290
-8.592984 7.191373 14.279503
-9.742287 7.673115 14.199355
-9.799079 7.690187 14.195562
-11.021575 7.937749 14.116864
-11.080447 7.944936 14.113192
-12.326678 8.014221 14.037490
-2.469725 -1.592883 15.151515
-2.632698 -1.706498 15.141023
-2.818401 -1.776938 15.127109
-3.014966 -1.804875 15.110540
-3.212975 -1.792256 15.091911
-3.404194 -1.740031 15.071660
-3.672613 -1.587543 15.038205
-3.825958 -1.461474 15.016619
-3.970489 -1.325270 14.995184
-4.104488 -1.178831 14.973600
-4.218537 -1.016678 14.951525
-4.302558 -0.837220 14.929114
-4.391639 -0.540678 14.895196
-4.446305 -0.349634 14.874685
-4.508738 -0.160882 14.855082
-4.574874 0.026660 14.835870
-4.639822 0.214596 14.816484
-4.701993 0.403433 14.796735
-4.797182 0.698536 14.765615
-4.859068 0.887453 14.745722
-4.921533 1.076197 14.726004
-4.984041 1.264954 14.706540
-5.046253 1.453819 14.687174
-5.108151 1.642739 14.667356
-5.204220 1.937384 14.634636
-5.265986 2.126295 14.614339
-5.328479 2.315292 14.597390
-5.392086 2.504296 14.585396
-5.456895 2.693095 14.577070
-5.522930 2.881527 14.570165
-5.628561 3.174445 14.557741
-5.698316 3.361429 14.548467
-5.770038 3.547656 14.538991
-5.844023 3.733007 14.529733
-5.920521 3.917339 14.520566
-5.999778 4.100496 14.511283
-6.129541 4.383422 14.496361
-6.217054 4.562750 14.486563
-6.308266 4.740217 14.476620
-6.403433 4.915586 14.466522
-6.502803 5.088595 14.456245
-6.606611 5.258966 14.445774
-6.777931 5.518709 14.429042
-6.894038 5.680911 14.418061
-7.015234 5.839331 14.406883
-7.141629 5.993619 14.395507
-7.273303 6.143412 14.383936
-7.410260 6.288374 14.372179
-7.634403 6.504001 14.353490
-7.784649 6.635097 14.341304
-7.939836 6.760292 14.328976
-8.099776 6.879341 14.316522
-8.264221 6.992076 14.303961
-8.432886 7.098386 14.291312
-8.703738 7.251125 14.271449
-8.881827 7.340737 14.258658
-9.063026 7.423880 14.245844
-9.247020 7.500641 14.233022
-9.433497 7.571161 14.220208
-9.622166 7.635595 14.207414
-9.920206 7.724327 14.187527
-10.113282 7.774052 14.174835
-10.307666 7.818408 14.162198
-10.503159 7.857615 14.149623
-10.699579 7.891900 14.137114
-10.896768 7.921483 14.124676
-11.205557 7.958700 14.105424
-11.404103 7.977220 14.093178
-11.602984 7.991779 14.081011
-11.802111 8.002569 14.068922
-12.001405 8.009777 14.056911
-12.200798 8.013573 14.044980
169 NaN NaN
-2.364960 -1.477447 15.157017
-2.429133 -1.555375 15.153850
-2.503248 -1.623858 15.149587
-2.585788 -1.681833 15.144295
-2.675025 -1.728753 15.138071
-2.769246 -1.764495 15.131021
-2.866892 -1.789214 15.123250
-2.966599 -1.803186 15.114847
-3.067173 -1.806698 15.105890
-3.167540 -1.799973 15.096442
-3.266670 -1.783135 15.086556
-3.363501 -1.756195 15.076282
-3.456875 -1.719105 15.065675
-3.545953 -1.672665 15.054839
-3.630653 -1.618648 15.043901
-3.711362 -1.558818 15.032945
-3.788755 -1.494741 15.022020
-3.863662 -1.427759 15.011144
-3.936844 -1.358887 15.000314
-4.007930 -1.287859 14.989475
-4.075878 -1.213842 14.978565
-4.139444 -1.136054 14.967534
-4.197137 -1.053849 14.956357
-4.247233 -0.966836 14.945045
-4.288682 -0.875388 14.933677
-4.322996 -0.781004 14.922392
-4.352360 -0.684933 14.911279
-4.378966 -0.588031 14.900386
-4.404953 -0.490933 14.889742
-4.432414 -0.394214 14.879374
-4.462331 -0.298197 14.869274
-4.494158 -0.202773 14.859383
-4.527228 -0.107758 14.849627
-4.560871 -0.012938 14.839928
-4.594414 0.081915 14.830209
-4.627227 0.177013 14.820394
-4.659190 0.272389 14.810472
-4.690526 0.367964 14.800465
-4.721465 0.463663 14.790401
-4.752238 0.559411 14.780302
-4.783075 0.655138 14.770195
-4.814167 0.750784 14.760101
-4.845506 0.846352 14.750036
-4.877024 0.941866 14.740011
-4.908649 1.037349 14.730037
-4.940312 1.132827 14.720125
-4.971943 1.228323 14.710289
-5.003492 1.323852 14.700513
-5.034955 1.419409 14.690728
-5.066336 1.514983 14.680856
-5.097639 1.610566 14.670817
-5.128868 1.706147 14.660535
-5.160026 1.801717 14.649937
-5.191146 1.897276 14.639130
-5.222295 1.992836 14.628422
-5.253540 2.088411 14.618128
-5.284946 2.184008 14.608567
-5.316578 2.279630 14.600059
-5.348494 2.375269 14.592902
-5.380718 2.470894 14.587070
-5.413248 2.566474 14.582280
-5.446087 2.661983 14.578238
-5.479237 2.757403 14.574655
-5.512705 2.852718 14.571237
-5.546494 2.947915 14.567695
-5.580616 3.042978 14.563780
-5.615102 3.137895 14.559498
-5.649994 3.232649 14.554943
-5.685335 3.327230 14.550211
-5.721164 3.421621 14.545396
-5.757524 3.515810 14.540593
-5.794452 3.609782 14.535865
-5.831983 3.703517 14.531196
-5.870147 3.796998 14.526559
-5.908978 3.890204 14.521926
-5.948505 3.983116 14.517269
-5.988760 4.075713 14.512563
-6.029776 4.167971 14.507795
-6.071590 4.259868 14.502970
-6.114236 4.351378 14.498093
-6.157749 4.442477 14.493169
-6.202164 4.533137 14.488204
-6.247516 4.623331 14.483204
-6.293836 4.713028 14.478168
-6.341160 4.802199 14.473092
-6.389519 4.890809 14.467975
-6.438946 4.978826 14.462813
-6.489472 5.066213 14.457603
-6.541127 5.152935 14.452343
-6.593939 5.238954 14.447032
-6.647936 5.324231 14.441670
-6.703145 5.408725 14.436258
-6.759591 5.492394 14.430794
-6.817298 5.575195 14.425280
-6.876288 5.657084 14.419715
-6.936577 5.738017 14.414099
-6.998180 5.817952 14.408432
-7.061110 5.896841 14.402715
-7.125381 5.974638 14.396947
-7.191004 6.051295 14.391129
-7.257983 6.126766 14.385263
-7.326315 6.201011 14.379348
-7.395997 6.273985 14.373386
-7.467026 6.345645 14.367378
-7.539397 6.415947 14.361326
-7.613101 6.484845 14.355232
-7.688120 6.552305 14.349096
-7.764434 6.618294 14.342922
-7.842018 6.682781 14.336711
-7.920849 6.745733 14.330465
-8.000905 6.807118 14.324186
-8.082158 6.866905 14.317877
-8.164572 6.925078 14.311540
-8.248110 6.981623 14.305177
-8.332735 7.036526 14.298791
-8.418410 7.089773 14.292385
-8.505098 7.141351 14.285960
-8.592761 7.191252 14.279520
-8.681355 7.239479 14.273066
-8.770836 7.286038 14.266601
-8.861163 7.330933 14.260127
-8.952295 7.374170 14.253647
-9.044192 7.415757 14.247163
-9.136812 7.455704 14.240676
-9.230115 7.494032 14.234189
-9.324060 7.530758 14.227703
-9.418608 7.565903 14.221221
-9.513722 7.599487 14.214745
-9.609366 7.631531 14.208274
-9.705506 7.662059 14.201812
-9.802106 7.691097 14.195359
-9.899135 7.718673 14.188917
-9.996561 7.744814 14.182487
-10.094355 7.769548 14.176070
-10.192489 7.792901 14.169667
-10.290935 7.814903 14.163278
-10.389668 7.835583 14.156906
-10.488665 7.854969 14.150549
-10.587902 7.873090 14.144210
-10.687358 7.889977 14.137888
-10.787013 7.905657 14.131584
-10.886847 7.920158 14.125298
-10.986842 7.933508 14.119031
-11.086983 7.945734 14.112784
-11.187252 7.956865 14.106556
-11.287636 7.966927 14.100347
-11.388119 7.975948 14.094158
-11.488691 7.983950 14.087990
-11.589337 7.990960 14.081841
-11.690047 7.997002 14.075712
-11.790811 8.002101 14.069604
-11.891619 8.006281 14.063516
-11.992460 8.009563 14.057448
-12.093328 8.011971 14.051400
-12.194214 8.013526 14.045372
-12.295110 8.014248 14.039364
-12.396010 8.014160 14.033375
-12.496908 8.013283 14.027407
-12.597796 8.011633 14.021458
-12.698671 8.009229 14.015529
-12.799527 8.006087 14.009619
-12.900359 8.002226 14.003728
-13.001163 7.997663 13.997856
-13.101934 7.992416 13.992003
-13.202670 7.986502 13.986169
-13.303367 7.979938 13.980353
-13.404021 7.972743 13.974555
-13.504631 7.964932 13.968776
-13.605193 7.956524 13.963013
-0.930217 -1.067755 22.161502
-0.848120 -0.948260 22.101548
-0.772500 -0.823040 22.044881
-0.707263 -0.689956 21.993609
-0.653803 -0.549587 21.948612
-0.618634 -0.400978 21.913652
-0.604831 -0.246663 21.890791
-0.618994 -0.091032 21.884352
-0.660818 0.059418 21.894772
-0.727576 0.198517 21.921026
-0.813515 0.323640 21.959960
-0.912476 0.435361 22.007875
-1.020984 0.534488 22.062638
-1.135502 0.623812 22.121891
-0.929153 -1.066249 22.160729
-0.849128 -0.949819 22.102293
-0.847113 -0.946701 22.100804
-0.773439 -0.824657 22.045591
-0.771560 -0.821424 22.044172
-0.708019 -0.691704 21.994223
-0.706507 -0.688209 21.992996
-0.654435 -0.551404 21.949159
-0.653172 -0.547770 21.948065
-0.618930 -0.402923 21.914013
-0.618337 -0.399033 21.913291
-0.604912 -0.248647 21.891028
-0.604750 -0.244678 21.890554
-0.618585 -0.092989 21.884296
-0.619403 -0.089075 21.884408
-0.660170 0.057537 21.894568
-0.661465 0.061299 21.894976
-0.726546 0.196863 21.920574
-0.728605 0.200171 21.921478
-0.812348 0.322109 21.959415
-0.814681 0.325170 21.960504
-0.911121 0.434055 22.007198
-0.913831 0.436667 22.008553
-1.019565 0.533279 22.061914
-1.022403 0.535697 22.063362
-1.133994 0.622765 22.121098
-0.925430 -1.060984 22.158025
-0.852651 -0.955268 22.104896
-0.843590 -0.941251 22.098200
-0.776723 -0.830309 22.048072
-0.768399 -0.815678 22.041754
-0.710661 -0.697812 21.996368
-0.703865 -0.682101 21.990851
-0.656645 -0.557757 21.951071
-0.650962 -0.541418 21.946153
-0.619967 -0.409722 21.915274
-0.617300 -0.392235 21.912030
-0.605195 -0.255584 21.891856
-0.604467 -0.237741 21.889726
-0.617154 -0.099830 21.884101
-0.620834 -0.082234 21.884603
-0.657907 0.050960 21.893855
-0.663729 0.067876 21.895689
-0.722946 0.191080 21.918995
-0.732205 0.205953 21.923057
-0.808269 0.316759 21.957512
-0.818760 0.330521 21.962408
-0.906384 0.429491 22.004829
-0.918569 0.441231 22.010921
-1.014605 0.529051 22.059381
-1.027363 0.539925 22.065895
-1.128721 0.619103 22.118327
-0.916829 -1.048820 22.151778
-0.905476 -1.032762 22.143531
-0.894123 -1.016705 22.135285
-0.882770 -1.000647 22.127038
-0.871536 -0.984480 22.118851
-0.860791 -0.967859 22.110911
-0.835450 -0.928660 22.092185
-0.824705 -0.912040 22.084245
-0.814358 -0.895082 22.076508
-0.804342 -0.877844 22.068941
-0.794327 -0.860606 22.061373
-0.784311 -0.843368 22.053805
-0.761479 -0.802111 22.036368
-0.752345 -0.784201 22.029258
-0.743211 -0.766291 22.022148
-0.734077 -0.748382 22.015038
-0.724943 -0.730472 22.007928
-0.716765 -0.711923 22.001323
-0.697761 -0.667990 21.985895
-0.689703 -0.649361 21.979354
-0.681962 -0.630554 21.972983
-0.675224 -0.611180 21.967152
-0.668487 -0.591806 21.961320
-0.661749 -0.572433 21.955489
-0.646816 -0.526310 21.942262
-0.641696 -0.506208 21.937318
-0.636576 -0.486106 21.932374
-0.631456 -0.466005 21.927431
-0.626336 -0.445903 21.922487
-0.622363 -0.425429 21.918187
-0.614904 -0.376527 21.909117
-0.611741 -0.355792 21.905271
-0.608579 -0.335057 21.901425
-0.607576 -0.313925 21.898820
-0.606713 -0.292768 21.896295
-0.605849 -0.271611 21.893769
-0.604566 -0.221692 21.888256
-0.606268 -0.200459 21.887242
-0.607970 -0.179227 21.886227
-0.609672 -0.157995 21.885212
-0.611374 -0.136762 21.884197
-0.613848 -0.115636 21.883649
-0.624141 -0.066428 21.885054
-0.628505 -0.045563 21.885649
-0.632869 -0.024699 21.886245
-0.638871 -0.004354 21.887858
-0.645774 0.015705 21.890033
-0.652677 0.035764 21.892207
-0.668958 0.083072 21.897336
-0.678093 0.102001 21.900938
-0.687229 0.120929 21.904542
-0.696366 0.139857 21.908145
-0.705502 0.158786 21.911749
-0.714639 0.177714 21.915352
-0.740522 0.219312 21.926706
-0.751502 0.236947 21.931523
-0.762481 0.254582 21.936340
-0.773968 0.271760 21.941501
-0.786407 0.288078 21.947307
-0.798846 0.304397 21.953113
-0.828183 0.342883 21.966807
-0.841416 0.358326 21.973165
-0.854988 0.373392 21.979762
-0.868561 0.388459 21.986358
-0.882134 0.403526 21.992954
-0.895707 0.418593 21.999550
-0.929514 0.451777 22.016393
-0.943963 0.465699 22.023616
-0.958411 0.479620 22.030840
-0.972890 0.493496 22.038085
-0.988017 0.506390 22.045808
-1.003145 0.519283 22.053531
-1.038823 0.549692 22.071745
-1.054161 0.562225 22.079627
-1.069820 0.574205 22.087751
-1.085479 0.586185 22.095876
-1.101138 0.598165 22.104001
-1.116798 0.610145 22.112125
21 NaN NaN
-0.930484 -1.068131 22.161695
-0.873629 -0.987719 22.120399
-0.819823 -0.904487 22.080637
-0.769668 -0.818166 22.042741
-0.723930 -0.728486 22.007140
-0.683583 -0.635213 21.974386
-0.649849 -0.538217 21.945190
-0.624218 -0.437587 21.920442
-0.608387 -0.333803 21.901193
-0.604066 -0.227926 21.888554
-0.612583 -0.121684 21.883477
-0.634420 -0.017286 21.886456
-0.668963 0.083087 21.897338
-0.714688 0.177817 21.915372
-0.769645 0.266089 21.939483
-0.831919 0.347784 21.968550
-0.899875 0.423220 22.001576
-0.972222 0.492927 22.037744
-1.047973 0.557491 22.076416
-1.126389 0.617482 22.117101
-1.206914 0.673416 22.159420
-0.987578 -1.272075 19.739505
-0.920536 -1.166573 19.729718
-0.858110 -1.058160 19.721489
-0.801182 -0.946658 19.715085
-0.750851 -0.831943 19.710825
-0.708466 -0.714007 19.709094
-0.675652 -0.593050 19.710333
-0.654998 -0.469538 19.715233
-0.648878 -0.344744 19.724356
-0.658167 -0.220612 19.737780
-0.683707 -0.099380 19.755549
-0.725241 0.016663 19.777390
-0.781424 0.125667 19.802763
-0.850199 0.226541 19.830991
-0.930144 0.318109 19.861568
-1.018006 0.401525 19.893676
-1.111987 0.477522 19.926869
-1.210759 0.546825 19.960836
-1.313298 0.610155 19.995348
-0.986500 -1.270398 19.739346
-0.921551 -1.168290 19.729856
-0.919521 -1.164855 19.729580
-0.859052 -1.059921 19.721603
-0.857167 -1.056400 19.721376
-0.802039 -0.948463 19.715170
-0.800326 -0.944853 19.714999
-0.751606 -0.833794 19.710878
-0.750095 -0.830092 19.710773
-0.709102 -0.715903 19.709109
-0.707830 -0.712111 19.709079
-0.676147 -0.594987 19.710304
-0.675158 -0.591112 19.710362
-0.655136 -0.471528 19.715099
-0.654859 -0.467547 19.715367
-0.648804 -0.346733 19.724162
-0.648952 -0.342755 19.724550
-0.657865 -0.222572 19.737524
-0.658469 -0.218651 19.738036
-0.683175 -0.101282 19.755233
-0.684240 -0.097478 19.755865
-0.724488 0.014847 19.777019
-0.725994 0.018478 19.777761
-0.780473 0.123958 19.802345
-0.782375 0.127376 19.803181
-0.849077 0.224950 19.830535
-0.851349 0.228110 19.831452
-0.928765 0.316752 19.861060
-0.931522 0.319467 19.862076
-1.016535 0.400275 19.893151
-1.019476 0.402775 19.894201
-1.110442 0.476370 19.926332
-1.113532 0.478673 19.927406
-1.209155 0.545763 19.960290
-1.212363 0.547887 19.961382
-1.311646 0.609174 19.994796
-0.983326 -1.265460 19.738878
-0.924540 -1.173348 19.730261
-0.916531 -1.159798 19.729174
-0.861826 -1.065104 19.721937
-0.854393 -1.051216 19.721042
-0.804561 -0.953779 19.715421
-0.797803 -0.939537 19.714748
-0.753830 -0.839245 19.711033
-0.747871 -0.824642 19.710618
-0.710974 -0.721486 19.709153
-0.705958 -0.706528 19.709035
-0.677603 -0.600693 19.710220
-0.673701 -0.585407 19.710446
-0.655573 -0.477387 19.714713
-0.654451 -0.461685 19.715762
-0.648585 -0.352590 19.723591
-0.649170 -0.336898 19.725121
-0.656977 -0.228345 19.736771
-0.659357 -0.212879 19.738790
-0.681607 -0.106881 19.754303
-0.685808 -0.091879 19.756796
-0.722272 0.009502 19.775928
-0.728210 0.023824 19.778853
-0.777672 0.118926 19.801116
-0.785176 0.132408 19.804411
-0.845775 0.220262 19.829193
-0.855068 0.232446 19.832881
-0.924708 0.312755 19.859565
-0.935579 0.323464 19.863571
-1.012205 0.396595 19.891606
-1.023806 0.406456 19.895745
-1.105894 0.472980 19.924751
-1.118080 0.482063 19.928988
-1.204431 0.542636 19.958682
-1.217087 0.551015 19.962990
-1.306780 0.606283 19.993168
-0.976433 -1.254732 19.737861
-0.967376 -1.240638 19.736525
-0.958319 -1.226544 19.735189
-0.949262 -1.212449 19.733853
-0.940204 -1.198355 19.732517
-0.931147 -1.184261 19.731181
-0.910038 -1.148811 19.728293
-0.901507 -1.134377 19.727135
-0.892975 -1.119943 19.725978
-0.884444 -1.105509 19.724820
-0.875913 -1.091075 19.723662
-0.867853 -1.076364 19.722662
-0.848366 -1.039956 19.720317
-0.840448 -1.025162 19.719364
-0.832530 -1.010368 19.718411
-0.824613 -0.995574 19.717458
-0.817237 -0.980496 19.716683
-0.810039 -0.965326 19.715966
-0.792325 -0.927991 19.714203
-0.785127 -0.912820 19.713486
-0.777929 -0.897650 19.712770
-0.771359 -0.882195 19.712256
-0.765010 -0.866640 19.711813
-0.758662 -0.851084 19.711370
-0.743039 -0.812802 19.710281
-0.736691 -0.797247 19.709838
-0.731070 -0.781417 19.709625
-0.725727 -0.765483 19.709499
-0.720384 -0.749549 19.709374
-0.715041 -0.733614 19.709249
-0.701891 -0.694399 19.708940
-0.697390 -0.678218 19.709074
-0.693234 -0.661935 19.709315
-0.689078 -0.645652 19.709555
-0.684922 -0.629369 19.709796
-0.680766 -0.613086 19.710037
-0.671505 -0.572817 19.710920
-0.668740 -0.556253 19.711578
-0.665974 -0.539688 19.712237
-0.663209 -0.523124 19.712895
-0.660443 -0.506559 19.713554
-0.657678 -0.489995 19.714212
-0.653564 -0.448953 19.716618
-0.652399 -0.432224 19.717744
-0.651234 -0.415496 19.718869
-0.650069 -0.398768 19.719994
-0.648904 -0.382039 19.721120
-0.648111 -0.365313 19.722350
-0.649644 -0.324175 19.726362
-0.650267 -0.307459 19.727992
-0.650890 -0.290743 19.729622
-0.651513 -0.274027 19.731252
-0.652510 -0.257359 19.732984
-0.655046 -0.240884 19.735134
-0.661287 -0.200340 19.740426
-0.663823 -0.183865 19.742576
-0.666359 -0.167391 19.744727
-0.669252 -0.151007 19.746970
-0.673727 -0.135026 19.749626
-0.678201 -0.119045 19.752281
-0.689214 -0.079715 19.758817
-0.693688 -0.063734 19.761473
-0.698482 -0.047879 19.764208
-0.704807 -0.032623 19.767324
-0.711132 -0.017366 19.770440
-0.717458 -0.002110 19.773556
-0.733024 0.035435 19.781225
-0.739617 0.050548 19.784404
-0.747610 0.064910 19.787914
-0.755603 0.079271 19.791424
-0.763596 0.093633 19.794934
-0.771589 0.107995 19.798444
-0.791472 0.143193 19.807130
-0.800898 0.156571 19.810959
-0.810323 0.169948 19.814789
-0.819749 0.183326 19.818619
-0.829175 0.196703 19.822448
-0.838601 0.210080 19.826278
-0.863147 0.241865 19.835986
-0.873762 0.254241 19.840065
-0.884377 0.266616 19.844144
-0.894992 0.278992 19.848223
-0.905606 0.291368 19.852301
-0.916221 0.303743 19.856380
-0.944394 0.332147 19.866820
-0.955975 0.343554 19.871088
-0.967555 0.354962 19.875356
-0.979136 0.366370 19.879624
-0.990717 0.377777 19.883891
-1.002800 0.388601 19.888251
-1.033212 0.414450 19.899101
-1.045569 0.424953 19.903510
-1.057926 0.435457 19.907919
-1.070284 0.445960 19.912328
-1.083034 0.455941 19.916803
-1.096014 0.465616 19.921316
-1.127959 0.489427 19.932423
-1.140939 0.499103 19.936936
-1.153920 0.508778 19.941449
-1.167209 0.517991 19.946009
-1.180689 0.526917 19.950599
-1.194170 0.535842 19.955188
-1.227348 0.557808 19.966483
-1.240829 0.566734 19.971073
-1.254553 0.575253 19.975696
-1.268439 0.583503 19.980341
-1.282325 0.591753 19.984987
-1.296211 0.600003 19.989632
22 NaN NaN
-0.987847 -1.272495 19.739545
-0.929190 -1.181214 19.730892
-0.873938 -1.087734 19.723394
-0.822660 -0.991925 19.717223
-0.776046 -0.893681 19.712583
-0.734936 -0.792948 19.709716
-0.700338 -0.689767 19.708903
-0.673428 -0.584335 19.710462
-0.655524 -0.477090 19.714725
-0.647982 -0.368793 19.722011
-0.652013 -0.260588 19.732563
-0.668428 -0.153951 19.746481
-0.697391 -0.050511 19.763670
-0.738333 0.048241 19.783840
-0.790075 0.141211 19.806562
-0.851099 0.227818 19.831356
-0.919826 0.307946 19.857766
-0.994814 0.381813 19.885401
-1.074836 0.449829 19.913952
-1.158894 0.512486 19.943179
-1.246198 0.570289 19.972901
-1.336128 0.623719 20.002986
-1.327359 -1.432695 17.355469
-1.195709 -1.293044 17.331375
-1.071352 -1.146572 17.309343
-0.956674 -0.992085 17.289997
-0.855221 -0.828224 17.274241
-0.774762 -0.652774 17.264021
-0.723291 -0.466816 17.261168
-0.711959 -0.274636 17.268101
-0.749384 -0.086348 17.286348
-0.836945 0.083128 17.315490
-0.957991 0.229059 17.351358
-1.100828 0.352867 17.391264
-1.257383 0.458207 17.433485
-1.423128 0.547828 17.477090
-1.325981 -1.431268 17.355215
-1.197048 -1.294509 17.331618
-1.194369 -1.291579 17.331132
-1.072594 -1.148125 17.309559
-1.070110 -1.145019 17.309128
-0.957777 -0.993744 17.290174
-0.955572 -0.990425 17.289820
-0.856220 -0.829949 17.274391
-0.854327 -0.826439 17.274120
-0.775512 -0.654626 17.264105
-0.774013 -0.650922 17.263936
-0.723640 -0.468785 17.261151
-0.722942 -0.464846 17.261184
-0.711747 -0.276619 17.267951
-0.712171 -0.272653 17.268250
-0.748824 -0.088251 17.286121
-0.750185 -0.084537 17.286628
-0.835902 0.081454 17.315160
-0.837988 0.084802 17.315820
-0.956607 0.227671 17.350962
-0.959375 0.230447 17.351754
-1.099247 0.351721 17.390834
-1.102410 0.354014 17.391695
-1.255731 0.457172 17.433043
-1.259080 0.459166 17.433934
-1.421392 0.546945 17.476636
-1.320284 -1.425365 17.354165
-1.202587 -1.300569 17.332622
-1.188831 -1.285519 17.330127
-1.077729 -1.154547 17.310450
-1.064975 -1.138598 17.308237
-0.962336 -1.000606 17.290908
-0.951013 -0.983564 17.289087
-0.860393 -0.837062 17.275020
-0.850632 -0.819057 17.273616
-0.778612 -0.662286 17.264454
-0.770913 -0.643262 17.263587
-0.725081 -0.476929 17.261085
-0.721501 -0.456703 17.261251
-0.710871 -0.284820 17.267335
-0.713047 -0.264452 17.268866
-0.746687 -0.096190 17.285219
-0.753498 -0.077048 17.287784
-0.831589 0.074531 17.313795
-0.842302 0.091726 17.317184
-0.950883 0.221930 17.349324
-0.965099 0.236188 17.353392
-1.092708 0.346980 17.389053
-1.108949 0.358754 17.393475
-1.248923 0.452844 17.431220
-1.266096 0.463134 17.435788
-1.414212 0.543294 17.474758
-1.306473 -1.411053 17.351621
-1.288178 -1.392095 17.348250
-1.269883 -1.373137 17.344879
-1.251588 -1.354179 17.341509
-1.233800 -1.334720 17.338283
-1.216014 -1.315260 17.335057
-1.175473 -1.270764 17.327712
-1.158280 -1.250751 17.324654
-1.141088 -1.230737 17.321596
-1.123895 -1.210724 17.318539
-1.106703 -1.190710 17.315481
-1.090178 -1.170116 17.312610
-1.052526 -1.123029 17.306076
-1.036095 -1.102357 17.303231
-1.020441 -1.081061 17.300601
-1.004788 -1.059765 17.297971
-0.989134 -1.038469 17.295340
-0.973481 -1.017173 17.292710
-0.939961 -0.966929 17.287310
-0.925320 -0.944893 17.284955
-0.910714 -0.922834 17.282610
-0.897313 -0.899992 17.280589
-0.883911 -0.877149 17.278568
-0.870510 -0.854306 17.276546
-0.841672 -0.801160 17.272396
-0.829804 -0.777453 17.270780
-0.817936 -0.753747 17.269164
-0.806068 -0.730040 17.267547
-0.796084 -0.705455 17.266420
-0.786128 -0.680856 17.265300
-0.763649 -0.624602 17.262806
-0.756079 -0.599148 17.262291
-0.748509 -0.573694 17.261777
-0.740940 -0.548240 17.261263
-0.733370 -0.522786 17.260748
-0.728576 -0.496672 17.260922
-0.718007 -0.436959 17.261413
-0.713609 -0.410782 17.261684
-0.712486 -0.384266 17.262744
-0.711364 -0.357750 17.263805
-0.710241 -0.331235 17.264865
-0.709119 -0.304719 17.265926
-0.715170 -0.244570 17.270362
-0.717983 -0.218233 17.272342
-0.720915 -0.191921 17.274350
-0.727778 -0.166426 17.277245
-0.734642 -0.140931 17.280139
-0.741505 -0.115436 17.283034
-0.761529 -0.058891 17.290588
-0.772168 -0.034839 17.294301
-0.782808 -0.010787 17.298015
-0.793447 0.013265 17.301729
-0.807277 0.035512 17.306106
-0.821131 0.057746 17.310488
-0.853056 0.108288 17.320550
-0.869471 0.128588 17.325440
-0.885885 0.148889 17.330330
-0.902300 0.169189 17.335219
-0.918715 0.189490 17.340109
-0.937006 0.208012 17.345352
-0.978976 0.250106 17.357364
-0.997469 0.268415 17.362644
-1.017340 0.285150 17.368172
-1.037212 0.301885 17.373699
-1.057083 0.318619 17.379226
-1.076954 0.335354 17.384753
-1.124802 0.370247 17.397792
-1.145802 0.385471 17.403510
-1.166829 0.400653 17.409233
-1.188692 0.414552 17.415088
-1.210555 0.428452 17.420944
-1.232418 0.442351 17.426800
-1.283105 0.472752 17.440284
-1.305637 0.485493 17.446240
-1.328168 0.498234 17.452195
-1.350700 0.510975 17.458151
-1.373750 0.522714 17.464178
-1.396807 0.534441 17.470207
25 NaN NaN
-1.327703 -1.433052 17.355532
-1.251527 -1.354115 17.341497
-1.177468 -1.273087 17.328067
-1.105883 -1.189756 17.315335
-1.037220 -1.103888 17.303420
-0.972046 -1.015221 17.292469
-0.911091 -0.923476 17.282667
-0.855297 -0.828377 17.274252
-0.805891 -0.729687 17.267523
-0.764450 -0.627294 17.262860
-0.732945 -0.521357 17.260720
-0.713683 -0.412530 17.261614
-0.709013 -0.302219 17.266026
-0.720713 -0.192668 17.274265
-0.749262 -0.086624 17.286305
-0.793521 0.013432 17.301755
-0.851162 0.105946 17.319986
-0.919476 0.190431 17.340335
-0.995989 0.267169 17.362233
-1.078711 0.336833 17.385242
-1.166138 0.400214 17.409047
-1.257162 0.458082 17.433427
-1.350972 0.511129 17.458223
-1.446971 0.559955 17.483324
-1.544714 0.605068 17.508652
-1.821273 -1.459496 16.245174
-1.645024 -1.352219 16.185476
-1.473566 -1.236781 16.127095
-1.308646 -1.111372 16.070541
-1.153042 -0.973564 16.016641
-1.011389 -0.820185 15.966799
-0.891669 -0.647590 15.923483
-0.807145 -0.453598 15.890900
-0.775048 -0.243038 15.874731
-0.804992 -0.031637 15.878504
-0.888397 0.164279 15.899912
-1.008054 0.338979 15.933576
-1.150276 0.494263 15.975040
-1.306763 0.633727 16.021534
-1.819622 -1.458515 16.244615
-1.646655 -1.353236 16.186029
-1.643393 -1.351202 16.184923
-1.475148 -1.237880 16.127634
-1.471985 -1.235682 16.126555
-1.310159 -1.112573 16.071061
-1.307133 -1.110172 16.070021
-1.154455 -0.974892 16.017132
-1.151630 -0.972235 16.016150
-1.012647 -0.821674 15.967245
-1.010131 -0.818695 15.966353
-0.892677 -0.649276 15.923854
-0.890660 -0.645903 15.923111
-0.807751 -0.455488 15.891148
-0.806540 -0.451708 15.890653
-0.775084 -0.245037 15.874797
-0.775013 -0.241040 15.874664
-0.804442 -0.033555 15.878380
-0.805543 -0.029718 15.878628
-0.887417 0.162556 15.899645
-0.889377 0.166002 15.900180
-1.006807 0.337457 15.933217
-1.009300 0.340501 15.933935
-1.148866 0.492907 15.974624
-1.151687 0.495618 15.975456
-1.305248 0.632503 16.021080
-1.812179 -1.454089 16.242097
-1.654009 -1.357821 16.188523
-1.636102 -1.346508 16.182447
-1.482278 -1.242836 16.130067
-1.464854 -1.230726 16.124123
-1.316979 -1.117986 16.073406
-1.300313 -1.104758 16.067675
-1.160823 -0.980881 16.019348
-1.145262 -0.966247 16.013934
-1.018319 -0.828390 15.969257
-1.004459 -0.811979 15.964341
-0.897226 -0.656881 15.925529
-0.886111 -0.638299 15.921436
-0.810482 -0.464010 15.892263
-0.803809 -0.443186 15.889538
-0.775244 -0.254048 15.875099
-0.774853 -0.232028 15.874362
-0.801959 -0.042207 15.877821
-0.808025 -0.021066 15.879187
-0.882999 0.154787 15.898438
-0.893796 0.173770 15.901386
-1.001186 0.330593 15.931598
-1.014922 0.347365 15.935553
-1.142506 0.486796 15.972746
-1.158047 0.501730 15.977334
-1.298413 0.626987 16.019033
-1.793750 -1.443130 16.235862
-1.769302 -1.428593 16.227591
-1.744854 -1.414055 16.219320
-1.720528 -1.399299 16.211081
-1.696373 -1.384237 16.202890
-1.672217 -1.369175 16.194698
-1.618148 -1.334719 16.176342
-1.594331 -1.319080 16.168243
-1.570514 -1.303440 16.160144
-1.546781 -1.287663 16.152069
-1.523358 -1.271385 16.144079
-1.499935 -1.255107 16.136089
-1.447541 -1.217930 16.118196
-1.424583 -1.200941 16.110337
-1.401625 -1.183953 16.102477
-1.378675 -1.166954 16.094619
-1.356271 -1.149172 16.086916
-1.333867 -1.131390 16.079213
-1.283784 -1.090876 16.061971
-1.262049 -1.072205 16.054458
-1.240314 -1.053534 16.046946
-1.218580 -1.034863 16.039433
-1.197508 -1.015380 16.032111
-1.176591 -0.995709 16.024834
-1.129836 -0.951039 16.008548
-1.109931 -0.930242 16.001565
-1.090027 -0.909445 15.994583
-1.070123 -0.888648 15.987600
-1.050995 -0.867080 15.980846
-1.032364 -0.845019 15.974238
-0.990635 -0.795159 15.959426
-0.973621 -0.771697 15.953299
-0.956607 -0.748235 15.947173
-0.939594 -0.724774 15.941047
-0.923431 -0.700689 15.935177
-0.908489 -0.675710 15.929676
-0.874848 -0.619469 15.917289
-0.862388 -0.593029 15.912546
-0.850095 -0.566490 15.907854
-0.837802 -0.539951 15.903161
-0.826215 -0.513103 15.898688
-0.817244 -0.485111 15.895024
-0.797047 -0.422085 15.886776
-0.791030 -0.393273 15.884041
-0.786049 -0.364172 15.881631
-0.781069 -0.335071 15.879221
-0.776165 -0.305962 15.876835
-0.775640 -0.276362 15.875845
-0.774457 -0.209715 15.873616
-0.776402 -0.180253 15.873425
-0.780398 -0.150905 15.873897
-0.784395 -0.121558 15.874369
-0.788392 -0.092211 15.874842
-0.795812 -0.063629 15.876437
-0.814172 0.000355 15.880571
-0.823566 0.028295 15.882819
-0.835245 0.055350 15.885827
-0.846924 0.082406 15.888836
-0.858603 0.109462 15.891844
-0.872059 0.135552 15.895451
-0.904736 0.193005 15.904374
-0.919590 0.218286 15.908453
-0.936324 0.242268 15.913173
-0.953058 0.266250 15.917894
-0.969793 0.290232 15.922614
-0.987267 0.313599 15.927590
-1.028840 0.364359 15.939561
-1.047304 0.386904 15.944878
-1.067060 0.408205 15.950645
-1.086878 0.429446 15.956434
-1.106697 0.450687 15.962223
-1.126759 0.471663 15.968098
-1.173794 0.516863 15.981982
-1.194684 0.536939 15.988148
-1.216222 0.556235 15.994544
-1.237972 0.575274 16.001016
-1.259722 0.594314 16.007488
-1.281491 0.613329 16.013966
28 NaN NaN
-1.821685 -1.459742 16.245313
-1.730578 -1.405566 16.214490
-1.640560 -1.349436 16.183963
-1.551803 -1.291154 16.153782
-1.464516 -1.230491 16.124008
-1.378963 -1.167183 16.094719
-1.295477 -1.100920 16.066012
-1.214483 -1.031344 16.038017
-1.136539 -0.958043 16.010899
-1.062372 -0.880550 15.984881
-0.992951 -0.798354 15.960260
-0.929565 -0.710944 15.937436
-0.873905 -0.617893 15.916942
-0.828120 -0.519048 15.899466
-0.794716 -0.414812 15.885824
-0.776174 -0.306471 15.876852
-0.774219 -0.196281 15.873167
-0.789098 -0.087027 15.874925
-0.819461 0.018787 15.881762
-0.862957 0.119550 15.892966
-0.917018 0.214601 15.907728
-0.979362 0.303946 15.925313
-1.048156 0.387945 15.945124
-1.122002 0.467091 15.966694
-1.199844 0.541898 15.989671
-1.280893 0.612847 16.013787
-1.364550 0.680366 16.038837
-1.450355 0.744829 16.064664
-2.143345 -1.563481 14.737045
-1.853180 -1.427274 14.767020
-1.570655 -1.276702 14.800797
-1.299927 -1.107007 14.839663
-1.049185 -0.910730 14.885664
-0.836569 -0.676541 14.942000
-0.703625 -0.394167 15.011998
-0.709572 -0.085795 15.090972
-0.848360 0.192975 15.164602
-1.060395 0.425974 15.227753
-1.308170 0.623752 15.282494
-2.141530 -1.562660 14.737224
-1.854969 -1.428147 14.766826
-1.851391 -1.426401 14.767213
-1.572389 -1.277674 14.800577
-1.568921 -1.275730 14.801016
-1.301574 -1.108113 14.839408
-1.298280 -1.105901 14.839919
-1.050678 -0.912025 14.885358
-1.047693 -0.909434 14.885970
-0.837753 -0.678108 14.941620
-0.835385 -0.674975 14.942381
-0.704155 -0.396037 15.011528
-0.703095 -0.392297 15.012467
-0.709135 -0.087684 15.090482
-0.710010 -0.083906 15.091463
-0.847244 0.191371 15.164174
-0.849475 0.194578 15.165031
-1.058953 0.424636 15.227387
-1.061836 0.427311 15.228119
-1.306565 0.622603 15.282173
-2.129942 -1.557423 14.738369
-1.866390 -1.433721 14.765592
-1.840057 -1.420661 14.768491
-1.583460 -1.283879 14.799176
-1.557934 -1.269386 14.802455
-1.312088 -1.115173 14.837778
-1.287825 -1.098762 14.841569
-1.060208 -0.920296 14.883402
-1.038163 -0.901164 14.887926
-0.845312 -0.688108 14.939189
-0.827827 -0.664975 14.944812
-0.707541 -0.407978 15.008530
-0.699708 -0.380355 15.015465
-0.706343 -0.099744 15.087351
-0.712802 -0.071846 15.094594
-0.840122 0.181133 15.161436
-0.856598 0.204816 15.167769
-1.049751 0.416098 15.225049
-1.071038 0.435849 15.230457
-1.296317 0.615267 15.280125
-2.099302 -1.543575 14.741398
-2.058477 -1.525124 14.745433
-2.017839 -1.506290 14.749569
-1.977291 -1.487271 14.753754
-1.936823 -1.468094 14.757981
-1.896588 -1.448458 14.762329
-1.810126 -1.405418 14.771888
-1.770246 -1.385109 14.776414
-1.730603 -1.364371 14.781054
-1.691130 -1.343324 14.785776
-1.651735 -1.322144 14.790533
-1.612732 -1.300285 14.795470
-1.529074 -1.252307 14.806340
-1.490620 -1.229549 14.811516
-1.452483 -1.206304 14.816822
-1.414675 -1.182548 14.822265
-1.376923 -1.158712 14.827729
-1.339885 -1.133840 14.833470
-1.260723 -1.079155 14.846130
-1.224613 -1.053030 14.852207
-1.188953 -1.026345 14.858435
-1.153977 -0.998807 14.864892
-1.119001 -0.971268 14.871350
-1.085403 -0.942164 14.878231
-1.014244 -0.877992 14.893452
-0.982443 -0.847047 14.900834
-0.951331 -0.815482 14.908386
-0.921788 -0.782504 14.916326
-0.892245 -0.749526 14.924266
-0.865295 -0.714548 14.932761
-0.810230 -0.637019 14.951668
-0.787387 -0.599388 14.960910
-0.765591 -0.561242 14.970302
-0.747611 -0.521225 14.980236
-0.729631 -0.481207 14.990170
-0.716494 -0.439550 15.000605
-0.694598 -0.348090 15.023632
-0.689737 -0.304746 15.034637
-0.685852 -0.261384 15.045663
-0.688507 -0.217892 15.056832
-0.691163 -0.174399 15.068001
-0.698960 -0.131629 15.079071
-0.723048 -0.040809 15.102705
-0.739118 -0.000171 15.113368
-0.755412 0.040366 15.124010
-0.776541 0.078752 15.134183
-0.797669 0.117138 15.144355
-0.821290 0.154065 15.154196
-0.876567 0.231069 15.174819
-0.904727 0.264935 15.183953
-0.932888 0.298802 15.193088
-0.963324 0.330757 15.201772
-0.993869 0.362622 15.210434
-1.025421 0.393525 15.218867
-1.095785 0.457980 15.236533
-1.129694 0.486473 15.244389
-1.163602 0.514966 15.252245
-1.198552 0.542247 15.259809
-1.233666 0.569337 15.267327
-1.269221 0.595870 15.274710
33 NaN NaN
-2.143799 -1.563686 14.737000
-2.045139 -1.519095 14.746751
-1.947148 -1.473133 14.756865
-1.849911 -1.425679 14.767373
-1.753534 -1.376598 14.778311
-1.658142 -1.325735 14.789722
-1.563887 -1.272909 14.801653
-1.470959 -1.217913 14.814163
-1.379592 -1.160504 14.827315
-1.290087 -1.100399 14.841189
-1.202825 -1.037267 14.855874
-1.118305 -0.970721 14.871478
-1.037185 -0.900314 14.888127
-0.960344 -0.825543 14.905964
-0.888964 -0.745863 14.925148
-0.824638 -0.660756 14.945838
-0.769462 -0.569858 14.968163
-0.726041 -0.473218 14.992154
-0.697241 -0.371654 15.017649
-0.685507 -0.267028 15.044213
-0.691918 -0.162042 15.071174
-0.715667 -0.059472 15.097807
-0.754474 0.038663 15.123559
-0.805509 0.131381 15.148130
-0.866125 0.218510 15.171432
-0.934163 0.300336 15.193501
-1.007967 0.377330 15.214432
-1.086301 0.450010 15.234335
-1.168241 0.518863 15.253320
-1.253096 0.584327 15.271487
-1.340341 0.646782 15.288924
-1.429571 0.706555 15.305708
-1.520472 0.763926 15.321906
-1.943827 -1.635582 14.304268
-1.819901 -1.560803 14.303132
-1.697493 -1.483559 14.302744
-1.576855 -1.403580 14.303197
-1.458755 -1.319916 14.304805
-1.343325 -1.232644 14.307570
-1.231108 -1.141328 14.311663
-1.123700 -1.044516 14.317623
-1.021825 -0.942057 14.325583
-0.926956 -0.833287 14.335894
-0.843208 -0.716152 14.349578
-0.773506 -0.590709 14.367032
-0.722023 -0.457432 14.388740
-0.698000 -0.317677 14.415700
-0.704122 -0.177002 14.447083
-0.738857 -0.041178 14.481422
-0.800874 0.084245 14.517326
-0.882287 0.198121 14.553443
-0.976736 0.301674 14.589145
-1.081469 0.395164 14.624105
-1.193356 0.480338 14.658263
-1.310120 0.559028 14.691697
-1.430948 0.631678 14.724389
-1.942111 -1.634556 14.304250
-1.821601 -1.561856 14.303141
-1.818200 -1.559750 14.303122
-1.699175 -1.484641 14.302744
-1.695811 -1.482477 14.302743
-1.578516 -1.404693 14.303188
-1.575193 -1.402466 14.303206
-1.460365 -1.321102 14.304773
-1.457145 -1.318730 14.304837
-1.344903 -1.233872 14.307525
-1.341747 -1.231416 14.307616
-1.232648 -1.142603 14.311603
-1.229569 -1.140053 14.311724
-1.125139 -1.045902 14.317524
-1.122261 -1.043130 14.317722
-1.023196 -0.943509 14.325460
-1.020455 -0.940606 14.325706
-0.928242 -0.834812 14.335743
-0.925671 -0.831762 14.336044
-0.844248 -0.717846 14.349356
-0.842168 -0.714458 14.349800
-0.774370 -0.592494 14.366766
-0.772642 -0.588925 14.367299
-0.722663 -0.459300 14.388424
-0.721383 -0.455564 14.389055
-0.698053 -0.319632 14.415283
-0.697947 -0.315722 14.416117
-0.703847 -0.178929 14.446626
-0.704397 -0.175074 14.447540
-0.738274 -0.043029 14.480939
-0.739440 -0.039327 14.481905
-0.799816 0.082624 14.516826
-0.801933 0.085867 14.517827
-0.881064 0.196618 14.552945
-0.883510 0.199623 14.553940
-0.975386 0.300282 14.588654
-0.978085 0.303066 14.589636
-1.079946 0.393957 14.623630
-1.082992 0.396370 14.624580
-1.191773 0.479209 14.657796
-1.194939 0.481468 14.658730
-1.308488 0.557966 14.691238
-1.311751 0.560090 14.692156
-1.429245 0.630728 14.723945
-1.936476 -1.631185 14.304192
-1.827183 -1.565313 14.303173
-1.812618 -1.556293 14.303090
-1.704698 -1.488193 14.302747
-1.690288 -1.478925 14.302740
-1.583971 -1.408348 14.303159
-1.569813 -1.398703 14.303268
-1.465652 -1.324995 14.304669
-1.451858 -1.314837 14.304941
-1.350084 -1.237904 14.307376
-1.336567 -1.227385 14.307765
-1.237704 -1.146789 14.311403
-1.224593 -1.135776 14.311955
-1.129862 -1.050452 14.317198
-1.117538 -1.038581 14.318047
-1.027695 -0.948274 14.325056
-1.015955 -0.935840 14.326109
-0.932461 -0.839818 14.335248
-0.921492 -0.826726 14.336552
-0.847663 -0.723407 14.348628
-0.838754 -0.708897 14.350528
-0.777206 -0.598351 14.365893
-0.769806 -0.583068 14.368172
-0.724766 -0.465434 14.387388
-0.719280 -0.449430 14.390092
-0.698228 -0.326052 14.413914
-0.697773 -0.309302 14.417485
-0.702945 -0.185258 14.445126
-0.705298 -0.168745 14.449039
-0.736361 -0.049106 14.479352
-0.741353 -0.033249 14.483492
-0.796341 0.077300 14.515184
-0.805408 0.091190 14.519469
-0.877049 0.191686 14.551312
-0.887526 0.204555 14.555573
-0.970956 0.295712 14.587042
-0.982515 0.307637 14.591249
-1.074947 0.389997 14.622070
-1.087992 0.400330 14.626140
-1.186576 0.475500 14.656263
-1.200136 0.485177 14.660263
-1.303133 0.554478 14.689730
-1.317106 0.563578 14.693663
-1.423654 0.627609 14.722485
-1.923727 -1.623559 14.304061
-1.906924 -1.613507 14.303888
-1.890121 -1.603456 14.303714
-1.873318 -1.593405 14.303541
-1.856516 -1.583353 14.303368
-1.839813 -1.573136 14.303245
-1.799988 -1.548470 14.303018
-1.783342 -1.538160 14.302923
-1.766696 -1.527850 14.302828
-1.750130 -1.517412 14.302772
-1.733662 -1.506820 14.302763
-1.717193 -1.496229 14.302754
-1.677793 -1.470889 14.302733
-1.661378 -1.460215 14.302749
-1.645112 -1.449316 14.302835
-1.628845 -1.438417 14.302921
-1.612579 -1.427517 14.303008
-1.596313 -1.416618 14.303094
-1.557647 -1.390177 14.303414
-1.541614 -1.378940 14.303606
-1.525580 -1.367702 14.303798
-1.509546 -1.356465 14.303990
-1.493512 -1.345228 14.304182
-1.477613 -1.333804 14.304433
-1.439897 -1.306028 14.305177
-1.424133 -1.294419 14.305487
-1.408369 -1.282809 14.305798
-1.392703 -1.271070 14.306150
-1.377254 -1.259048 14.306595
-1.361805 -1.247025 14.307039
-1.324845 -1.218263 14.308102
-1.309443 -1.206183 14.308565
-1.294368 -1.193702 14.309162
-1.279292 -1.181221 14.309758
-1.264217 -1.168740 14.310354
-1.249142 -1.156259 14.310950
-1.213494 -1.125918 14.312540
-1.198866 -1.112924 14.313310
-1.184238 -1.099931 14.314080
-1.169611 -1.086938 14.314850
-1.154983 -1.073944 14.315620
-1.140549 -1.060745 14.316462
-1.106851 -1.028287 14.318784
-1.092766 -1.014720 14.319754
-1.078681 -1.001153 14.320725
-1.064710 -0.987476 14.321736
-1.051293 -0.973266 14.322939
-1.037875 -0.959056 14.324143
-1.005775 -0.925059 14.327023
-0.992358 -0.910849 14.328226
-0.979761 -0.895931 14.329698
-0.967177 -0.881003 14.331175
-0.954593 -0.866074 14.332651
-0.942009 -0.851145 14.334128
-0.912744 -0.814795 14.337915
-0.901214 -0.799072 14.339712
-0.889684 -0.783348 14.341508
-0.878154 -0.767624 14.343305
-0.866625 -0.751900 14.345101
-0.855389 -0.735989 14.346980
-0.831027 -0.696315 14.352176
-0.820845 -0.679732 14.354347
-0.810662 -0.663150 14.356519
-0.800536 -0.646537 14.358705
-0.792079 -0.629071 14.361310
-0.783622 -0.611604 14.363916
-0.763390 -0.569815 14.370149
-0.754933 -0.552348 14.372754
-0.748332 -0.534183 14.375771
-0.742062 -0.515892 14.378862
-0.735792 -0.497602 14.381952
-0.729523 -0.479311 14.385043
-0.716304 -0.435141 14.392775
-0.712712 -0.416233 14.396375
-0.709120 -0.397324 14.399975
-0.705528 -0.378415 14.403575
-0.701936 -0.359507 14.407174
-0.698622 -0.340577 14.410818
-0.697378 -0.294777 14.420582
-0.696858 -0.275634 14.424663
-0.696338 -0.256490 14.428744
-0.695818 -0.237347 14.432825
-0.698216 -0.218450 14.437261
-0.700905 -0.199577 14.441733
-0.707339 -0.154426 14.452432
-0.710028 -0.135554 14.456904
-0.714913 -0.117227 14.461565
-0.720619 -0.099103 14.466297
-0.726325 -0.080980 14.471029
-0.732031 -0.062857 14.475761
-0.747093 -0.020079 14.487154
-0.755382 -0.003019 14.492017
-0.763671 0.014040 14.496880
-0.771961 0.031100 14.501744
-0.780250 0.048160 14.506607
-0.788540 0.065220 14.511470
-0.813272 0.103235 14.523184
-0.823635 0.119110 14.528081
-0.833999 0.134985 14.532977
-0.844362 0.150861 14.537874
-0.855990 0.165819 14.542749
-0.867964 0.180527 14.547618
-0.896611 0.215714 14.559267
-0.908584 0.230422 14.564136
-0.921300 0.244483 14.568969
-0.934511 0.258112 14.573777
-0.947722 0.271742 14.578585
-0.960933 0.285371 14.583393
-0.992933 0.317578 14.594866
-1.007098 0.330241 14.599598
-1.021263 0.342905 14.604330
-1.035428 0.355568 14.609063
-1.049593 0.368231 14.613795
-1.063758 0.380895 14.618527
-1.099303 0.409291 14.629669
-1.114212 0.421102 14.634321
-1.129121 0.432912 14.638972
-1.144030 0.444723 14.643624
-1.159320 0.456047 14.648223
-1.174818 0.467108 14.652795
-1.211894 0.493569 14.663731
-1.227392 0.504630 14.668302
-1.243107 0.515386 14.672838
-1.259077 0.525786 14.677332
-1.275046 0.536187 14.681826
-1.291016 0.546587 14.686321
-1.329328 0.571309 14.697053
-1.345683 0.581127 14.701474
-1.362038 0.590944 14.705896
-1.378392 0.600761 14.710317
-1.394747 0.610578 14.714739
-1.411101 0.620395 14.719160
31 NaN NaN
-1.944256 -1.635839 14.304272
-1.850497 -1.579753 14.303306
-1.757613 -1.522224 14.302776
-1.665719 -1.463124 14.302726
-1.574955 -1.402307 14.303207
-1.485488 -1.339604 14.304278
-1.397526 -1.274823 14.306012
-1.311325 -1.207741 14.308491
-1.227209 -1.138100 14.311818
-1.145590 -1.065601 14.316114
-1.067002 -0.989903 14.321530
-0.992142 -0.910620 14.328246
-0.921937 -0.827332 14.336483
-0.857616 -0.739615 14.346505
-0.800816 -0.647116 14.358619
-0.753651 -0.549701 14.373149
-0.718692 -0.447716 14.390381
-0.698669 -0.342307 14.410449
-0.695771 -0.235609 14.433195
-0.710760 -0.130419 14.458121
-0.742568 -0.029391 14.484499
-0.788789 0.065732 14.511616
-0.846587 0.154269 14.538925
-0.913377 0.236310 14.566085
-0.987076 0.312341 14.592909
-1.066103 0.382991 14.619311
-1.149285 0.448885 14.645263
-1.235752 0.510597 14.670768
-1.324858 0.568626 14.695844
-1.416113 0.623403 14.720515
-1.509141 0.675292 14.744808
-1.612468 -1.736401 13.405297
-1.501273 -1.639413 13.417015
-1.392717 -1.539551 13.429273
-1.287531 -1.436230 13.442187
-1.186557 -1.328890 13.455874
-1.090090 -1.217583 13.470334
-1.000139 -1.101097 13.485825
-0.917505 -0.979465 13.502368
-0.843936 -0.852323 13.520077
-0.783619 -0.718620 13.539254
-0.737611 -0.579575 13.559741
-0.711448 -0.435771 13.581626
-0.708301 -0.289838 13.604596
-0.728002 -0.145268 13.628094
-0.774577 -0.006961 13.651475
-0.840985 0.123121 13.674202
-0.924499 0.243188 13.695901
-1.022065 0.352484 13.716354
-1.128858 0.453033 13.735725
-1.243678 0.544578 13.753932
-1.364081 0.628875 13.771176
-1.488662 0.707065 13.787590
-1.610958 -1.735098 13.405454
-1.502757 -1.640745 13.416853
-1.499790 -1.638082 13.417177
-1.394171 -1.540914 13.429105
-1.391264 -1.538187 13.429441
-1.288912 -1.437665 13.442005
-1.286150 -1.434796 13.442369
-1.187894 -1.330365 13.455684
-1.185220 -1.327415 13.456063
-1.091376 -1.219102 13.470136
-1.088803 -1.216064 13.470532
-1.001296 -1.102714 13.485607
-0.998982 -1.099480 13.486043
-0.918580 -0.981136 13.502139
-0.916431 -0.977794 13.502597
-0.844796 -0.854110 13.519822
-0.843076 -0.850535 13.520332
-0.784339 -0.720466 13.538985
-0.782898 -0.716774 13.539522
-0.738166 -0.581476 13.559458
-0.737056 -0.577675 13.560023
-0.711593 -0.437742 13.581319
-0.711303 -0.433800 13.581933
-0.708208 -0.291811 13.604281
-0.708394 -0.287865 13.604911
-0.727664 -0.147213 13.627775
-0.728340 -0.143323 13.628412
-0.773782 -0.008770 13.651163
-0.775372 -0.005152 13.651787
-0.840000 0.121408 13.673899
-0.841971 0.124835 13.674505
-0.923220 0.241676 13.695620
-0.925778 0.244700 13.696181
-1.020678 0.351068 13.716085
-1.023451 0.353901 13.716623
-1.127384 0.451706 13.735467
-1.130332 0.454360 13.735982
-1.242074 0.543407 13.753695
-1.245282 0.545748 13.754170
-1.362429 0.627771 13.770948
-1.365733 0.629979 13.771404
-1.486936 0.706077 13.787378
-1.605915 -1.730749 13.405978
-1.507712 -1.645193 13.416311
-1.494835 -1.633634 13.417719
-1.399026 -1.545468 13.428542
-1.386408 -1.533633 13.430003
-1.293527 -1.442458 13.441397
-1.281535 -1.430003 13.442977
-1.192361 -1.335292 13.455050
-1.180753 -1.322487 13.456697
-1.095672 -1.224175 13.469474
-1.084507 -1.210992 13.471195
-1.005161 -1.108114 13.484879
-0.995117 -1.094080 13.486771
-0.922170 -0.986718 13.501373
-0.912841 -0.972212 13.503363
-0.847781 -0.860024 13.518984
-0.840204 -0.844563 13.521182
-0.786746 -0.726633 13.538089
-0.780491 -0.710606 13.540419
-0.740022 -0.587824 13.558515
-0.735200 -0.571327 13.560967
-0.712076 -0.444326 13.580294
-0.710821 -0.427216 13.582958
-0.707898 -0.298401 13.603229
-0.708705 -0.281275 13.605963
-0.726534 -0.153711 13.626711
-0.730213 -0.137001 13.629473
-0.771127 -0.014811 13.650122
-0.778027 0.000889 13.652829
-0.836708 0.115683 13.672886
-0.845263 0.130559 13.675517
-0.918949 0.236625 13.694683
-0.930049 0.249751 13.697119
-1.016047 0.346338 13.715187
-1.028083 0.358631 13.717522
-1.122460 0.447274 13.734606
-1.135256 0.458792 13.736843
-1.236716 0.539496 13.752903
-1.250640 0.549660 13.754962
-1.356910 0.624085 13.770186
-1.371253 0.633665 13.772167
-1.481248 0.702650 13.786651
-1.594436 -1.720848 13.407170
-1.579300 -1.707794 13.408742
-1.564164 -1.694739 13.410313
-1.549028 -1.681685 13.411885
-1.533893 -1.668630 13.413457
-1.518989 -1.655317 13.415077
-1.483557 -1.623509 13.418953
-1.468687 -1.610160 13.420580
-1.453817 -1.596810 13.422207
-1.439220 -1.583169 13.423889
-1.424649 -1.569502 13.425576
-1.410077 -1.555834 13.427263
-1.375357 -1.523268 13.431283
-1.361110 -1.509270 13.433032
-1.346876 -1.495259 13.434785
-1.332643 -1.481247 13.436537
-1.318410 -1.467236 13.438289
-1.304176 -1.453224 13.440042
-1.271033 -1.419094 13.444360
-1.257185 -1.404711 13.446183
-1.243338 -1.390327 13.448007
-1.229490 -1.375943 13.449831
-1.215933 -1.361293 13.451706
-1.202528 -1.346506 13.453608
-1.170586 -1.311273 13.458140
-1.157181 -1.296486 13.460041
-1.144133 -1.281393 13.462003
-1.131239 -1.266169 13.463991
-1.118345 -1.250944 13.465979
-1.105451 -1.235720 13.467966
-1.075170 -1.199095 13.472772
-1.062872 -1.183398 13.474854
-1.050573 -1.167701 13.476935
-1.038275 -1.152004 13.479017
-1.025976 -1.136307 13.481099
-1.013958 -1.120405 13.483222
-0.986320 -1.081789 13.488428
-0.974720 -1.065582 13.490614
-0.963121 -1.049375 13.492799
-0.951888 -1.032927 13.495034
-0.941114 -1.016175 13.497332
-0.930341 -0.999423 13.499630
-0.904670 -0.959507 13.505106
-0.894373 -0.942476 13.507464
-0.884582 -0.925148 13.509885
-0.874790 -0.907821 13.512306
-0.864999 -0.890493 13.514727
-0.855207 -0.873166 13.517148
-0.833666 -0.830972 13.523118
-0.825046 -0.813052 13.525671
-0.816426 -0.795131 13.528224
-0.807805 -0.777210 13.530777
-0.799447 -0.759179 13.533356
-0.792224 -0.740670 13.536048
-0.775013 -0.696570 13.542460
-0.767790 -0.678061 13.545152
-0.760949 -0.659427 13.547875
-0.755381 -0.640376 13.550706
-0.749813 -0.621324 13.553537
-0.744245 -0.602273 13.556368
-0.731506 -0.556757 13.563150
-0.727868 -0.537264 13.566113
-0.724230 -0.517772 13.569077
-0.720592 -0.498279 13.572041
-0.716954 -0.478786 13.575004
-0.713316 -0.459294 13.577968
-0.709721 -0.412231 13.585291
-0.708272 -0.392472 13.588368
-0.706823 -0.372713 13.591445
-0.705374 -0.352954 13.594522
-0.706258 -0.333177 13.597677
-0.707191 -0.313400 13.600835
-0.709412 -0.266276 13.608357
-0.710405 -0.246505 13.611515
-0.713795 -0.227004 13.614709
-0.717184 -0.207503 13.617902
-0.720574 -0.188002 13.621096
-0.723964 -0.168501 13.624289
-0.734594 -0.122642 13.631885
-0.740372 -0.103708 13.635067
-0.746150 -0.084775 13.638248
-0.751927 -0.065841 13.641429
-0.757705 -0.046908 13.644611
-0.765085 -0.028561 13.647751
-0.784069 0.014639 13.655199
-0.792037 0.032770 13.658325
-0.800004 0.050901 13.661450
-0.809455 0.068294 13.664508
-0.819335 0.085474 13.667545
-0.829215 0.102654 13.670583
-0.852756 0.143589 13.677820
-0.863956 0.159938 13.680769
-0.875446 0.176105 13.683699
-0.886937 0.192272 13.686629
-0.898428 0.208438 13.689559
-0.909918 0.224605 13.692488
-0.939770 0.261247 13.699253
-0.952588 0.276405 13.702066
-0.965405 0.291563 13.704879
-0.978223 0.306721 13.707693
-0.991607 0.321376 13.710445
-1.005506 0.335572 13.713142
-1.038624 0.369397 13.719567
-1.052523 0.383593 13.722263
-1.066919 0.397283 13.724896
-1.081697 0.410584 13.727479
-1.096475 0.423885 13.730063
-1.111252 0.437187 13.732647
-1.146898 0.468382 13.738738
-1.162392 0.480864 13.741215
-1.177885 0.493346 13.743693
-1.193378 0.505828 13.746170
-1.208872 0.518310 13.748647
-1.224521 0.530594 13.751098
-1.262834 0.558561 13.756766
-1.278914 0.570299 13.759145
-1.294993 0.582037 13.761524
-1.311222 0.593567 13.763875
-1.327785 0.604630 13.766163
-1.344349 0.615694 13.768450
-1.383814 0.642056 13.773902
-1.400518 0.652906 13.776161
-1.417484 0.663360 13.778365
-1.434450 0.673814 13.780570
-1.451416 0.684268 13.782774
-1.468382 0.694721 13.784979
31 NaN NaN
-1.612845 -1.736726 13.405258
-1.532003 -1.667000 13.413653
-1.452578 -1.595699 13.422343
-1.374750 -1.522698 13.431353
-1.298728 -1.447861 13.440712
-1.224766 -1.371037 13.450453
-1.153167 -1.292059 13.460611
-1.084300 -1.210748 13.471226
-1.018616 -1.126912 13.482345
-0.956665 -1.040356 13.494015
-0.899128 -0.950890 13.506288
-0.846837 -0.858354 13.519218
-0.800804 -0.762654 13.532851
-0.762234 -0.663823 13.547222
-0.732504 -0.562101 13.562338
-0.713081 -0.458034 13.578159
-0.705344 -0.352555 13.594584
-0.710322 -0.246984 13.611437
-0.728415 -0.142891 13.628483
-0.759257 -0.041823 13.645465
-0.801791 0.054967 13.662151
-0.854539 0.146689 13.678369
-0.915893 0.233011 13.694012
-0.984339 0.313954 13.709035
-1.058564 0.389763 13.723435
-1.137485 0.460798 13.737233
-1.220229 0.527461 13.750464
-1.306106 0.590149 13.763168
-1.394569 0.649240 13.775388
-1.485183 0.705074 13.787162
-1.577602 0.757957 13.798529
-1.378938 -1.775949 12.471468
-1.142835 -1.511828 12.483646
-0.932670 -1.226914 12.498715
-0.763720 -0.916258 12.517759
-0.665957 -0.577469 12.542282
-0.677201 -0.226563 12.572565
-0.814662 0.096344 12.605950
-1.046281 0.361482 12.638516
-1.328009 0.573869 12.668778
-1.377565 -1.774497 12.471531
-1.144099 -1.513376 12.483569
-1.141572 -1.510279 12.483722
-0.933770 -1.228581 12.498621
-0.931569 -1.225246 12.498809
-0.764452 -0.918115 12.517633
-0.762989 -0.914401 12.517885
-0.666217 -0.579446 12.542125
-0.665696 -0.575492 12.542439
-0.676818 -0.228517 12.572383
-0.677585 -0.224608 12.572748
-0.813508 0.094721 12.605762
-0.815816 0.097967 12.606137
-1.044795 0.360155 12.638339
-1.047767 0.362809 12.638693
-1.326339 0.572780 12.668613
-1.368011 -1.764396 12.471974
-1.152885 -1.524147 12.483036
-1.132786 -1.499508 12.484256
-0.941424 -1.240178 12.497969
-0.923916 -1.213650 12.499461
-0.770261 -0.930725 12.516815
-0.757899 -0.901485 12.518761
-0.668030 -0.593194 12.541037
-0.663884 -0.561744 12.543527
-0.674150 -0.242110 12.571113
-0.680253 -0.211015 12.574018
-0.806212 0.082968 12.604447
-0.823842 0.109252 12.607444
-1.034461 0.350927 12.637106
-1.058102 0.372038 12.639925
-1.314727 0.565208 12.667466
-1.342437 -1.737355 12.473160
-1.308334 -1.701297 12.474742
-1.274993 -1.664538 12.476416
-1.241696 -1.627738 12.478095
-1.209132 -1.590296 12.479861
-1.176743 -1.552701 12.481647
-1.109266 -1.470674 12.485683
-1.078690 -1.431605 12.487673
-1.048493 -1.392239 12.489705
-1.019016 -1.352343 12.491813
-0.990155 -1.311994 12.493986
-0.961913 -1.271223 12.496222
-0.904153 -1.182151 12.501278
-0.878615 -1.139639 12.503779
-0.853640 -1.096810 12.506332
-0.830182 -1.053128 12.509023
-0.807051 -1.009282 12.511741
-0.786027 -0.964390 12.514641
-0.744274 -0.866909 12.521105
-0.726115 -0.820799 12.524232
-0.711290 -0.773527 12.527603
-0.696466 -0.726256 12.530973
-0.685015 -0.678092 12.534565
-0.674082 -0.629791 12.538192
-0.659031 -0.524939 12.546442
-0.656240 -0.475578 12.550512
-0.654767 -0.426117 12.554647
-0.656541 -0.376748 12.558916
-0.660474 -0.327440 12.563274
-0.667008 -0.278498 12.567713
-0.689981 -0.175296 12.577473
-0.705000 -0.128196 12.582124
-0.721739 -0.081752 12.586794
-0.741888 -0.036613 12.591501
-0.762951 0.008060 12.596209
-0.787672 0.050866 12.600917
-0.845329 0.139464 12.610942
-0.874208 0.179574 12.615601
-0.906154 0.217312 12.620192
-0.938099 0.255049 12.624783
-0.972582 0.290482 12.629288
-1.007246 0.325750 12.633787
-1.085769 0.396743 12.643224
-1.124124 0.427963 12.647539
-1.162841 0.458756 12.651835
-1.202556 0.488238 12.656062
-1.242771 0.517062 12.660255
-1.283641 0.544937 12.664396
30 NaN NaN
-1.379282 -1.776312 12.471452
-1.306423 -1.699276 12.474830
-1.235288 -1.620656 12.478418
-1.166090 -1.540336 12.482235
-1.099084 -1.458193 12.486301
-1.034572 -1.374091 12.490642
-0.972914 -1.287892 12.495284
-0.914546 -1.199452 12.500260
-0.859990 -1.108634 12.505603
-0.809878 -1.015318 12.511352
-0.764967 -0.919421 12.517545
-0.726157 -0.820934 12.524223
-0.694493 -0.719964 12.531422
-0.671142 -0.616802 12.539167
-0.657324 -0.511987 12.547467
-0.654179 -0.406363 12.556299
-0.662577 -0.301074 12.565604
-0.682912 -0.197464 12.575284
-0.714983 -0.096888 12.585216
-0.758010 -0.000495 12.595268
-0.810805 0.090922 12.605322
-0.871999 0.176964 12.615284
-0.940232 0.257568 12.625089
-1.014276 0.332903 12.634700
-1.093084 0.403276 12.644096
-1.175793 0.469057 12.653271
-1.261705 0.530633 12.662229
-1.350260 0.588378 12.670976
-1.441012 0.642642 12.679522
-1.533600 0.693742 12.687880
-1.198657 -1.731712 11.038139
-1.007701 -1.461270 11.022789
-0.842654 -1.174128 11.013325
-0.716279 -0.868064 11.012217
-0.648838 -0.544488 11.023039
-0.665821 -0.215891 11.049520
-0.780154 0.090662 11.092077
-0.975198 0.351905 11.146035
-1.221467 0.564787 11.205833
-1.497089 0.737644 11.268101
-1.197462 -1.730112 11.038036
-1.008763 -1.462963 11.022861
-1.006638 -1.459577 11.022717
-0.843523 -1.175929 11.013354
-0.841785 -1.172327 11.013295
-0.716856 -0.869979 11.012186
-0.715701 -0.866149 11.012249
-0.648981 -0.546479 11.022923
-0.648696 -0.542496 11.023155
-0.665396 -0.217834 11.049305
-0.666247 -0.213949 11.049736
-0.779179 0.088942 11.091777
-0.781130 0.092383 11.092376
-0.973838 0.350481 11.145687
-0.976559 0.353329 11.146383
-1.219879 0.563629 11.205463
-1.223054 0.565945 11.206203
-1.495370 0.736694 11.267722
-1.189632 -1.719628 11.037364
-1.015897 -1.473939 11.023372
-0.999679 -1.448485 11.022246
-0.849216 -1.187729 11.013545
-0.836092 -1.160527 11.013104
-0.720639 -0.882522 11.011978
-0.711918 -0.853606 11.012457
-0.649914 -0.559527 11.022163
-0.647762 -0.529449 11.023915
-0.662608 -0.230558 11.047893
-0.669034 -0.201224 11.051147
-0.772789 0.077673 11.089817
-0.787520 0.103652 11.094337
-0.964925 0.341151 11.143407
-0.985472 0.362659 11.148663
-1.209477 0.556040 11.203037
-1.233457 0.573534 11.208629
-1.484109 0.730474 11.265238
-1.168849 -1.691800 11.035579
-1.141152 -1.654714 11.033200
-1.114142 -1.617116 11.030982
-1.087353 -1.579355 11.028816
-1.061001 -1.541287 11.026751
-1.035232 -1.502810 11.024821
-0.981207 -1.419046 11.020994
-0.956588 -1.379811 11.019326
-0.933168 -1.339840 11.017928
-0.909852 -1.299806 11.016554
-0.887412 -1.259278 11.015373
-0.865579 -1.218406 11.014326
-0.820982 -1.129208 11.012596
-0.801007 -1.087393 11.011954
-0.782815 -1.044765 11.011692
-0.764622 -1.002136 11.011431
-0.748116 -0.958838 11.011523
-0.732161 -0.915322 11.011730
-0.701877 -0.820315 11.013008
-0.689225 -0.775755 11.013888
-0.678793 -0.730614 11.015212
-0.668362 -0.685473 11.016537
-0.661014 -0.639761 11.018461
-0.653941 -0.593997 11.020438
-0.645286 -0.494819 11.025933
-0.643695 -0.448641 11.028933
-0.644544 -0.402427 11.032379
-0.645762 -0.356244 11.035889
-0.651048 -0.310391 11.040112
-0.656333 -0.264539 11.044336
-0.676433 -0.167450 11.054894
-0.688912 -0.123205 11.060307
-0.703303 -0.079519 11.066027
-0.718764 -0.036270 11.071909
-0.737451 0.005664 11.078283
-0.756139 0.047597 11.084657
-0.804482 0.133563 11.099542
-0.829656 0.171750 11.106824
-0.855715 0.209358 11.114226
-0.883003 0.246005 11.121782
-0.912029 0.281295 11.129556
-0.941268 0.316389 11.137355
-1.009128 0.387422 11.154714
-1.042556 0.418434 11.162982
-1.076174 0.449245 11.171270
-1.110798 0.478866 11.179655
-1.146153 0.507619 11.188111
-1.181867 0.535897 11.196598
-1.261153 0.593550 11.215075
-1.299147 0.618638 11.223748
-1.337142 0.643726 11.232422
-1.375881 0.667618 11.241145
-1.414876 0.691095 11.249885
-1.454219 0.713964 11.258645
29 NaN NaN
-1.198956 -1.732112 11.038165
-1.134426 -1.645709 11.032622
-1.072016 -1.557734 11.027576
-1.011981 -1.468092 11.023079
-0.954627 -1.376685 11.019194
-0.900308 -1.283418 11.015991
-0.849444 -1.188201 11.013553
-0.802530 -1.090962 11.011975
-0.760149 -0.991654 11.011367
-0.722980 -0.890283 11.011849
-0.691807 -0.786929 11.013560
-0.667508 -0.681781 11.016645
-0.651034 -0.575188 11.021251
-0.643346 -0.467693 11.027513
-0.645322 -0.360065 11.035537
-0.657630 -0.253280 11.045373
-0.680594 -0.148457 11.057001
-0.714106 -0.046721 11.070321
-0.757627 0.050936 11.085164
-0.810274 0.143778 11.101319
-0.870968 0.231372 11.118558
-0.938575 0.313570 11.136666
-1.012016 0.390444 11.155453
-1.090329 0.462218 11.174759
-1.172689 0.529201 11.194458
-1.258409 0.591738 11.214449
-1.346923 0.650184 11.234655
-1.437771 0.704879 11.255016
-1.530576 0.756141 11.275488
-0.960738 -1.620759 8.643527
-0.877269 -1.412869 8.689318
-0.809389 -1.199679 8.736338
-0.760021 -0.981737 8.784476
-0.732379 -0.760212 8.833484
-0.729649 -0.537100 8.882931
-0.754552 -0.315319 8.932180
-0.809191 -0.098719 8.980383
-0.892044 0.109121 9.026743
-1.000750 0.305269 9.070602
-1.131830 0.487950 9.111553
-1.281443 0.656568 9.149452
-0.959972 -1.618954 8.643924
-0.877916 -1.414717 8.688910
-0.876622 -1.411021 8.689725
-0.809896 -1.201569 8.735921
-0.808882 -1.197790 8.736755
-0.760364 -0.983661 8.784051
-0.759678 -0.979813 8.784901
-0.732533 -0.762159 8.833053
-0.732224 -0.758265 8.833915
-0.729592 -0.539052 8.882498
-0.729706 -0.535148 8.883364
-0.754149 -0.317231 8.931754
-0.754955 -0.313407 8.932605
-0.808555 -0.100569 8.979971
-0.809828 -0.096868 8.980796
-0.891188 0.107357 9.026349
-0.892900 0.110885 9.027137
-0.999698 0.303609 9.070230
-1.001802 0.306928 9.070973
-1.130610 0.486403 9.111206
-1.133049 0.489496 9.111900
-1.280085 0.655135 9.149130
-0.956333 -1.610380 8.645812
-0.880990 -1.423500 8.686974
-0.873549 -1.402238 8.691661
-0.812304 -1.210547 8.733939
-0.806474 -1.188812 8.738737
-0.761994 -0.992804 8.782030
-0.758048 -0.970670 8.786922
-0.733267 -0.771411 8.831005
-0.731490 -0.749013 8.835964
-0.729320 -0.548327 8.880442
-0.729978 -0.525873 8.885421
-0.752783 -0.326413 8.929714
-0.756872 -0.304320 8.934626
-0.805530 -0.109364 8.978011
-0.812852 -0.088073 8.982756
-0.887119 0.098974 9.024477
-0.896969 0.119268 9.029010
-0.994698 0.295722 9.068464
-1.006803 0.314816 9.072739
-1.124814 0.479053 9.109557
-1.138845 0.496846 9.113550
-1.273631 0.648328 9.147598
-0.947215 -1.588898 8.650542
-0.935111 -1.560377 8.656822
-0.923006 -1.531857 8.663102
-0.911621 -1.503058 8.669446
-0.900418 -1.474188 8.675806
-0.889216 -1.445319 8.682166
-0.865849 -1.380235 8.696512
-0.855626 -1.351022 8.702952
-0.845787 -1.321688 8.709420
-0.836627 -1.292141 8.715937
-0.827466 -1.262595 8.722455
-0.818336 -1.233039 8.728974
-0.800442 -1.166319 8.743702
-0.792432 -1.136456 8.750293
-0.785576 -1.106323 8.756949
-0.778812 -1.076169 8.763609
-0.772048 -1.046015 8.770270
-0.766077 -1.015709 8.776967
-0.753964 -0.947765 8.791986
-0.749249 -0.917251 8.798733
-0.745269 -0.886630 8.805507
-0.741288 -0.856008 8.812281
-0.737547 -0.825363 8.819061
-0.735106 -0.794589 8.825874
-0.729741 -0.725830 8.841097
-0.728931 -0.694975 8.847933
-0.728121 -0.664121 8.854770
-0.727311 -0.633266 8.861606
-0.727735 -0.602415 8.868447
-0.728639 -0.571564 8.875288
-0.731763 -0.502699 8.890564
-0.734450 -0.471948 8.897390
-0.737136 -0.441198 8.904216
-0.740344 -0.410506 8.911030
-0.744862 -0.379962 8.917817
-0.749380 -0.349419 8.924603
-0.761674 -0.281554 8.939689
-0.768049 -0.251329 8.946411
-0.774424 -0.221104 8.953133
-0.782377 -0.191246 8.959780
-0.790608 -0.161452 8.966412
-0.798840 -0.131659 8.973045
-0.820430 -0.066041 8.987666
-0.830490 -0.036789 8.994185
-0.841286 -0.007802 9.000648
-0.853121 0.020808 9.007032
-0.864956 0.049419 9.013415
-0.876926 0.077972 9.019786
-0.907162 0.140269 9.033701
-0.920695 0.168152 9.039928
-0.935798 0.195254 9.045989
-0.950934 0.222339 9.052045
-0.966070 0.249424 9.058102
-0.982170 0.275961 9.064041
-1.019330 0.334576 9.077163
-1.036713 0.360330 9.082933
-1.054726 0.385680 9.088615
-1.072740 0.411030 9.094297
-1.091017 0.436192 9.099938
-1.110294 0.460639 9.105424
-1.153489 0.515162 9.117661
-1.173915 0.538703 9.122950
-1.194342 0.562244 9.128240
-1.214768 0.585785 9.133529
-1.235998 0.608631 9.138668
-1.257464 0.631273 9.143762
27 NaN NaN
-0.960929 -1.621210 8.643427
-0.920558 -1.526091 8.664371
-0.883197 -1.429809 8.685583
-0.849103 -1.332381 8.707061
-0.818552 -1.233842 8.728797
-0.791841 -1.134249 8.750780
-0.769282 -1.033686 8.772993
-0.751201 -0.932268 8.795411
-0.737927 -0.830149 8.818001
-0.729785 -0.727523 8.840722
-0.727084 -0.624628 8.863520
-0.730099 -0.521747 8.886336
-0.739058 -0.419202 8.909098
-0.754124 -0.317347 8.931729
-0.775384 -0.216554 8.954145
-0.802834 -0.117202 8.976264
-0.836383 -0.019655 8.998004
-0.875849 0.075754 9.019291
-0.920979 0.168737 9.040059
-0.971455 0.259060 9.060257
-1.026921 0.346549 9.079844
-1.086992 0.431088 9.098793
-1.151281 0.512617 9.117089
-1.219402 0.591124 9.134729
-1.290988 0.666637 9.151717
-1.365695 0.739212 9.168066
-1.443203 0.808932 9.183791
-0.945376 -1.331130 5.766065
-0.861846 -1.166248 5.804244
-0.790420 -0.995996 5.843175
-0.734141 -0.820338 5.882767
-0.697592 -0.639635 5.922790
-0.686888 -0.455658 5.962660
-0.705331 -0.272234 6.001448
-0.755698 -0.094378 6.037984
-0.839348 0.071340 6.070812
-0.950546 0.220819 6.099240
-1.082498 0.353304 6.123331
-1.229798 0.469478 6.143412
-1.388763 0.569854 6.159713
-0.944462 -1.329397 5.766467
-0.862692 -1.168014 5.803836
-0.861000 -1.164482 5.804651
-0.791099 -0.997830 5.842759
-0.789741 -0.994161 5.843592
-0.734600 -0.822238 5.882344
-0.733683 -0.818438 5.883190
-0.697915 -0.641562 5.922365
-0.697269 -0.637707 5.923214
-0.686885 -0.457613 5.962241
-0.686892 -0.453702 5.963080
-0.704937 -0.274154 6.001049
-0.705724 -0.270314 6.001848
-0.754900 -0.096176 6.037624
-0.756496 -0.092579 6.038344
-0.838364 0.069631 6.070477
-0.840332 0.073049 6.071146
-0.949253 0.219319 6.098960
-0.951840 0.222318 6.099519
-1.080984 0.352017 6.123105
-1.084011 0.354592 6.123558
-1.228202 0.468289 6.143209
-1.231459 0.470577 6.143593
-1.387048 0.568839 6.159551
-0.940758 -1.322373 5.768099
-0.866120 -1.175172 5.802185
-0.857571 -1.157324 5.806302
-0.793852 -1.005266 5.841071
-0.786988 -0.986725 5.845280
-0.736459 -0.829940 5.880628
-0.731824 -0.810736 5.884906
-0.699226 -0.649375 5.920643
-0.695988 -0.629891 5.924936
-0.686871 -0.465539 5.960539
-0.686906 -0.445776 5.964782
-0.703343 -0.281936 5.999430
-0.707319 -0.262532 6.003466
-0.751667 -0.103466 6.036165
-0.759731 -0.085290 6.039803
-0.834375 0.062705 6.069121
-0.844321 0.079975 6.072502
-0.944010 0.213240 6.097828
-0.957083 0.228397 6.100651
-1.074849 0.346797 6.122187
-1.090146 0.359812 6.124476
-1.221737 0.463467 6.142387
-1.238194 0.475030 6.144326
-1.380094 0.564724 6.158898
-0.931826 -1.305432 5.772033
-0.919997 -1.282998 5.777243
-0.908169 -1.260565 5.782453
-0.896341 -1.238132 5.787662
-0.885340 -1.215296 5.792931
-0.874390 -1.192436 5.798204
-0.849312 -1.140056 5.810284
-0.839366 -1.116755 5.815618
-0.829421 -1.093454 5.820952
-0.819475 -1.070153 5.826286
-0.809530 -1.046852 5.831620
-0.800492 -1.023199 5.836999
-0.780348 -0.968792 5.849352
-0.771556 -0.945044 5.854743
-0.763899 -0.920922 5.860178
-0.756434 -0.896736 5.865620
-0.748969 -0.872550 5.871062
-0.741504 -0.848364 5.876504
-0.727340 -0.792160 5.889044
-0.721402 -0.767563 5.894524
-0.715465 -0.742966 5.900004
-0.710756 -0.718120 5.905496
-0.706571 -0.693169 5.910994
-0.702386 -0.668218 5.916492
-0.694333 -0.610855 5.929079
-0.692142 -0.585648 5.934566
-0.689951 -0.560441 5.940053
-0.687760 -0.535234 5.945539
-0.686794 -0.509969 5.950998
-0.686838 -0.484656 5.956434
-0.686939 -0.426660 5.968887
-0.688495 -0.401409 5.974259
-0.690988 -0.376197 5.979592
-0.693481 -0.350985 5.984925
-0.695975 -0.325773 5.990258
-0.699497 -0.300704 5.995526
-0.711165 -0.243764 6.007370
-0.716258 -0.218912 6.012540
-0.722585 -0.194361 6.017604
-0.730329 -0.170155 6.022547
-0.738074 -0.145950 6.027490
-0.745818 -0.121745 6.032433
-0.767532 -0.067711 6.043320
-0.777862 -0.044432 6.047979
-0.788192 -0.021154 6.052637
-0.799279 0.001761 6.057192
-0.812017 0.023881 6.061522
-0.824755 0.046000 6.065852
-0.854766 0.096175 6.075636
-0.869655 0.116979 6.079612
-0.884544 0.137783 6.083588
-0.899432 0.158587 6.087564
-0.914622 0.179166 6.091482
-0.931365 0.198579 6.095098
-0.969727 0.243058 6.103382
-0.986831 0.262148 6.106917
-1.005134 0.280166 6.110181
-1.023437 0.298184 6.113446
-1.041740 0.316202 6.116711
-1.060054 0.334208 6.119972
-1.104941 0.372400 6.126691
-1.124532 0.389070 6.129623
-1.144206 0.405641 6.132532
-1.164852 0.421040 6.135156
-1.185499 0.436439 6.137781
-1.206145 0.451838 6.140405
-1.254436 0.485770 6.146096
-1.275943 0.499991 6.148439
-1.297450 0.514213 6.150782
-1.318957 0.528434 6.153125
-1.341112 0.541658 6.155233
-1.363321 0.554800 6.157321
22 NaN NaN
-0.945604 -1.331564 5.765964
-0.895653 -1.236827 5.787965
-0.849411 -1.140288 5.810231
-0.807412 -1.041890 5.832756
-0.770284 -0.941610 5.855523
-0.738762 -0.839480 5.878503
-0.713691 -0.735618 5.901641
-0.696021 -0.630266 5.924854
-0.686770 -0.523839 5.948019
-0.686956 -0.416972 5.970968
-0.697481 -0.310538 5.993480
-0.718980 -0.205628 6.015303
-0.751671 -0.103451 6.036168
-0.795278 -0.005186 6.055832
-0.849053 0.088192 6.074110
-0.911909 0.176020 6.090896
-0.982600 0.257982 6.106162
-1.059878 0.334058 6.119946
-1.142602 0.404445 6.132328
-1.229784 0.469469 6.143410
-1.320604 0.529523 6.153305
-1.414390 0.585017 6.162122
