-2.351762 -1.424398 9.874000
-2.000853 -1.545743 10.990811
-1.649855 -1.657102 12.108582
-1.354559 -1.686109 13.246708
-1.173709 -1.561524 14.401369
-1.064419 -1.319548 15.547848
-0.927742 -1.069846 16.689788
-0.825694 -0.899595 17.849019
-0.825036 -0.843968 19.024234
-0.852700 -0.820171 20.200630
-0.864649 -0.780558 21.376870
-0.872677 -0.736964 22.553011
-2.351194 -1.424575 9.875909
-2.001465 -1.545525 10.988919
-2.000241 -1.545961 10.992703
-1.650420 -1.656962 12.106668
-1.649290 -1.657241 12.110495
-1.354971 -1.686184 13.244752
-1.354148 -1.686035 13.248664
-1.173923 -1.561863 14.399410
-1.173494 -1.561185 14.403328
-1.064616 -1.319994 15.545908
-1.064222 -1.319101 15.549787
-0.927978 -1.070222 16.687838
-0.927506 -1.069470 16.691739
-0.825778 -0.899780 17.847030
-0.825609 -0.899410 17.851009
-0.824988 -0.844008 19.022235
-0.825084 -0.843928 19.026233
-0.852669 -0.820227 20.198631
-0.852731 -0.820115 20.202629
-0.864636 -0.780633 21.374871
-0.864662 -0.780483 21.378868
-0.872659 -0.737033 22.551012
-2.344080 -1.426794 9.899814
-2.009124 -1.542791 10.965237
-1.992582 -1.548695 11.016385
-1.657493 -1.655221 12.082712
-1.642217 -1.658982 12.134452
-1.360290 -1.686893 13.220295
-1.348998 -1.685101 13.273150
-1.176608 -1.566111 14.374879
-1.170828 -1.556907 14.427855
-1.067078 -1.325580 15.521624
-1.061760 -1.313515 15.574071
-0.930956 -1.074995 16.663439
-0.924557 -1.064765 16.716155
-0.826835 -0.902097 17.822120
-0.824649 -0.897198 17.875931
-0.824382 -0.844512 18.997208
-0.825690 -0.843424 19.051260
-0.852270 -0.820923 20.173604
-0.853124 -0.819412 20.227655
-0.864474 -0.781569 21.349850
-0.864819 -0.779542 21.403890
-0.872426 -0.737897 22.525989
-2.311769 -1.436998 10.007814
-2.259669 -1.454171 10.178519
-2.206605 -1.472374 10.348820
-2.152771 -1.491345 10.518795
-2.098417 -1.510771 10.688553
-2.043733 -1.530404 10.858181
-1.957975 -1.560941 11.123458
-1.903297 -1.579963 11.293158
-1.848969 -1.598286 11.463047
-1.795165 -1.615686 11.633199
-1.742065 -1.631926 11.803686
-1.689858 -1.646762 11.974577
-1.610574 -1.666367 12.242878
-1.561677 -1.676267 12.415098
-1.514409 -1.683826 12.587890
-1.468985 -1.688780 12.761269
-1.425698 -1.690761 12.935254
-1.384825 -1.689439 13.109826
-1.326151 -1.680305 13.383904
-1.292390 -1.669511 13.559659
-1.261834 -1.654555 13.735698
-1.234783 -1.635071 13.911869
-1.210702 -1.611640 14.087988
-1.189122 -1.584731 14.263935
-1.159350 -1.536627 14.538621
-1.142175 -1.502663 14.713837
-1.125917 -1.466635 14.888728
-1.110068 -1.429058 15.063331
-1.094195 -1.390313 15.237676
-1.077864 -1.350779 15.411802
-1.050246 -1.288269 15.683809
-1.030730 -1.248484 15.857549
-1.010004 -1.209194 16.031262
-0.988466 -1.170659 16.205045
-0.966517 -1.133152 16.379002
-0.944596 -1.097031 16.553255
-0.911393 -1.043832 16.826611
-0.891501 -1.012369 17.002005
-0.873145 -0.983218 17.177965
-0.856839 -0.956772 17.354553
-0.843054 -0.933347 17.531778
-0.832140 -0.913137 17.709596
-0.821070 -0.888023 17.988692
-0.817368 -0.875618 18.167524
-0.816025 -0.865775 18.346550
-0.816545 -0.857963 18.525680
-0.818591 -0.851822 18.704864
-0.821839 -0.847005 18.884073
-0.828579 -0.841322 19.164395
-0.833423 -0.838308 19.343607
-0.838274 -0.835335 19.522820
-0.842820 -0.832068 19.702035
-0.846842 -0.828270 19.881253
-0.850314 -0.823913 20.060470
-0.854816 -0.816155 20.340787
-0.857179 -0.810671 20.519991
-0.859203 -0.804843 20.699188
-0.860935 -0.798718 20.878378
-0.862418 -0.792341 21.057561
-0.863722 -0.785781 21.236740
-0.865517 -0.775274 21.516998
-0.866587 -0.768477 21.696169
-0.867660 -0.761684 21.875341
-0.868791 -0.754949 22.054514
-0.870031 -0.748326 22.233690
-0.871431 -0.741864 22.412871
141 NaN NaN
-2.351904 -1.424354 9.873523
-2.323302 -1.433275 9.969639
-2.294311 -1.442632 10.065597
-2.264970 -1.452371 10.161410
-2.235321 -1.462440 10.257095
-2.205401 -1.472790 10.352665
-2.175250 -1.483371 10.448137
-2.144903 -1.494136 10.543527
-2.114397 -1.505037 10.638850
-2.083766 -1.516028 10.734123
-2.053047 -1.527064 10.829363
-2.022272 -1.538099 10.924584
-1.991476 -1.549089 11.019804
-1.960691 -1.559990 11.115038
-1.929952 -1.570757 11.210302
-1.899291 -1.581347 11.305610
-1.868742 -1.591715 11.400979
-1.838336 -1.601819 11.496423
-1.808109 -1.611614 11.591955
-1.778094 -1.621056 11.687589
-1.748324 -1.630100 11.783338
-1.718834 -1.638702 11.879215
-1.689659 -1.646817 11.975230
-1.660834 -1.654398 12.071395
-1.632396 -1.661400 12.167718
-1.604380 -1.667776 12.264209
-1.576826 -1.673478 12.360874
-1.549770 -1.678459 12.457720
-1.523251 -1.682670 12.554750
-1.497311 -1.686061 12.651969
-1.471990 -1.688584 12.749377
-1.447328 -1.690188 12.846974
-1.423370 -1.690822 12.944757
-1.400157 -1.690436 13.042721
-1.377735 -1.688978 13.140858
-1.356147 -1.686397 13.239159
-1.335439 -1.682643 13.337612
-1.315658 -1.677663 13.436200
-1.296848 -1.671409 13.534906
-1.279056 -1.663831 13.633708
-1.262327 -1.654881 13.732581
-1.246677 -1.644543 13.831495
-1.232038 -1.632885 13.930417
-1.218332 -1.619986 14.029318
-1.205476 -1.605924 14.128176
-1.193390 -1.590778 14.226971
-1.181992 -1.574628 14.325688
-1.171197 -1.557551 14.424318
-1.160925 -1.539623 14.522852
-1.151093 -1.520922 14.621287
-1.141618 -1.501521 14.719623
-1.132419 -1.481495 14.817859
-1.123415 -1.460917 14.915998
-1.114525 -1.439858 15.014047
-1.105667 -1.418390 15.112009
-1.096761 -1.396583 15.209893
-1.087727 -1.374509 15.307704
-1.078484 -1.352235 15.405451
-1.068952 -1.329833 15.503141
-1.059052 -1.307370 15.600780
-1.048702 -1.284918 15.698375
-1.037857 -1.262541 15.795933
-1.026575 -1.240290 15.893471
-1.014929 -1.218213 15.991005
-1.002995 -1.196359 16.088555
-0.990846 -1.174776 16.186139
-0.978557 -1.153514 16.283775
-0.966203 -1.132621 16.381483
-0.953859 -1.112147 16.479281
-0.941600 -1.092141 16.577187
-0.929502 -1.072654 16.675217
-0.917643 -1.053736 16.773387
-0.906097 -1.035439 16.871712
-0.894944 -1.017815 16.970206
-0.884261 -1.000916 17.068878
-0.874126 -0.984796 17.167738
-0.864619 -0.969507 17.266793
-0.855820 -0.955104 17.366045
-0.847807 -0.941641 17.465495
-0.840661 -0.929172 17.565141
-0.834461 -0.917752 17.664976
-0.829258 -0.907409 17.764985
-0.825010 -0.898096 17.865140
-0.821655 -0.889750 17.965414
-0.819133 -0.882304 18.065784
-0.817381 -0.875693 18.166229
-0.816339 -0.869852 18.266731
-0.815943 -0.864716 18.367277
-0.816134 -0.860218 18.467853
-0.816849 -0.856295 18.568452
-0.818028 -0.852879 18.669065
-0.819610 -0.849908 18.769686
-0.821537 -0.847316 18.870312
-0.823747 -0.845040 18.970939
-0.826181 -0.843016 19.071567
-0.828780 -0.841180 19.172195
-0.831486 -0.839468 19.272821
-0.834239 -0.837818 19.373448
-0.836980 -0.836167 19.474075
-0.839651 -0.834450 19.574702
-0.842193 -0.832605 19.675331
-0.844558 -0.830582 19.775961
-0.846748 -0.828380 19.876591
-0.848771 -0.826008 19.977220
-0.850637 -0.823476 20.077849
-0.852353 -0.820793 20.178476
-0.853930 -0.817968 20.279102
-0.855376 -0.815010 20.379725
-0.856701 -0.811930 20.480347
-0.857915 -0.808735 20.580967
-0.859025 -0.805437 20.681584
-0.860043 -0.802043 20.782200
-0.860976 -0.798564 20.882813
-0.861834 -0.795010 20.983424
-0.862627 -0.791389 21.084034
-0.863364 -0.787711 21.184642
-0.864054 -0.783985 21.285248
-0.864707 -0.780222 21.385853
-0.865332 -0.776430 21.486458
-0.865939 -0.772620 21.587061
-0.866536 -0.768800 21.687665
-0.867134 -0.764981 21.788268
-0.867741 -0.761171 21.888872
-0.868368 -0.757381 21.989477
-0.869022 -0.753620 22.090082
-0.869715 -0.749897 22.190688
-0.870455 -0.746222 22.291296
-0.871251 -0.742604 22.391906
-0.872114 -0.739053 22.492517
-0.873051 -0.735579 22.593131
-0.874073 -0.732191 22.693746
-0.875190 -0.728898 22.794364
-0.876409 -0.725709 22.894983
-0.877741 -0.722635 22.995605
-0.879194 -0.719685 23.096229
-0.880778 -0.716867 23.196855
-0.882503 -0.714192 23.297483
-0.884376 -0.711669 23.398111
-0.886408 -0.709307 23.498741
-0.888608 -0.707114 23.599370
-0.890984 -0.705101 23.700000
-2.351459 -1.424488 9.873337
-1.964503 -1.535174 9.661298
-1.641534 -1.611343 9.350135
-1.400638 -1.649748 8.965707
-1.237718 -1.655723 8.540213
-1.144033 -1.634870 8.094535
-1.107560 -1.593018 7.641853
-1.107718 -1.538226 7.188865
-1.116305 -1.480512 6.736270
-1.114163 -1.426514 6.283150
-1.103657 -1.375434 5.829798
-1.090362 -1.325332 5.376408
-1.079904 -1.274235 4.923057
-1.077967 -1.220166 4.469945
-2.349681 -1.425025 9.872596
-1.966077 -1.534760 9.662459
-1.962928 -1.535588 9.660136
-1.642812 -1.611076 9.351650
-1.640255 -1.611610 9.348620
-1.401513 -1.649656 8.967503
-1.399762 -1.649839 8.963911
-1.238302 -1.655748 8.542125
-1.237134 -1.655697 8.538300
-1.144305 -1.635013 8.096511
-1.143761 -1.634727 8.092558
-1.107634 -1.593232 7.643840
-1.107485 -1.592805 7.639866
-1.107678 -1.538480 7.190848
-1.107759 -1.537972 7.186881
-1.116282 -1.480760 6.738254
-1.116328 -1.480264 6.734286
-1.114196 -1.426742 6.285137
-1.114130 -1.426285 6.281163
-1.103712 -1.375655 5.831786
-1.103602 -1.375213 5.827811
-1.090417 -1.325552 5.378395
-1.090306 -1.325111 5.374420
-1.079938 -1.274463 4.925043
-1.079870 -1.274007 4.921070
-1.077947 -1.220413 4.471929
-2.334145 -1.429715 9.866121
-1.979833 -1.531140 9.672605
-1.949172 -1.539208 9.649990
-1.653978 -1.608741 9.364884
-1.629777 -1.613629 9.334786
-1.409162 -1.648858 8.983192
-1.392114 -1.650637 8.948222
-1.243407 -1.655969 8.558834
-1.232494 -1.655297 8.521462
-1.146682 -1.636262 8.113775
-1.141384 -1.633478 8.075294
-1.108285 -1.595101 7.661200
-1.107025 -1.590869 7.622508
-1.107324 -1.540698 7.208175
-1.108112 -1.535754 7.169554
-1.116084 -1.482925 6.755591
-1.116475 -1.478117 6.716947
-1.114483 -1.428738 6.302492
-1.113842 -1.424290 6.263808
-1.104195 -1.377582 5.849144
-1.103112 -1.373288 5.810453
-1.090904 -1.327478 5.395753
-1.089819 -1.323185 5.357062
-1.080235 -1.276456 4.942399
-1.079580 -1.272012 4.903715
-1.077764 -1.222572 4.489267
-2.291383 -1.442624 9.848297
-2.234874 -1.459456 9.822860
-2.179040 -1.475834 9.795631
-2.124565 -1.491364 9.765349
-2.070796 -1.506475 9.733657
-2.018242 -1.520876 9.699630
-1.911838 -1.548892 9.621296
-1.863429 -1.561057 9.580852
-1.816562 -1.572443 9.538455
-1.770678 -1.583337 9.494843
-1.727067 -1.593123 9.448697
-1.684715 -1.602316 9.401311
-1.600991 -1.619162 9.296659
-1.563665 -1.626051 9.244858
-1.527836 -1.632273 9.191898
-1.494214 -1.637534 9.137423
-1.461669 -1.642332 9.082260
-1.431027 -1.646321 9.025937
-1.371546 -1.652637 8.904806
-1.345877 -1.654566 8.845945
-1.321669 -1.655907 8.786469
-1.298448 -1.656850 8.726579
-1.277458 -1.656907 8.665861
-1.257458 -1.656576 8.604825
-1.220046 -1.654070 8.475024
-1.204209 -1.652131 8.412804
-1.189650 -1.649704 8.350279
-1.176687 -1.646677 8.287437
-1.164542 -1.643344 8.224447
-1.153921 -1.639444 8.161208
-1.135114 -1.629942 8.027746
-1.128199 -1.624686 7.964093
-1.122238 -1.619087 7.900379
-1.117011 -1.613224 7.836618
-1.113266 -1.606832 7.772805
-1.110076 -1.600244 7.708984
-1.106081 -1.585429 7.574733
-1.105132 -1.578053 7.510924
-1.104807 -1.570459 7.447132
-1.105035 -1.562673 7.383364
-1.105539 -1.554792 7.319609
-1.106495 -1.546754 7.255878
-1.109100 -1.529643 7.121861
-1.110548 -1.521436 7.058161
-1.111969 -1.513238 6.994459
-1.113366 -1.505048 6.930756
-1.114533 -1.496938 6.867038
-1.115536 -1.488884 6.803310
-1.116695 -1.472271 6.669210
-1.116877 -1.464502 6.605440
-1.116774 -1.456831 6.541657
-1.116421 -1.449247 6.477864
-1.115923 -1.441713 6.414067
-1.115145 -1.434277 6.350261
-1.113038 -1.418800 6.216036
-1.111742 -1.411545 6.152217
-1.110352 -1.404323 6.088397
-1.108856 -1.397138 6.024575
-1.107218 -1.390003 5.960751
-1.105526 -1.382887 5.896926
-1.101721 -1.368004 5.762671
-1.099853 -1.360950 5.698844
-1.097953 -1.353907 5.635017
-1.096050 -1.346864 5.571189
-1.094150 -1.339821 5.507362
-1.092284 -1.332766 5.443535
-1.088479 -1.317884 5.309280
-1.086805 -1.310761 5.245455
-1.085195 -1.303616 5.181632
-1.083676 -1.296439 5.117809
-1.082319 -1.289206 5.053989
-1.081052 -1.281940 4.990172
-1.078967 -1.266456 4.855947
-1.078208 -1.259013 4.792142
-1.077703 -1.251482 4.728344
-1.077411 -1.243877 4.664554
-1.077266 -1.236221 4.600769
-1.077505 -1.228431 4.537001
60 NaN NaN
-2.351904 -1.424354 9.873523
-2.261438 -1.451665 9.835815
-2.173011 -1.477602 9.792691
-2.086999 -1.502035 9.744147
-2.003768 -1.524842 9.690259
-1.923666 -1.545920 9.631177
-1.847000 -1.565186 9.567126
-1.774031 -1.582584 9.498391
-1.704964 -1.598083 9.425309
-1.639939 -1.611676 9.348245
-1.579040 -1.623382 9.267583
-1.522294 -1.633235 9.183708
-1.469684 -1.641289 9.096991
-1.421152 -1.647606 9.007787
-1.376612 -1.652256 8.916423
-1.335957 -1.655312 8.823197
-1.299071 -1.656848 8.728381
-1.265826 -1.656938 8.632213
-1.236098 -1.655652 8.534909
-1.209763 -1.653057 8.436658
-1.186704 -1.649213 8.337627
-1.166813 -1.644177 8.237964
-1.149990 -1.638000 8.137800
-1.136148 -1.630727 8.037255
-1.125194 -1.622403 7.936435
-1.116914 -1.613116 7.835443
-1.111028 -1.602976 7.734365
-1.107238 -1.592094 7.633263
-1.105240 -1.580583 7.532179
-1.104725 -1.568555 7.431136
-1.105381 -1.556121 7.330143
-1.106895 -1.543389 7.229196
-1.108954 -1.530470 7.128283
-1.111247 -1.517471 7.027384
-1.113460 -1.504498 6.926481
-1.115281 -1.491661 6.825552
-1.116439 -1.479053 6.724585
-1.116906 -1.466684 6.623583
-1.116743 -1.454533 6.522553
-1.116014 -1.442580 6.421502
-1.114781 -1.430802 6.320435
-1.113106 -1.419178 6.219357
-1.111052 -1.407686 6.118271
-1.108683 -1.396306 6.017179
-1.106059 -1.385014 5.916083
-1.103244 -1.373789 5.814985
-1.100301 -1.362610 5.713886
-1.097291 -1.351454 5.612786
-1.094276 -1.340299 5.511686
-1.091320 -1.329124 5.410587
-1.088485 -1.317907 5.309488
-1.085832 -1.306625 5.208392
-1.083425 -1.295258 5.107300
-1.081326 -1.283782 5.006213
-1.079598 -1.272177 4.905133
-1.078302 -1.260421 4.804065
-1.077503 -1.248492 4.703012
-1.077261 -1.236369 4.601979
-1.077641 -1.224030 4.500972
-1.078704 -1.211454 4.400000
-2.352250 -1.424711 9.873568
-3.490926 -1.597606 9.742420
-4.281379 -0.696887 9.398599
-4.829962 0.410725 9.153588
-5.388271 1.512546 8.903787
-5.950219 2.612862 8.655505
-6.510966 3.705222 8.372390
-7.118343 4.767044 8.070466
-7.814487 5.765399 7.746147
-8.633264 6.654567 7.394025
-9.587996 7.382189 7.016195
-10.661133 7.909193 6.623452
-11.812505 8.231363 6.229529
-13.002909 8.373349 5.843994
-2.353637 -1.426140 9.873751
-3.489263 -1.598583 9.742952
-3.492588 -1.596630 9.741888
-4.280488 -0.698635 9.398989
-4.282271 -0.695140 9.398210
-4.829062 0.408985 9.153994
-4.830862 0.412464 9.153182
-5.387381 1.510799 8.904183
-5.389161 1.514293 8.903391
-5.949323 2.611117 8.655898
-5.951115 2.614606 8.655113
-6.510048 3.703507 8.372854
-6.511884 3.706937 8.371926
-7.117320 4.765399 8.070960
-7.119366 4.768690 8.069971
-7.813286 5.763893 7.746685
-7.815689 5.766904 7.745610
-8.631858 6.653268 7.394606
-8.634670 6.655865 7.393445
-9.586372 7.381198 7.016811
-9.589620 7.383181 7.015579
-10.659357 7.908520 6.624080
-10.662908 7.909866 6.622825
-11.810636 8.231012 6.230149
-11.814374 8.231713 6.228909
-13.001005 8.373246 5.844596
-2.372155 -1.445226 9.876191
-3.467064 -1.611615 9.750057
-3.514787 -1.583598 9.734784
-4.268083 -0.721635 9.404484
-4.294175 -0.671809 9.393008
-4.817050 0.385760 9.159418
-4.842874 0.435689 9.147757
-5.375502 1.487475 8.909477
-5.401044 1.537615 8.898100
-5.937355 2.587827 8.661137
-5.963083 2.637896 8.649874
-6.497859 3.680565 8.379037
-6.524143 3.729837 8.365726
-7.103656 4.743426 8.077564
-7.133030 4.790663 8.063367
-7.797403 5.743648 7.753826
-7.831733 5.787009 7.738432
-8.613084 6.635933 7.402360
-8.653444 6.673201 7.385690
-9.564832 7.367716 7.025017
-9.611305 7.396418 7.007355
-10.635647 7.899535 6.632459
-10.686619 7.918852 6.614446
-11.785723 8.226135 6.238434
-11.839329 8.236393 6.220634
-12.975580 8.371865 5.852643
-2.460598 -1.527264 9.885262
-2.622924 -1.628545 9.887966
-2.803122 -1.692503 9.877312
-2.991539 -1.719307 9.854958
-3.180169 -1.709319 9.822353
-3.361210 -1.661930 9.780648
-3.610468 -1.517239 9.701251
-3.749072 -1.396697 9.645357
-3.878137 -1.266802 9.587481
-3.999388 -1.129450 9.529985
-4.110808 -0.982544 9.476491
-4.210507 -0.825158 9.430221
-4.347517 -0.565455 9.369752
-4.429335 -0.395407 9.334000
-4.510282 -0.224978 9.298076
-4.592125 -0.055161 9.261297
-4.676285 0.113226 9.223205
-4.762404 0.280401 9.184149
-4.897075 0.541357 9.123367
-4.982068 0.709339 9.085323
-5.066599 0.877624 9.047583
-5.151284 1.045803 9.009723
-5.236313 1.213762 8.971656
-5.321592 1.381580 8.933523
-5.454998 1.643494 8.874080
-5.540465 1.811224 8.835986
-5.625864 1.978963 8.797776
-5.711279 2.146703 8.759604
-5.796928 2.314412 8.721827
-5.882970 2.482057 8.684664
-6.017257 2.743591 8.625540
-6.102356 2.910870 8.584741
-6.186723 3.077854 8.541295
-6.271124 3.244463 8.496496
-6.356328 3.410637 8.451601
-6.442724 3.576298 8.407087
-6.579970 3.833689 8.337505
-6.669374 3.997578 8.292378
-6.760112 4.160594 8.246759
-6.852377 4.322632 8.200718
-6.946340 4.483579 8.154285
-7.042135 4.643314 8.107415
-7.195711 4.889963 8.033216
-7.296822 5.045974 7.984991
-7.400284 5.200253 7.936182
-7.506191 5.352672 7.886783
-7.614669 5.503069 7.836769
-7.725834 5.651274 7.786122
-7.905031 5.877875 7.705739
-8.023564 6.019642 7.653404
-8.145132 6.158562 7.600400
-8.269801 6.294444 7.546729
-8.397626 6.427092 7.492395
-8.528648 6.556308 7.437410
-8.739703 6.750689 7.350292
-8.878985 6.870224 7.293729
-9.021517 6.985580 7.236591
-9.167179 7.096685 7.178928
-9.315909 7.203382 7.120781
-9.467618 7.305547 7.062196
-9.710196 7.455748 6.969964
-9.869045 7.545827 6.910480
-10.030443 7.631075 6.850739
-10.194247 7.711452 6.790793
-10.360304 7.786943 6.730694
-10.528456 7.857564 6.670492
-10.794843 7.958073 6.576403
-10.967642 8.016363 6.516152
-11.142012 8.069841 6.455961
-11.317759 8.118714 6.395865
-11.494741 8.163083 6.335899
-11.672820 8.203056 6.276094
-11.952758 8.256954 6.183098
-12.133086 8.286190 6.123817
-12.314092 8.311462 6.064777
-12.495675 8.332899 6.005994
-12.677745 8.350631 5.947480
-12.860218 8.364786 5.889247
171 NaN NaN
-2.351904 -1.424354 9.873523
-2.421712 -1.496305 9.882722
-2.500373 -1.558929 9.887860
-2.586208 -1.611540 9.889021
-2.677544 -1.653842 9.886398
-2.772837 -1.685794 9.880236
-2.870720 -1.707480 9.870787
-2.969977 -1.719001 9.858284
-3.069494 -1.720411 9.842930
-3.168183 -1.711674 9.824899
-3.264913 -1.692664 9.804348
-3.358428 -1.663182 9.781432
-3.447368 -1.623178 9.756361
-3.531087 -1.574029 9.729567
-3.609799 -1.517792 9.701511
-3.684160 -1.456325 9.672532
-3.755057 -1.391199 9.642851
-3.823483 -1.323723 9.612606
-3.889971 -1.254477 9.582041
-3.954307 -1.183162 9.551636
-4.016190 -1.109431 9.521915
-4.075285 -1.032977 9.493430
-4.131225 -0.953557 9.466755
-4.183743 -0.871130 9.442339
-4.233163 -0.786242 9.419962
-4.280036 -0.699519 9.399186
-4.324948 -0.611498 9.379561
-4.368501 -0.522644 9.360631
-4.411299 -0.433371 9.341948
-4.453779 -0.343954 9.323229
-4.496190 -0.254530 9.304383
-4.538772 -0.165233 9.285327
-4.581767 -0.076197 9.265978
-4.625412 0.012440 9.246256
-4.669821 0.100607 9.226137
-4.714803 0.188417 9.205734
-4.760128 0.276016 9.185180
-4.805564 0.363553 9.164605
-4.850883 0.451176 9.144141
-4.895886 0.539014 9.123900
-4.940576 0.627059 9.103872
-4.985048 0.715249 9.083991
-5.029397 0.803518 9.064191
-5.073718 0.891805 9.044405
-5.118103 0.980049 9.024570
-5.162596 1.068221 9.004661
-5.207184 1.156333 8.984697
-5.251852 1.244398 8.964700
-5.296583 1.332427 8.944692
-5.341362 1.420435 8.924694
-5.386174 1.508431 8.904720
-5.431007 1.596420 8.884760
-5.475847 1.684404 8.864798
-5.520682 1.772387 8.844819
-5.565500 1.860372 8.824808
-5.610290 1.948361 8.804754
-5.655072 2.036353 8.784690
-5.699877 2.124341 8.764669
-5.744740 2.212323 8.744744
-5.789692 2.300292 8.724969
-5.834765 2.388245 8.705396
-5.879945 2.476175 8.685968
-5.925152 2.564078 8.666479
-5.970303 2.651948 8.646713
-6.015312 2.739778 8.626451
-6.060092 2.827557 8.605477
-6.104588 2.915271 8.583646
-6.148880 3.002903 8.561080
-6.193078 3.090441 8.537972
-6.237298 3.177875 8.514512
-6.281655 3.265195 8.490888
-6.326264 3.352393 8.467290
-6.371205 3.439460 8.443838
-6.416484 3.526381 8.420492
-6.462092 3.613142 8.397192
-6.508024 3.699727 8.373878
-6.554274 3.786123 8.350487
-6.600835 3.872315 8.326964
-6.647724 3.958288 8.303290
-6.694969 4.044028 8.279477
-6.742596 4.129519 8.255533
-6.790635 4.214745 8.231470
-6.839114 4.299692 8.207297
-6.888056 4.384342 8.183020
-6.937483 4.468678 8.158632
-6.987413 4.552683 8.134125
-7.037864 4.636337 8.109490
-7.088855 4.719624 8.084718
-7.140405 4.802523 8.059802
-7.192531 4.885014 8.034737
-7.245256 4.967078 8.009519
-7.298599 5.048694 7.984145
-7.352581 5.129838 7.958613
-7.407220 5.210491 7.932921
-7.462535 5.290629 7.907065
-7.518545 5.370228 7.881043
-7.575267 5.449265 7.854851
-7.632719 5.527716 7.828486
-7.690917 5.605555 7.801945
-7.749878 5.682756 7.775226
-7.809616 5.759294 7.748327
-7.870146 5.835143 7.721246
-7.931482 5.910275 7.693982
-7.993637 5.984664 7.666534
-8.056624 6.058280 7.638901
-8.120454 6.131097 7.611084
-8.185136 6.203085 7.583082
-8.250680 6.274218 7.554896
-8.317092 6.344467 7.526528
-8.384380 6.413803 7.497978
-8.452550 6.482196 7.469247
-8.521606 6.549620 7.440339
-8.591548 6.616046 7.411255
-8.662377 6.681449 7.382001
-8.734094 6.745801 7.352577
-8.806699 6.809074 7.322990
-8.880187 6.871241 7.293242
-8.954554 6.932279 7.263339
-9.029791 6.992166 7.233286
-9.105890 7.050879 7.203088
-9.182845 7.108394 7.172752
-9.260645 7.164688 7.142284
-9.339277 7.219743 7.111689
-9.418728 7.273544 7.080976
-9.498980 7.326075 7.050150
-9.580020 7.377320 7.019220
-9.661832 7.427263 6.988192
-9.744398 7.475892 6.957073
-9.827697 7.523198 6.925873
-9.911710 7.569176 6.894597
-9.996415 7.613818 6.863255
-10.081792 7.657118 6.831853
-10.167821 7.699070 6.800399
-10.254477 7.739673 6.768900
-10.341739 7.778931 6.737365
-10.429583 7.816844 6.705800
-10.517985 7.853416 6.674212
-10.606923 7.888649 6.642609
-10.696376 7.922549 6.610998
-10.786318 7.955125 6.579384
-10.876727 7.986387 6.547774
-10.967580 8.016344 6.516174
-11.058855 8.045006 6.484590
-11.150531 8.072386 6.453028
-11.242585 8.098495 6.421492
-11.334998 8.123350 6.389989
-11.427747 8.146965 6.358521
-11.520813 8.169356 6.327095
-11.614177 8.190538 6.295715
-11.707820 8.210527 6.264383
-11.801724 8.229341 6.233104
-11.895872 8.246998 6.201882
-11.990245 8.263515 6.170719
-12.084828 8.278912 6.139619
-12.179606 8.293206 6.108584
-12.274563 8.306415 6.077617
-12.369685 8.318559 6.046719
-12.464958 8.329657 6.015894
-12.560369 8.339727 5.985142
-12.655905 8.348788 5.954467
-12.751555 8.356859 5.923868
-12.847307 8.363958 5.893348
-12.943151 8.370104 5.862907
-13.039075 8.375313 5.832547
-13.135071 8.379605 5.802269
-13.231128 8.382997 5.772074
-13.327239 8.385508 5.741962
-13.423394 8.387155 5.711933
-13.519587 8.387957 5.681988
-13.615809 8.387931 5.652127
-13.712053 8.387097 5.622350
-0.864396 -0.780158 21.377033
-0.799264 -0.674388 21.419747
-0.742948 -0.563619 21.462193
-0.697664 -0.447711 21.503984
-0.666086 -0.326939 21.544526
-0.651799 -0.202239 21.582864
-0.659228 -0.075925 21.617486
-0.687318 0.048530 21.647602
-0.735068 0.168060 21.672532
-0.799910 0.280425 21.692129
-0.879283 0.384010 21.706426
-0.969753 0.478704 21.716050
-1.067851 0.565803 21.722040
-1.171759 0.646086 21.724967
-0.863386 -0.778560 21.377683
-0.800167 -0.676051 21.419099
-0.798361 -0.672725 21.420396
-0.743720 -0.565349 21.461551
-0.742176 -0.561890 21.462835
-0.698277 -0.449507 21.503353
-0.697051 -0.445914 21.504615
-0.666508 -0.328795 21.543915
-0.665663 -0.325082 21.545138
-0.651743 -0.204165 21.582325
-0.651855 -0.200314 21.583403
-0.658903 -0.077838 21.617002
-0.659553 -0.074011 21.617969
-0.686727 0.046666 21.647184
-0.687909 0.050394 21.648021
-0.734234 0.166276 21.672183
-0.735902 0.169844 21.672880
-0.798867 0.278742 21.691849
-0.800953 0.282108 21.692409
-0.877933 0.382543 21.706267
-0.880634 0.385477 21.706584
-0.968295 0.477339 21.715941
-0.971211 0.480069 21.716159
-1.066309 0.564531 21.721973
-1.069393 0.567075 21.722106
-1.170150 0.644898 21.724937
-0.860305 -0.773685 21.379667
-0.802920 -0.681121 21.417123
-0.795608 -0.667655 21.422372
-0.746075 -0.570623 21.459593
-0.739822 -0.556615 21.464793
-0.700147 -0.454984 21.501430
-0.695181 -0.440437 21.506537
-0.667795 -0.334458 21.542052
-0.664376 -0.319419 21.547001
-0.651939 -0.210004 21.580621
-0.652025 -0.194443 21.585045
-0.657912 -0.083672 21.615528
-0.660544 -0.068177 21.619443
-0.684926 0.040980 21.645908
-0.689711 0.056079 21.649296
-0.731690 0.160836 21.671120
-0.738446 0.175284 21.673944
-0.795686 0.273608 21.690996
-0.804134 0.287242 21.693262
-0.873816 0.378071 21.705782
-0.884751 0.389950 21.707069
-0.963851 0.473176 21.715608
-0.975655 0.484232 21.716493
-1.061607 0.560653 21.721771
-1.074095 0.570954 21.722309
-1.165245 0.641275 21.724847
-0.853519 -0.762948 21.384037
-0.844595 -0.748826 21.389784
-0.835670 -0.734705 21.395530
-0.826745 -0.720583 21.401277
-0.817820 -0.706462 21.407024
-0.808983 -0.692288 21.412769
-0.789545 -0.656488 21.426726
-0.781570 -0.641801 21.432451
-0.773596 -0.627113 21.438177
-0.765621 -0.612426 21.443903
-0.758080 -0.597517 21.449608
-0.751260 -0.582239 21.455280
-0.734636 -0.545000 21.469106
-0.727816 -0.529722 21.474778
-0.720996 -0.514444 21.480450
-0.715101 -0.498779 21.486055
-0.709683 -0.482913 21.491625
-0.704266 -0.467047 21.497195
-0.691062 -0.428374 21.510772
-0.685645 -0.412508 21.516343
-0.681819 -0.396137 21.521751
-0.678089 -0.379734 21.527150
-0.674360 -0.363332 21.532548
-0.670631 -0.346929 21.537947
-0.661992 -0.306854 21.551046
-0.660247 -0.290041 21.556180
-0.658502 -0.273228 21.561314
-0.656757 -0.256414 21.566449
-0.655011 -0.239601 21.571583
-0.653266 -0.222787 21.576717
-0.652400 -0.181513 21.588663
-0.652893 -0.164507 21.593422
-0.653387 -0.147501 21.598181
-0.653880 -0.130495 21.602940
-0.654373 -0.113489 21.607698
-0.655728 -0.096521 21.612280
-0.662727 -0.055328 21.622691
-0.665599 -0.038428 21.626962
-0.668470 -0.021528 21.631233
-0.671342 -0.004628 21.635504
-0.675738 0.011992 21.639401
-0.680957 0.028460 21.643097
-0.693679 0.068600 21.652107
-0.698899 0.085068 21.655803
-0.704118 0.101536 21.659499
-0.711349 0.117339 21.662618
-0.718718 0.133097 21.665698
-0.726087 0.148855 21.668778
-0.744049 0.187264 21.676285
-0.751828 0.202825 21.679230
-0.761041 0.217694 21.681702
-0.770254 0.232564 21.684174
-0.779468 0.247433 21.686645
-0.788681 0.262303 21.689117
-0.811905 0.298060 21.694855
-0.822629 0.311969 21.696762
-0.833353 0.325878 21.698669
-0.844077 0.339787 21.700576
-0.854800 0.353695 21.702483
-0.865524 0.367604 21.704390
-0.893820 0.399800 21.708136
-0.905747 0.412756 21.709540
-0.917675 0.425713 21.710943
-0.929602 0.438669 21.712347
-0.941530 0.451625 21.713750
-0.954062 0.464008 21.714874
-0.985444 0.493400 21.717226
-0.998319 0.505458 21.718191
-1.011195 0.517516 21.719156
-1.024070 0.529574 21.720121
-1.037631 0.540875 21.720738
-1.051252 0.552110 21.721325
-1.084451 0.579497 21.722755
-1.098072 0.590732 21.723342
-1.111812 0.601816 21.723863
-1.126022 0.612310 21.724124
-1.140231 0.622803 21.724386
-1.154441 0.633297 21.724648
17 NaN NaN
-0.864649 -0.780558 21.376870
-0.809719 -0.693643 21.412241
-0.760639 -0.603251 21.447480
-0.718669 -0.509231 21.482386
-0.685335 -0.411602 21.516661
-0.662390 -0.310683 21.549877
-0.651654 -0.207251 21.581461
-0.654688 -0.102647 21.610732
-0.672349 0.001299 21.637001
-0.704452 0.102590 21.659735
-0.749782 0.199523 21.678681
-0.806465 0.291005 21.693888
-0.872451 0.376588 21.705622
-0.945850 0.456318 21.714259
-1.025087 0.530527 21.720197
-1.108917 0.599678 21.723809
-1.196376 0.664265 21.725420
-0.824885 -0.843561 19.023985
-0.784758 -0.731033 18.956198
-0.752769 -0.613668 18.892493
-0.731047 -0.491237 18.834303
-0.722670 -0.363858 18.783851
-0.733188 -0.232601 18.745448
-0.763082 -0.101203 18.720741
-0.813012 0.026057 18.711694
-0.881835 0.144395 18.719168
-0.966203 0.250149 18.742067
-1.060140 0.344325 18.775799
-1.160638 0.427850 18.817908
-1.265772 0.501487 18.866762
-1.374002 0.566564 18.920802
-0.824282 -0.841935 19.022989
-0.785270 -0.732717 18.957149
-0.784246 -0.729350 18.955247
-0.753169 -0.615412 18.893387
-0.752368 -0.611924 18.891600
-0.731311 -0.493042 18.835121
-0.730782 -0.489431 18.833484
-0.722571 -0.365764 18.784446
-0.722770 -0.361951 18.783255
-0.732861 -0.234525 18.745887
-0.733515 -0.230678 18.745008
-0.762510 -0.103102 18.720998
-0.763654 -0.099304 18.720483
-0.812200 0.024230 18.711756
-0.813823 0.027884 18.711631
-0.880641 0.142818 18.718872
-0.883029 0.145972 18.719464
-0.964880 0.248715 18.741629
-0.967527 0.251584 18.742504
-1.058723 0.343027 18.775248
-1.061557 0.345624 18.776351
-1.159153 0.426674 18.817266
-1.162123 0.429026 18.818551
-1.264204 0.500516 18.865989
-1.267340 0.502459 18.867534
-1.372409 0.565676 18.919982
-0.822379 -0.836806 19.019847
-0.786884 -0.738026 18.960149
-0.782632 -0.724040 18.952246
-0.754432 -0.620913 18.896205
-0.751105 -0.606422 18.888781
-0.732145 -0.498738 18.837703
-0.729948 -0.483735 18.830902
-0.722678 -0.371686 18.786591
-0.723084 -0.355937 18.781376
-0.731828 -0.240592 18.747275
-0.734548 -0.224611 18.743620
-0.760706 -0.109092 18.721812
-0.765458 -0.093313 18.719669
-0.809640 0.018467 18.711954
-0.816383 0.033647 18.711433
-0.876903 0.137821 18.717966
-0.886796 0.150946 18.720398
-0.960706 0.244190 18.740249
-0.971701 0.256109 18.743884
-1.054252 0.338930 18.773507
-1.066028 0.349721 18.778091
-1.154469 0.422966 18.815239
-1.166807 0.432735 18.820578
-1.259258 0.497452 18.863550
-1.272287 0.505523 18.869973
-1.367382 0.562874 18.917395
-0.818135 -0.825365 19.012838
-0.812547 -0.810302 19.003610
-0.806960 -0.795239 18.994383
-0.801372 -0.780176 18.985156
-0.795784 -0.765113 18.975928
-0.790484 -0.749870 18.966842
-0.779032 -0.712196 18.945553
-0.774292 -0.696603 18.936742
-0.769551 -0.681010 18.927930
-0.764811 -0.665417 18.919119
-0.760958 -0.649340 18.910768
-0.757249 -0.633184 18.902491
-0.748288 -0.594151 18.882495
-0.744579 -0.577996 18.874219
-0.741351 -0.561622 18.866208
-0.738903 -0.544896 18.858626
-0.736454 -0.528169 18.851044
-0.734005 -0.511443 18.843462
-0.728088 -0.471030 18.825143
-0.727027 -0.453824 18.818378
-0.726114 -0.436566 18.811700
-0.725200 -0.419309 18.805021
-0.724286 -0.402052 18.798343
-0.723372 -0.384794 18.791664
-0.723784 -0.342521 18.777185
-0.724707 -0.324858 18.771668
-0.725629 -0.307196 18.766150
-0.726551 -0.289533 18.760633
-0.727473 -0.271871 18.755115
-0.729525 -0.254125 18.750370
-0.736851 -0.211077 18.740525
-0.739883 -0.193260 18.736450
-0.742915 -0.175443 18.732375
-0.746085 -0.157639 18.728403
-0.751383 -0.140047 18.726015
-0.756681 -0.122455 18.723626
-0.769482 -0.079951 18.717855
-0.774780 -0.062359 18.715467
-0.781381 -0.045159 18.714139
-0.788897 -0.028235 18.713558
-0.796414 -0.011311 18.712977
-0.803931 0.005613 18.712396
-0.822314 0.046383 18.711191
-0.831792 0.062259 18.712367
-0.841270 0.078135 18.713543
-0.850748 0.094011 18.714720
-0.860226 0.109886 18.715896
-0.869704 0.125762 18.717073
-0.895197 0.162042 18.722481
-0.906258 0.176650 18.725223
-0.917319 0.191258 18.727966
-0.928380 0.205866 18.730708
-0.939441 0.220474 18.733450
-0.951395 0.234096 18.737171
-0.981011 0.266202 18.746962
-0.993269 0.279490 18.751015
-1.005527 0.292779 18.755067
-1.018019 0.305728 18.759405
-1.031149 0.317760 18.764515
-1.044279 0.329791 18.769626
-1.076001 0.358860 18.781973
-1.089131 0.370891 18.787083
-1.102756 0.382020 18.792860
-1.116511 0.392911 18.798813
-1.130266 0.403802 18.804765
-1.144021 0.414693 18.810718
-1.177395 0.440691 18.825309
-1.191599 0.450573 18.831932
-1.205802 0.460456 18.838555
-1.220005 0.470338 18.845178
-1.234209 0.480220 18.851801
-1.248412 0.490102 18.858424
-1.283320 0.512358 18.875412
-1.297846 0.521356 18.882573
-1.312372 0.530355 18.889733
-1.326898 0.539354 18.896894
-1.341425 0.548352 18.904055
-1.356171 0.556626 18.911625
18 NaN NaN
-0.825036 -0.843968 19.024234
-0.792095 -0.755168 18.969836
-0.764151 -0.663246 18.917892
-0.742287 -0.568016 18.869106
-0.727854 -0.469430 18.824418
-0.722468 -0.367731 18.785061
-0.727901 -0.263665 18.752552
-0.745763 -0.158708 18.728548
-0.776969 -0.055093 18.714480
-0.821242 0.044587 18.711057
-0.877074 0.138106 18.717988
-0.942244 0.224175 18.734145
-1.014480 0.302485 18.758027
-1.091865 0.373397 18.788147
-1.172947 0.437596 18.823235
-1.256676 0.495852 18.862277
-1.342312 0.548902 18.904492
-1.429332 0.597400 18.949279
-0.927489 -1.069465 16.689587
-0.811493 -0.883847 16.595123
-0.715809 -0.683960 16.507601
-0.651720 -0.467559 16.432042
-0.637148 -0.236725 16.377582
-0.693348 -0.007211 16.357783
-0.815795 0.195245 16.375729
-0.980457 0.360557 16.421812
-1.167533 0.493615 16.485406
-1.366459 0.601816 16.559861
-0.926475 -1.067941 16.688782
-0.812375 -0.885472 16.595886
-0.810611 -0.882221 16.594361
-0.716498 -0.685705 16.508294
-0.715120 -0.682215 16.506908
-0.652115 -0.469432 16.432619
-0.651324 -0.465685 16.431465
-0.637106 -0.238688 16.377965
-0.637189 -0.234762 16.377199
-0.692496 -0.009020 16.357740
-0.694201 -0.005402 16.357826
-0.814541 0.193715 16.375434
-0.817048 0.196775 16.376024
-0.978971 0.359301 16.421347
-0.981943 0.361812 16.422276
-1.165920 0.492580 16.484835
-1.169146 0.494651 16.485978
-1.364751 0.601017 16.559195
-0.921484 -1.060435 16.684816
-0.816718 -0.893473 16.599638
-0.806268 -0.874220 16.590608
-0.719891 -0.694297 16.511706
-0.711727 -0.673624 16.503496
-0.654062 -0.478658 16.435458
-0.649377 -0.456459 16.428625
-0.636903 -0.248351 16.379849
-0.638159 -0.225108 16.375689
-0.688300 -0.017926 16.357529
-0.698397 0.003504 16.358037
-0.808370 0.186180 16.373981
-0.823220 0.204309 16.377476
-0.971654 0.353121 16.419060
-0.989260 0.367993 16.424563
-1.157979 0.487483 16.482022
-1.177088 0.499748 16.488791
-1.356339 0.597087 16.555914
-0.908888 -1.041490 16.674807
-0.892155 -1.016324 16.661510
-0.875422 -0.991158 16.648214
-0.859572 -0.965286 16.635202
-0.843828 -0.939329 16.622224
-0.828083 -0.913373 16.609245
-0.795305 -0.854024 16.581136
-0.780743 -0.827197 16.568554
-0.767112 -0.799750 16.556297
-0.753983 -0.771970 16.544215
-0.740853 -0.744190 16.532133
-0.728454 -0.715983 16.520318
-0.703164 -0.651938 16.494884
-0.692669 -0.622696 16.483782
-0.683459 -0.592817 16.473174
-0.674250 -0.562938 16.462567
-0.665507 -0.532876 16.452148
-0.658978 -0.501944 16.442626
-0.645004 -0.433023 16.421690
-0.641764 -0.401183 16.413580
-0.638524 -0.369342 16.405471
-0.635283 -0.337502 16.397361
-0.635705 -0.305140 16.390923
-0.636388 -0.272741 16.384605
-0.642012 -0.200753 16.372562
-0.647129 -0.168401 16.368408
-0.652246 -0.136049 16.364255
-0.660570 -0.104288 16.361781
-0.670300 -0.072785 16.360043
-0.680030 -0.041283 16.358305
-0.708988 0.025983 16.358570
-0.723057 0.055844 16.359277
-0.738820 0.084701 16.361014
-0.756589 0.112370 16.363969
-0.774359 0.140040 16.366925
-0.792791 0.167163 16.370314
-0.838799 0.223326 16.381143
-0.859974 0.248072 16.386354
-0.882875 0.270970 16.392782
-0.905776 0.293868 16.399210
-0.928676 0.316766 16.405638
-0.953186 0.337520 16.413288
-1.007728 0.383593 16.430335
-1.033435 0.402427 16.438961
-1.059170 0.421214 16.447610
-1.084905 0.440002 16.456260
-1.111304 0.457527 16.465490
-1.137933 0.474618 16.474922
-1.197626 0.511527 16.496353
-1.224925 0.527135 16.506414
-1.252224 0.542744 16.516476
-1.279778 0.557705 16.526794
-1.307587 0.572019 16.537369
-1.335396 0.586333 16.547945
23 NaN NaN
-0.927742 -1.069846 16.689788
-0.873637 -0.988473 16.646795
-0.822727 -0.904543 16.604830
-0.775643 -0.817800 16.564147
-0.733192 -0.727981 16.525084
-0.696415 -0.634849 16.488097
-0.666643 -0.538260 16.453805
-0.645539 -0.438278 16.423029
-0.635067 -0.335380 16.396820
-0.637275 -0.230698 16.376407
-0.653805 -0.126189 16.362989
-0.685235 -0.024432 16.357375
-0.730684 0.072031 16.359661
-0.788098 0.161435 16.369210
-0.854976 0.243074 16.384951
-0.928999 0.317089 16.405729
-1.008307 0.384083 16.430516
-1.091511 0.444824 16.458480
-1.177607 0.500080 16.488974
-1.265874 0.550548 16.521507
-1.355794 0.596832 16.555701
-1.446989 0.639446 16.591269
-1.539181 0.678822 16.627985
-1.064162 -1.319144 15.547703
-0.977596 -1.179045 15.498532
-0.898755 -1.033702 15.451748
-0.829962 -0.882381 15.408165
-0.775040 -0.724350 15.369173
-0.736369 -0.560406 15.335781
-0.720297 -0.391336 15.310524
-0.731188 -0.220847 15.295503
-0.770316 -0.053834 15.291762
-0.840814 0.102343 15.301337
-0.934545 0.244610 15.321438
-1.046757 0.371350 15.350415
-1.172782 0.482353 15.386493
-1.307483 0.580869 15.427322
-1.448859 0.667740 15.472039
-1.063135 -1.317528 15.547125
-0.978571 -1.180698 15.499094
-0.976620 -1.177392 15.497970
-0.899599 -1.035438 15.452270
-0.897910 -1.031966 15.451227
-0.830725 -0.884163 15.408660
-0.829199 -0.880600 15.407670
-0.775595 -0.726224 15.369599
-0.774484 -0.722477 15.368748
-0.736639 -0.562361 15.336105
-0.736099 -0.558451 15.335456
-0.720391 -0.393317 15.310783
-0.720203 -0.389355 15.310265
-0.730872 -0.222819 15.295604
-0.731504 -0.218874 15.295402
-0.769573 -0.055689 15.291684
-0.771059 -0.051979 15.291839
-0.839878 0.100583 15.301174
-0.841749 0.104103 15.301499
-0.933303 0.243072 15.321132
-0.935787 0.246147 15.321744
-1.045401 0.369925 15.350053
-1.048113 0.372774 15.350778
-1.171261 0.481134 15.386043
-1.174303 0.483571 15.386942
-1.305856 0.579823 15.426813
-1.309109 0.581916 15.427832
-1.447194 0.666767 15.471507
-1.059273 -1.311457 15.544952
-0.982235 -1.186911 15.501208
-0.972956 -1.171179 15.495856
-0.902774 -1.041963 15.454230
-0.894735 -1.025441 15.449267
-0.833593 -0.890856 15.410521
-0.826330 -0.873907 15.405809
-0.777682 -0.733265 15.371197
-0.772397 -0.715435 15.367149
-0.737654 -0.569707 15.337325
-0.735084 -0.551104 15.334237
-0.720743 -0.400761 15.311759
-0.719851 -0.381911 15.309289
-0.729685 -0.230231 15.295982
-0.732690 -0.211462 15.295024
-0.767528 -0.062919 15.291711
-0.773854 -0.045008 15.292130
-0.836362 0.093968 15.300564
-0.845266 0.110718 15.302109
-0.928634 0.237295 15.319984
-0.940456 0.251924 15.322892
-1.040304 0.364571 15.348691
-1.053210 0.378129 15.352139
-1.165545 0.476554 15.384356
-1.180019 0.488151 15.388629
-1.299744 0.575890 15.424900
-1.315222 0.585848 15.429745
-1.440939 0.663112 15.469507
-1.050152 -1.297119 15.539819
-1.038093 -1.278161 15.533032
-1.026034 -1.259202 15.526245
-1.013975 -1.240244 15.519458
-1.002335 -1.220984 15.512799
-0.990891 -1.201584 15.506199
-0.964300 -1.156506 15.490865
-0.953213 -1.136867 15.484376
-0.942478 -1.116994 15.477996
-0.931742 -1.097121 15.471617
-0.921007 -1.077248 15.465237
-0.910273 -1.057373 15.458858
-0.887236 -1.010031 15.444639
-0.877322 -0.989655 15.438519
-0.867408 -0.969280 15.432399
-0.858282 -0.948470 15.426535
-0.849325 -0.927568 15.420725
-0.840368 -0.906665 15.414915
-0.820281 -0.857746 15.401655
-0.812445 -0.836301 15.396216
-0.804610 -0.814855 15.390778
-0.796774 -0.793409 15.385339
-0.789130 -0.771884 15.379965
-0.782612 -0.749896 15.374973
-0.767467 -0.698805 15.363374
-0.760949 -0.676816 15.358382
-0.755928 -0.654331 15.353911
-0.750956 -0.631829 15.349457
-0.745984 -0.609327 15.345003
-0.741012 -0.586825 15.340549
-0.732686 -0.533752 15.331356
-0.729516 -0.510810 15.327548
-0.726346 -0.487868 15.323739
-0.723778 -0.464837 15.320152
-0.722677 -0.441590 15.317107
-0.721576 -0.418343 15.314062
-0.719282 -0.364318 15.307087
-0.720496 -0.340978 15.304924
-0.721710 -0.317638 15.302761
-0.722924 -0.294299 15.300597
-0.724137 -0.270959 15.298434
-0.726883 -0.247738 15.296875
-0.735493 -0.193955 15.294131
-0.739198 -0.170809 15.292951
-0.744024 -0.147892 15.292228
-0.750281 -0.125271 15.292090
-0.756538 -0.102650 15.291952
-0.762795 -0.080028 15.291815
-0.780453 -0.028542 15.292819
-0.789178 -0.006772 15.293729
-0.797903 0.014998 15.294638
-0.806628 0.036768 15.295548
-0.817077 0.057687 15.297219
-0.828058 0.078344 15.299124
-0.853570 0.126341 15.303550
-0.865704 0.146247 15.305984
-0.878643 0.165627 15.308788
-0.891583 0.185008 15.311592
-0.904523 0.204388 15.314397
-0.917608 0.223650 15.317271
-0.951482 0.265569 15.325605
-0.966061 0.283611 15.329193
-0.980639 0.301652 15.332780
-0.996437 0.318488 15.336973
-1.012352 0.335207 15.341224
-1.028267 0.351926 15.345476
-1.066037 0.389851 15.355763
-1.083026 0.405315 15.360570
-1.100016 0.420779 15.365378
-1.117006 0.436243 15.370185
-1.134197 0.451435 15.375101
-1.152046 0.465737 15.380370
-1.193519 0.498968 15.392615
-1.211406 0.513210 15.397906
-1.229943 0.526451 15.403560
-1.248479 0.539692 15.409215
-1.267016 0.552934 15.414869
-1.285552 0.566175 15.420523
-1.329659 0.595137 15.434265
-1.348748 0.607417 15.440240
-1.367837 0.619698 15.446216
-1.387094 0.631652 15.452293
-1.406629 0.643066 15.458538
-1.426164 0.654479 15.464784
25 NaN NaN
-1.064419 -1.319548 15.547848
-1.010134 -1.234206 15.517296
-0.958618 -1.146873 15.487588
-0.910293 -1.057414 15.458870
-0.865664 -0.965698 15.431323
-0.825346 -0.871610 15.405171
-0.790078 -0.775080 15.380690
-0.760740 -0.676112 15.358222
-0.738363 -0.574839 15.338177
-0.724098 -0.471593 15.321037
-0.719144 -0.366986 15.307334
-0.724605 -0.261969 15.297601
-0.741276 -0.157828 15.292288
-0.769427 -0.056053 15.291669
-0.808682 0.041894 15.295763
-0.858087 0.134838 15.304333
-0.916313 0.222047 15.316952
-0.981920 0.303237 15.333095
-1.053548 0.378483 15.352229
-1.130016 0.448085 15.373866
-1.210356 0.512459 15.397586
-1.293792 0.572061 15.423037
-1.379717 0.627342 15.449935
-1.467653 0.678721 15.478048
-1.557227 0.726580 15.507189
-1.173397 -1.561136 14.401414
-1.018648 -1.360578 14.424921
-0.879461 -1.149272 14.450919
-0.761928 -0.925630 14.479970
-0.677807 -0.688085 14.512927
-0.639301 -0.439929 14.549903
-0.661053 -0.190443 14.590195
-0.752233 0.042598 14.631487
-0.897891 0.246624 14.671032
-1.080950 0.419050 14.707546
-1.288236 0.562561 14.740769
-1.509515 0.684213 14.771281
-1.172148 -1.559584 14.401593
-1.019802 -1.362199 14.424726
-1.017493 -1.358957 14.425116
-0.880491 -1.150973 14.450705
-0.878431 -1.147571 14.451133
-0.762738 -0.927441 14.479727
-0.761173 -0.923794 14.480219
-0.678290 -0.690006 14.512650
-0.677325 -0.686164 14.513204
-0.639417 -0.441902 14.549599
-0.639184 -0.437955 14.550207
-0.660531 -0.192344 14.589870
-0.661612 -0.188551 14.590521
-0.751254 0.040883 14.631167
-0.753211 0.044312 14.631806
-0.896597 0.245129 14.670731
-0.899185 0.248118 14.671334
-1.079365 0.417860 14.707277
-1.082535 0.420240 14.707814
-1.286537 0.561535 14.740520
-1.289934 0.563587 14.741017
-1.507740 0.683321 14.771050
-1.165650 -1.551510 14.402525
-1.025810 -1.370636 14.423711
-1.011486 -1.350521 14.426131
-0.885851 -1.159822 14.449592
-0.873071 -1.138721 14.452245
-0.767222 -0.936751 14.478497
-0.757244 -0.914246 14.481516
-0.680800 -0.700002 14.511210
-0.674815 -0.676168 14.514644
-0.640022 -0.452170 14.548018
-0.638579 -0.427688 14.551788
-0.658821 -0.202471 14.588192
-0.664523 -0.178705 14.592217
-0.746164 0.031961 14.629504
-0.758302 0.053235 14.633470
-0.889864 0.237351 14.669163
-0.905919 0.255896 14.672902
-1.071505 0.411198 14.705826
-1.090782 0.426431 14.709212
-1.277699 0.556197 14.739226
-1.298773 0.568925 14.742311
-1.498504 0.678680 14.769845
-1.149066 -1.530902 14.404906
-1.127020 -1.503506 14.408070
-1.104998 -1.476093 14.411238
-1.083730 -1.448106 14.414535
-1.062461 -1.420118 14.417833
-1.041192 -1.392131 14.421130
-0.996153 -1.328989 14.428720
-0.975836 -1.300323 14.432173
-0.956473 -1.271022 14.435775
-0.937109 -1.241720 14.439377
-0.917745 -1.212418 14.442979
-0.899532 -1.182409 14.446751
-0.859524 -1.116060 14.455105
-0.842707 -1.085270 14.459072
-0.825891 -1.054481 14.463038
-0.809092 -1.023683 14.467007
-0.793879 -0.992097 14.471182
-0.778666 -0.960511 14.475356
-0.747217 -0.889876 14.484825
-0.733887 -0.857480 14.489223
-0.720657 -0.825049 14.493633
-0.709542 -0.791860 14.498270
-0.698428 -0.758672 14.502908
-0.687314 -0.725483 14.507546
-0.668410 -0.650656 14.518319
-0.660133 -0.616696 14.523224
-0.654637 -0.582200 14.528356
-0.649141 -0.547704 14.533489
-0.643644 -0.513209 14.538622
-0.641567 -0.478375 14.543984
-0.637471 -0.401484 14.555845
-0.639228 -0.366662 14.561402
-0.640984 -0.331841 14.566960
-0.642858 -0.297033 14.572522
-0.648658 -0.262675 14.578215
-0.654458 -0.228317 14.583909
-0.671952 -0.153576 14.596546
-0.681828 -0.120171 14.602300
-0.691959 -0.086859 14.608053
-0.705719 -0.054854 14.613787
-0.719480 -0.022850 14.619522
-0.733240 0.009155 14.625256
-0.771294 0.076007 14.637715
-0.788875 0.106083 14.643344
-0.809181 0.134437 14.648843
-0.829487 0.162791 14.654342
-0.849833 0.191113 14.659838
-0.872678 0.217501 14.665160
-0.923390 0.275483 14.676879
-0.948316 0.299956 14.682007
-0.973243 0.324428 14.687134
-0.998255 0.348809 14.692252
-1.024869 0.371477 14.697184
-1.051484 0.394145 14.702116
-1.111830 0.442231 14.712778
-1.139810 0.463235 14.717519
-1.167884 0.484110 14.722244
-1.196970 0.503596 14.726804
-1.226057 0.523083 14.731363
-1.255143 0.542569 14.735923
-1.321330 0.582550 14.745614
-1.351404 0.600515 14.749986
-1.382129 0.617384 14.754219
-1.412854 0.634254 14.758452
-1.443598 0.651088 14.762681
-1.474933 0.666835 14.766769
27 NaN NaN
-1.173709 -1.561524 14.401369
-1.105653 -1.476954 14.411137
-1.039996 -1.390557 14.421315
-0.977077 -1.302200 14.431943
-0.917302 -1.211747 14.443061
-0.861163 -1.119062 14.454718
-0.809254 -1.024019 14.466963
-0.762296 -0.926523 14.479849
-0.721152 -0.826529 14.493426
-0.686849 -0.724093 14.507740
-0.660568 -0.619426 14.522818
-0.643607 -0.512972 14.538657
-0.637270 -0.405477 14.555207
-0.642689 -0.298035 14.572356
-0.660584 -0.192029 14.589922
-0.691053 -0.088965 14.607675
-0.733511 0.009783 14.625369
-0.786804 0.103191 14.642783
-0.849466 0.190689 14.659753
-0.919970 0.272126 14.676175
-0.996903 0.347658 14.692002
-1.079052 0.417625 14.707224
-1.165418 0.482458 14.721858
-1.255201 0.542609 14.735932
-1.347767 0.598518 14.749484
-1.442613 0.650593 14.762552
-1.539341 0.699202 14.775173
-1.354230 -1.685737 13.246761
-1.213926 -1.523185 13.270244
-1.082808 -1.353411 13.295541
-0.963597 -1.175416 13.322973
-0.860165 -0.988239 13.352915
-0.778004 -0.791330 13.385744
-0.724544 -0.585408 13.421696
-0.708476 -0.373931 13.460556
-0.736779 -0.164217 13.501300
-0.810238 0.034221 13.542184
-0.922330 0.214179 13.581529
-1.063285 0.373323 13.618412
-1.224342 0.512922 13.652632
-1.399160 0.635624 13.684371
-1.352911 -1.684248 13.246975
-1.215166 -1.524737 13.270015
-1.212686 -1.521633 13.270474
-1.083948 -1.355036 13.295293
-1.081669 -1.351786 13.295788
-0.964605 -1.177123 13.322703
-0.962590 -1.173710 13.323243
-0.860997 -0.990034 13.352620
-0.859334 -0.986444 13.353210
-0.778598 -0.793212 13.385421
-0.777411 -0.789447 13.386068
-0.724822 -0.587357 13.421344
-0.724265 -0.583459 13.422048
-0.708365 -0.375893 13.460183
-0.708587 -0.371970 13.460930
-0.736246 -0.166107 13.500919
-0.737313 -0.162328 13.501681
-0.809321 0.032483 13.541812
-0.811155 0.035959 13.542555
-0.921114 0.212630 13.581178
-0.923546 0.215727 13.581880
-1.061858 0.371961 13.618085
-1.064713 0.374685 13.618739
-1.222768 0.511725 13.652329
-1.225915 0.514119 13.652935
-1.397486 0.634566 13.684089
-1.346939 -1.677504 13.247941
-1.220943 -1.531644 13.269008
-1.207068 -1.514600 13.271512
-1.089238 -1.362308 13.294193
-1.076506 -1.344425 13.296911
-0.969237 -1.184814 13.321492
-0.958024 -1.165979 13.324465
-0.864763 -0.998166 13.351283
-0.855567 -0.978312 13.354547
-0.781288 -0.801739 13.383956
-0.774721 -0.780920 13.387533
-0.726085 -0.596187 13.419751
-0.723002 -0.574629 13.423641
-0.707861 -0.384780 13.458491
-0.709091 -0.363082 13.462621
-0.733829 -0.174667 13.499193
-0.739730 -0.153767 13.503407
-0.805165 0.024610 13.540128
-0.815311 0.043833 13.544239
-0.915606 0.205614 13.579587
-0.929054 0.222744 13.583471
-1.055389 0.365791 13.616605
-1.071181 0.380855 13.620219
-1.215640 0.506303 13.650957
-1.233044 0.519541 13.654308
-1.389901 0.629777 13.682812
-1.332134 -1.660785 13.250338
-1.312492 -1.638605 13.253517
-1.292851 -1.616424 13.256697
-1.273519 -1.593985 13.259940
-1.254427 -1.571346 13.263233
-1.235334 -1.548708 13.266526
-1.193143 -1.497167 13.274087
-1.174669 -1.474039 13.277502
-1.156194 -1.450911 13.280918
-1.138184 -1.427436 13.284421
-1.120410 -1.403785 13.287970
-1.102635 -1.380135 13.291518
-1.063710 -1.326178 13.299695
-1.046733 -1.301970 13.303388
-1.029757 -1.277762 13.307080
-1.013473 -1.253105 13.310892
-0.997409 -1.228306 13.314741
-0.981345 -1.203506 13.318591
-0.946709 -1.146816 13.327494
-0.931696 -1.121393 13.331513
-0.916683 -1.095970 13.335531
-0.902711 -1.069989 13.339707
-0.888913 -1.043915 13.343908
-0.875116 -1.017841 13.348110
-0.846231 -0.958156 13.357862
-0.833844 -0.931414 13.362259
-0.821457 -0.904673 13.366656
-0.810633 -0.877296 13.371250
-0.799886 -0.849889 13.375854
-0.789139 -0.822481 13.380458
-0.768054 -0.759782 13.391164
-0.759209 -0.731739 13.395982
-0.750477 -0.703666 13.400811
-0.743826 -0.675060 13.405844
-0.737175 -0.646454 13.410877
-0.730524 -0.617848 13.415910
-0.719873 -0.552742 13.427589
-0.715721 -0.523704 13.432828
-0.711987 -0.494632 13.438094
-0.710624 -0.465364 13.443515
-0.709260 -0.436095 13.448936
-0.707896 -0.406827 13.454358
-0.710340 -0.341053 13.466815
-0.711997 -0.311827 13.472379
-0.714440 -0.282692 13.477965
-0.719247 -0.253834 13.483618
-0.724053 -0.224975 13.489270
-0.728860 -0.196116 13.494922
-0.745720 -0.132549 13.507686
-0.753668 -0.104397 13.513362
-0.762662 -0.076601 13.519024
-0.773601 -0.049463 13.524660
-0.784540 -0.022325 13.530296
-0.795478 0.004813 13.535931
-0.825611 0.063350 13.548414
-0.839277 0.089243 13.553952
-0.854020 0.114514 13.559428
-0.870084 0.139023 13.564826
-0.886147 0.163532 13.570225
-0.902210 0.188042 13.575623
-0.942708 0.240135 13.587414
-0.960822 0.263208 13.592646
-0.979882 0.285502 13.597779
-0.999720 0.307155 13.602830
-1.019558 0.328807 13.607881
-1.039396 0.350459 13.612932
-1.087215 0.396149 13.623887
-1.108486 0.416440 13.628755
-1.130525 0.435905 13.633505
-1.152984 0.454919 13.638192
-1.175442 0.473932 13.642879
-1.197970 0.492863 13.647554
-1.250713 0.532981 13.657711
-1.274156 0.550812 13.662225
-1.298206 0.567836 13.666618
-1.322466 0.584581 13.670970
-1.346726 0.601325 13.675321
-1.371101 0.617904 13.679647
29 NaN NaN
-1.354559 -1.686109 13.246708
-1.284310 -1.606779 13.258080
-1.216024 -1.525811 13.269857
-1.149950 -1.443093 13.282072
-1.086381 -1.358505 13.294764
-1.025664 -1.271926 13.307971
-0.968213 -1.183232 13.321738
-0.914522 -1.092309 13.336110
-0.865178 -0.999061 13.351136
-0.820881 -0.903429 13.366860
-0.782448 -0.805418 13.383324
-0.750819 -0.705138 13.400552
-0.727038 -0.602852 13.418549
-0.712192 -0.499029 13.437280
-0.707316 -0.394389 13.456661
-0.713239 -0.289904 13.476553
-0.730422 -0.186737 13.496759
-0.758834 -0.086098 13.517052
-0.797940 0.010921 13.537200
-0.846799 0.103495 13.557001
-0.904232 0.191127 13.576303
-0.969004 0.273630 13.595009
-1.039943 0.351057 13.613071
-1.116011 0.423618 13.630476
-1.196328 0.491614 13.647238
-1.280165 0.555383 13.663382
-1.366928 0.615269 13.678945
-1.456134 0.671602 13.693962
-1.547393 0.724689 13.708474
-1.649470 -1.656784 12.108550
-1.488812 -1.521695 12.095561
-1.333982 -1.379825 12.084317
-1.186782 -1.229929 12.075263
-1.049909 -1.070448 12.069034
-0.927540 -0.899561 12.066549
-0.826263 -0.715525 12.069135
-0.756165 -0.517958 12.078573
-0.730317 -0.310842 12.096683
-0.758757 -0.105284 12.123987
-0.839508 0.084894 12.158636
-0.959921 0.252257 12.197640
-1.106451 0.397077 12.238692
-1.269588 0.522839 12.280531
-1.443517 0.633236 12.322558
-1.647930 -1.655514 12.108423
-1.490327 -1.522995 12.095681
-1.487297 -1.520394 12.095442
-1.335436 -1.381195 12.084418
-1.332528 -1.378456 12.084215
-1.188154 -1.231381 12.075341
-1.185409 -1.228476 12.075184
-1.051170 -1.072000 12.069082
-1.048648 -1.068896 12.068986
-0.928640 -0.901231 12.066557
-0.926440 -0.897891 12.066542
-0.827124 -0.717330 12.069087
-0.825402 -0.713721 12.069184
-0.756669 -0.519889 12.078450
-0.755661 -0.516026 12.078697
-0.730329 -0.312831 12.096469
-0.730305 -0.308854 12.096898
-0.758220 -0.107187 12.123687
-0.759294 -0.103381 12.124287
-0.838512 0.083196 12.158279
-0.840503 0.086592 12.158993
-0.958616 0.250791 12.197255
-0.961226 0.253723 12.198025
-1.104952 0.395814 12.238296
-1.107950 0.398340 12.239088
-1.267965 0.521740 12.280131
-1.271210 0.523939 12.280931
-1.441814 0.632267 12.322158
-1.641107 -1.649889 12.107859
-1.497039 -1.528756 12.096211
-1.480659 -1.514548 12.094934
-1.341878 -1.387263 12.084868
-1.326087 -1.372388 12.083765
-1.194236 -1.237816 12.075689
-1.179327 -1.222041 12.074836
-1.056755 -1.078876 12.069296
-1.043063 -1.062020 12.068771
-0.933513 -0.908632 12.066591
-0.921568 -0.890490 12.066508
-0.830938 -0.725325 12.068874
-0.821588 -0.705725 12.069397
-0.758903 -0.528447 12.077903
-0.753427 -0.507469 12.079244
-0.730381 -0.321641 12.095518
-0.730253 -0.300044 12.097849
-0.755840 -0.115618 12.122357
-0.761674 -0.094949 12.125616
-0.834102 0.075675 12.156699
-0.844913 0.094113 12.160573
-0.952834 0.244297 12.195550
-0.967008 0.260218 12.199730
-1.098310 0.390218 12.236540
-1.114592 0.403937 12.240843
-1.260778 0.516868 12.278361
-1.278397 0.528810 12.282701
-1.434267 0.627973 12.320389
-1.624282 -1.636016 12.106469
-1.601969 -1.617619 12.104625
-1.579655 -1.599221 12.102782
-1.557491 -1.580641 12.100983
-1.535540 -1.561801 12.099251
-1.513590 -1.542961 12.097518
-1.464418 -1.499980 12.093720
-1.442880 -1.480659 12.092111
-1.421342 -1.461339 12.090502
-1.399896 -1.441915 12.088919
-1.378830 -1.422070 12.087448
-1.357763 -1.402226 12.085977
-1.310593 -1.357013 12.082769
-1.290070 -1.336596 12.081454
-1.269547 -1.316179 12.080139
-1.249024 -1.295762 12.078824
-1.229124 -1.274728 12.077684
-1.209234 -1.253683 12.076546
-1.164706 -1.205825 12.074081
-1.145558 -1.184093 12.073147
-1.126411 -1.162361 12.072213
-1.107263 -1.140630 12.071278
-1.088795 -1.118316 12.070525
-1.070529 -1.095830 12.069824
-1.029599 -1.044824 12.068323
-1.012388 -1.021514 12.067895
-0.995176 -0.998204 12.067466
-0.977964 -0.974894 12.067037
-0.961465 -0.951085 12.066786
-0.945529 -0.926882 12.066675
-0.909678 -0.872162 12.066454
-0.895298 -0.847005 12.066715
-0.880917 -0.821847 12.066976
-0.866537 -0.796689 12.067237
-0.852817 -0.771189 12.067650
-0.840344 -0.745041 12.068348
-0.812183 -0.686010 12.069923
-0.801742 -0.659015 12.071064
-0.791604 -0.631894 12.072271
-0.781467 -0.604773 12.073477
-0.771715 -0.577535 12.074763
-0.764410 -0.549549 12.076553
-0.747920 -0.486367 12.080594
-0.742825 -0.457973 12.082809
-0.738869 -0.429369 12.085243
-0.734913 -0.400765 12.087678
-0.730957 -0.372160 12.090112
-0.730510 -0.343365 12.093173
-0.730124 -0.278320 12.100194
-0.731767 -0.249661 12.103600
-0.735609 -0.221186 12.107365
-0.739452 -0.192711 12.111131
-0.743294 -0.164236 12.114896
-0.749972 -0.136409 12.119080
-0.767542 -0.074158 12.128893
-0.776201 -0.046916 12.133355
-0.787567 -0.020698 12.138172
-0.798932 0.005520 12.142989
-0.810297 0.031738 12.147806
-0.823227 0.057127 12.152803
-0.855788 0.112660 12.164469
-0.870300 0.137197 12.169646
-0.887219 0.160093 12.175059
-0.904138 0.182989 12.180471
-0.921057 0.205885 12.185884
-0.938577 0.228281 12.191346
-0.981265 0.276234 12.203934
-1.000174 0.297474 12.209509
-1.020379 0.317443 12.215170
-1.040859 0.337144 12.220849
-1.061339 0.356844 12.226527
-1.081931 0.376418 12.232212
-1.130971 0.417737 12.245172
-1.152693 0.436039 12.250912
-1.175021 0.453573 12.256674
-1.197732 0.470622 12.262448
-1.220442 0.487671 12.268223
-1.243152 0.504720 12.273997
-1.296120 0.540822 12.287066
-1.319624 0.556753 12.292856
-1.343387 0.572284 12.298647
-1.367537 0.587218 12.304439
-1.391686 0.602152 12.310231
-1.415836 0.617086 12.316024
29 NaN NaN
-1.649855 -1.657102 12.108582
-1.566505 -1.588378 12.101695
-1.484510 -1.518002 12.095222
-1.404056 -1.445833 12.089210
-1.325363 -1.371706 12.083715
-1.248703 -1.295442 12.078803
-1.174406 -1.216835 12.074555
-1.102885 -1.135661 12.071065
-1.034656 -1.051672 12.068449
-0.970369 -0.964608 12.066848
-0.910849 -0.874210 12.066433
-0.857141 -0.780253 12.067408
-0.810559 -0.682606 12.070014
-0.772707 -0.581335 12.074520
-0.745435 -0.476848 12.081202
-0.730668 -0.370070 12.090290
-0.730030 -0.262532 12.101898
-0.744371 -0.156254 12.115952
-0.773419 -0.053334 12.132176
-0.815845 0.044537 12.150158
-0.869692 0.136374 12.169451
-0.932868 0.221868 12.189663
-1.003481 0.301189 12.210484
-1.079968 0.374763 12.231693
-1.161098 0.443121 12.253134
-1.245923 0.506800 12.274702
-1.333717 0.566305 12.296328
-1.423923 0.622086 12.317963
-1.516108 0.674542 12.339578
-1.964073 -1.534929 9.661371
-1.816416 -1.449406 9.686980
-1.671318 -1.360008 9.713900
-1.529616 -1.265795 9.742451
-1.392175 -1.166047 9.772883
-1.259799 -1.060275 9.805369
-1.135093 -0.946413 9.840628
-1.019389 -0.824323 9.878727
-0.917387 -0.691702 9.920496
-0.834044 -0.548008 9.966192
-0.775463 -0.393758 10.015745
-0.752661 -0.231564 10.068479
-0.765563 -0.068602 10.122041
-0.816802 0.087410 10.173950
-0.896191 0.232261 10.222659
-0.996832 0.364814 10.267687
-1.113117 0.485264 10.309006
-1.239430 0.596285 10.347399
-1.374092 0.698113 10.382919
-1.962355 -1.533948 9.661664
-1.818116 -1.450416 9.686677
-1.814716 -1.448397 9.687283
-1.672973 -1.361082 9.713575
-1.669662 -1.358934 9.714225
-1.531245 -1.266906 9.742113
-1.527988 -1.264684 9.742788
-1.393735 -1.167243 9.772517
-1.390614 -1.164851 9.773249
-1.261316 -1.061520 9.804986
-1.258282 -1.059029 9.805753
-1.136496 -0.947774 9.840206
-1.133689 -0.945053 9.841051
-1.020624 -0.825824 9.878256
-1.018153 -0.822822 9.879199
-0.918507 -0.693282 9.919997
-0.916267 -0.690122 9.920995
-0.834846 -0.549753 9.965634
-0.833243 -0.546263 9.966751
-0.776051 -0.395577 10.015159
-0.774875 -0.391938 10.016331
-0.752724 -0.233464 10.067858
-0.752599 -0.229664 10.069100
-0.765073 -0.070442 10.121431
-0.766053 -0.066761 10.122652
-0.816073 0.085644 10.173360
-0.817531 0.089176 10.174540
-0.895097 0.230675 10.222123
-0.897285 0.233846 10.223196
-0.995606 0.363318 10.267178
-0.998058 0.366310 10.268197
-1.111701 0.483929 10.308546
-1.114533 0.486599 10.309466
-1.237888 0.595082 10.346980
-1.240972 0.597488 10.347818
-1.372504 0.696966 10.382517
-1.955878 -1.530252 9.662770
-1.824525 -1.454220 9.685536
-1.808308 -1.444593 9.688425
-1.679215 -1.365130 9.712351
-1.663421 -1.354885 9.715449
-1.537384 -1.271094 9.740842
-1.521849 -1.260496 9.744060
-1.399617 -1.171753 9.771135
-1.384732 -1.160342 9.774630
-1.267035 -1.066216 9.803542
-1.252693 -1.054196 9.807245
-1.141787 -0.952904 9.838612
-1.128399 -0.939923 9.842645
-1.025279 -0.831481 9.876479
-1.013498 -0.817165 9.880976
-0.922730 -0.699238 9.918115
-0.912044 -0.684167 9.922877
-0.837868 -0.556332 9.963529
-0.830221 -0.539684 9.968856
-0.778268 -0.402436 10.012949
-0.772690 -0.385072 10.018544
-0.752961 -0.240627 10.065516
-0.752362 -0.222501 10.071441
-0.763225 -0.077380 10.119130
-0.767902 -0.059824 10.124953
-0.813324 0.078985 10.171135
-0.820280 0.095835 10.176764
-0.890972 0.224697 10.220099
-0.901410 0.239824 10.225220
-0.990984 0.357679 10.265257
-1.002679 0.371948 10.270118
-1.106361 0.478897 10.306812
-1.119873 0.491632 10.311200
-1.232178 0.590434 10.345366
-1.246784 0.602023 10.349397
-1.366515 0.692643 10.381005
-1.940566 -1.521514 9.665383
-1.920319 -1.509960 9.668838
-1.900073 -1.498405 9.672293
-1.879826 -1.486851 9.675748
-1.859705 -1.475102 9.679268
-1.839674 -1.463212 9.682837
-1.793159 -1.435601 9.691124
-1.773201 -1.423601 9.694729
-1.753414 -1.411346 9.698421
-1.733627 -1.399090 9.702113
-1.713840 -1.386834 9.705805
-1.694053 -1.374579 9.709498
-1.648667 -1.345315 9.718343
-1.629158 -1.332661 9.722171
-1.609650 -1.320007 9.725998
-1.590274 -1.307173 9.729886
-1.571085 -1.294083 9.733861
-1.551896 -1.280993 9.737836
-1.507386 -1.250533 9.747088
-1.488567 -1.236965 9.751225
-1.469749 -1.223397 9.755363
-1.450930 -1.209829 9.759500
-1.432111 -1.196260 9.763638
-1.413522 -1.182412 9.767871
-1.370827 -1.149682 9.777895
-1.352441 -1.135587 9.782212
-1.334183 -1.121346 9.786579
-1.316307 -1.106669 9.791095
-1.298431 -1.091992 9.795611
-1.280555 -1.077315 9.800126
-1.239634 -1.042609 9.810827
-1.222365 -1.027288 9.815563
-1.205097 -1.011967 9.820300
-1.187829 -0.996646 9.825036
-1.170830 -0.981063 9.829863
-1.154293 -0.965030 9.834844
-1.115893 -0.927797 9.846413
-1.099434 -0.911695 9.851418
-1.083788 -0.894874 9.856672
-1.068141 -0.878053 9.861926
-1.052495 -0.861232 9.867180
-1.036849 -0.844411 9.872433
-1.002492 -0.803791 9.885176
-0.987939 -0.786107 9.890730
-0.973386 -0.768423 9.896284
-0.959111 -0.750548 9.901906
-0.945912 -0.731932 9.907787
-0.932712 -0.713316 9.913668
-0.902061 -0.670088 9.927324
-0.890417 -0.650568 9.933527
-0.878897 -0.630976 9.939755
-0.867378 -0.611383 9.945983
-0.855858 -0.591791 9.952211
-0.845011 -0.571883 9.958553
-0.823078 -0.524132 9.973831
-0.813632 -0.503569 9.980411
-0.804301 -0.482966 9.987005
-0.797371 -0.461527 9.993912
-0.790440 -0.440089 10.000819
-0.783510 -0.418650 10.007726
-0.769673 -0.368365 10.023965
-0.765683 -0.346273 10.031134
-0.761693 -0.324181 10.038302
-0.757703 -0.302089 10.045470
-0.754259 -0.279947 10.052664
-0.753520 -0.257559 10.059982
-0.751803 -0.205569 10.076975
-0.751064 -0.183180 10.084294
-0.753300 -0.160918 10.091618
-0.755902 -0.138671 10.098944
-0.758503 -0.116424 10.106270
-0.761105 -0.094177 10.113596
-0.772271 -0.043424 10.130393
-0.778048 -0.021739 10.137587
-0.783825 -0.000054 10.144780
-0.789642 0.021619 10.151970
-0.798234 0.042432 10.158923
-0.806826 0.063245 10.165876
-0.826778 0.111575 10.182023
-0.837114 0.131623 10.188754
-0.848076 0.151396 10.195405
-0.859037 0.171168 10.202056
-0.869998 0.190941 10.208707
-0.881221 0.210567 10.215314
-0.911161 0.253954 10.230004
-0.924054 0.272639 10.236330
-0.936947 0.291323 10.242656
-0.951169 0.309100 10.248707
-0.965614 0.326725 10.254711
-0.980060 0.344350 10.260716
-1.014320 0.384707 10.274483
-1.030009 0.401342 10.280184
-1.045698 0.417977 10.285884
-1.061387 0.434612 10.291585
-1.077076 0.451247 10.297285
-1.093739 0.467001 10.302712
-1.132495 0.503528 10.315299
-1.149184 0.519258 10.320719
-1.166437 0.534421 10.325963
-1.183939 0.549333 10.331129
-1.201440 0.564245 10.336294
-1.218942 0.579157 10.341460
-1.260524 0.612744 10.353130
-1.278691 0.626919 10.358065
-1.296858 0.641095 10.363000
-1.315025 0.655271 10.367936
-1.333640 0.668909 10.372702
-1.352359 0.682423 10.377430
31 NaN NaN
-1.964503 -1.535174 9.661298
-1.871310 -1.481992 9.677201
-1.779110 -1.427261 9.693626
-1.688033 -1.370850 9.710621
-1.598238 -1.312605 9.728236
-1.509914 -1.252356 9.746532
-1.423296 -1.189904 9.765576
-1.338668 -1.125029 9.785446
-1.256390 -1.057476 9.806231
-1.176911 -0.986960 9.828031
-1.100801 -0.913164 9.850959
-1.028791 -0.835748 9.875139
-0.961817 -0.754364 9.900700
-0.901076 -0.668698 9.927764
-0.848071 -0.578545 9.956421
-0.804615 -0.483937 9.986692
-0.772734 -0.385317 10.018465
-0.754383 -0.283705 10.051435
-0.750983 -0.180738 10.085092
-0.762947 -0.078421 10.118784
-0.789519 0.021321 10.151870
-0.829045 0.117067 10.183858
-0.879478 0.208040 10.214459
-0.938805 0.294016 10.243568
-1.005281 0.375123 10.271199
-1.077484 0.451680 10.297433
-1.154296 0.524076 10.322380
-1.234848 0.592709 10.346155
-1.318465 0.657955 10.368870
-1.404623 0.720153 10.390629
-1.492908 0.779607 10.411524
-1.116011 -1.480108 6.736258
-0.986353 -1.294574 6.731147
-0.870903 -1.099891 6.727977
-0.774740 -0.895051 6.727335
-0.705200 -0.679856 6.730014
-0.672073 -0.456410 6.736954
-0.685650 -0.231287 6.748945
-0.751140 -0.015774 6.766012
-0.864638 0.178541 6.787197
-1.013259 0.347328 6.810925
-1.185325 0.492067 6.836022
-1.372726 0.616317 6.861791
-1.114836 -1.478490 6.736208
-0.987422 -1.296265 6.731181
-0.985284 -1.292884 6.731112
-0.871831 -1.101662 6.727992
-0.869976 -1.098119 6.727961
-0.775477 -0.896910 6.727327
-0.774003 -0.893192 6.727344
-0.705679 -0.681798 6.729974
-0.704722 -0.677915 6.730054
-0.672209 -0.458403 6.736875
-0.671937 -0.454416 6.737033
-0.685370 -0.233263 6.748823
-0.685930 -0.229310 6.749068
-0.750428 -0.017636 6.765849
-0.751852 -0.013912 6.766175
-0.863409 0.176976 6.786993
-0.865867 0.180105 6.787401
-1.011805 0.345972 6.810706
-1.014713 0.348684 6.811143
-1.183720 0.490895 6.835796
-1.186929 0.493240 6.836247
-1.371020 0.615298 6.861562
-1.109296 -1.470868 6.735976
-0.992459 -1.304230 6.731344
-0.980248 -1.284919 6.730949
-0.876202 -1.110013 6.728067
-0.865604 -1.089768 6.727887
-0.778952 -0.905672 6.727286
-0.770528 -0.884430 6.727385
-0.707934 -0.690948 6.729785
-0.702466 -0.668765 6.730242
-0.672851 -0.467800 6.736504
-0.671296 -0.445019 6.737405
-0.684049 -0.242578 6.748246
-0.687251 -0.219995 6.749645
-0.747073 -0.026411 6.765081
-0.756013 -0.005503 6.767012
-0.857616 0.169603 6.786031
-0.871659 0.187479 6.788363
-1.004953 0.339581 6.809678
-1.021565 0.355074 6.812172
-1.176158 0.485369 6.834732
-1.194491 0.498765 6.837311
-1.362981 0.610496 6.860481
-1.095441 -1.451808 6.735394
-1.077048 -1.426504 6.734621
-1.058656 -1.401201 6.733848
-1.040848 -1.375485 6.733157
-1.023235 -1.349630 6.732494
-1.005623 -1.323775 6.731830
-0.967652 -1.265000 6.730541
-0.950930 -1.238557 6.730000
-0.934428 -1.211980 6.729488
-0.918732 -1.184914 6.729085
-0.903035 -1.157848 6.728682
-0.887338 -1.130782 6.728279
-0.854672 -1.068887 6.727701
-0.840159 -1.041166 6.727455
-0.826581 -1.012984 6.727329
-0.813444 -0.984584 6.727261
-0.800306 -0.956185 6.727193
-0.787640 -0.927583 6.727185
-0.761840 -0.862519 6.727486
-0.750577 -0.833334 6.727654
-0.740913 -0.803575 6.728020
-0.731250 -0.773816 6.728385
-0.721586 -0.744057 6.728750
-0.713575 -0.713829 6.729314
-0.696825 -0.645883 6.730713
-0.690873 -0.615200 6.731517
-0.685894 -0.584321 6.732434
-0.680916 -0.553442 6.733350
-0.676584 -0.522492 6.734339
-0.674455 -0.491298 6.735574
-0.669941 -0.421518 6.738362
-0.670963 -0.390283 6.739934
-0.671984 -0.359048 6.741506
-0.673006 -0.327814 6.743078
-0.676363 -0.296795 6.744888
-0.680747 -0.265872 6.746803
-0.692430 -0.197088 6.751269
-0.700242 -0.166871 6.753516
-0.708054 -0.136655 6.755763
-0.716409 -0.106615 6.758060
-0.727546 -0.077485 6.760610
-0.738684 -0.048354 6.763160
-0.766713 0.015392 6.769130
-0.780919 0.043131 6.771942
-0.795124 0.070869 6.774753
-0.811042 0.097605 6.777700
-0.827957 0.123755 6.780726
-0.844873 0.149905 6.783752
-0.886145 0.205917 6.790769
-0.905374 0.230395 6.793963
-0.924795 0.254708 6.797169
-0.945954 0.277520 6.800490
-0.967113 0.300331 6.803811
-0.988273 0.323143 6.807132
-1.038699 0.371055 6.814744
-1.061446 0.392269 6.818160
-1.084926 0.412639 6.821613
-1.108970 0.432359 6.825097
-1.133013 0.452079 6.828580
-1.157248 0.471552 6.832072
-1.213401 0.512583 6.839972
-1.238532 0.530887 6.843504
-1.264503 0.547972 6.847069
-1.290475 0.565057 6.850634
-1.316446 0.582142 6.854199
-1.342879 0.598488 6.857779
25 NaN NaN
-1.116305 -1.480512 6.736270
-1.054032 -1.394840 6.733654
-0.994400 -1.307300 6.731407
-0.937786 -1.217770 6.729574
-0.884641 -1.126132 6.728210
-0.835507 -1.032279 6.727376
-0.791030 -0.936131 6.727145
-0.751982 -0.837658 6.727601
-0.719266 -0.736915 6.728838
-0.693918 -0.634091 6.730956
-0.677067 -0.529570 6.734059
-0.669860 -0.423990 6.738237
-0.673318 -0.318280 6.743557
-0.688153 -0.213630 6.750039
-0.714590 -0.111373 6.757643
-0.752281 -0.012789 6.766274
-0.800358 0.081089 6.775789
-0.857612 0.169597 6.786030
-0.922702 0.252451 6.796840
-0.994328 0.329672 6.808083
-1.071332 0.401490 6.819644
-1.152731 0.468252 6.831436
-1.237721 0.530353 6.843393
-1.325651 0.588197 6.855463
-1.416002 0.642168 6.867609
