-1.486107 0.676319 10.797347
-1.492407 0.682680 10.792420
-1.498706 0.689040 10.787494
-1.807881 0.999601 10.546580
-2.119147 1.303026 10.309090
-2.495756 1.539820 10.093011
-2.921722 1.699765 9.900509
-1.502781 0.693154 10.784307
-1.806650 0.998355 10.547545
-1.809112 1.000847 10.545616
-2.117771 1.301909 10.310017
-2.120523 1.304143 10.308164
-2.494150 1.538975 10.093851
-2.497363 1.540665 10.092171
-2.919937 1.699247 9.901247
-1.519356 0.709890 10.771344
-1.790086 0.981609 10.560510
-1.825663 1.017603 10.532648
-2.099740 1.286459 10.322608
-2.139021 1.319160 10.295705
-2.472772 1.527285 10.105215
-2.518959 1.552023 10.080881
-2.895868 1.692421 9.911093
-1.554917 0.745737 10.743566
-1.594801 0.785773 10.712502
-1.634725 0.825777 10.681447
-1.674664 0.865767 10.650396
-1.714594 0.905765 10.619342
-1.754476 0.945803 10.588278
-1.861131 1.053526 10.504849
-1.900773 1.093762 10.473733
-1.940575 1.133865 10.442652
-1.980511 1.173859 10.411600
-2.021063 1.213335 10.380686
-2.062267 1.252247 10.349932
-2.178801 1.351211 10.269047
-2.226383 1.383879 10.240284
-2.275140 1.415156 10.212012
-2.325153 1.444947 10.184267
-2.376103 1.473510 10.156943
-2.427141 1.501937 10.129638
-2.565250 1.576368 10.056680
-2.618852 1.600770 10.030430
-2.673475 1.623356 10.004765
-2.729571 1.643282 9.979969
-2.786760 1.660893 9.955964
-2.844270 1.677802 9.932190
-4.075237 1.965012 9.443041
-5.251037 2.236916 9.054008
-6.215951 2.958420 8.768827
-6.797604 4.047807 8.476364
-7.437502 5.098030 8.163991
-8.182152 6.067431 7.825374
-9.061827 6.902639 7.456563
-10.076034 7.553569 7.063937
-11.195195 7.992262 6.661556
-12.375573 8.228757 6.263440
-13.581642 8.297689 5.877236
-2.923507 1.700283 9.899770
-4.073416 1.964602 9.443759
-4.077059 1.965421 9.442323
-5.249193 2.236316 9.054497
-5.252881 2.237516 9.053519
-6.215004 2.956716 8.769275
-6.216898 2.960124 8.768380
-6.796660 4.046110 8.476840
-6.798549 4.049505 8.475888
-7.436435 5.096417 8.164499
-7.438569 5.099644 8.163484
-8.180893 6.065979 7.825928
-8.183411 6.068883 7.824820
-9.060327 6.901462 7.457166
-9.063328 6.903815 7.455959
-10.074335 7.552724 7.064568
-10.077733 7.554415 7.063306
-11.193368 7.991750 6.662190
-11.197022 7.992773 6.660923
-12.373684 8.228540 6.264058
-12.377463 8.228974 6.262822
-13.579734 8.297685 5.877835
-2.947506 1.707244 9.889846
-4.048934 1.959096 9.453411
-4.101541 1.970927 9.432671
-5.224402 2.228251 9.061072
-5.277672 2.245581 9.046943
-6.202274 2.933811 8.775290
-6.228479 2.983634 8.762404
-6.783961 4.023290 8.483234
-6.811247 4.072325 8.469494
-7.422119 5.074702 8.171313
-7.452911 5.121338 8.156662
-8.163967 6.046461 7.833373
-8.200571 6.088172 7.817321
-9.040156 6.885645 7.465281
-9.083499 6.919632 7.447845
-10.051649 7.541046 7.073038
-10.100574 7.565780 7.054821
-11.168809 7.984875 6.670703
-11.221598 7.999587 6.652411
-12.348280 8.225626 6.272368
-12.402866 8.231888 6.254512
-13.554073 8.297848 5.885857
-3.056663 1.738403 9.844834
-3.231771 1.781735 9.775043
-3.409263 1.818017 9.707175
-3.586203 1.855473 9.638509
-3.762169 1.894632 9.568298
-3.937846 1.934119 9.497550
-4.212896 1.996026 9.389281
-4.389742 2.036000 9.321796
-4.567618 2.075959 9.257069
-4.747647 2.114515 9.197688
-4.929662 2.152449 9.144240
-5.110927 2.196016 9.092612
-5.389708 2.284452 9.017850
-5.564884 2.353018 8.972784
-5.729830 2.442410 8.927641
-5.869515 2.568653 8.885242
-6.005617 2.699893 8.844588
-6.137758 2.834160 8.802592
-6.281000 3.090495 8.735319
-6.370499 3.256486 8.692254
-6.460810 3.421747 8.648013
-6.547928 3.588506 8.602973
-6.635531 3.755036 8.558026
-6.726033 3.919804 8.512344
-6.868681 4.176127 8.440531
-6.961909 4.339141 8.394059
-7.058825 4.499708 8.346595
-7.155104 4.660706 8.299299
-7.254271 4.819704 8.251255
-7.357295 4.975934 8.202216
-7.519051 5.219120 8.125429
-7.628264 5.370569 8.074843
-7.738794 5.520962 8.023931
-7.851128 5.669847 7.972584
-7.968639 5.814238 7.920000
-8.087836 5.957111 7.867020
-8.279962 6.174348 7.782937
-8.408096 6.308453 7.727943
-8.537841 6.440848 7.672604
-8.672061 6.568280 7.616325
-8.809807 6.691586 7.559331
-8.949714 6.812233 7.501921
-9.175979 6.990271 7.410839
-9.324716 7.099001 7.351841
-9.476356 7.203373 7.292375
-9.631232 7.302583 7.232425
-9.789127 7.396662 7.172075
-9.949321 7.486587 7.111443
-10.204827 7.616320 7.016245
-10.371687 7.692696 6.955006
-10.540025 7.765667 6.893678
-10.711147 7.831725 6.832263
-10.884076 7.892947 6.770830
-11.057846 7.951726 6.709411
-11.333620 8.029118 6.613792
-11.511155 8.075650 6.552615
-11.690096 8.116656 6.491651
-11.870698 8.150339 6.431031
-12.051246 8.184293 6.370394
-12.232940 8.212111 6.310130
-12.518136 8.245903 6.216712
-12.701067 8.265753 6.157010
-12.884944 8.277216 6.098015
-13.068900 8.287909 6.039088
-13.252991 8.296844 5.980329
-13.437522 8.298535 5.922299
162 NaN NaN
-1.482958 0.673139 10.799810
-1.544888 0.735670 10.751377
-1.607017 0.798036 10.702988
-1.669236 0.860329 10.654617
-1.731436 0.922637 10.606243
-1.793508 0.985050 10.557841
-1.855348 1.047656 10.509389
-1.917099 1.110334 10.460918
-1.979278 1.172659 10.412539
-2.042448 1.234153 10.364383
-2.107762 1.293783 10.316758
-2.176862 1.349881 10.270219
-2.250966 1.400756 10.225424
-2.328867 1.447159 10.182206
-2.408352 1.491500 10.139695
-2.487891 1.535684 10.097123
-2.568576 1.578117 10.054941
-2.652248 1.615816 10.014148
-2.739614 1.646849 9.975530
-2.829068 1.673495 9.938406
-2.919009 1.698978 9.901631
-3.008674 1.724987 9.864549
-3.098632 1.750136 9.827591
-3.189551 1.772689 9.791325
-3.281457 1.792380 9.755880
-3.373759 1.810790 9.720772
-3.465919 1.829551 9.685478
-3.557731 1.849193 9.649757
-3.649253 1.869381 9.613600
-3.740559 1.889780 9.577019
-3.831759 1.910257 9.540215
-3.922976 1.930776 9.503479
-4.014317 1.951312 9.467059
-4.105791 1.971883 9.430995
-4.197380 1.992521 9.395265
-4.289090 2.013243 9.359894
-4.380984 2.034023 9.325041
-4.473139 2.054827 9.290896
-4.565672 2.075534 9.257732
-4.658783 2.095870 9.225987
-4.752643 2.115563 9.196097
-4.847104 2.134941 9.167945
-4.941711 2.155005 9.140780
-5.036019 2.176756 9.113877
-5.129826 2.200875 9.087247
-5.223085 2.227823 9.061422
-5.315706 2.257955 9.036855
-5.407630 2.290869 9.013247
-5.498878 2.325828 8.989954
-5.589179 2.363026 8.966464
-5.676577 2.406482 8.942878
-5.757519 2.461090 8.919719
-5.829694 2.527306 8.897646
-5.897806 2.598027 8.876429
-5.968134 2.666584 8.855432
-6.041528 2.731804 8.834198
-6.111766 2.800176 8.812395
-6.171174 2.877851 8.789988
-6.218716 2.963395 8.767520
-6.261271 3.051614 8.745218
-6.305595 3.138967 8.722978
-6.352748 3.224809 8.700648
-6.400594 3.310191 8.678025
-6.447288 3.396088 8.654952
-6.492835 3.482519 8.631581
-6.537877 3.569203 8.608164
-6.583005 3.655872 8.584858
-6.628626 3.742275 8.561525
-6.675101 3.828161 8.537972
-6.722481 3.913471 8.514127
-6.770200 3.998558 8.490164
-6.817643 4.083820 8.466273
-6.864825 4.169250 8.442466
-6.912542 4.254343 8.418521
-6.961573 4.338583 8.394223
-7.011761 4.422050 8.369615
-7.062230 4.505326 8.344930
-7.112230 4.588919 8.320369
-7.162178 4.672549 8.295823
-7.213067 4.755535 8.271033
-7.265605 4.837356 8.245815
-7.319191 4.918412 8.220328
-7.372849 4.999415 8.194822
-7.426071 5.080740 8.169428
-7.479659 5.161795 8.143941
-7.534635 5.241800 8.118105
-7.591316 5.320468 8.091845
-7.648832 5.398459 8.065378
-7.706248 5.476532 8.038936
-7.763523 5.554721 8.012529
-7.821598 5.632250 7.985929
-7.881362 5.708338 7.958921
-7.942639 5.783086 7.931555
-8.004546 5.857260 7.904042
-8.066359 5.931520 7.876550
-8.128459 6.005515 7.848993
-8.191698 6.078439 7.821175
-8.256649 6.149688 7.792969
-8.322829 6.219690 7.764490
-8.389511 6.289170 7.735902
-8.456333 6.358503 7.707285
-8.523814 6.427135 7.678526
-8.592580 6.494359 7.649496
-8.662811 6.559918 7.620161
-8.734038 6.624303 7.590625
-8.805783 6.688065 7.560988
-8.878001 6.751247 7.531260
-8.951059 6.813377 7.501371
-9.025291 6.873989 7.471260
-9.100654 6.933084 7.440944
-9.176893 6.990965 7.410473
-9.253801 7.047895 7.379892
-9.331400 7.103818 7.349197
-9.409793 7.158548 7.318374
-9.489059 7.211927 7.287413
-9.569205 7.263898 7.256321
-9.650222 7.314426 7.225109
-9.732060 7.363545 7.193791
-9.814589 7.411439 7.162386
-9.897676 7.458311 7.130914
-9.981333 7.504114 7.099375
-10.065746 7.548450 7.067758
-10.151085 7.590915 7.036058
-10.237243 7.631644 7.004295
-10.323911 7.671249 6.972494
-10.410836 7.710270 6.940675
-10.498159 7.748374 6.908833
-10.586206 7.784742 6.876961
-10.675178 7.818764 6.845066
-10.764792 7.851055 6.813167
-10.854656 7.882650 6.781268
-10.944563 7.914119 6.749368
-11.034820 7.944573 6.717476
-11.125796 7.972834 6.685613
-11.217553 7.998521 6.653806
-11.309701 8.022823 6.622037
-11.401862 8.047079 6.590268
-11.494007 8.071389 6.558497
-11.586506 8.094373 6.526771
-11.679668 8.114664 6.495157
-11.773361 8.132568 6.463658
-11.867216 8.149682 6.432201
-11.960953 8.167371 6.400712
-12.054715 8.184943 6.369229
-12.148826 8.200726 6.337851
-12.243451 8.213533 6.306666
-12.338356 8.224487 6.275614
-12.433270 8.235376 6.244567
-12.528059 8.247135 6.213455
-12.622922 8.258383 6.182381
-12.718082 8.267357 6.151486
-12.813544 8.273531 6.120832
-12.909116 8.278463 6.090291
-13.004650 8.283857 6.059707
-13.100128 8.289878 6.029066
-13.195678 8.295075 5.998501
-13.291390 8.298029 5.968153
-13.387220 8.298774 5.938034
-13.483092 8.298318 5.908044
-13.578970 8.297683 5.878074
-13.674821 8.297894 5.848012
-13.770585 8.299975 5.817753
