0.132643 0.132638 0.132581 0.132327 0.131926 0.131557 0.131188 0.130820 0.130487 0.130277 0.130231 0.130228 0.130224 0.130179 0.129983 0.129673 0.129384 0.129095 0.128805 0.128525 0.128348 0.128309 0.128306 0.128303 0.128264 0.128086 0.127805 0.127518 0.127232 0.126945 0.126651 0.126466 0.126425 0.126421 0.126418 0.126377 0.126190 0.125894 0.125602 0.125310 0.125017 0.124735 0.124556 0.124517 0.124514 0.124511 0.124472 0.124299 0.124025 0.123760 0.123496 0.123232 0.122976 0.122815 0.122780 0.122777 0.122774 0.122739 0.122584 0.122337 0.122103 0.121868 0.121633 0.121411 0.121271 0.121240 0.121238 0.121235 0.121205 0.121073 0.120862 0.120664 0.120465 0.120267 0.120081 0.119963 0.119938 0.119936 0.119933 0.119908 0.119796 0.119619 0.119452 0.119284 0.119117 0.118958 0.118858 0.118837 0.118835 
0.132645 0.132651 0.132695 0.132807 0.132956 0.133088 0.133220 0.133352 0.133475 0.133567 0.133601 0.133605 0.133609 0.133643 0.133737 0.133862 0.133993 0.134124 0.134255 0.134395 0.134500 0.134539 0.134543 0.134548 0.134587 0.134700 0.134850 0.135009 0.135168 0.135327 0.135494 0.135619 0.135666 0.135671 0.135677 0.135724 0.135854 0.136029 0.136209 0.136390 0.136571 0.136757 0.136896 0.136947 0.136953 0.136959 0.137011 0.137154 0.137345 0.137541 0.137737 0.137933 0.138133 0.138283 0.138339 0.138345 0.138352 0.138407 0.138561 0.138766 0.138976 0.139185 0.139394 0.139608 0.139768 0.139827 0.139834 0.139841 0.139899 0.140062 0.140280 0.140501 0.140722 0.140943 0.141168 0.141336 0.141398 0.141405 0.141412 0.141474 0.141645 0.141873 0.142105 0.142337 0.142568 0.142804 0.142980 0.143044 0.143052 0.143059 0.143124 0.143303 0.143542 0.143785 0.144028 0.144270 0.144516 0.144701 0.144768 0.144776 0.144784 0.144852 0.145039 0.145288 0.145543 0.145798 0.146052 0.146312 0.146506 0.146577 0.146586 0.146594 0.146666 0.146863 0.147127 0.147398 0.147668 0.147938 0.148214 0.148420 0.148496 0.148505 0.148514 0.148590 0.148800 0.149081 0.149368 0.149655 0.149942 0.150235 0.150455 0.150536 0.150545 0.150555 0.150636 0.150861 0.151161 0.151467 0.151774 0.152080 0.152394 0.152629 0.152715 0.152725 0.152736 0.152822 0.153062 0.153383 0.153712 0.154041 0.154369 0.154706 0.154958 0.155051 0.155062 0.155073 0.155166 0.155425 0.155771 0.156126 0.156481 0.156835 0.157200 0.157473 0.157574 0.157585 0.157597 0.157698 0.157980 0.158356 0.158743 0.159130 0.159516 0.159914 0.160212 0.160322 0.160335 0.160347 0.160458 0.160766 0.161178 0.161599 0.162021 0.162442 0.162876 0.163201 0.163321 0.163335 0.163349 0.163469 0.163803 0.164249 0.164708 0.165166 0.165624 0.166095 0.166447 0.166577 0.166592 0.166608 0.166738 0.167099 0.167582 0.168076 0.168570 0.169064 0.169570 0.169948 0.170087 0.170104 0.170120 0.170259 0.170646 0.171162 0.171691 0.172220 0.172749 0.173289 0.173694 0.173841 0.173859 0.173876 0.174024 0.174432 0.174976 0.175530 0.176084 0.176638 0.177206 0.177631 0.177788 0.177806 0.177825 0.177981 0.178411 0.178984 0.179566 0.180147 0.180728 0.181317 0.181758 0.181920 0.181939 0.181958 0.182120 0.182570 0.183170 0.183778 0.184386 0.184993 0.185606 0.186064 0.186232 0.186252 0.186272 0.186440 0.186903 0.187521 0.188145 0.188769 0.189393 0.190028 0.190503 0.190678 0.190698 
0.132644 0.132642 0.132626 0.132424 0.132104 0.131761 0.131419 0.131076 0.130878 0.130752 0.130725 0.130723 0.130721 0.130694 0.130580 0.130400 0.130228 0.130056 0.129884 0.129721 0.129618 0.129597 0.129595 0.129593 0.129572 0.129470 0.129309 0.129137 0.128964 0.128791 0.128576 0.128440 0.128408 0.128405 0.128403 0.128369 0.128185 0.127895 0.127519 0.127143 0.126767 0.125826 0.125232 0.125057 0.125044 0.125031 0.124861 0.124082 0.122847 0.121740 0.120634 0.119527 0.118742 0.118247 0.118154 0.118147 0.118140 0.118050 0.117697 0.117138 0.116795 0.116451 0.116107 0.115894 0.115759 0.115734 0.115732 0.115730 0.115705 0.115604 0.115445 0.115328 0.115212 0.115095 0.115005 0.114948 0.114937 0.114936 0.114935 0.114924 0.114875 0.114799 0.114735 0.114671 0.114607 0.114553 0.114519 0.114512 0.114511 0.114511 0.114503 0.114473 0.114426 0.114385 0.114344 0.114303 0.114268 0.114246 0.114241 0.114241 0.114240 0.114236 0.114216 0.114185 0.114159 0.114132 0.114106 0.114083 0.114069 0.114066 0.114066 0.114065 0.114062 0.114050 0.114031 0.114014 0.113998 0.113982 0.113969 0.113960 0.113959 0.113959 0.113958 0.113957 0.113950 0.113939 0.113931 0.113923 0.113914 0.113908 0.113904 0.113903 0.113903 0.113903 0.113902 0.113899 0.113895 0.113892 0.113889 0.113886 0.113885 0.113885 0.113885 0.113885 
0.119936 0.119936 0.119937 0.119940 0.119943 0.119943 0.119943 0.119944 0.119941 0.119939 0.119937 0.119937 0.119936 0.119935 0.119929 0.119923 0.119912 0.119901 0.119890 0.119883 0.119878 0.119876 0.119876 0.119876 0.119874 0.119870 0.119864 0.119855 0.119847 0.119838 0.119827 0.119819 0.119816 0.119815 0.119814 0.119811 0.119801 0.119788 0.119773 0.119758 0.119743 0.119726 0.119713 0.119707 0.119706 0.119705 0.119700 0.119685 0.119666 0.119646 0.119626 0.119605 0.119584 0.119568 0.119562 0.119560 0.119559 0.119552 0.119536 0.119513 0.119491 0.119468 0.119445 0.119422 0.119405 0.119398 0.119397 
0.124514 0.124513 0.124511 0.124505 0.124498 0.124489 0.124481 0.124472 0.124462 0.124455 0.124452 0.124451 0.124450 0.124446 0.124438 0.124427 0.124416 0.124404 0.124392 0.124379 0.124369 0.124365 0.124364 0.124362 0.124358 0.124347 0.124333 0.124318 0.124303 0.124288 0.124271 0.124259 0.124253 0.124251 0.124250 0.124244 0.124231 0.124214 0.124195 0.124176 0.124158 0.124138 0.124123 0.124117 0.124115 0.124113 0.124106 0.124091 0.124070 0.124048 0.124026 0.124004 0.123981 0.123963 0.123956 0.123954 0.123952 0.123944 0.123926 0.123902 0.123877 0.123852 0.123827 0.123801 0.123781 0.123773 0.123770 0.123768 0.123759 0.123739 0.123712 0.123684 0.123656 0.123628 0.123599 0.123578 0.123568 0.123565 0.123563 0.123553 0.123531 0.123501 0.123471 0.123440 0.123410 0.123379 0.123355 0.123345 0.123342 0.123340 0.123329 0.123305 0.123273 0.123241 0.123209 0.123176 0.123146 0.123124 0.123117 0.123115 0.123114 0.123107 0.123091 0.123071 0.123051 0.123031 0.123011 0.122992 0.122977 0.122970 0.122968 0.122967 0.122960 0.122946 0.122927 0.122907 0.122888 0.122869 0.122850 0.122836 0.122830 0.122828 0.122826 0.122820 0.122806 0.122787 0.122768 0.122750 0.122731 0.122713 0.122699 0.122692 0.122691 0.122689 0.122683 0.122669 0.122651 0.122633 0.122615 0.122597 0.122579 0.122566 0.122560 0.122559 0.122557 0.122552 0.122538 0.122521 0.122504 0.122486 0.122469 0.122452 0.122440 0.122434 0.122432 0.122431 0.122425 0.122413 0.122397 0.122380 0.122364 0.122348 0.122332 0.122320 0.122315 0.122313 0.122312 0.122307 0.122295 0.122279 0.122264 0.122248 0.122233 0.122218 0.122206 0.122201 0.122200 
0.128306 0.128307 0.128308 0.128311 0.128315 0.128318 0.128321 0.128324 0.128327 0.128329 0.128329 0.128330 0.128330 0.128331 0.128332 0.128334 0.128335 0.128336 0.128337 0.128338 0.128338 0.128339 0.128339 0.128339 0.128339 0.128339 0.128338 0.128338 0.128337 0.128336 0.128334 0.128333 0.128332 0.128332 0.128332 0.128331 0.128330 0.128328 0.128325 0.128323 0.128320 0.128317 0.128315 0.128313 0.128313 0.128312 0.128311 0.128308 0.128304 0.128300 0.128296 0.128292 0.128287 0.128283 0.128281 0.128280 0.128279 0.128277 0.128273 0.128267 0.128261 0.128255 0.128250 0.128243 0.128238 0.128235 0.128234 0.128233 0.128231 0.128225 0.128219 0.128212 0.128205 0.128198 0.128190 0.128185 0.128182 0.128180 0.128179 0.128176 0.128170 0.128161 0.128153 0.128145 0.128136 0.128128 0.128122 0.128119 0.128117 0.128116 0.128112 0.128105 0.128096 0.128086 0.128077 0.128067 0.128057 0.128050 0.128046 0.128044 0.128043 0.128039 0.128031 0.128020 0.128009 0.127998 0.127987 0.127976 0.127967 0.127962 0.127961 0.127959 0.127954 0.127945 0.127933 0.127920 0.127907 0.127893 0.127880 0.127869 0.127864 0.127862 0.127860 0.127854 0.127844 0.127830 0.127815 0.127800 0.127785 0.127769 0.127757 0.127750 0.127748 0.127745 0.127739 0.127727 0.127710 0.127694 0.127677 0.127660 0.127641 0.127627 0.127620 0.127617 0.127614 0.127607 0.127593 0.127574 0.127555 0.127536 0.127517 0.127497 0.127481 0.127473 0.127470 0.127466 0.127458 0.127442 0.127421 0.127400 0.127378 0.127357 0.127335 0.127318 0.127309 0.127306 0.127302 0.127293 0.127275 0.127252 0.127228 0.127205 0.127181 0.127157 0.127139 0.127130 0.127126 0.127122 0.127112 0.127093 0.127067 0.127045 0.127024 0.127002 0.126985 0.126972 0.126966 0.126964 0.126961 0.126955 0.126942 0.126926 0.126910 0.126894 0.126878 0.126862 0.126850 0.126843 0.126841 0.126838 0.126832 0.126820 0.126804 0.126789 0.126774 0.126758 0.126743 0.126731 0.126725 0.126723 0.126720 0.126715 0.126703 0.126687 0.126672 0.126657 0.126642 0.126628 0.126616 0.126611 0.126608 0.126606 0.126600 0.126589 0.126574 0.126559 0.126545 0.126530 0.126516 0.126505 0.126500 0.126497 0.126495 0.126490 0.126479 0.126465 0.126450 0.126436 0.126422 0.126408 0.126398 0.126392 0.126390 0.126388 0.126383 0.126372 0.126359 0.126345 0.126331 0.126318 0.126304 0.126294 0.126289 0.126287 0.126285 0.126280 0.126270 0.126257 0.126244 0.126231 0.126218 0.126205 0.126195 0.126190 0.126188 0.126186 0.126181 0.126171 0.126159 0.126147 0.126135 0.126122 0.126110 0.126100 0.126096 0.126094 0.126092 0.126087 0.126078 0.126066 0.126054 0.126042 0.126030 0.126019 0.126010 0.126005 0.126003 0.126001 0.125997 0.125988 0.125976 0.125965 0.125953 0.125942 0.125931 0.125922 0.125918 0.125916 0.125914 0.125910 0.125901 0.125890 0.125879 0.125868 0.125857 0.125846 0.125837 0.125833 0.125831 0.125830 0.125825 0.125817 0.125806 0.125795 0.125784 0.125773 0.125762 0.125754 0.125750 0.125748 0.125746 0.125742 0.125734 0.125723 0.125713 0.125702 0.125691 0.125681 0.125672 0.125668 0.125667 0.125665 0.125661 0.125653 0.125643 0.125632 0.125622 0.125611 0.125601 0.125593 0.125589 0.125587 0.125586 0.125582 0.125574 0.125564 0.125553 0.125543 0.125533 0.125523 0.125515 0.125511 0.125509 
0.130228 0.130230 0.130235 0.130245 0.130258 0.130270 0.130281 0.130293 0.130305 0.130313 0.130317 0.130319 0.130320 0.130324 0.130331 0.130340 0.130348 0.130356 0.130363 0.130370 0.130374 0.130376 0.130377 0.130378 0.130380 0.130384 0.130388 0.130391 0.130394 0.130397 0.130399 0.130400 0.130400 0.130400 0.130400 0.130400 0.130400 0.130399 0.130397 0.130396 0.130394 0.130392 0.130390 0.130389 0.130389 0.130389 0.130388 0.130385 0.130382 0.130378 0.130374 0.130370 0.130366 0.130362 0.130360 0.130359 0.130358 0.130356 0.130352 0.130347 0.130341 0.130336 0.130330 0.130324 0.130319 0.130316 0.130315 0.130314 0.130311 0.130306 0.130299 0.130295 0.130291 0.130287 0.130284 0.130282 0.130280 0.130280 0.130279 0.130278 0.130276 0.130272 0.130269 0.130265 0.130261 0.130257 0.130254 0.130253 0.130252 0.130251 0.130250 0.130246 0.130242 0.130237 0.130233 0.130228 0.130223 0.130219 0.130217 0.130216 0.130216 0.130213 0.130209 0.130203 0.130198 0.130192 0.130186 0.130180 0.130175 0.130172 0.130171 0.130170 0.130168 0.130162 0.130155 0.130147 0.130140 0.130132 0.130125 0.130119 0.130115 0.130114 0.130113 0.130110 0.130103 0.130094 0.130084 0.130074 0.130065 0.130055 0.130047 0.130043 0.130041 0.130040 0.130036 0.130028 0.130017 0.130006 0.129994 0.129982 0.129970 0.129961 0.129956 0.129954 0.129953 0.129948 0.129941 0.129931 0.129920 0.129908 0.129897 0.129884 0.129874 0.129869 0.129867 0.129865 0.129860 0.129849 0.129835 0.129820 0.129805 0.129790 0.129773 0.129760 0.129754 0.129751 0.129748 0.129742 0.129728 0.129711 0.129693 0.129676 0.129658 0.129637 0.129621 0.129613 0.129610 0.129607 0.129598 0.129584 0.129566 0.129548 0.129531 0.129513 0.129496 0.129482 0.129475 0.129472 0.129470 0.129463 0.129449 0.129431 0.129413 0.129396 0.129378 0.129360 0.129347 0.129340 0.129337 0.129335 0.129328 0.129314 0.129297 0.129279 0.129262 0.129245 0.129227 0.129214 0.129208 0.129205 0.129202 0.129196 0.129183 0.129166 0.129149 0.129132 0.129116 0.129099 0.129086 0.129080 0.129077 0.129075 0.129069 0.129056 0.129040 0.129024 0.129008 0.128993 0.128977 0.128965 0.128959 0.128956 0.128954 0.128948 0.128935 0.128920 0.128905 0.128890 0.128875 0.128859 0.128848 0.128842 0.128840 0.128837 0.128832 0.128820 0.128805 0.128790 0.128776 0.128761 0.128747 0.128736 0.128730 0.128728 0.128726 0.128720 0.128709 0.128695 0.128681 0.128667 0.128653 0.128639 0.128629 0.128623 0.128621 0.128619 0.128614 0.128603 0.128590 0.128576 0.128562 0.128549 0.128536 0.128526 0.128521 0.128519 0.128517 0.128512 0.128502 0.128489 0.128476 0.128463 0.128450 0.128437 0.128427 0.128423 0.128421 0.128419 0.128414 0.128404 0.128392 0.128379 0.128367 0.128354 0.128342 0.128332 0.128328 0.128326 0.128324 0.128319 0.128310 0.128298 0.128286 0.128273 0.128261 0.128249 0.128240 0.128235 0.128233 0.128231 0.128226 0.128217 0.128205 0.128193 0.128181 0.128169 0.128157 0.128148 0.128143 0.128141 0.128140 0.128135 0.128126 0.128114 0.128102 0.128090 0.128077 0.128065 0.128056 0.128051 0.128049 0.128047 0.128043 0.128033 0.128021 0.128009 0.127996 0.127984 0.127972 0.127962 0.127958 0.127956 0.127954 0.127949 0.127939 0.127927 0.127914 0.127902 0.127889 0.127877 0.127867 0.127862 0.127860 
0.133605 0.133605 0.133603 0.133599 0.133594 0.133589 0.133583 0.133578 0.133571 0.133566 0.133563 0.133562 0.133561 0.133559 0.133553 0.133545 0.133536 0.133527 0.133518 0.133508 0.133501 0.133497 0.133496 0.133494 0.133490 0.133482 0.133471 0.133459 0.133447 0.133435 0.133422 0.133412 0.133407 0.133405 0.133403 0.133398 0.133386 0.133371 0.133355 0.133339 0.133323 0.133306 0.133293 0.133286 0.133284 0.133281 0.133275 0.133261 0.133243 0.133224 0.133205 0.133186 0.133166 0.133151 0.133144 0.133141 0.133139 0.133132 0.133117 0.133097 0.133077 0.133057 0.133037 0.133016 0.133000 0.132992 0.132990 0.132987 0.132979 0.132963 0.132942 0.132920 0.132898 0.132876 0.132853 0.132837 0.132831 0.132829 0.132827 0.132821 0.132809 0.132793 0.132777 0.132761 0.132744 0.132728 0.132715 0.132709 0.132707 0.132704 0.132698 0.132685 0.132668 0.132650 0.132631 0.132613 0.132595 0.132580 0.132574 0.132571 0.132569 0.132562 0.132547 0.132528 0.132507 0.132487 0.132466 0.132445 0.132429 0.132422 0.132419 0.132417 0.132409 0.132392 0.132370 0.132347 0.132325 0.132302 0.132279 0.132261 0.132252 0.132249 0.132246 0.132237 0.132218 0.132192 0.132169 0.132146 0.132123 0.132100 0.132082 0.132074 0.132071 0.132068 0.132058 0.132038 0.132011 0.131984 0.131957 0.131929 0.131901 0.131880 0.131869 0.131865 0.131861 0.131849 0.131825 0.131794 0.131762 0.131729 0.131697 0.131663 0.131638 0.131625 0.131620 0.131616 0.131603 0.131575 0.131539 0.131502 0.131465 0.131429 0.131393 0.131366 0.131355 0.131351 0.131346 0.131335 0.131310 0.131278 0.131246 0.131214 0.131182 0.131151 0.131127 0.131116 0.131112 0.131108 0.131097 0.131073 0.131042 0.131012 0.130982 0.130952 0.130923 0.130901 0.130890 0.130887 0.130883 0.130873 0.130851 0.130822 0.130795 0.130767 0.130739 0.130713 0.130693 0.130683 0.130680 0.130676 0.130667 0.130647 0.130621 0.130596 0.130571 0.130546 0.130522 0.130503 0.130495 0.130492 0.130488 0.130480 0.130461 0.130437 0.130414 0.130392 0.130369 0.130347 0.130330 0.130322 0.130319 0.130316 0.130308 0.130291 0.130269 0.130248 0.130227 0.130207 0.130186 0.130170 0.130163 0.130160 0.130158 0.130150 0.130135 0.130114 0.130095 0.130076 0.130057 0.130038 0.130024 0.130017 0.130014 0.130012 0.130005 0.129991 0.129973 0.129955 0.129938 0.129920 0.129902 0.129889 0.129882 0.129880 0.129878 0.129871 0.129859 0.129842 0.129825 0.129809 0.129792 0.129775 0.129762 0.129756 0.129754 0.129752 0.129747 0.129735 0.129719 0.129703 0.129687 0.129672 0.129656 0.129644 0.129638 0.129636 0.129634 0.129629 0.129617 0.129602 0.129587 0.129572 0.129556 0.129541 0.129529 0.129524 0.129522 0.129520 0.129515 0.129504 0.129489 0.129474 0.129458 0.129443 0.129428 0.129417 0.129412 0.129410 
0.135671 0.135672 0.135673 0.135674 0.135676 0.135674 0.135673 0.135671 0.135666 0.135662 0.135660 0.135659 0.135659 0.135656 0.135649 0.135639 0.135627 0.135614 0.135601 0.135585 0.135572 0.135566 0.135565 0.135564 0.135558 0.135543 0.135522 0.135499 0.135475 0.135452 0.135424 0.135403 0.135395 0.135393 0.135391 0.135382 0.135360 0.135330 0.135297 0.135264 0.135231 0.135195 0.135168 0.135156 0.135154 0.135151 0.135140 0.135112 0.135075 0.135034 0.134994 0.134953 0.134910 0.134878 0.134864 0.134860 0.134857 0.134843 0.134809 0.134763 0.134713 0.134663 0.134613 0.134560 0.134520 0.134503 0.134499 0.134495 0.134477 0.134433 0.134375 0.134313 0.134251 0.134188 0.134122 0.134072 0.134051 0.134047 0.134042 0.134021 0.133967 0.133895 0.133822 0.133748 0.133674 0.133596 0.133538 0.133514 0.133508 0.133502 0.133478 0.133421 0.133346 0.133294 0.133242 0.133191 0.133142 0.133105 0.133090 0.133087 0.133083 0.133068 0.133033 0.132986 0.132941 0.132896 0.132851 0.132809 0.132776 0.132763 0.132760 0.132757 0.132744 0.132713 0.132671 0.132631 0.132591 0.132551 0.132513 0.132483 0.132472 0.132469 0.132466 0.132455 0.132426 0.132388 0.132352 0.132316 0.132279 0.132244 0.132217 0.132206 0.132204 0.132201 0.132191 0.132165 0.132131 0.132098 0.132065 0.132032 0.132000 0.131975 0.131965 0.131963 0.131961 0.131951 0.131928 0.131897 0.131866 0.131835 0.131804 0.131774 0.131751 0.131742 0.131739 0.131737 0.131728 0.131706 0.131676 0.131647 0.131617 0.131588 0.131559 0.131537 0.131528 0.131526 
0.141404 0.141402 0.141391 0.141361 0.141322 0.141276 0.141230 0.141185 0.141133 0.141094 0.141078 0.141074 0.141071 0.141054 0.141010 0.140952 0.140887 0.140823 0.140758 0.140687 0.140634 0.140612 0.140607 0.140602 0.140580 0.140522 0.140446 0.140364 0.140283 0.140201 0.140114 0.140049 0.140022 0.140017 0.140011 0.139984 0.139915 0.139823 0.139727 0.139630 0.139534 0.139433 0.139357 0.139327 0.139320 0.139314 0.139283 0.139204 0.139099 0.138991 0.138883 0.138775 0.138664 0.138580 0.138546 0.138539 0.138532 0.138498 0.138412 0.138297 0.138180 0.138064 0.137947 0.137828 0.137738 0.137702 0.137695 0.137687 0.137651 0.137561 0.137440 0.137319 0.137198 0.137077 0.136956 0.136864 0.136828 0.136821 0.136813 0.136777 0.136686 0.136564 0.136478 0.136392 0.136305 0.136239 0.136189 0.136169 0.136166 0.136162 0.136143 0.136095 0.136032 0.135973 0.135915 0.135857 0.135802 0.135761 0.135745 0.135741 0.135738 0.135722 0.135682 0.135629 0.135578 0.135528 0.135477 0.135430 0.135394 0.135380 0.135377 0.135374 0.135360 0.135325 0.135280 0.135236 0.135192 0.135148 0.135106 0.135074 0.135061 0.135059 0.135056 0.135043 0.135013 0.134973 0.134934 0.134895 0.134856 0.134818 0.134790 0.134778 0.134776 0.134774 0.134763 0.134736 0.134700 0.134664 0.134628 0.134592 0.134557 0.134530 0.134520 0.134518 
0.144776 0.144775 0.144772 0.144764 0.144752 0.144736 0.144719 0.144703 0.144680 0.144663 0.144656 0.144654 0.144652 0.144644 0.144623 0.144595 0.144562 0.144528 0.144495 0.144456 0.144426 0.144413 0.144409 0.144406 0.144392 0.144358 0.144313 0.144262 0.144212 0.144162 0.144107 0.144066 0.144048 0.144043 0.144039 0.144020 0.143974 0.143914 0.143849 0.143784 0.143719 0.143649 0.143595 0.143573 0.143567 0.143561 0.143538 0.143482 0.143408 0.143330 0.143252 0.143175 0.143092 0.143030 0.143003 0.142997 0.142990 0.142963 0.142899 0.142813 0.142724 0.142636 0.142547 0.142456 0.142388 0.142358 0.142351 0.142343 0.142314 0.142243 0.142148 0.142052 0.141955 0.141859 0.141761 0.141686 0.141655 0.141647 0.141639 0.141608 0.141531 0.141431 0.141328 0.141226 0.141124 0.141020 0.140941 0.140908 0.140900 0.140891 0.140858 0.140779 0.140674 0.140584 0.140494 0.140403 0.140338 0.140289 0.140269 0.140264 0.140259 0.140240 0.140194 0.140134 0.140077 0.140020 0.139964 0.139908 0.139866 0.139849 0.139845 0.139840 0.139823 0.139783 0.139731 0.139678 0.139626 0.139574 0.139524 0.139486 0.139471 0.139467 0.139463 0.139447 0.139409 0.139360 0.139311 0.139263 0.139214 0.139167 0.139131 0.139116 0.139112 0.139108 0.139093 0.139058 0.139011 0.138965 0.138919 0.138873 0.138828 0.138793 0.138779 0.138775 0.138771 0.138757 0.138724 0.138679 0.138634 0.138590 0.138545 0.138501 0.138468 0.138454 0.138450 0.138447 0.138433 0.138400 0.138356 0.138312 0.138268 0.138224 0.138180 0.138147 0.138133 0.138130 0.138126 0.138112 0.138079 0.138035 0.137991 0.137947 0.137903 0.137858 0.137824 0.137810 0.137807 
0.157584 0.157578 0.157526 0.157364 0.157149 0.156869 0.156589 0.156309 0.155979 0.155732 0.155637 0.155625 0.155614 0.155516 0.155236 0.154861 0.154458 0.154056 0.153653 0.153231 0.152915 0.152798 0.152784 0.152770 0.152654 0.152333 0.151904 0.151474 0.151044 0.150614 0.150184 0.149863 0.149746 0.149732 0.149718 0.149602 0.149328 0.148963 0.148698 0.148434 0.148170 0.147938 0.147765 0.147705 0.147697 0.147690 0.147631 0.147474 0.147266 0.147072 0.146879 0.146685 0.146505 0.146370 0.146322 0.146316 0.146311 0.146263 0.146136 0.145966 0.145804 0.145642 0.145481 0.145324 0.145207 0.145165 0.145160 
0.181930 0.181896 0.181706 0.181209 0.180547 0.179870 0.179194 0.178517 0.177843 0.177337 0.177143 0.177108 0.177074 0.176880 0.176379 0.175713 0.175068 0.174423 0.173778 0.173155 0.172688 0.172511 0.172479 0.172448 0.172272 0.171819 0.171217 0.170634 0.170050 0.169466 0.168911 0.168494 0.168333 0.168305 0.168276 0.168116 0.167706 0.167161 0.166634 0.166107 0.165580 0.165078 0.164700 0.164559 0.164534 0.164509 0.164369 0.164046 0.163616 0.163287 0.162958 0.162629 0.162346 0.162133 0.162059 0.162046 0.162033 0.161965 0.161790 0.161558 0.161357 0.161157 0.160956 0.160786 0.160659 0.160610 0.160601 0.160593 0.160544 0.160429 0.160278 0.160144 0.160011 0.159878 0.159757 0.159667 0.159635 0.159630 0.159624 0.159593 0.159513 0.159406 0.159316 0.159226 0.159136 0.159057 0.158998 0.158974 0.158970 
