-1.539864 0.613469 19.185707
-1.537612 0.623801 19.179794
-1.535361 0.634134 19.173880
-1.464897 1.118117 18.922861
-1.566700 1.569473 18.817113
-1.982956 1.884098 18.950033
-2.477552 2.086398 19.056446
-1.533957 0.640579 19.170192
-1.465289 1.116422 18.923848
-1.464505 1.119812 18.921875
-1.565351 1.568100 18.816571
-1.568050 1.570846 18.817655
-1.981145 1.883353 18.949627
-1.984767 1.884844 18.950438
-2.475749 2.085610 19.056085
-1.528486 0.665688 19.155821
-1.471060 1.091472 18.938377
-1.458264 1.144495 18.907108
-1.545541 1.547703 18.808953
-1.587915 1.591063 18.825631
-1.954483 1.872379 18.943653
-2.011428 1.895818 18.956412
-2.449170 2.074140 19.050709
-1.518690 0.720746 19.125943
-1.510196 0.783537 19.093858
-1.504217 0.847335 19.063226
-1.498125 0.911091 19.032527
-1.491426 0.974603 19.001480
-1.482378 1.037155 18.969080
-1.442724 1.196491 18.874222
-1.428296 1.256344 18.838936
-1.419998 1.318517 18.807251
-1.428586 1.385748 18.786027
-1.461156 1.446866 18.785408
-1.503145 1.502754 18.794499
-1.630500 1.634863 18.842787
-1.677504 1.684565 18.861885
-1.726900 1.732107 18.880378
-1.779542 1.776067 18.898153
-1.836051 1.815608 18.915090
-1.897990 1.846805 18.930409
-2.069322 1.918438 18.969187
-2.134074 1.943865 18.983505
-2.198730 1.969520 18.997849
-2.263212 1.995751 19.011932
-2.327588 2.022420 19.025668
-2.391862 2.049496 19.039083
-3.715882 2.702606 19.227179
-4.463074 3.820619 19.292878
-4.578091 5.211890 19.335145
-4.804569 6.587696 19.406168
-5.259996 7.903238 19.488795
-6.012242 9.071849 19.583142
-7.040121 10.008214 19.683279
-8.242829 10.708377 19.782409
-9.539989 11.215592 19.877823
-2.479354 2.087186 19.056807
-3.714261 2.701441 19.227059
-3.717491 2.703788 19.227291
-4.462669 3.818661 19.292834
-4.463479 3.822577 19.292922
-4.577876 5.209904 19.335049
-4.578305 5.213876 19.335242
-4.804113 6.585752 19.406059
-4.805025 6.589640 19.406277
-5.259177 7.901418 19.488669
-5.260816 7.905058 19.488921
-6.010945 9.070333 19.583001
-6.013539 9.073364 19.583283
-7.038498 10.007054 19.683135
-7.041744 10.009374 19.683423
-8.241013 10.707550 19.782270
-8.244645 10.709204 19.782548
-9.538094 11.214966 19.877689
-2.505889 2.098789 19.062118
-3.690396 2.684287 19.225283
-3.741010 2.721439 19.228802
-4.456706 3.789834 19.292184
-4.467251 3.851747 19.293297
-4.574719 5.180664 19.333629
-4.581450 5.243118 19.336658
-4.797396 6.557129 19.404458
-4.811781 6.618254 19.407880
-5.247115 7.874622 19.486815
-5.272877 7.931854 19.490775
-5.991850 9.048016 19.580922
-6.032634 9.095681 19.585362
-7.014602 9.989982 19.681019
-7.065640 10.026445 19.685538
-8.214281 10.695378 19.780224
-8.271377 10.721376 19.784594
-9.510198 11.205753 19.875716
-2.626976 2.152004 19.086425
-2.818497 2.237584 19.123757
-3.009950 2.325618 19.155213
-3.201339 2.416149 19.179080
-3.392094 2.509095 19.198352
-3.578920 2.609761 19.216247
-3.849887 2.800037 19.235582
-4.028105 2.916159 19.246800
-4.164205 3.076464 19.258193
-4.246691 3.272525 19.268448
-4.338351 3.464566 19.279016
-4.421645 3.660267 19.288301
-4.478409 3.985721 19.294124
-4.492903 4.198281 19.294064
-4.512133 4.410440 19.297538
-4.527251 4.622739 19.307366
-4.541871 4.835063 19.317534
-4.560641 5.047079 19.327200
-4.595841 5.376670 19.343100
-4.621383 5.587943 19.353412
-4.652481 5.798458 19.364058
-4.685907 6.008614 19.374835
-4.723743 6.218000 19.385849
-4.767577 6.426200 19.397188
-4.844418 6.748499 19.415296
-4.901072 6.953535 19.427295
-4.964653 7.156510 19.439634
-5.032885 7.357965 19.452198
-5.107665 7.557039 19.465063
-5.192262 7.752129 19.478359
-5.331345 8.052631 19.499377
-5.434995 8.238213 19.513424
-5.541786 8.422043 19.527590
-5.653799 8.602627 19.541925
-5.780387 8.773324 19.556698
-5.908470 8.942953 19.571513
-6.123272 9.194549 19.594922
-6.269825 9.348466 19.610117
-6.420063 9.498736 19.625355
-6.578186 9.640689 19.640672
-6.740613 9.777725 19.656009
-6.907011 9.909896 19.671346
-7.175967 10.102725 19.695188
-7.353358 10.219760 19.710446
-7.533439 10.332595 19.725661
-7.718021 10.437916 19.740777
-7.904600 10.539703 19.755839
-8.093070 10.637910 19.770841
-8.393324 10.777288 19.793946
-8.586857 10.865159 19.808747
-8.784109 10.944342 19.823351
-8.982415 11.020907 19.837891
-9.181277 11.095982 19.852394
-9.382744 11.163816 19.866706
156 NaN NaN
-1.540989 0.608303 19.188664
-1.522330 0.693941 19.139651
-1.510272 0.782718 19.094251
-1.501816 0.872955 19.050925
-1.493092 0.963089 19.007443
-1.480296 1.051546 18.961626
-1.460612 1.136640 18.912075
-1.436010 1.218955 18.860014
-1.418266 1.304958 18.811531
-1.430243 1.398718 18.781932
-1.484021 1.482478 18.787979
-1.551095 1.553591 18.810846
-1.618867 1.622562 18.838060
-1.685349 1.692861 18.865073
-1.755863 1.759464 18.891047
-1.835642 1.815402 18.914989
-1.923207 1.859505 18.936646
-2.014163 1.896943 18.957025
-2.105850 1.932671 18.977241
-2.197305 1.968941 18.997538
-2.288510 2.006041 19.017458
-2.379465 2.044165 19.036569
-2.470189 2.083179 19.054972
-2.560722 2.122767 19.073093
-2.651109 2.162653 19.091281
-2.741408 2.202852 19.109218
-2.831673 2.243521 19.126242
-2.921938 2.284793 19.141746
-3.012202 2.326662 19.155558
-3.102456 2.369072 19.167677
-3.192680 2.411977 19.178179
-3.282785 2.455391 19.187552
-3.372676 2.499350 19.196433
-3.462111 2.544234 19.205274
-3.550115 2.591920 19.213724
-3.635263 2.644659 19.221180
-3.716677 2.703177 19.227238
-3.796917 2.763397 19.232395
-3.879419 2.820464 19.237359
-3.964854 2.873044 19.242604
-4.047694 2.929513 19.248100
-4.118760 2.999904 19.253623
-4.169877 3.086021 19.258763
-4.208789 3.178486 19.263578
-4.246247 3.271566 19.268396
-4.288379 3.362615 19.273394
-4.332704 3.452626 19.278389
-4.375603 3.543332 19.283154
-4.413850 3.636106 19.287430
-4.444663 3.731620 19.290871
-4.464996 3.829911 19.293088
-4.475314 3.929807 19.294044
-4.480866 4.030109 19.294188
-4.487021 4.130374 19.294001
-4.495690 4.230455 19.294094
-4.505223 4.330451 19.295227
-4.513866 4.430492 19.298118
-4.521162 4.530582 19.302604
-4.527776 4.630688 19.307777
-4.534393 4.730803 19.312760
-4.541535 4.830901 19.317348
-4.549608 4.930933 19.321815
-4.558955 5.030847 19.326423
-4.569319 5.130654 19.331201
-4.580091 5.230415 19.336045
-4.590763 5.330187 19.340862
-4.601660 5.429936 19.345664
-4.613513 5.529573 19.350511
-4.626919 5.629008 19.355453
-4.641606 5.728258 19.360474
-4.656966 5.827405 19.365536
-4.672543 5.926518 19.370607
-4.688663 6.025542 19.375706
-4.705900 6.124374 19.380867
-4.724681 6.222919 19.386111
-4.744829 6.321191 19.391430
-4.766013 6.419242 19.396803
-4.788006 6.517112 19.402219
-4.810922 6.614767 19.407683
-4.834942 6.712154 19.413204
-4.860247 6.809210 19.418790
-4.887007 6.905871 19.424451
-4.915392 7.002062 19.430191
-4.945396 7.097756 19.436010
-4.976630 7.193053 19.441889
-5.008662 7.288082 19.447805
-5.041504 7.382832 19.453761
-5.075959 7.477000 19.459790
-5.112886 7.570218 19.465931
-5.152317 7.662400 19.472180
-5.193092 7.753993 19.478488
-5.234015 7.845519 19.484802
-5.275167 7.936941 19.491127
-5.318183 8.027493 19.497527
-5.364678 8.116293 19.504062
-5.414408 8.203320 19.510716
-5.465343 8.289647 19.517415
-5.515566 8.376392 19.524090
-5.565488 8.463311 19.530754
-5.617475 8.548999 19.537487
-5.673673 8.631967 19.544353
-5.733486 8.712370 19.551322
-5.794598 8.791792 19.558327
-5.855003 8.871754 19.565313
-5.915181 8.951889 19.572292
-5.977048 9.030717 19.579311
-6.042190 9.106849 19.586403
-6.110019 9.180601 19.593546
-6.179042 9.253238 19.600710
-6.248084 9.325858 19.607873
-6.317538 9.398081 19.615041
-6.388388 9.468931 19.622226
-6.461357 9.537594 19.629435
-6.536084 9.604339 19.636659
-6.611924 9.669818 19.643889
-6.688404 9.734550 19.651119
-6.765618 9.798403 19.658350
-6.843793 9.861075 19.665582
-6.923094 9.922316 19.672813
-7.003523 9.982068 19.680039
-7.085051 10.040313 19.687257
-7.167587 10.097122 19.694464
-7.250885 10.152810 19.701663
-7.334688 10.207737 19.708854
-7.418930 10.261989 19.716039
-7.503933 10.315040 19.723211
-7.590044 10.366274 19.730360
-7.677279 10.415576 19.737482
-7.765143 10.463754 19.744587
-7.853128 10.511711 19.751688
-7.941158 10.559584 19.758788
-8.029763 10.606387 19.765870
-8.119465 10.651052 19.772913
-8.210227 10.693532 19.779914
-8.301432 10.735060 19.786894
-8.392493 10.776902 19.793882
-8.483421 10.819029 19.800875
-8.574825 10.860117 19.807846
-8.667253 10.898849 19.814765
-8.760582 10.935371 19.821631
-8.854228 10.971081 19.828477
-8.947675 11.007306 19.835335
-9.041000 11.043844 19.842202
-9.134686 11.079445 19.849045
-9.229138 11.112970 19.855835
-9.324208 11.144714 19.862576
-9.419495 11.175809 19.869300
-9.514674 11.207231 19.876032
-9.609848 11.238666 19.882765
-9.705318 11.269195 19.889473
-9.801308 11.298055 19.896133
-9.897711 11.325518 19.902751
-9.994320 11.352255 19.909348
-10.090942 11.378945 19.915943
-10.187387 11.406263 19.922557
-10.283449 11.434884 19.929210
