-1.491257 0.848783 14.330291
-1.502305 0.856055 14.330880
-1.513353 0.863328 14.331470
-1.995208 1.177609 14.356041
-2.484546 1.468185 14.364779
-3.006978 1.679528 14.352638
-3.567328 1.778803 14.326810
-1.520128 0.867788 14.331832
-1.993544 1.176504 14.355949
-1.996873 1.178713 14.356133
-2.482803 1.467204 14.364802
-2.486289 1.469166 14.364755
-3.005006 1.679208 14.352733
-3.008950 1.679848 14.352544
-3.565355 1.778483 14.326903
-1.545768 0.884664 14.333201
-1.967913 1.159615 14.354574
-2.022447 1.195686 14.357546
-2.456027 1.452138 14.365164
-2.513036 1.484281 14.364406
-2.974711 1.674293 14.354190
-3.039245 1.684763 14.351087
-3.535058 1.773577 14.328339
-1.601259 0.920970 14.336076
-1.663479 0.961456 14.339210
-1.725786 1.001814 14.342275
-1.788092 1.042174 14.345342
-1.850351 1.082603 14.348445
-1.912534 1.123144 14.351609
-2.077708 1.232326 14.360583
-2.140056 1.272633 14.363500
-2.203246 1.311640 14.365586
-2.267312 1.349218 14.366750
-2.332385 1.385076 14.366798
-2.397882 1.420143 14.365949
-2.569777 1.518720 14.364137
-2.633803 1.556405 14.363835
-2.698902 1.592094 14.363365
-2.766627 1.622627 14.362241
-2.837433 1.644696 14.359994
-2.909559 1.661960 14.357133
-3.104595 1.695955 14.348014
-3.177627 1.709201 14.344665
-3.250521 1.723208 14.341418
-3.323455 1.737002 14.338151
-3.396473 1.750324 14.334833
-3.469608 1.762978 14.331441
-4.987459 2.066964 14.246151
-5.712483 3.244178 14.164011
-6.289715 4.583983 14.095114
-7.070843 5.813142 14.016934
-8.119038 6.820447 13.928525
-9.404684 7.499579 13.834414
-10.817097 7.851643 13.741205
-12.270271 7.958854 13.651879
-3.569301 1.779113 14.326716
-4.985764 2.065909 14.246277
-4.989154 2.068018 14.246024
-5.711797 3.242301 14.164101
-5.713180 3.246050 14.163922
-6.288778 4.582219 14.095216
-6.290651 4.585748 14.095013
-7.069609 5.811573 14.017048
-7.072076 5.814713 14.016820
-8.117421 6.819277 13.928652
-8.120656 6.821617 13.928399
-9.402822 7.498861 13.834543
-9.406556 7.500271 13.834285
-10.815120 7.851370 13.741330
-10.819074 7.851917 13.741080
-12.268275 7.958809 13.651999
-3.599625 1.783852 14.325269
-4.959725 2.049716 14.248224
-5.015194 2.084211 14.244077
-5.701302 3.213457 14.165478
-5.723894 3.274815 14.162548
-6.274390 4.555115 14.096771
-6.305040 4.612851 14.093458
-7.050646 5.787460 14.018799
-7.091010 5.838848 14.015071
-8.092579 6.801300 13.930596
-8.145498 6.839593 13.926455
-9.374215 7.487828 13.836532
-9.435448 7.510537 13.832299
-10.784743 7.847169 13.743248
-10.849451 7.856118 13.739163
-12.237613 7.958129 13.653844
-3.738475 1.805440 14.318648
-3.958569 1.839035 14.308015
-4.178667 1.872355 14.296635
-4.398458 1.907149 14.283845
-4.618957 1.936820 14.270587
-4.835340 1.985326 14.257138
-5.138675 2.150832 14.235284
-5.331104 2.259333 14.221261
-5.436811 2.450101 14.207831
-5.500407 2.663298 14.195215
-5.577559 2.872026 14.182671
-5.653512 3.081302 14.171845
-5.773710 3.406219 14.156224
-5.856181 3.613041 14.145979
-5.939234 3.819631 14.135690
-6.026552 4.024425 14.125210
-6.119309 4.226819 14.114468
-6.211961 4.429260 14.103732
-6.371897 4.736414 14.086294
-6.476601 4.932861 14.074998
-6.589415 5.124668 14.063340
-6.710225 5.311598 14.051331
-6.831234 5.498389 14.039313
-6.963748 5.677126 14.026817
-7.178628 5.948604 14.007024
-7.326282 6.114987 13.993942
-7.481368 6.274524 13.980591
-7.640080 6.430404 13.967118
-7.807841 6.576457 13.953358
-7.980944 6.716176 13.939442
-8.261295 6.918948 13.917509
-8.449165 7.038015 13.903245
-8.641323 7.150018 13.888907
-8.837962 7.253934 13.874512
-9.039324 7.348376 13.860079
-9.243794 7.435919 13.845640
-9.568242 7.556034 13.823215
-9.780250 7.623326 13.808851
-9.993719 7.685775 13.794525
-10.210171 7.736976 13.780312
-10.427423 7.784762 13.766140
-10.645858 7.826647 13.752049
-10.988412 7.876161 13.730369
-11.209056 7.904325 13.716501
-11.430820 7.921982 13.702836
-11.652620 7.939327 13.689177
-11.874764 7.951147 13.675640
-12.097226 7.955055 13.662286
153 NaN NaN
-1.485733 0.845147 14.329996
-1.569848 0.900515 14.334487
-1.654244 0.955474 14.338756
-1.738777 1.010228 14.342914
-1.823308 1.064987 14.347075
-1.907695 1.119958 14.351350
-1.991797 1.175345 14.355852
-2.075698 1.231027 14.360489
-2.160284 1.285710 14.364446
-2.246556 1.337781 14.366735
-2.334838 1.386428 14.366799
-2.423722 1.433962 14.365601
-2.511562 1.483386 14.364413
-2.597733 1.535688 14.364004
-2.685130 1.585885 14.363593
-2.776942 1.627278 14.362070
-2.873691 1.655137 14.358749
-2.972607 1.673952 14.354291
-3.071997 1.690077 14.349512
-3.171097 1.707946 14.344956
-3.269994 1.726949 14.340550
-3.368965 1.745559 14.336109
-3.468184 1.762748 14.331508
-3.567582 1.778844 14.326798
-3.667065 1.794393 14.322051
-3.766573 1.809787 14.317309
-3.866101 1.825040 14.312533
-3.965653 1.840107 14.307669
-4.065217 1.855047 14.302656
-4.164742 1.870165 14.297413
-4.264169 1.885802 14.291854
-4.363517 1.901821 14.285968
-4.462988 1.916990 14.279924
-4.562765 1.929989 14.273913
-4.662657 1.942132 14.268000
-4.761585 1.960289 14.261991
-4.856710 1.992580 14.255732
-4.945044 2.040586 14.249321
-5.030472 2.093712 14.242935
-5.118747 2.141873 14.236634
-5.210508 2.183128 14.230419
-5.299432 2.229970 14.224072
-5.372752 2.297946 14.217565
-5.417966 2.387486 14.211487
-5.446962 2.483827 14.205862
-5.473422 2.580927 14.200246
-5.504748 2.676550 14.194405
-5.539516 2.770986 14.188573
-5.575040 2.865159 14.183042
-5.609710 2.959675 14.177940
-5.643841 3.054403 14.173152
-5.677909 3.149163 14.168550
-5.712340 3.243795 14.164029
-5.747489 3.338164 14.159523
-5.783693 3.432130 14.154968
-5.820922 3.525692 14.150340
-5.858614 3.619067 14.145678
-5.896179 3.712493 14.141021
-5.933630 3.805965 14.136376
-5.971830 3.899132 14.131699
-6.011677 3.991601 14.126942
-6.053236 4.083310 14.122103
-6.095481 4.174704 14.117231
-6.137348 4.266272 14.112377
-6.178833 4.358016 14.107541
-6.221285 4.449312 14.102660
-6.266085 4.539470 14.097668
-6.313288 4.628390 14.092567
-6.361405 4.716818 14.087424
-6.408926 4.805569 14.082308
-6.455844 4.894642 14.077219
-6.503889 4.983108 14.072079
-6.554796 5.069945 14.066811
-6.608609 5.155008 14.061415
-6.663622 5.239300 14.055968
-6.718156 5.323903 14.050542
-6.772185 5.408832 14.045137
-6.827411 5.492981 14.039680
-6.885507 5.575161 14.034104
-6.946478 5.655228 14.028410
-7.008799 5.734249 14.022662
-7.071011 5.813356 14.016919
-7.133129 5.892537 14.011179
-7.196541 5.970678 14.005389
-7.262570 6.046609 13.999499
-7.331164 6.120227 13.993516
-7.401158 6.192515 13.987483
-7.471473 6.264492 13.981439
-7.542131 6.336129 13.975384
-7.614062 6.406481 13.969285
-7.688123 6.474578 13.963117
-7.764253 6.540352 13.956886
-7.841731 6.604530 13.950615
-7.919914 6.667847 13.944324
-7.998784 6.730304 13.938015
-8.078776 6.791312 13.931676
-8.160275 6.850286 13.925299
-8.243258 6.907149 13.918888
-8.327443 6.962217 13.912452
-8.412575 7.015807 13.905998
-8.498569 7.068002 13.899528
-8.585440 7.118721 13.893044
-8.673205 7.167874 13.886547
-8.761906 7.215315 13.880039
-8.851596 7.260857 13.873521
-8.942301 7.304341 13.866995
-9.033864 7.345990 13.860466
-9.126036 7.386275 13.853936
-9.218616 7.425612 13.847406
-9.311708 7.463721 13.840877
-9.405560 7.499917 13.834353
-9.500343 7.533596 13.827838
-9.595855 7.565159 13.821335
-9.691741 7.595572 13.814839
-9.787726 7.625671 13.808345
-9.883944 7.655014 13.801857
-9.980712 7.682488 13.795384
-10.078238 7.707141 13.788940
-10.176306 7.729557 13.782520
-10.274575 7.751086 13.776112
-10.372788 7.772862 13.769701
-10.471083 7.794272 13.763294
-10.569750 7.813886 13.756911
-10.668965 7.830522 13.750573
-10.768533 7.844927 13.744271
-10.868191 7.858709 13.737980
-10.967752 7.873175 13.731677
-11.067323 7.887565 13.725375
-11.167123 7.900261 13.719103
-11.267262 7.909966 13.712888
-11.367591 7.917518 13.706717
-11.467956 7.924604 13.700556
-11.568254 7.932559 13.694377
-11.668546 7.940605 13.688196
-11.768944 7.947174 13.682046
-11.869486 7.951045 13.675957
-11.970088 7.952989 13.669913
-12.070699 7.954481 13.663881
-12.171297 7.956658 13.657832
-12.271894 7.958889 13.651782
-12.372510 7.959951 13.645760
-12.473129 7.958916 13.639792
-12.573725 7.956367 13.633864
-12.674310 7.953360 13.627949
-12.774903 7.950684 13.622024
-12.875492 7.947865 13.616103
-12.976050 7.944056 13.610210
-13.076536 7.938630 13.604362
-13.176948 7.931939 13.598550
-13.277318 7.924611 13.592758
-13.377686 7.917271 13.586966
-13.478096 7.910544 13.581155
-13.578579 7.905058 13.575309
