-1.532539 0.830899 15.859353
-1.537689 0.835501 15.847813
-1.542838 0.840103 15.836272
-1.767558 1.039916 15.339633
-1.993265 1.239183 14.850628
-2.284979 1.461038 14.472845
-2.785113 1.738487 14.455832
-1.545987 0.842917 15.829214
-1.766799 1.039234 15.341353
-1.768317 1.040597 15.337912
-1.992503 1.238500 14.852347
-1.994026 1.239865 14.848909
-2.283254 1.460026 14.472846
-2.286704 1.462050 14.472844
-2.783210 1.737883 14.455943
-1.557844 0.853513 15.802641
-1.754935 1.028635 15.367921
-1.780069 1.051143 15.311273
-1.980712 1.227936 14.878961
-2.004923 1.249996 14.821780
-2.256545 1.444354 14.472867
-2.313412 1.477722 14.472823
-2.754005 1.727828 14.457785
-1.583634 0.876491 15.745320
-1.612667 0.902292 15.681260
-1.641842 0.928159 15.617291
-1.671036 0.954036 15.553335
-1.700173 0.979885 15.489341
-1.729206 1.005685 15.425281
-1.805471 1.073936 15.253705
-1.833938 1.099467 15.189283
-1.863008 1.125284 15.125248
-1.892884 1.151483 15.061746
-1.923605 1.178080 14.998809
-1.954618 1.204815 14.936073
-2.026070 1.270724 14.761763
-2.047823 1.292974 14.693630
-2.071120 1.315980 14.626336
-2.098782 1.341096 14.561623
-2.143381 1.373790 14.511082
-2.200469 1.410374 14.483962
-2.370781 1.512040 14.475623
-2.434547 1.551222 14.478115
-2.497711 1.591500 14.477971
-2.561013 1.631335 14.473697
-2.625790 1.668500 14.468219
-2.692426 1.702037 14.462452
-4.225898 2.029137 14.366377
-5.338098 2.772166 14.257183
-5.861534 4.147006 14.190170
-6.556102 5.442322 14.117131
-7.497288 6.567792 14.034923
-8.699174 7.405909 13.945190
-10.075727 7.911822 13.853162
-11.528176 8.130986 13.763113
-12.998071 8.143821 13.676616
-2.787016 1.739091 14.455721
-4.223932 2.028794 14.366511
-4.227864 2.029480 14.366243
-5.337519 2.770254 14.257276
-5.338678 2.774078 14.257091
-5.860696 4.145193 14.190265
-5.862371 4.148820 14.190075
-6.555003 5.440655 14.117236
-6.557202 5.443989 14.117026
-7.495806 6.566454 14.035041
-7.498769 6.569130 14.034805
-8.697415 7.404964 13.945314
-8.700932 7.406853 13.945066
-10.073795 7.911323 13.853286
-10.077660 7.912321 13.853037
-11.526186 8.130833 13.763233
-11.530167 8.131140 13.762993
-12.996076 8.143906 13.676731
-2.816487 1.748443 14.453998
-4.193494 2.023488 14.368586
-4.258315 2.034694 14.364121
-5.328540 2.740652 14.258709
-5.347657 2.803680 14.255657
-5.847955 4.117007 14.191725
-5.875345 4.176900 14.188606
-6.537973 5.414842 14.118867
-6.574308 5.469750 14.115392
-7.472866 6.545733 14.036871
-7.521710 6.589851 14.032975
-8.670105 7.390494 13.947242
-8.728160 7.421478 13.943139
-10.043871 7.903591 13.855213
-10.107612 7.919941 13.851112
-11.495366 8.128459 13.765093
-11.560986 8.133513 13.761132
-12.965186 8.145175 13.678515
-2.953011 1.786010 14.446561
-3.172175 1.834007 14.433531
-3.392117 1.878053 14.419536
-3.612448 1.920219 14.405884
-3.833274 1.959663 14.392094
-4.054119 1.998870 14.377914
-4.397782 2.058552 14.354211
-4.617963 2.100609 14.338255
-4.834714 2.156938 14.320403
-5.039791 2.244200 14.297916
-5.195340 2.400873 14.278231
-5.285379 2.605724 14.265505
-5.390811 2.938632 14.249148
-5.465469 3.150361 14.238908
-5.542607 3.361216 14.228900
-5.623423 3.570680 14.218824
-5.707351 3.778915 14.208577
-5.791665 3.986990 14.198323
-5.935206 4.305311 14.181857
-6.029583 4.509001 14.171184
-6.129306 4.710084 14.160290
-6.236680 4.907198 14.149086
-6.345568 5.103480 14.137821
-6.460897 5.296007 14.126302
-6.653543 5.587154 14.107875
-6.783415 5.770159 14.095805
-6.920606 5.947725 14.083473
-7.064875 6.119578 14.070892
-7.214186 6.287061 14.058145
-7.369897 6.448556 14.045192
-7.627355 6.684122 14.024578
-7.797658 6.830116 14.011194
-7.977599 6.963962 13.997558
-8.161832 7.091945 13.983823
-8.348280 7.216600 13.970041
-8.544638 7.324933 13.956076
-8.853506 7.487262 13.934305
-9.058487 7.578120 13.920247
-9.267839 7.658646 13.906175
-9.477399 7.738586 13.892101
-9.691147 7.806414 13.878057
-9.907172 7.866805 13.864047
-10.245640 7.951366 13.842319
-10.465664 7.995001 13.828448
-10.686533 8.034179 13.814625
-10.908319 8.067775 13.800872
-11.131014 8.094731 13.787212
-11.354311 8.116252 13.773638
-11.702274 8.142623 13.752643
-11.926470 8.150795 13.739312
-12.150729 8.157290 13.726014
-12.375053 8.160072 13.712794
-12.599364 8.155310 13.699744
-12.823668 8.149968 13.686708
162 NaN NaN
-1.529965 0.828598 15.865124
-1.568499 0.863035 15.778760
-1.607463 0.897677 15.692671
-1.646658 0.932429 15.606731
-1.685885 0.967196 15.520812
-1.724944 1.001883 15.434784
-1.763637 1.036397 15.348522
-1.801831 1.070672 15.261942
-1.840075 1.104971 15.175394
-1.879352 1.139761 15.089509
-1.920579 1.175472 15.004928
-1.962244 1.211389 14.920647
-2.000559 1.245719 14.834163
-2.032351 1.276881 14.743936
-2.060643 1.306309 14.651944
-2.096567 1.339472 14.564134
-2.155853 1.382932 14.496949
-2.238533 1.433785 14.472882
-2.325279 1.484686 14.472813
-2.411414 1.536467 14.478132
-2.496249 1.590580 14.478070
-2.581284 1.644091 14.472328
-2.669213 1.692315 14.464211
-2.761773 1.731081 14.457196
-2.857536 1.761469 14.451598
-2.954879 1.786491 14.446462
-3.052860 1.808821 14.440938
-3.151123 1.829727 14.434881
-3.249557 1.849738 14.428570
-3.348068 1.869379 14.422287
-3.446633 1.888788 14.416130
-3.545286 1.907760 14.410034
-3.644061 1.926084 14.403930
-3.742948 1.943778 14.397773
-3.841883 1.961176 14.391553
-3.940804 1.978632 14.385260
-4.039681 1.996298 14.378869
-4.138558 2.013911 14.372330
-4.237485 2.031157 14.365587
-4.336473 2.047965 14.358618
-4.435403 2.065049 14.351507
-4.534122 2.083289 14.344358
-4.632435 2.103599 14.337202
-4.730039 2.126943 14.329656
-4.826554 2.154178 14.321232
-4.921440 2.186271 14.311601
-5.012901 2.226819 14.301202
-5.096853 2.281084 14.290944
-5.166153 2.353156 14.282102
-5.218477 2.438700 14.275162
-5.258768 2.530709 14.269508
-5.292372 2.625435 14.264453
-5.322667 2.721290 14.259647
-5.351849 2.817500 14.254988
-5.382197 2.913348 14.250374
-5.414619 3.008516 14.245759
-5.448372 3.103221 14.241169
-5.482653 3.197740 14.236636
-5.517068 3.292214 14.232162
-5.551968 3.386509 14.227704
-5.587787 3.480458 14.223215
-5.624722 3.573970 14.218664
-5.662308 3.667222 14.214076
-5.699962 3.760445 14.209482
-5.737307 3.853794 14.204906
-5.774942 3.947026 14.200320
-5.813752 4.039771 14.195686
-5.854459 4.131694 14.190971
-5.896623 4.222957 14.186195
-5.939274 4.313993 14.181400
-5.981530 4.405213 14.176620
-6.023653 4.496496 14.171846
-6.066728 4.587329 14.167033
-6.111812 4.677176 14.162136
-6.158996 4.765935 14.157155
-6.207351 4.854060 14.152127
-6.255925 4.942065 14.147090
-6.304413 5.030116 14.142056
-6.353591 5.117783 14.136995
-6.404324 5.204553 14.131872
-6.457096 5.290094 14.126670
-6.511449 5.374637 14.121407
-6.566796 5.458531 14.116107
-6.622713 5.542044 14.110785
-6.679421 5.625020 14.105433
-6.737298 5.707181 14.100037
-6.796672 5.788264 14.094588
-6.857589 5.868190 14.089084
-6.919982 5.946965 14.083528
-6.983780 6.024603 14.077921
-7.048827 6.101196 14.072272
-7.114912 6.176892 14.066589
-7.181848 6.251835 14.060878
-7.249799 6.325856 14.055134
-7.319254 6.398461 14.049342
-7.390683 6.469118 14.043488
-7.464044 6.537765 14.037575
-7.538602 6.605109 14.031627
-7.613611 6.671950 14.025668
-7.688827 6.738557 14.019704
-7.765103 6.803942 14.013710
-7.843394 6.866888 14.007660
-7.924171 6.926605 14.001548
-8.006500 6.984169 13.995400
-8.089236 7.041147 13.989244
-8.171544 7.098741 13.983098
-8.254149 7.155908 13.976946
-8.338302 7.210755 13.970759
-8.424967 7.261526 13.964525
-8.513552 7.308882 13.958261
-8.602806 7.354969 13.951989
-8.691638 7.401861 13.945723
-8.780131 7.449393 13.939462
-8.869391 7.495461 13.933189
-8.960437 7.537869 13.926897
-9.053308 7.576130 13.920595
-9.147072 7.612158 13.914293
-9.240885 7.648058 13.907992
-9.334380 7.684783 13.901689
-9.428098 7.720930 13.895386
-9.522661 7.754795 13.889085
-9.618370 7.785271 13.882794
-9.714830 7.813294 13.876515
-9.811603 7.840225 13.870242
-9.908380 7.867141 13.863969
-10.005277 7.893619 13.857698
-10.102533 7.918748 13.851436
-10.200322 7.941715 13.845191
-10.298571 7.962637 13.838965
-10.397120 7.982102 13.832754
-10.495842 8.000680 13.826552
-10.594701 8.018511 13.820358
-10.693726 8.035407 13.814176
-10.792938 8.051169 13.808007
-10.892343 8.065663 13.801856
-10.991935 8.078828 13.795722
-11.091702 8.090606 13.789610
-11.191614 8.101088 13.783517
-11.291622 8.110627 13.777439
-11.391683 8.119605 13.771371
-11.491779 8.128183 13.765310
-11.591946 8.135898 13.759263
-11.692214 8.142175 13.753243
-11.792581 8.146646 13.747257
-11.892999 8.149866 13.741295
-11.993430 8.152655 13.735343
-12.093853 8.155683 13.729385
-12.194283 8.158521 13.723432
-12.294738 8.160250 13.717501
-12.395209 8.160027 13.711613
-12.495666 8.158084 13.705765
-12.596106 8.155391 13.699934
-12.696552 8.152898 13.694098
-12.797004 8.150694 13.688256
-12.897443 8.147958 13.682426
-12.997836 8.143834 13.676630
-13.098147 8.138007 13.670877
-13.198387 8.131027 13.665154
-13.298591 8.123522 13.659445
-13.398801 8.116117 13.653734
-13.499061 8.109438 13.648003
-13.599399 8.104112 13.642237
