-1.546989 0.766781 15.317884
-1.555763 0.772422 15.309607
-1.564537 0.778063 15.301329
-1.947295 1.023139 14.944950
-2.350679 1.269510 14.629530
-2.866816 1.501342 14.565048
-3.427674 1.593954 14.515330
-1.569913 0.781519 15.296258
-1.945986 1.022293 14.946204
-1.948604 1.023984 14.943696
-2.349040 1.268618 14.630249
-2.352318 1.270402 14.628811
-2.864918 1.500753 14.565273
-2.868714 1.501932 14.564822
-3.425704 1.593653 14.515497
-1.590217 0.794571 15.277103
-1.925706 1.009245 14.965387
-1.968769 1.037010 14.924378
-2.323786 1.254870 14.641330
-2.378101 1.284096 14.619298
-2.835681 1.491664 14.568749
-2.897951 1.511020 14.561346
-3.395366 1.588934 14.518112
-1.634254 0.822805 15.235921
-1.683715 0.854442 15.190024
-1.733314 0.886106 15.144293
-1.782912 0.917769 15.098562
-1.832436 0.949418 15.052740
-1.881835 0.981043 15.006767
-2.012368 1.065158 14.882675
-2.061466 1.096725 14.836341
-2.111396 1.128449 14.791021
-2.162413 1.160374 14.747097
-2.214825 1.192549 14.705027
-2.270791 1.225315 14.668310
-2.436598 1.313404 14.606985
-2.503200 1.345550 14.598686
-2.570492 1.377177 14.593727
-2.638062 1.408396 14.590042
-2.705717 1.439010 14.583777
-2.774000 1.467834 14.576201
-2.962335 1.526224 14.554660
-3.035314 1.539559 14.547892
-3.108952 1.549326 14.541888
-3.182714 1.558217 14.536059
-3.256352 1.567932 14.530043
-3.329840 1.578628 14.523815
-4.871419 1.801835 14.399649
-5.821342 2.820567 14.321549
-6.371023 4.177081 14.253365
-7.099784 5.443758 14.174927
-8.106325 6.499166 14.083659
-9.373680 7.217529 13.985011
-10.783740 7.593391 13.887775
-12.240579 7.708691 13.795692
-3.429644 1.594254 14.515163
-4.869542 1.801161 14.399799
-4.873296 1.802509 14.399499
-5.820622 2.818703 14.321630
-5.822063 2.822431 14.321467
-6.370200 4.175261 14.253463
-6.371846 4.178902 14.253267
-7.098594 5.442155 14.175043
-7.100973 5.445362 14.174810
-8.104728 6.497970 14.083791
-8.107923 6.500362 14.083526
-9.371814 7.216823 13.985146
-9.375547 7.218235 13.984876
-10.781768 7.593084 13.887904
-10.785712 7.593699 13.887646
-12.238584 7.708641 13.795814
-3.460000 1.598886 14.512590
-4.840623 1.790774 14.402109
-4.902061 1.813268 14.397208
-5.809533 2.789980 14.322874
-5.833165 2.851148 14.320217
-6.357522 4.147217 14.254973
-6.384687 4.206871 14.251748
-7.080267 5.417449 14.176842
-7.119301 5.470068 14.173011
-8.080674 6.478819 14.085817
-8.132535 6.518789 14.081486
-9.343056 7.205952 13.987227
-9.404304 7.229106 13.982794
-10.751402 7.588246 13.889898
-10.816095 7.598435 13.885654
-12.207837 7.707872 13.797707
-3.599259 1.618550 14.501284
-3.820636 1.645128 14.484839
-4.041902 1.672489 14.468181
-4.262971 1.700730 14.450411
-4.484543 1.723867 14.431735
-4.705386 1.752547 14.413104
-5.027462 1.876954 14.387481
-5.217696 1.993489 14.373199
-5.412628 2.101933 14.358708
-5.574770 2.252786 14.345789
-5.679524 2.449572 14.336261
-5.759855 2.658023 14.328179
-5.883563 2.982806 14.314264
-5.961054 3.192276 14.304126
-6.040931 3.400832 14.293769
-6.123555 3.608317 14.283363
-6.208917 3.814676 14.272765
-6.299482 4.018791 14.261885
-6.444877 4.334290 14.244717
-6.547140 4.532752 14.233208
-6.651276 4.730251 14.221600
-6.760292 4.925033 14.209737
-6.880105 5.113370 14.197323
-7.000811 5.301145 14.184865
-7.205810 5.581214 14.164653
-7.345474 5.755284 14.151295
-7.490697 5.924671 14.137692
-7.645218 6.085606 14.123699
-7.805878 6.240417 14.109473
-7.972020 6.389296 14.095046
-8.246201 6.601853 14.072117
-8.428509 6.730408 14.057211
-8.616017 6.851106 14.042199
-8.812302 6.957024 14.027063
-9.009621 7.061043 14.011915
-9.211864 7.154911 13.996765
-9.535828 7.279307 13.973263
-9.746320 7.353007 13.958210
-9.960568 7.415065 13.943282
-10.176220 7.472136 13.928422
-10.393535 7.522485 13.913668
-10.612563 7.564819 13.899056
-10.955316 7.619499 13.876546
-11.176623 7.647733 13.862231
-11.398816 7.668070 13.848103
-11.621195 7.686352 13.834027
-11.843969 7.698710 13.820108
-12.067054 7.704100 13.806381
154 NaN NaN
-1.542602 0.763961 15.322023
-1.608839 0.806543 15.259534
-1.675521 0.849211 15.197580
-1.742424 0.891922 15.135892
-1.809329 0.934633 15.074206
-1.876015 0.977302 15.012256
-1.942258 1.019885 14.949774
-2.008047 1.062380 14.886753
-2.074275 1.104960 14.824254
-2.142018 1.147826 14.763607
-2.212496 1.191185 14.706555
-2.287944 1.235358 14.657056
-2.370214 1.280145 14.620958
-2.458446 1.324350 14.602386
-2.549024 1.367258 14.594897
-2.640168 1.409369 14.589928
-2.731424 1.450635 14.581365
-2.824034 1.488044 14.570134
-2.919374 1.517680 14.558799
-3.017497 1.537196 14.549345
-3.116820 1.550369 14.541246
-3.216337 1.562222 14.533412
-3.315509 1.576374 14.525062
-3.414449 1.591936 14.516451
-3.513478 1.607045 14.508056
-3.612807 1.620366 14.500214
-3.712331 1.632409 14.492775
-3.811912 1.644075 14.485484
-3.911447 1.656083 14.478122
-4.010918 1.668507 14.470597
-4.110328 1.681282 14.462845
-4.209700 1.694181 14.454827
-4.309139 1.706406 14.446584
-4.408747 1.717030 14.438182
-4.508509 1.726029 14.429697
-4.608111 1.736636 14.421246
-4.706959 1.752804 14.412972
-4.804011 1.777623 14.405034
-4.898318 1.811497 14.397500
-4.988924 1.854365 14.390424
-5.075446 1.905080 14.383815
-5.160123 1.958885 14.377465
-5.246100 2.010561 14.371094
-5.334619 2.057747 14.364550
-5.421882 2.107175 14.358015
-5.501986 2.167358 14.351810
-5.568295 2.242506 14.346356
-5.621774 2.327414 14.341667
-5.666161 2.417486 14.337554
-5.704778 2.510213 14.333816
-5.740099 2.604260 14.330246
-5.774749 2.698556 14.326621
-5.810470 2.792443 14.322773
-5.846689 2.886129 14.318695
-5.882507 2.979959 14.314400
-5.917454 3.074109 14.309916
-5.952119 3.168356 14.305310
-5.987257 3.262427 14.300654
-6.023335 3.356140 14.295998
-6.060123 3.449577 14.291339
-6.097285 3.542865 14.286665
-6.134688 3.636055 14.281964
-6.172708 3.728993 14.277218
-6.211794 3.821484 14.272411
-6.252136 3.913431 14.267539
-6.293263 4.005028 14.262626
-6.334606 4.096527 14.257702
-6.375967 4.188017 14.252776
-6.418112 4.279147 14.247807
-6.461951 4.369466 14.242746
-6.507870 4.458741 14.237574
-6.554923 4.547421 14.232343
-6.601963 4.636108 14.227112
-6.648503 4.725060 14.221907
-6.695805 4.813606 14.216662
-6.745408 4.900871 14.211298
-6.798052 4.986328 14.205778
-6.852449 5.070679 14.200170
-6.907021 5.154916 14.194553
-6.960952 5.239567 14.188969
-7.015491 5.323824 14.183354
-7.072225 5.406607 14.177632
-7.132012 5.487203 14.171763
-7.193847 5.566235 14.165800
-7.256469 5.644644 14.159800
-7.319148 5.723009 14.153799
-7.382572 5.800767 14.147765
-7.447663 5.877126 14.141657
-7.514991 5.951513 14.135453
-7.584219 6.024129 14.129171
-7.654883 6.095345 14.122832
-7.726639 6.165458 14.116453
-7.799433 6.234488 14.110037
-7.873263 6.302406 14.103581
-7.948218 6.369075 14.097084
-8.024666 6.434020 14.090538
-8.102996 6.496674 14.083935
-8.183289 6.556787 14.077278
-8.264830 6.615197 14.070588
-8.346813 6.672984 14.063887
-8.428872 6.730663 14.057181
-8.511869 6.786978 14.050455
-8.596827 6.840270 14.043693
-8.684158 6.889580 14.036897
-8.772843 6.936419 14.030087
-8.861747 6.982843 14.023274
-8.950241 7.030044 14.016464
-9.039149 7.076458 14.009653
-9.129517 7.119944 14.002838
-9.221827 7.159142 13.996030
-9.315314 7.195465 13.989235
-9.409131 7.230930 13.982445
-9.502775 7.266850 13.975653
-9.596627 7.302220 13.968866
-9.691221 7.335551 13.962095
-9.786834 7.365842 13.955354
-9.883168 7.393771 13.948641
-9.979878 7.420377 13.941945
-10.076747 7.446398 13.935258
-10.173845 7.471556 13.928584
-10.271286 7.495355 13.921931
-10.369134 7.517423 13.915306
-10.467352 7.537797 13.908711
-10.565885 7.556601 13.902145
-10.664678 7.573995 13.895606
-10.763665 7.590262 13.889091
-10.862784 7.605714 13.882593
-10.962006 7.620496 13.876109
-11.061388 7.634168 13.869650
-11.160987 7.646163 13.863229
-11.260808 7.656185 13.856855
-11.360754 7.664907 13.850513
-11.460737 7.673216 13.844182
-11.560709 7.681641 13.837848
-11.660733 7.689432 13.831530
-11.760875 7.695548 13.825256
-11.861135 7.699363 13.819044
-11.961443 7.701758 13.812873
-12.061756 7.703953 13.806707
-12.162054 7.706727 13.800525
-12.262359 7.709236 13.794351
-12.362691 7.710261 13.788219
-12.463025 7.709008 13.782156
-12.563333 7.706275 13.776138
-12.663634 7.703234 13.770131
-12.763947 7.700681 13.764108
-12.864257 7.698011 13.758088
-12.964535 7.694279 13.752102
-13.064737 7.688822 13.746172
-13.164861 7.682044 13.740285
-13.264940 7.674609 13.734421
-13.365020 7.667177 13.728556
-13.465145 7.660411 13.722670
-13.565348 7.654972 13.716738
