0.195117 0.195134 0.195402 0.196331 0.197804 0.198201 0.198599 0.198997 0.198751 0.198596 0.198560 0.198558 0.198556 0.198526 0.198461 0.198359 0.198358 0.198358 0.198358 0.198288 0.198244 0.198228 0.198227 0.198226 0.198210 0.198087 0.197892 0.197505 0.197118 0.196731 0.196069 0.195651 0.195549 0.195542 0.195536 0.195430 0.194841 0.193907 0.192554 0.191202 0.189849 0.188110 0.187012 0.186760 0.186744 0.186728 0.186475 0.185274 0.183370 0.181419 0.179469 0.177519 0.175633 0.174443 0.174192 0.174176 0.174160 0.173909 0.172782 0.170996 0.169301 0.167606 0.165911 0.164268 0.163231 0.163006 0.162992 0.162977 0.162752 0.161729 0.160108 0.158519 0.156931 0.155342 0.153811 0.152845 0.152639 0.152626 0.152613 0.152407 0.151487 0.150028 0.148672 0.147316 0.145961 0.144713 0.143926 0.143760 0.143749 
0.195103 0.195065 0.194666 0.193150 0.190814 0.188828 0.186842 0.184856 0.183106 0.181970 0.181701 0.181675 0.181650 0.181383 0.180340 0.178733 0.177291 0.175849 0.174407 0.173119 0.172282 0.172085 0.172066 0.172047 0.171852 0.171092 0.169921 0.168854 0.167787 0.166720 0.165748 0.165117 0.164967 0.164953 0.164939 0.164789 0.164208 0.163313 0.162493 0.161674 0.160854 0.160089 0.159593 0.159473 0.159461 0.159450 0.159330 0.158853 0.158117 0.157403 0.156688 0.155973 0.155269 0.154813 0.154701 0.154690 0.154679 0.154568 0.154121 0.153433 0.152768 0.152102 0.151436 0.150795 0.150379 0.150277 0.150268 0.150258 0.150157 0.149757 0.149139 0.148546 0.147953 0.147359 0.146791 0.146422 0.146332 0.146324 
0.195121 0.195154 0.195701 0.196650 0.198156 0.196864 0.195573 0.194282 0.191950 0.190478 0.190108 0.190086 0.190064 0.189691 0.188022 0.185378 0.183033 0.180689 0.178345 0.176407 0.175184 0.174933 0.174918 0.174903 0.174654 0.173545 0.171787 0.169959 0.168131 0.166303 0.163888 0.162364 0.161955 0.161931 0.161905 0.161471 0.159016 0.155125 0.150556 0.145987 0.141417 0.137164 0.134480 0.133933 0.133900 0.133868 0.133338 0.131194 0.127795 0.125877 0.123958 0.122039 0.121018 0.120373 0.120258 0.120251 0.120245 0.120135 0.119720 0.119063 0.118628 0.118194 0.117759 0.117449 0.117253 0.117215 0.117213 0.117210 0.117173 0.117016 0.116767 0.116570 0.116373 0.116176 0.116018 0.115918 0.115899 0.115897 0.115896 0.115877 0.115793 0.115661 0.115552 0.115444 0.115335 0.115245 0.115188 0.115176 0.115176 0.115175 0.115164 0.115114 0.115036 0.114970 0.114904 0.114837 0.114781 0.114746 0.114739 0.114738 0.114738 0.114731 0.114700 0.114651 0.114610 0.114568 0.114527 0.114493 0.114471 0.114466 0.114466 
0.152623 0.152608 0.152572 0.152498 0.152401 0.152304 0.152207 0.152110 0.152013 0.151939 0.151903 0.151888 0.151874 0.151837 0.151762 0.151663 0.151565 0.151467 0.151368 0.151270 0.151194 0.151157 0.151143 0.151128 0.151091 0.151016 0.150917 0.150818 0.150719 0.150621 0.150522 0.150447 0.150410 0.150395 0.150381 0.150344 0.150268 0.150170 0.150072 0.149974 0.149877 0.149780 0.149705 0.149669 0.149655 0.149640 0.149604 0.149531 0.149434 0.149339 0.149244 0.149148 0.149054 0.148981 0.148946 0.148932 0.148918 0.148882 0.148810 0.148716 0.148622 0.148529 0.148435 0.148341 0.148269 0.148233 0.148219 0.148205 0.148170 0.148098 0.148005 0.147914 0.147824 0.147733 0.147645 0.147578 0.147544 0.147531 0.147518 0.147485 0.147426 0.147349 0.147279 0.147209 0.147139 0.147071 0.147018 0.146993 0.146983 0.146973 0.146947 0.146896 0.146830 0.146769 0.146709 0.146649 0.146591 0.146546 0.146524 0.146516 0.146507 0.146486 0.146442 0.146385 0.146334 0.146283 0.146232 0.146182 0.146144 0.146125 0.146117 0.146110 0.146091 0.146053 0.146003 0.145959 0.145914 0.145869 0.145826 0.145794 0.145778 0.145771 0.145765 0.145749 0.145716 0.145673 0.145635 0.145597 0.145559 0.145524 0.145498 0.145485 0.145479 0.145474 0.145461 0.145434 0.145398 0.145364 0.145331 0.145297 0.145265 0.145241 0.145229 0.145224 0.145220 0.145208 0.145183 0.145151 0.145121 0.145091 0.145061 0.145034 0.145014 0.145003 0.144999 0.144995 0.144985 0.144964 0.144937 0.144910 0.144884 0.144858 0.144835 0.144818 0.144809 0.144806 0.144802 0.144793 0.144776 0.144753 0.144730 0.144707 0.144685 0.144665 0.144650 0.144643 0.144640 0.144637 0.144630 0.144615 0.144595 0.144576 0.144556 0.144536 0.144520 0.144507 0.144501 0.144499 0.144496 0.144490 0.144477 0.144461 0.144444 0.144427 0.144410 0.144395 0.144385 0.144379 0.144377 
0.186734 0.186690 0.186532 0.186166 0.185683 0.185204 0.184726 0.184247 0.183776 0.183419 0.183269 0.183228 0.183187 0.183038 0.182692 0.182236 0.181794 0.181351 0.180908 0.180476 0.180149 0.180011 0.179973 0.179936 0.179798 0.179481 0.179061 0.178652 0.178243 0.177834 0.177438 0.177138 0.177011 0.176976 0.176942 0.176816 0.176525 0.176140 0.175769 0.175398 0.175027 0.174667 0.174395 0.174281 0.174250 0.174219 0.174106 0.173844 0.173498 0.173165 0.172833 0.172500 0.172181 0.171940 0.171838 0.171810 0.171782 0.171681 0.171453 0.171152 0.170865 0.170578 0.170290 0.170023 0.169821 0.169738 0.169715 0.169692 0.169609 0.169431 0.169194 0.168989 0.168784 0.168579 0.168389 0.168246 0.168186 0.168169 0.168153 0.168093 0.167973 0.167816 0.167662 0.167509 0.167356 0.167231 0.167136 0.167096 0.167085 0.167074 0.167034 0.166941 0.166818 0.166718 0.166618 0.166517 0.166420 0.166346 0.166314 0.166306 0.166299 0.166273 0.166217 0.166142 0.166066 0.165990 0.165914 0.165855 0.165810 0.165790 0.165785 0.165779 0.165759 0.165711 0.165647 0.165600 0.165553 0.165506 0.165458 0.165422 0.165411 0.165408 0.165405 0.165395 0.165369 0.165335 0.165304 0.165272 0.165240 0.165217 0.165199 0.165192 0.165190 0.165187 0.165180 0.165163 0.165142 0.165128 0.165114 0.165101 0.165088 0.165078 0.165076 0.165076 0.165075 0.165073 0.165068 0.165061 0.165057 0.165053 0.165048 0.165048 0.165048 0.165048 0.165048 
0.195527 0.195468 0.195090 0.194116 0.192818 0.191607 0.190396 0.189185 0.188079 0.187249 0.186940 0.186891 0.186845 0.186544 0.185769 0.184736 0.183793 0.182850 0.181906 0.181057 0.180420 0.180188 0.180152 0.180118 0.179900 0.179341 0.178596 0.177957 0.177319 0.176681 0.176160 0.175768 0.175629 0.175607 0.175588 0.175466 0.175151 0.174731 0.174400 0.174069 0.173738 0.173470 0.173269 0.173196 0.173185 0.173175 0.173115 0.172956 0.172743 0.172574 0.172404 0.172235 0.172095 0.171989 0.171952 0.171946 0.171941 0.171911 0.171829 0.171720 0.171637 0.171555 0.171473 0.171410 0.171362 0.171345 0.171342 
0.198211 0.198149 0.197976 0.197619 0.197152 0.196707 0.196263 0.195819 0.195399 0.195078 0.194930 0.194877 0.194824 0.194678 0.194372 0.193971 0.193587 0.193203 0.192819 0.192449 0.192167 0.192035 0.191987 0.191939 0.191808 0.191534 0.191175 0.190825 0.190476 0.190127 0.189789 0.189530 0.189408 0.189364 0.189319 0.189196 0.188935 0.188592 0.188254 0.187916 0.187578 0.187245 0.186992 0.186873 0.186830 0.186788 0.186669 0.186422 0.186097 0.185777 0.185458 0.185139 0.184828 0.184592 0.184480 0.184440 0.184400 0.184288 0.184054 0.183746 0.183441 0.183135 0.182829 0.182535 0.182311 0.182206 0.182169 0.182131 0.182026 0.181808 0.181522 0.181242 0.180962 0.180682 0.180417 0.180214 0.180120 0.180085 0.180051 0.179957 0.179759 0.179499 0.179247 0.178994 0.178741 0.178506 0.178326 0.178241 0.178211 0.178181 0.178097 0.177921 0.177691 0.177470 0.177249 0.177029 0.176827 0.176674 0.176602 0.176576 0.176550 0.176478 0.176329 0.176135 0.175956 0.175777 0.175598 0.175439 0.175318 0.175261 0.175241 0.175220 0.175164 0.175048 0.174896 0.174763 0.174629 0.174496 0.174379 0.174289 0.174247 0.174232 0.174216 0.174174 0.174087 0.173974 0.173878 0.173782 0.173687 0.173603 0.173538 0.173508 0.173497 0.173486 0.173456 0.173393 0.173309 0.173244 0.173179 0.173114 0.173055 0.173010 0.172989 0.172981 0.172973 0.172952 0.172906 0.172846 0.172803 0.172759 0.172716 0.172674 0.172642 0.172627 0.172621 0.172615 0.172600 0.172566 0.172522 0.172492 0.172462 0.172432 0.172400 0.172376 0.172364 0.172360 0.172356 0.172343 0.172319 0.172288 0.172269 0.172250 0.172232 0.172212 0.172197 0.172189 0.172186 0.172183 0.172175 0.172161 0.172142 0.172130 0.172118 0.172106 0.172093 0.172082 0.172077 0.172075 0.172073 0.172068 0.172060 0.172049 0.172043 0.172036 0.172030 0.172023 0.172018 0.172015 0.172014 0.172013 0.172010 0.172008 0.172005 0.172004 0.172003 0.172002 0.172000 0.171998 0.171997 0.171997 0.171996 0.171995 0.171997 0.171999 0.172001 0.172004 0.172006 0.172007 0.172008 0.172009 0.172009 0.172009 0.172009 0.172014 0.172020 0.172025 0.172030 0.172035 0.172039 0.172042 0.172043 0.172043 
0.198539 0.198464 0.198082 0.197158 0.195930 0.194820 0.193711 0.192601 0.191616 0.190874 0.190595 0.190540 0.190486 0.190212 0.189549 0.188669 0.187885 0.187100 0.186316 0.185665 0.185175 0.185000 0.184966 0.184932 0.184761 0.184333 0.183763 0.183207 0.182651 0.182095 0.181552 0.181143 0.180982 0.180951 0.180919 0.180758 0.180351 0.179811 0.179269 0.178727 0.178185 0.177628 0.177210 0.177048 0.177016 0.176984 0.176823 0.176419 0.175883 0.175372 0.174862 0.174352 0.173869 0.173506 0.173365 0.173337 0.173309 0.173171 0.172831 0.172379 0.171976 0.171574 0.171172 0.170833 0.170577 0.170481 0.170462 0.170443 0.170348 0.170154 0.169897 0.169691 0.169485 0.169278 0.169111 0.168986 0.168951 0.168944 0.168937 0.168902 0.168814 0.168698 0.168619 0.168541 0.168462 0.168410 0.168370 0.168358 0.168355 0.168353 0.168339 0.168310 0.168271 0.168251 0.168231 0.168211 0.168204 0.168199 0.168197 0.168196 0.168196 0.168193 0.168196 0.168200 0.168209 0.168217 0.168226 0.168239 0.168248 0.168255 0.168256 0.168257 0.168264 0.168280 0.168301 0.168325 0.168349 0.168373 0.168400 0.168420 0.168429 0.168430 
0.154689 0.154685 0.154673 0.154645 0.154609 0.154572 0.154536 0.154499 0.154461 0.154432 0.154418 0.154414 0.154409 0.154396 0.154366 0.154326 0.154286 0.154245 0.154205 0.154163 0.154130 0.154116 0.154111 0.154106 0.154091 0.154059 0.154016 0.153973 0.153931 0.153888 0.153845 0.153812 0.153797 0.153792 0.153787 0.153772 0.153740 0.153697 0.153654 0.153610 0.153566 0.153523 0.153490 0.153475 0.153470 0.153465 0.153450 0.153417 0.153373 0.153330 0.153286 0.153242 0.153198 0.153165 0.153150 0.153145 0.153140 0.153124 0.153091 0.153047 0.153004 0.152960 0.152917 0.152873 0.152839 0.152824 0.152819 0.152814 0.152799 0.152765 0.152721 0.152678 0.152634 0.152591 0.152548 0.152515 0.152500 0.152495 0.152490 0.152475 0.152443 0.152401 0.152358 0.152316 0.152273 0.152229 0.152196 0.152181 0.152176 0.152171 0.152156 0.152122 0.152079 0.152036 0.151993 0.151950 0.151907 0.151875 0.151860 0.151855 0.151850 0.151835 0.151803 0.151761 0.151720 0.151678 0.151637 0.151599 0.151570 0.151558 0.151554 0.151551 0.151540 0.151518 0.151490 0.151461 0.151433 0.151405 0.151381 0.151363 0.151355 0.151352 0.151350 0.151342 0.151325 0.151304 0.151285 0.151266 0.151247 0.151232 0.151220 0.151215 0.151213 0.151211 0.151206 0.151196 0.151182 0.151172 0.151162 0.151153 0.151144 0.151138 0.151135 0.151134 0.151133 0.151130 0.151124 0.151117 0.151111 0.151104 0.151098 0.151092 0.151087 0.151085 0.151084 0.151084 0.151082 0.151080 0.151077 0.151073 0.151070 0.151067 0.151064 0.151062 0.151062 0.151062 0.151062 0.151061 0.151060 0.151059 0.151057 0.151056 0.151054 0.151054 0.151054 0.151054 0.151054 0.151054 0.151054 0.151053 0.151053 0.151053 0.151053 0.151053 0.151054 0.151054 0.151054 0.151054 0.151054 0.151054 0.151054 0.151055 0.151056 0.151057 0.151058 0.151059 0.151060 0.151060 0.151060 0.151060 0.151061 0.151062 0.151063 0.151064 0.151066 0.151067 0.151068 0.151069 0.151069 0.151069 0.151070 0.151070 0.151071 0.151073 0.151074 0.151075 0.151076 0.151078 0.151078 0.151079 0.151079 
