-2.171258 -1.513170 19.589736
-1.872936 -1.579267 20.815517
-1.574614 -1.645364 22.041299
-1.276292 -1.711462 23.267080
-2.170785 -1.513275 19.591677
-1.873408 -1.579163 20.813577
-1.872463 -1.579372 20.817458
-1.575086 -1.645260 22.039358
-1.574141 -1.645469 22.043239
-1.276764 -1.711357 23.265139
-2.164465 -1.514675 19.617648
-1.879729 -1.577762 20.787606
-1.866143 -1.580772 20.843429
-1.581407 -1.643859 22.013387
-1.567821 -1.646870 22.069210
-1.283084 -1.709957 23.239168
-2.135765 -1.521034 19.735574
-2.090297 -1.531108 19.922395
-2.044830 -1.541182 20.109216
-1.999363 -1.551256 20.296037
-1.953896 -1.561329 20.482859
-1.908429 -1.571403 20.669680
-1.837443 -1.587131 20.961355
-1.791975 -1.597205 21.148176
-1.746508 -1.607279 21.334998
-1.701041 -1.617353 21.521819
-1.655574 -1.627427 21.708640
-1.610107 -1.637501 21.895461
-1.539121 -1.653228 22.187136
-1.493653 -1.663302 22.373958
-1.448186 -1.673376 22.560779
-1.402719 -1.683450 22.747600
-1.357252 -1.693524 22.934421
-1.311785 -1.703598 23.121242
42 NaN NaN
-2.171376 -1.513144 19.589251
-2.146975 -1.518550 19.689513
-2.122574 -1.523957 19.789776
-2.098172 -1.529363 19.890038
-2.073771 -1.534769 19.990300
-2.049370 -1.540176 20.090562
-2.024969 -1.545582 20.190824
-2.000568 -1.550989 20.291086
-1.976167 -1.556395 20.391349
-1.951766 -1.561801 20.491611
-1.927365 -1.567208 20.591873
-1.902964 -1.572614 20.692135
-1.878562 -1.578021 20.792397
-1.854161 -1.583427 20.892659
-1.829760 -1.588833 20.992922
-1.805359 -1.594240 21.093184
-1.780958 -1.599646 21.193446
-1.756557 -1.605052 21.293708
-1.732156 -1.610459 21.393970
-1.707755 -1.615865 21.494232
-1.683354 -1.621272 21.594495
-1.658953 -1.626678 21.694757
-1.634551 -1.632084 21.795019
-1.610150 -1.637491 21.895281
-1.585749 -1.642897 21.995543
-1.561348 -1.648304 22.095805
-1.536947 -1.653710 22.196068
-1.512546 -1.659116 22.296330
-1.488145 -1.664523 22.396592
-1.463744 -1.669929 22.496854
-1.439343 -1.675336 22.597116
-1.414941 -1.680742 22.697378
-1.390540 -1.686148 22.797641
-1.366139 -1.691555 22.897903
-1.341738 -1.696961 22.998165
-1.317337 -1.702367 23.098427
-1.292936 -1.707774 23.198689
-1.268535 -1.713180 23.298951
-1.244134 -1.718587 23.399214
-1.219733 -1.723993 23.499476
-1.195332 -1.729399 23.599738
-1.170930 -1.734806 23.700000
-2.171013 -1.513100 19.588910
-1.820297 -1.470841 19.206542
-1.545809 -1.437738 18.765495
-1.350920 -1.414358 18.283193
-1.225996 -1.399706 17.777653
-1.154603 -1.391955 17.261485
-1.119380 -1.389166 16.741435
-1.103987 -1.389516 16.220365
-1.097815 -1.391288 15.699097
-1.096522 -1.392744 15.177791
-1.096041 -1.392120 14.656481
-1.093443 -1.389451 14.135183
-1.089198 -1.390038 13.613893
-1.084433 -1.400111 13.092715
-1.080116 -1.424896 12.572031
-1.076242 -1.462564 12.052106
-1.072358 -1.508073 11.532802
-1.068032 -1.556363 11.013750
-1.063437 -1.602156 10.494477
-1.059358 -1.640011 9.974568
-1.056609 -1.664469 9.453860
-1.055707 -1.672105 8.932629
-1.056490 -1.664127 8.411397
-1.058706 -1.642344 7.890559
-1.062076 -1.608919 7.370340
-1.066277 -1.566992 6.850739
-1.070964 -1.520084 6.331564
-1.075794 -1.471712 5.812525
-1.080423 -1.425408 5.293296
-1.084502 -1.384722 4.773595
-2.169560 -1.512925 19.587547
-1.821486 -1.470984 19.208144
-1.819108 -1.470697 19.204940
-1.546699 -1.437846 18.767283
-1.544918 -1.437631 18.763707
-1.351526 -1.414430 18.285098
-1.350313 -1.414286 18.281289
-1.226370 -1.399748 17.779617
-1.225621 -1.399663 17.775688
-1.154807 -1.391976 17.263474
-1.154398 -1.391935 17.259495
-1.119462 -1.389169 16.743434
-1.119299 -1.389163 16.739437
-1.104024 -1.389510 16.222365
-1.103950 -1.389521 16.218365
-1.097826 -1.391280 15.701097
-1.097803 -1.391295 15.697097
-1.096523 -1.392742 15.179791
-1.096521 -1.392747 15.175791
-1.096046 -1.392128 14.658481
-1.096036 -1.392112 14.654481
-1.093457 -1.389460 14.137183
-1.093429 -1.389445 14.133183
-1.089216 -1.390020 13.615893
-1.089180 -1.390057 13.611893
-1.084451 -1.400045 13.094713
-1.084415 -1.400177 13.090716
-1.080131 -1.424773 12.574027
-1.080100 -1.425019 12.570035
-1.076256 -1.462402 12.054099
-1.076227 -1.462725 12.050113
-1.072374 -1.507890 11.534794
-1.072343 -1.508255 11.530810
-1.068050 -1.556180 11.015742
-1.068015 -1.556546 11.011759
-1.063454 -1.601993 10.496470
-1.063420 -1.602319 10.492484
-1.059372 -1.639889 9.976564
-1.059345 -1.640134 9.972572
-1.056617 -1.664406 9.455859
-1.056602 -1.664533 9.451861
-1.055707 -1.672103 8.934629
-1.055706 -1.672107 8.930629
-1.056484 -1.664183 8.413396
-1.056496 -1.664064 8.409398
-1.058695 -1.642454 7.892556
-1.058717 -1.642234 7.888562
-1.062061 -1.609067 7.372335
-1.062091 -1.608771 7.368346
-1.066259 -1.567165 6.852731
-1.066294 -1.566820 6.848746
-1.070945 -1.520269 6.333556
-1.070982 -1.519899 6.329573
-1.075776 -1.471896 5.814516
-1.075813 -1.471527 5.810533
-1.080406 -1.425575 5.295289
-1.080439 -1.425240 5.291303
-1.084488 -1.384862 4.775591
-2.155669 -1.511253 19.574504
-1.832920 -1.472363 19.223413
-1.807739 -1.469326 19.189618
-1.555213 -1.438871 18.784380
-1.536404 -1.436606 18.746610
-1.357328 -1.415121 18.303312
-1.344512 -1.413595 18.263075
-1.229948 -1.400158 17.798403
-1.222044 -1.399253 17.756903
-1.156765 -1.392172 17.282500
-1.152606 -1.391761 17.240453
-1.120326 -1.389208 16.762542
-1.118518 -1.389138 16.720325
-1.104375 -1.389459 16.241489
-1.103599 -1.389573 16.199241
-1.097937 -1.391210 15.720225
-1.097693 -1.391365 15.677970
-1.096531 -1.392713 15.198918
-1.096513 -1.392776 15.156663
-1.096091 -1.392201 14.677608
-1.095987 -1.392035 14.635353
-1.093583 -1.389547 14.156311
-1.093291 -1.389380 14.114056
-1.089389 -1.389849 13.635019
-1.089007 -1.390235 13.592767
-1.084621 -1.399412 13.113830
-1.084244 -1.400810 13.071599
-1.080279 -1.423601 12.593118
-1.079953 -1.426191 12.550943
-1.076396 -1.460858 12.073164
-1.076088 -1.464270 12.031048
-1.072521 -1.506147 11.553841
-1.072194 -1.510011 11.511764
-1.068218 -1.554418 11.034788
-1.067846 -1.558298 10.992712
-1.063617 -1.600437 10.515534
-1.063256 -1.603875 10.473420
-1.059502 -1.638715 9.995655
-1.059215 -1.641307 9.953480
-1.056686 -1.663799 9.474978
-1.056533 -1.665140 9.432743
-1.055712 -1.672086 8.953757
-1.055704 -1.672104 8.911501
-1.056433 -1.664691 8.432517
-1.056558 -1.663458 8.390280
-1.058589 -1.643498 7.911655
-1.058824 -1.641181 7.869464
-1.061919 -1.610478 7.391410
-1.062233 -1.607360 7.349271
-1.066094 -1.568814 6.871787
-1.066459 -1.565170 6.829691
-1.070769 -1.522036 6.352601
-1.071159 -1.518132 6.310528
-1.075600 -1.473660 5.833562
-1.075988 -1.469773 5.791487
-1.080243 -1.427200 5.314347
-1.080600 -1.423639 5.272243
-1.084354 -1.386195 4.794671
-2.116009 -1.506479 19.537266
-2.063482 -1.500153 19.485588
-2.012121 -1.493966 19.432736
-1.962050 -1.487933 19.378629
-1.913842 -1.482121 19.322836
-1.866936 -1.476465 19.265940
-1.775280 -1.465411 19.145876
-1.733301 -1.460346 19.085191
-1.692727 -1.455452 19.023554
-1.653566 -1.450728 18.960991
-1.616189 -1.446221 18.897323
-1.580681 -1.441940 18.832584
-1.512460 -1.433722 18.697618
-1.481735 -1.430026 18.630436
-1.452750 -1.426543 18.562481
-1.425124 -1.423228 18.493957
-1.398843 -1.420079 18.424891
-1.374433 -1.417161 18.355129
-1.328733 -1.411720 18.210832
-1.308292 -1.409298 18.139789
-1.289567 -1.407091 18.068265
-1.272036 -1.405035 17.996441
-1.255576 -1.403115 17.924358
-1.240204 -1.401333 17.852029
-1.212781 -1.398206 17.703094
-1.200792 -1.396861 17.630120
-1.189745 -1.395638 17.556994
-1.179876 -1.394571 17.483697
-1.170754 -1.393603 17.410303
-1.162353 -1.392732 17.336822
-1.147739 -1.391300 17.186061
-1.141632 -1.390744 17.112350
-1.136077 -1.390265 17.038595
-1.131171 -1.389879 16.964792
-1.126856 -1.389580 16.890952
-1.122958 -1.389344 16.817089
-1.116289 -1.389065 16.665760
-1.113638 -1.389028 16.591841
-1.111246 -1.389036 16.517913
-1.109092 -1.389088 16.443978
-1.107219 -1.389195 16.370035
-1.105537 -1.389338 16.296088
-1.102606 -1.389722 16.144639
-1.101476 -1.389954 16.070681
-1.100488 -1.390202 15.996722
-1.099625 -1.390463 15.922760
-1.098888 -1.390733 15.848798
-1.098310 -1.391008 15.774834
-1.097412 -1.391561 15.623360
-1.097107 -1.391819 15.549394
-1.096896 -1.392055 15.475428
-1.096738 -1.392271 15.401462
-1.096625 -1.392465 15.327496
-1.096559 -1.392625 15.253529
-1.096498 -1.392824 15.102052
-1.096480 -1.392860 15.028085
-1.096456 -1.392838 14.954118
-1.096408 -1.392752 14.880152
-1.096332 -1.392610 14.806185
-1.096220 -1.392412 14.732219
-1.095803 -1.391768 14.580743
-1.095524 -1.391389 14.506778
-1.095201 -1.390983 14.432813
-1.094820 -1.390568 14.358849
-1.094399 -1.390169 14.284884
-1.093944 -1.389796 14.210920
-1.092897 -1.389197 14.059447
-1.092337 -1.389030 13.985482
-1.091754 -1.388951 13.911518
-1.091149 -1.388978 13.837554
-1.090517 -1.389184 13.763590
-1.089872 -1.389528 13.689627
-1.088513 -1.390742 13.538161
-1.087834 -1.391693 13.464203
-1.087153 -1.392845 13.390249
-1.086470 -1.394208 13.316298
-1.085789 -1.395853 13.242353
-1.085115 -1.397822 13.168416
-1.083761 -1.402693 13.017023
-1.083121 -1.405592 12.943116
-1.082499 -1.408852 12.869224
-1.081888 -1.412387 12.795344
-1.081289 -1.416190 12.721478
-1.080704 -1.420355 12.647631
-1.079536 -1.429679 12.496446
-1.078976 -1.434571 12.422643
-1.078425 -1.439761 12.348861
-1.077878 -1.445151 12.275093
-1.077335 -1.450715 12.201338
-1.076794 -1.456454 12.127596
-1.075689 -1.468817 11.976628
-1.075147 -1.475051 11.902926
-1.074604 -1.481412 11.829236
-1.074055 -1.487918 11.755558
-1.073500 -1.494506 11.681887
-1.072940 -1.501169 11.608224
-1.071765 -1.515043 11.457387
-1.071175 -1.521884 11.383739
-1.070575 -1.528750 11.310095
-1.069960 -1.535633 11.236452
-1.069331 -1.542510 11.162808
-1.068694 -1.549368 11.089163
-1.067364 -1.563299 10.938333
-1.066707 -1.569999 10.864673
-1.066050 -1.576627 10.791007
-1.065392 -1.583174 10.717333
-1.064739 -1.589581 10.643648
-1.064092 -1.595859 10.569951
-1.062791 -1.608308 10.418991
-1.062176 -1.614088 10.345253
-1.061576 -1.619686 10.271501
-1.060992 -1.625103 10.197736
-1.060425 -1.630320 10.123955
-1.059886 -1.635224 10.050153
-1.058855 -1.644546 9.898967
-1.058391 -1.648701 9.825118
-1.057968 -1.652472 9.751249
-1.057574 -1.655962 9.677366
-1.057212 -1.659164 9.603470
-1.056891 -1.661995 9.529558
-1.056364 -1.666616 9.378153
-1.056159 -1.668402 9.304208
-1.055996 -1.669806 9.230255
-1.055874 -1.670836 9.156296
-1.055784 -1.671580 9.082333
-1.055724 -1.672038 9.008368
-1.055726 -1.671837 8.856891
-1.055774 -1.671300 8.782927
-1.055850 -1.670497 8.708964
-1.055967 -1.669314 8.635007
-1.056113 -1.667853 8.561055
-1.056286 -1.666141 8.487109
-1.056734 -1.661730 8.335696
-1.056997 -1.659144 8.261776
-1.057284 -1.656326 8.187863
-1.057596 -1.653264 8.113961
-1.057941 -1.649871 8.040073
-1.058308 -1.646263 7.966196
-1.059128 -1.638174 7.814936
-1.059569 -1.633813 7.741100
-1.060029 -1.629260 7.667275
-1.060507 -1.624522 7.593462
-1.061006 -1.619562 7.519663
-1.061527 -1.614384 7.445880
-1.062641 -1.603292 7.294813
-1.063211 -1.597611 7.221067
-1.063797 -1.591766 7.147334
-1.064394 -1.585800 7.073611
-1.065003 -1.579718 6.999897
-1.065627 -1.573485 6.926196
-1.066935 -1.560406 6.775290
-1.067587 -1.553892 6.701613
-1.068248 -1.547274 6.627946
-1.068915 -1.540594 6.554285
-1.069588 -1.533861 6.480629
-1.070265 -1.527081 6.406976
-1.071665 -1.513063 6.256155
-1.072351 -1.506189 6.182511
-1.073039 -1.499304 6.108869
-1.073726 -1.492421 6.035227
-1.074412 -1.485551 5.961583
-1.075097 -1.478697 5.887938
-1.076487 -1.464779 5.737107
-1.077158 -1.458057 5.663449
-1.077825 -1.451388 5.589787
-1.078484 -1.444796 5.516118
-1.079133 -1.438299 5.442440
-1.079775 -1.431884 5.368755
-1.081057 -1.419066 5.217826
-1.081664 -1.413009 5.144110
-1.082259 -1.407068 5.070385
-1.082842 -1.401250 4.996650
-1.083407 -1.395624 4.922899
-1.083956 -1.390159 4.849137
155 NaN NaN
-2.171376 -1.513144 19.589251
-2.098318 -1.504349 19.520656
-2.027674 -1.495841 19.449542
-1.959574 -1.487634 19.375954
-1.894141 -1.479746 19.299952
-1.831482 -1.472190 19.221615
-1.771689 -1.464977 19.141037
-1.714836 -1.458119 19.058328
-1.660975 -1.451622 18.973612
-1.610140 -1.445491 18.887019
-1.562339 -1.439729 18.798690
-1.517560 -1.434336 18.708768
-1.475771 -1.429308 18.617397
-1.436920 -1.424642 18.524720
-1.400937 -1.420329 18.430875
-1.367738 -1.416361 18.335993
-1.337226 -1.412727 18.240200
-1.309293 -1.409416 18.143612
-1.283825 -1.406414 18.046334
-1.260699 -1.403709 17.948464
-1.239792 -1.401286 17.850088
-1.220974 -1.399130 17.751285
-1.204116 -1.397229 17.652124
-1.189091 -1.395566 17.552663
-1.175769 -1.394128 17.452957
-1.164023 -1.392899 17.353050
-1.153728 -1.391868 17.252980
-1.144761 -1.391018 17.152781
-1.137000 -1.390338 17.052480
-1.130327 -1.389813 16.952099
-1.124625 -1.389431 16.851658
-1.119778 -1.389179 16.751172
-1.115672 -1.389045 16.650652
-1.112195 -1.389016 16.550108
-1.109233 -1.389080 16.449548
-1.106685 -1.389226 16.348977
-1.104502 -1.389440 16.248397
-1.102655 -1.389712 16.147810
-1.101118 -1.390028 16.047219
-1.099862 -1.390376 15.946623
-1.098860 -1.390743 15.846025
-1.098083 -1.391118 15.745425
-1.097501 -1.391487 15.644824
-1.097086 -1.391837 15.544221
-1.096809 -1.392156 15.443618
-1.096639 -1.392431 15.343015
-1.096549 -1.392649 15.242411
-1.096507 -1.392798 15.141808
-1.096485 -1.392863 15.041204
-1.096452 -1.392834 14.940600
-1.096379 -1.392697 14.839996
-1.096238 -1.392439 14.739393
-1.095999 -1.392052 14.638790
-1.095659 -1.391560 14.538188
-1.095226 -1.391010 14.437586
-1.094707 -1.390445 14.336985
-1.094112 -1.389912 14.236385
-1.093447 -1.389453 14.135784
-1.092722 -1.389115 14.035184
-1.091943 -1.388943 13.934583
-1.091120 -1.388980 13.833982
-1.090259 -1.389271 13.733383
-1.089369 -1.389862 13.632784
-1.088459 -1.390798 13.532189
-1.087535 -1.392122 13.431598
-1.086606 -1.393881 13.331014
-1.085679 -1.396118 13.230440
-1.084764 -1.398880 13.129878
-1.083868 -1.402211 13.029333
-1.082998 -1.406153 12.928811
-1.082156 -1.410705 12.828314
-1.081339 -1.415831 12.727844
-1.080544 -1.421496 12.627403
-1.079767 -1.427662 12.526991
-1.079006 -1.434292 12.426609
-1.078256 -1.441351 12.326256
-1.077515 -1.448802 12.225931
-1.076780 -1.456607 12.125633
-1.076046 -1.464731 12.025361
-1.075311 -1.473137 11.925111
-1.074572 -1.481788 11.824883
-1.073824 -1.490648 11.724673
-1.073066 -1.499682 11.624478
-1.072293 -1.508851 11.524296
-1.071502 -1.518121 11.424123
-1.070690 -1.527455 11.323957
-1.069854 -1.536816 11.223793
-1.068995 -1.546168 11.123628
-1.068119 -1.555470 11.023459
-1.067230 -1.564684 10.923282
-1.066336 -1.573770 10.823093
-1.065442 -1.582691 10.722890
-1.064553 -1.591405 10.622668
-1.063676 -1.599875 10.522425
-1.062817 -1.608060 10.422158
-1.061981 -1.615921 10.321866
-1.061175 -1.623419 10.221545
-1.060403 -1.630515 10.121195
-1.059673 -1.637169 10.020814
-1.058989 -1.643341 9.920402
-1.058359 -1.648991 9.819959
-1.057787 -1.654081 9.719486
-1.057280 -1.658570 9.618983
-1.056843 -1.662420 9.518454
-1.056479 -1.665611 9.417902
-1.056188 -1.668153 9.317331
-1.055966 -1.670062 9.216746
-1.055813 -1.671350 9.116150
-1.055726 -1.672032 9.015549
-1.055703 -1.672121 8.914945
-1.055742 -1.671630 8.814343
-1.055843 -1.670573 8.713744
-1.056002 -1.668965 8.613154
-1.056217 -1.666818 8.512573
-1.056488 -1.664146 8.412005
-1.056812 -1.660963 8.311452
-1.057187 -1.657282 8.210917
-1.057611 -1.653116 8.110400
-1.058083 -1.648479 8.009904
-1.058600 -1.643385 7.909431
-1.059162 -1.637846 7.808981
-1.059765 -1.631879 7.708556
-1.060407 -1.625510 7.608156
-1.061086 -1.618763 7.507781
-1.061800 -1.611664 7.407431
-1.062546 -1.604239 7.307104
-1.063321 -1.596512 7.206801
-1.064123 -1.588509 7.106519
-1.064950 -1.580256 7.006257
-1.065798 -1.571778 6.906015
-1.066666 -1.563100 6.805790
-1.067551 -1.554248 6.705580
-1.068450 -1.545247 6.605384
-1.069362 -1.536123 6.505199
-1.070283 -1.526901 6.405023
-1.071211 -1.517606 6.304854
-1.072144 -1.508263 6.204689
-1.073079 -1.498898 6.104526
-1.074014 -1.489537 6.004363
-1.074946 -1.480204 5.904197
-1.075873 -1.470924 5.804027
-1.076792 -1.461725 5.703849
-1.077701 -1.452629 5.603661
-1.078597 -1.443664 5.503461
-1.079478 -1.434854 5.403248
-1.080341 -1.426225 5.303018
-1.081184 -1.417801 5.202771
-1.082004 -1.409610 5.102505
-1.082800 -1.401675 5.002218
-1.083568 -1.394022 4.901908
-1.084305 -1.386677 4.801576
-1.085011 -1.379666 4.701219
-1.085681 -1.373012 4.600838
-1.086314 -1.366743 4.500431
-1.086906 -1.360883 4.400000
-2.171732 -1.513494 19.589238
-3.420517 -1.662524 19.586764
-4.106882 -0.540093 19.618426
-4.154075 0.818633 19.640538
-4.211510 2.177666 19.662919
-4.272359 3.536565 19.684858
-4.348987 4.893489 19.742417
-4.525662 6.240151 19.808176
-4.889429 7.547062 19.883056
-5.514918 8.748582 19.968462
-6.412129 9.762481 20.061321
-7.513372 10.551686 20.156055
-8.735710 11.138784 20.248923
-10.022955 11.567719 20.338678
-2.173157 -1.514897 19.589186
-3.418816 -1.663575 19.586726
-3.422219 -1.661473 19.586802
-4.106593 -0.542072 19.618387
-4.107172 -0.538114 19.618466
-4.153966 0.816637 19.640504
-4.154185 0.820630 19.640572
-4.211421 2.175668 19.662887
-4.211599 2.179664 19.662952
-4.272267 3.534568 19.684814
-4.272451 3.538563 19.684901
-4.348825 4.891497 19.742327
-4.349150 4.895480 19.742506
-4.525283 6.238190 19.808073
-4.526042 6.242112 19.808279
-4.888722 7.545194 19.882938
-4.890135 7.548929 19.883174
-5.513781 8.746941 19.968329
-5.516054 8.750222 19.968594
-6.410643 9.761150 20.061182
-6.413616 9.763812 20.061460
-7.511642 10.550692 20.155917
-7.515102 10.552680 20.156193
-8.733856 11.138046 20.248788
-8.737564 11.139523 20.249057
-10.021031 11.567189 20.338549
-2.193613 -1.535026 19.588438
-3.394398 -1.678664 19.586182
-3.446637 -1.646385 19.587347
-4.102436 -0.570472 19.617821
-4.110173 -0.509571 19.618999
-4.152394 0.787975 19.640016
-4.155757 0.849292 19.641060
-4.210147 2.146992 19.662418
-4.212876 2.208340 19.663422
-4.270951 3.505896 19.684186
-4.273767 3.567234 19.685529
-4.346492 4.862912 19.741045
-4.351554 4.924059 19.743798
-4.519841 6.210040 19.806598
-4.531493 6.270260 19.809755
-4.878585 7.518388 19.881250
-4.900372 7.575697 19.884866
-5.497579 8.723319 19.966429
-5.532368 8.773769 19.970497
-6.389305 9.742048 20.059185
-6.434960 9.782907 20.063458
-7.486899 10.536270 20.153929
-7.539933 10.566951 20.158180
-8.707246 11.127445 20.246859
-8.764174 11.150124 20.250986
-9.993445 11.559461 20.336688
-2.291659 -1.621393 19.585294
-2.469866 -1.726245 19.581827
-2.666698 -1.790025 19.580142
-2.872423 -1.812911 19.580056
-3.078693 -1.795275 19.581386
-3.277249 -1.736750 19.583973
-3.552246 -1.569220 19.590041
-3.702192 -1.426221 19.594814
-3.832298 -1.264939 19.599991
-3.940926 -1.088523 19.605317
-4.024362 -0.898935 19.610471
-4.080064 -0.699398 19.615153
-4.121142 -0.379149 19.621350
-4.127585 -0.171880 19.624697
-4.126706 0.035525 19.627767
-4.126508 0.242930 19.630865
-4.133093 0.450219 19.634224
-4.144621 0.657300 19.637766
-4.162235 0.980038 19.643255
-4.170769 1.187268 19.646665
-4.178563 1.394529 19.650053
-4.186726 1.601774 19.653465
-4.195372 1.809000 19.656885
-4.204361 2.016211 19.660284
-4.218707 2.339118 19.665580
-4.227896 2.546319 19.669087
-4.236971 2.753524 19.672678
-4.246070 2.960730 19.676105
-4.255376 3.167934 19.679083
-4.264910 3.375129 19.681940
-4.279713 3.697980 19.688952
-4.288986 3.905064 19.696619
-4.298635 4.112056 19.706111
-4.309360 4.318965 19.716220
-4.321802 4.525797 19.725934
-4.336255 4.732517 19.735220
-4.363141 5.054333 19.749774
-4.383515 5.260535 19.759469
-4.406723 5.466426 19.769370
-4.433100 5.671928 19.779406
-4.462959 5.876945 19.789586
-4.496609 6.081365 19.799950
-4.557299 6.398436 19.816535
-4.602071 6.600681 19.827468
-4.651766 6.801760 19.838631
-4.706751 7.001443 19.850037
-4.767263 7.199505 19.861691
-4.833573 7.395685 19.873599
-4.949069 7.696975 19.892668
-5.031248 7.887006 19.905226
-5.119927 8.074075 19.918031
-5.215220 8.257844 19.931074
-5.317173 8.437987 19.944343
-5.425763 8.614192 19.957823
-5.608034 8.880254 19.979209
-5.733190 9.045071 19.993146
-5.864518 9.205004 20.007225
-6.001773 9.359872 20.021422
-6.144727 9.509487 20.035717
-6.293029 9.653794 20.050086
-6.534045 9.867993 20.072579
-6.694500 9.998640 20.087047
-6.859121 10.123995 20.101522
-7.027583 10.244143 20.115990
-7.199576 10.359182 20.130437
-7.374804 10.469239 20.144851
-7.653658 10.631182 20.167229
-7.835929 10.729158 20.181521
-8.020525 10.822692 20.195752
-8.207232 10.911949 20.209920
-8.395857 10.997093 20.224018
-8.586235 11.078253 20.238045
-8.886028 11.197199 20.259757
-9.080147 11.268987 20.273594
-9.275492 11.337388 20.287355
-9.471950 11.402537 20.301040
-9.669420 11.464571 20.314649
-9.867806 11.523627 20.328183
178 NaN NaN
-2.171376 -1.513144 19.589251
-2.243305 -1.583923 19.586620
-2.323082 -1.645744 19.584432
-2.409391 -1.698086 19.582691
-2.500907 -1.740699 19.581384
-2.596383 -1.773520 19.580495
-2.694676 -1.796592 19.580001
-2.794752 -1.809992 19.579880
-2.895650 -1.813783 19.580109
-2.996451 -1.807985 19.580668
-3.096231 -1.792565 19.581539
-3.194014 -1.767442 19.582705
-3.288732 -1.732516 19.584148
-3.379326 -1.687977 19.585845
-3.465207 -1.634910 19.587762
-3.546141 -1.574562 19.589860
-3.622117 -1.508074 19.592109
-3.693255 -1.436433 19.594481
-3.759744 -1.360455 19.596954
-3.821589 -1.280654 19.599503
-3.878439 -1.197224 19.602095
-3.929878 -1.110355 19.604695
-3.975462 -1.020276 19.607264
-4.014727 -0.927269 19.609763
-4.047233 -0.831688 19.612152
-4.073096 -0.734092 19.614409
-4.092978 -0.635097 19.616532
-4.107601 -0.535183 19.618524
-4.117690 -0.434705 19.620389
-4.123952 -0.333912 19.622133
-4.127082 -0.232969 19.623764
-4.127913 -0.131978 19.625307
-4.127364 -0.030984 19.626797
-4.126365 0.070008 19.628271
-4.125854 0.171003 19.629763
-4.126772 0.271993 19.631311
-4.129666 0.372945 19.632934
-4.134141 0.473839 19.634618
-4.139666 0.574680 19.636340
-4.145712 0.675492 19.638080
-4.151754 0.776303 19.639818
-4.157284 0.877145 19.641533
-4.162148 0.978021 19.643222
-4.166495 1.078921 19.644889
-4.170489 1.179836 19.646544
-4.174293 1.280759 19.648192
-4.178068 1.381682 19.649842
-4.181956 1.482601 19.651500
-4.185977 1.583515 19.653163
-4.190117 1.684424 19.654830
-4.194357 1.785329 19.656495
-4.198684 1.886230 19.658156
-4.203079 1.987129 19.659809
-4.207527 2.088025 19.661456
-4.212010 2.188919 19.663103
-4.216509 2.289813 19.664761
-4.221007 2.390707 19.666438
-4.225486 2.491601 19.668143
-4.229929 2.592495 19.669884
-4.234344 2.693391 19.671641
-4.238751 2.794288 19.673381
-4.243173 2.895184 19.675067
-4.247632 2.996081 19.676664
-4.252149 3.096977 19.678137
-4.256738 3.197871 19.679482
-4.261379 3.298763 19.680821
-4.266044 3.399652 19.682300
-4.270705 3.500536 19.684069
-4.275336 3.601414 19.686277
-4.279908 3.702279 19.689071
-4.284419 3.803126 19.692537
-4.288936 3.903952 19.696570
-4.293539 4.004756 19.701034
-4.298310 4.105538 19.705793
-4.303330 4.206301 19.710710
-4.308679 4.307046 19.715649
-4.314436 4.407773 19.720477
-4.320651 4.508481 19.725150
-4.327341 4.609164 19.729711
-4.334521 4.709815 19.734208
-4.342208 4.810430 19.738690
-4.350417 4.911002 19.743202
-4.359167 5.011526 19.747788
-4.368493 5.111994 19.752449
-4.378433 5.212400 19.757175
-4.389026 5.312736 19.761956
-4.400313 5.412995 19.766780
-4.412331 5.513167 19.771637
-4.425119 5.613243 19.776521
-4.438714 5.713210 19.781436
-4.453149 5.813058 19.786387
-4.468461 5.912773 19.791379
-4.484685 6.012341 19.796417
-4.501857 6.111748 19.801506
-4.520013 6.210977 19.806646
-4.539190 6.310011 19.811840
-4.559428 6.408831 19.817087
-4.580761 6.507417 19.822388
-4.603229 6.605748 19.827744
-4.626867 6.703801 19.833153
-4.651710 6.801552 19.838619
-4.677793 6.898977 19.844141
-4.705151 6.996048 19.849722
-4.733818 7.092737 19.855361
-4.763827 7.189014 19.861060
-4.795209 7.284849 19.866820
-4.827992 7.380211 19.872640
-4.862202 7.475065 19.878521
-4.897868 7.569379 19.884462
-4.935015 7.663115 19.890464
-4.973667 7.756236 19.896526
-5.013842 7.848706 19.902647
-5.055554 7.940490 19.908828
-5.098816 8.031549 19.915066
-5.143642 8.121845 19.921361
-5.190045 8.211336 19.927713
-5.238030 8.299985 19.934119
-5.287597 8.387756 19.940578
-5.338739 8.474614 19.947088
-5.391456 8.560522 19.953648
-5.445741 8.645444 19.960254
-5.501589 8.729343 19.966907
-5.558984 8.812187 19.973602
-5.617904 8.893951 19.980338
-5.678329 8.974605 19.987112
-5.740238 9.054124 19.993922
-5.803609 9.132479 20.000765
-5.868417 9.209647 20.007638
-5.934629 9.285611 20.014540
-6.002212 9.360357 20.021467
-6.071131 9.433870 20.028417
-6.141353 9.506137 20.035387
-6.212846 9.577145 20.042375
-6.285573 9.646887 20.049378
-6.359494 9.715362 20.056394
-6.434569 9.782568 20.063421
-6.510760 9.848506 20.070457
-6.588030 9.913174 20.077499
-6.666342 9.976577 20.084545
-6.745656 10.038721 20.091593
-6.825934 10.099615 20.098642
-6.907138 10.159269 20.105690
-6.989232 10.217693 20.112735
-7.072180 10.274899 20.119775
-7.155946 10.330899 20.126810
-7.240497 10.385709 20.133838
-7.325799 10.439344 20.140858
-7.411820 10.491820 20.147868
-7.498527 10.543154 20.154868
-7.585891 10.593364 20.161856
-7.673883 10.642468 20.168832
-7.762474 10.690484 20.175795
-7.851638 10.737429 20.182745
-7.941349 10.783325 20.189680
-8.031580 10.828189 20.196600
-8.122309 10.872042 20.203505
-8.213512 10.914901 20.210394
-8.305169 10.956786 20.217267
-8.397257 10.997715 20.224123
-8.489757 11.037708 20.230962
-8.582649 11.076785 20.237783
-8.675915 11.114963 20.244588
-8.769538 11.152261 20.251375
-8.863502 11.188696 20.258144
-8.957789 11.224287 20.264895
-9.052386 11.259052 20.271629
-9.147277 11.293010 20.278344
-9.242449 11.326174 20.285042
-9.337889 11.358562 20.291722
-9.433586 11.390189 20.298383
-9.529527 11.421070 20.305027
-9.625702 11.451221 20.311652
-9.722098 11.480658 20.318260
-9.818706 11.509397 20.324849
-9.915516 11.537454 20.331422
-10.012517 11.564847 20.337976
-10.109700 11.591590 20.344514
-10.207057 11.617700 20.351034
-1.574218 -1.645060 22.041267
-1.420090 -1.523991 22.029255
-1.271466 -1.396050 22.019630
-1.129912 -1.260186 22.012912
-0.997633 -1.115179 22.009791
-0.877888 -0.959636 22.011211
-0.776462 -0.791805 22.018724
-0.699095 -0.612257 22.033467
-0.653221 -0.423238 22.056646
-0.645046 -0.230165 22.088651
-0.676935 -0.040894 22.128617
-0.745282 0.137098 22.174461
-0.840626 0.301250 22.223697
-0.955981 0.451511 22.274812
-1.085915 0.589131 22.326855
-1.572636 -1.643844 22.041139
-1.421645 -1.525244 22.029370
-1.418536 -1.522737 22.029139
-1.272952 -1.397387 22.019716
-1.269981 -1.394714 22.019544
-1.131305 -1.261620 22.012961
-1.128519 -1.258751 22.012863
-0.998897 -1.116729 22.009792
-0.996368 -1.113630 22.009790
-0.879069 -0.961249 22.011183
-0.876706 -0.958022 22.011239
-0.777426 -0.793554 22.018626
-0.775499 -0.790055 22.018823
-0.699751 -0.614137 22.033279
-0.698440 -0.610376 22.033654
-0.653470 -0.425201 22.056356
-0.652972 -0.421275 22.056935
-0.644837 -0.232117 22.088265
-0.645254 -0.228214 22.089037
-0.676506 -0.042801 22.128192
-0.677363 -0.038987 22.129043
-0.744477 0.135332 22.173979
-0.746087 0.138864 22.174943
-0.839546 0.299647 22.223184
-0.841707 0.302853 22.224210
-0.954708 0.450061 22.274284
-0.957254 0.452960 22.275340
-1.084508 0.587814 22.326322
-1.566012 -1.638750 22.040603
-1.428152 -1.530492 22.029854
-1.412029 -1.517490 22.028656
-1.279171 -1.402982 22.020076
-1.263762 -1.389119 22.019183
-1.137136 -1.267626 22.013167
-1.122688 -1.252746 22.012658
-1.004191 -1.123216 22.009798
-0.991074 -1.107143 22.009784
-0.884017 -0.968003 22.011067
-0.872137 -0.951012 22.011481
-0.781461 -0.800880 22.018213
-0.771464 -0.782730 22.019235
-0.702494 -0.622008 22.032493
-0.695696 -0.602505 22.034440
-0.654514 -0.433420 22.055143
-0.651928 -0.413056 22.058148
-0.643964 -0.240286 22.086648
-0.646127 -0.220045 22.090654
-0.674712 -0.050783 22.126409
-0.679632 -0.031157 22.130901
-0.741108 0.127937 22.171960
-0.749456 0.146259 22.176962
-0.835021 0.292937 22.221036
-0.846232 0.309563 22.226358
-0.949378 0.443993 22.272076
-0.962585 0.459028 22.277548
-1.078615 0.582300 22.324089
-1.549903 -1.626362 22.039301
-1.528559 -1.609948 22.037576
-1.507215 -1.593535 22.035851
-1.485909 -1.577071 22.034143
-1.464943 -1.560162 22.032586
-1.443976 -1.543254 22.031029
-1.396344 -1.504555 22.027541
-1.375808 -1.487109 22.026171
-1.355273 -1.469664 22.024800
-1.334738 -1.452218 22.023430
-1.314334 -1.434618 22.022115
-1.294295 -1.416589 22.020953
-1.248638 -1.375512 22.018306
-1.228879 -1.357175 22.017259
-1.209417 -1.338512 22.016332
-1.189954 -1.319850 22.015406
-1.170491 -1.301188 22.014479
-1.151317 -1.282230 22.013666
-1.108506 -1.238141 22.012159
-1.089716 -1.218791 22.011497
-1.071442 -1.198955 22.011032
-1.053444 -1.178858 22.010671
-1.035446 -1.158761 22.010311
-1.017448 -1.138664 22.009950
-0.978198 -1.091367 22.009771
-0.961138 -1.070465 22.009753
-0.944079 -1.049563 22.009736
-0.927931 -1.027958 22.010037
-0.911990 -1.006194 22.010411
-0.896048 -0.984430 22.010785
-0.861115 -0.933900 22.012100
-0.846512 -0.911228 22.012921
-0.831909 -0.888557 22.013742
-0.817306 -0.865885 22.014563
-0.804274 -0.842299 22.015882
-0.791273 -0.818695 22.017210
-0.762040 -0.764728 22.020354
-0.750949 -0.740206 22.022255
-0.739858 -0.715685 22.024155
-0.728768 -0.691163 22.026056
-0.718008 -0.666517 22.028049
-0.709167 -0.641152 22.030582
-0.689024 -0.583361 22.036351
-0.681142 -0.557743 22.039134
-0.674892 -0.531693 22.042345
-0.668643 -0.505644 22.045555
-0.662393 -0.479594 22.048765
-0.657052 -0.453408 22.052194
-0.649390 -0.393068 22.061097
-0.646026 -0.366585 22.065004
-0.644317 -0.340047 22.069277
-0.644026 -0.313461 22.073864
-0.643735 -0.286875 22.078451
-0.643445 -0.260289 22.083038
-0.648250 -0.200178 22.094585
-0.651062 -0.173855 22.099794
-0.653875 -0.147532 22.105003
-0.658786 -0.121635 22.110589
-0.664567 -0.095915 22.116332
-0.670349 -0.070195 22.122075
-0.686037 -0.012397 22.135561
-0.694523 0.012458 22.141735
-0.703010 0.037314 22.147909
-0.711496 0.062169 22.154083
-0.722056 0.086126 22.160546
-0.732913 0.109953 22.167051
-0.757847 0.164135 22.181895
-0.770728 0.186862 22.188643
-0.783608 0.209589 22.195390
-0.796488 0.232315 22.202138
-0.809438 0.254997 22.208893
-0.824018 0.276618 22.215813
-0.857235 0.325881 22.231581
-0.872188 0.347222 22.238532
-0.888183 0.367778 22.245571
-0.904179 0.388333 22.252610
-0.920175 0.408889 22.259649
-0.936415 0.429237 22.266704
-0.975548 0.473785 22.282920
-0.992723 0.493337 22.290038
-1.010321 0.512490 22.297176
-1.028482 0.531111 22.304343
-1.046643 0.549733 22.311510
-1.064803 0.568354 22.318676
27 NaN NaN
-1.574614 -1.645364 22.041299
-1.488019 -1.578773 22.034300
-1.402955 -1.510172 22.027982
-1.319642 -1.439393 22.022422
-1.238344 -1.366250 22.017710
-1.159384 -1.290537 22.013950
-1.083155 -1.212033 22.011266
-1.010139 -1.130503 22.009804
-0.940932 -1.045708 22.009732
-0.876264 -0.957419 22.011249
-0.817027 -0.865452 22.014578
-0.764293 -0.769709 22.019968
-0.719309 -0.670250 22.027677
-0.683454 -0.567382 22.037947
-0.658111 -0.461745 22.050964
-0.644473 -0.354356 22.066809
-0.643295 -0.246554 22.085408
-0.654699 -0.139818 22.106530
-0.678143 -0.035519 22.129818
-0.712559 0.065282 22.154856
-0.756593 0.161921 22.181237
-0.808836 0.254103 22.208607
-0.867975 0.341808 22.236678
-0.932862 0.425193 22.265232
-1.002538 0.504510 22.294105
-1.076214 0.580054 22.323179
-1.153248 0.652127 22.352370
-1.872529 -1.579041 20.815334
-1.724537 -1.495315 20.748478
-1.578669 -1.407064 20.682803
-1.435508 -1.313444 20.618616
-1.296177 -1.212922 20.556508
-1.161459 -1.104927 20.496873
-1.033409 -0.987363 20.440764
-0.915271 -0.857800 20.389811
-0.810711 -0.714834 20.345803
-0.728869 -0.555110 20.313199
-0.679991 -0.380639 20.296772
-0.671652 -0.198843 20.299824
-0.710571 -0.022646 20.325039
-0.782909 0.139591 20.365542
-0.879015 0.286101 20.416694
-0.991945 0.417128 20.475217
-1.114822 0.536763 20.538011
-1.245154 0.646478 20.603953
-1.870904 -1.578136 20.814599
-1.726149 -1.496249 20.749205
-1.722925 -1.494380 20.747751
-1.580248 -1.408066 20.683512
-1.577090 -1.406061 20.682094
-1.437066 -1.314487 20.619313
-1.433950 -1.312402 20.617918
-1.297682 -1.214057 20.557177
-1.294672 -1.211788 20.555839
-1.162887 -1.106179 20.497501
-1.160031 -1.103676 20.496245
-1.034785 -0.988684 20.441365
-1.032033 -0.986042 20.440163
-0.916499 -0.859289 20.390335
-0.914044 -0.856310 20.389287
-0.811691 -0.716532 20.346202
-0.809732 -0.713136 20.345405
-0.729667 -0.556919 20.313507
-0.728072 -0.553302 20.312891
-0.680280 -0.382617 20.296833
-0.679702 -0.378661 20.296711
-0.671336 -0.200805 20.299599
-0.671969 -0.196881 20.300050
-0.709987 -0.024527 20.324691
-0.711154 -0.020765 20.325388
-0.781934 0.137925 20.365016
-0.783884 0.141256 20.366068
-0.877907 0.284541 20.416109
-0.880122 0.287660 20.417278
-0.990654 0.415752 20.474553
-0.993235 0.418504 20.475881
-1.113417 0.535530 20.537298
-1.116227 0.537995 20.538724
-1.243708 0.645305 20.603223
-1.864489 -1.574564 20.811699
-1.732511 -1.499938 20.752076
-1.716563 -1.490691 20.744880
-1.586479 -1.412024 20.686310
-1.570859 -1.402103 20.679295
-1.443217 -1.318600 20.622067
-1.427812 -1.308268 20.615171
-1.303623 -1.218536 20.559818
-1.288731 -1.207308 20.553198
-1.168525 -1.111118 20.499981
-1.154393 -1.098737 20.493765
-1.040217 -0.993899 20.443736
-1.026601 -0.980827 20.437791
-0.921344 -0.865170 20.392402
-0.909199 -0.850429 20.387219
-0.815557 -0.723233 20.347774
-0.805866 -0.706435 20.343832
-0.732814 -0.564056 20.314722
-0.724924 -0.546165 20.311675
-0.681422 -0.390426 20.297073
-0.678559 -0.370853 20.296471
-0.671023 -0.208662 20.299148
-0.673218 -0.189136 20.300940
-0.707684 -0.031952 20.323314
-0.713457 -0.013340 20.326765
-0.778086 0.131352 20.362941
-0.787732 0.147830 20.368143
-0.873534 0.278386 20.413802
-0.884725 0.293598 20.419687
-0.985560 0.410320 20.471931
-0.998329 0.423937 20.478502
-1.107873 0.530665 20.534485
-1.121772 0.542861 20.541537
-1.237999 0.640675 20.600342
-1.849125 -1.566011 20.804753
-1.828792 -1.554690 20.795560
-1.808459 -1.543370 20.786368
-1.788125 -1.532049 20.777175
-1.767912 -1.520464 20.768049
-1.747747 -1.508772 20.758951
-1.701327 -1.481857 20.738005
-1.681269 -1.469939 20.728966
-1.661297 -1.457841 20.719975
-1.641324 -1.445743 20.710983
-1.621352 -1.433646 20.701991
-1.601402 -1.421502 20.693012
-1.555936 -1.392625 20.672594
-1.536185 -1.380081 20.663724
-1.516435 -1.367537 20.654854
-1.496929 -1.354525 20.646119
-1.477437 -1.341488 20.637391
-1.457945 -1.328451 20.628662
-1.413313 -1.298004 20.608700
-1.394124 -1.284419 20.600137
-1.374935 -1.270834 20.591573
-1.355746 -1.257249 20.583009
-1.336678 -1.243458 20.574511
-1.317849 -1.229262 20.566142
-1.274504 -1.196582 20.546875
-1.255754 -1.182261 20.538547
-1.237358 -1.167379 20.530409
-1.218962 -1.152498 20.522271
-1.200566 -1.137616 20.514133
-1.182170 -1.122735 20.505995
-1.140892 -1.086909 20.487827
-1.123023 -1.071255 20.479969
-1.105154 -1.055600 20.472110
-1.087659 -1.039445 20.464448
-1.070442 -1.022917 20.456931
-1.053226 -1.006388 20.449415
-1.013934 -0.967924 20.432290
-0.997536 -0.950405 20.425200
-0.981138 -0.932886 20.418109
-0.964739 -0.915367 20.411019
-0.948341 -0.897847 20.403928
-0.932946 -0.879252 20.397354
-0.897597 -0.836347 20.382267
-0.882241 -0.817710 20.375714
-0.867975 -0.798063 20.369715
-0.853967 -0.778177 20.363847
-0.839959 -0.758291 20.357979
-0.825950 -0.738406 20.352112
-0.796607 -0.690387 20.340066
-0.784353 -0.669148 20.335081
-0.772100 -0.647909 20.330096
-0.760303 -0.626392 20.325339
-0.750327 -0.603770 20.321486
-0.740352 -0.581149 20.317633
-0.717529 -0.529011 20.308834
-0.710441 -0.505138 20.306397
-0.703353 -0.481265 20.303960
-0.696265 -0.457391 20.301523
-0.689177 -0.433518 20.299085
-0.684158 -0.409124 20.297648
-0.675824 -0.352155 20.295896
-0.672204 -0.327408 20.295135
-0.670290 -0.302548 20.295186
-0.670485 -0.277549 20.296241
-0.670680 -0.252550 20.297296
-0.670875 -0.227551 20.298351
-0.676209 -0.170590 20.303070
-0.680167 -0.146045 20.305890
-0.684125 -0.121499 20.308709
-0.688084 -0.096954 20.311529
-0.694869 -0.073265 20.315654
-0.702169 -0.049732 20.320017
-0.718973 0.004440 20.330061
-0.728180 0.027061 20.335292
-0.738223 0.049282 20.340903
-0.748265 0.071502 20.346515
-0.758308 0.093723 20.352126
-0.768871 0.115609 20.357971
-0.796947 0.163572 20.373113
-0.809144 0.184407 20.379691
-0.821487 0.205124 20.386334
-0.835346 0.224632 20.393648
-0.849204 0.244139 20.400962
-0.863063 0.263647 20.408275
-0.896167 0.307422 20.425637
-0.911309 0.325720 20.433512
-0.926452 0.344017 20.441388
-0.941595 0.362314 20.449263
-0.957218 0.380093 20.457346
-0.973362 0.397311 20.465654
-1.010527 0.436946 20.484779
-1.026929 0.453853 20.493197
-1.043867 0.470116 20.501844
-1.060804 0.486378 20.510491
-1.077741 0.502641 20.519137
-1.094678 0.518904 20.527784
-1.135050 0.554512 20.548273
-1.152624 0.569932 20.557189
-1.170198 0.585352 20.566105
-1.188142 0.600239 20.575175
-1.206235 0.614913 20.584308
-1.224328 0.629588 20.593441
29 NaN NaN
-1.872936 -1.579267 20.815517
-1.782318 -1.528816 20.774549
-1.692450 -1.476711 20.734000
-1.603441 -1.422797 20.693927
-1.515421 -1.366893 20.654399
-1.428552 -1.308792 20.615501
-1.343035 -1.248251 20.577337
-1.259124 -1.184987 20.540038
-1.177144 -1.118668 20.503771
-1.097515 -1.048907 20.468750
-1.020794 -0.975252 20.435256
-0.947722 -0.897186 20.403660
-0.879302 -0.814142 20.374459
-0.816891 -0.725545 20.348317
-0.762305 -0.630932 20.326112
-0.717876 -0.530182 20.308953
-0.686317 -0.423886 20.298102
-0.670203 -0.313723 20.294714
-0.671072 -0.202445 20.299411
-0.688693 -0.093174 20.311963
-0.721198 0.011614 20.331391
-0.765929 0.110585 20.356384
-0.820262 0.203400 20.385688
-0.882009 0.290315 20.418274
-0.949482 0.371844 20.453365
-1.021423 0.448566 20.490387
-1.096899 0.521037 20.528918
-1.175215 0.589754 20.568650
-1.255845 0.655150 20.609350
-1.350557 -1.414014 18.283189
-1.198877 -1.266893 18.281436
-1.055854 -1.111353 18.280934
-0.924965 -0.945514 18.282081
-0.811969 -0.767113 18.285480
-0.726676 -0.574187 18.292031
-0.684842 -0.367981 18.302876
-0.704391 -0.159253 18.318674
-0.789066 0.032190 18.338362
-0.922281 0.194007 18.359805
-1.084470 0.327239 18.381550
-1.263133 0.437760 18.403025
-1.451532 0.530977 18.424075
-1.349104 -1.412640 18.283169
-1.200294 -1.268304 18.281450
-1.197459 -1.265482 18.281422
-1.057182 -1.112848 18.280935
-1.054526 -1.109857 18.280933
-0.926164 -0.947114 18.282065
-0.923765 -0.943914 18.282097
-0.812976 -0.768840 18.285441
-0.810962 -0.765385 18.285520
-0.727379 -0.576058 18.291958
-0.725972 -0.572317 18.292105
-0.685070 -0.369965 18.302758
-0.684614 -0.365998 18.302994
-0.703984 -0.161204 18.318509
-0.704799 -0.157301 18.318839
-0.788064 0.030470 18.338167
-0.790068 0.033910 18.338558
-0.920889 0.192585 18.359600
-0.923672 0.195429 18.360011
-1.082859 0.326072 18.381345
-1.086081 0.328406 18.381756
-1.261396 0.436788 18.402824
-1.264869 0.438731 18.403227
-1.449721 0.530153 18.423878
-1.342640 -1.406527 18.283084
-1.206600 -1.274580 18.281512
-1.191322 -1.259042 18.281385
-1.063088 -1.119502 18.280940
-1.048765 -1.103080 18.280947
-0.931500 -0.954233 18.281993
-0.918506 -0.936741 18.282178
-0.817455 -0.776525 18.285264
-0.806483 -0.757700 18.285697
-0.730509 -0.584380 18.291633
-0.722842 -0.563995 18.292430
-0.686085 -0.378788 18.302233
-0.683599 -0.357175 18.303518
-0.702171 -0.169883 18.317774
-0.706612 -0.148623 18.319574
-0.783608 0.022819 18.337296
-0.794524 0.041561 18.339428
-0.914700 0.186259 18.358685
-0.929861 0.201754 18.360926
-1.075691 0.320882 18.380432
-1.093249 0.333596 18.382669
-1.253671 0.432467 18.401926
-1.272594 0.443053 18.404124
-1.441660 0.526491 18.422999
-1.326688 -1.391439 18.282873
-1.305529 -1.371427 18.282594
-1.284371 -1.351415 18.282315
-1.263451 -1.331157 18.282071
-1.242807 -1.310613 18.281868
-1.222164 -1.290069 18.281665
-1.176211 -1.243110 18.281297
-1.156168 -1.221978 18.281181
-1.136126 -1.200847 18.281065
-1.116333 -1.179487 18.280985
-1.096999 -1.157706 18.280968
-1.077665 -1.135924 18.280952
-1.034825 -1.086113 18.281022
-1.016336 -1.063610 18.281121
-0.997847 -1.041107 18.281220
-0.979605 -1.018411 18.281351
-0.962138 -0.995107 18.281584
-0.944670 -0.971803 18.281817
-0.906280 -0.918503 18.282473
-0.890063 -0.894314 18.282864
-0.873847 -0.870125 18.283255
-0.857836 -0.845808 18.283671
-0.843173 -0.820650 18.284249
-0.828510 -0.795493 18.284828
-0.796805 -0.738002 18.286290
-0.784092 -0.711811 18.287091
-0.771380 -0.685619 18.287892
-0.758727 -0.659403 18.288700
-0.748481 -0.632161 18.289765
-0.738235 -0.604919 18.290830
-0.716975 -0.542881 18.293417
-0.709833 -0.514679 18.294789
-0.702692 -0.486477 18.296162
-0.695550 -0.458275 18.297534
-0.691912 -0.429448 18.299223
-0.688590 -0.400565 18.300939
-0.683296 -0.335326 18.304989
-0.684436 -0.306298 18.307063
-0.685577 -0.277270 18.309137
-0.686717 -0.248242 18.311211
-0.691761 -0.219716 18.313555
-0.697696 -0.191304 18.315960
-0.712899 -0.127750 18.321491
-0.723464 -0.100741 18.324161
-0.734029 -0.073732 18.326831
-0.744594 -0.046723 18.329501
-0.758023 -0.021112 18.332299
-0.772610 0.003935 18.335148
-0.806450 0.059815 18.341606
-0.824256 0.082673 18.344556
-0.842062 0.105530 18.347506
-0.859868 0.128388 18.350456
-0.879164 0.149940 18.353433
-0.899425 0.170647 18.356427
-0.945470 0.217008 18.363185
-0.967565 0.235744 18.366187
-0.989660 0.254480 18.369189
-1.011755 0.273216 18.372192
-1.034534 0.291080 18.375188
-1.057999 0.308071 18.378178
-1.111017 0.346295 18.384921
-1.135515 0.361764 18.387887
-1.160013 0.377233 18.390854
-1.184511 0.392702 18.393820
-1.209317 0.407654 18.396775
-1.234605 0.421801 18.399712
-1.291660 0.453719 18.406339
-1.317540 0.466756 18.409246
-1.343441 0.479752 18.412152
-1.369343 0.492748 18.415059
-1.395380 0.505461 18.417956
-1.421766 0.517451 18.420832
26 NaN NaN
-1.350920 -1.414358 18.283193
-1.272989 -1.340649 18.282164
-1.196956 -1.264982 18.281417
-1.123136 -1.187152 18.280990
-1.051927 -1.106928 18.280930
-0.983831 -1.024049 18.281295
-0.919499 -0.938222 18.282154
-0.859777 -0.849138 18.283594
-0.805780 -0.756494 18.285725
-0.758970 -0.660051 18.288675
-0.721247 -0.559754 18.292596
-0.694959 -0.455942 18.297648
-0.682733 -0.349648 18.303965
-0.686929 -0.242846 18.311597
-0.708764 -0.138321 18.320446
-0.747636 -0.038947 18.330270
-0.801317 0.053227 18.340755
-0.866862 0.137366 18.351615
-0.941455 0.213604 18.362639
-1.022814 0.282594 18.373695
-1.109226 0.345164 18.384705
-1.199447 0.402133 18.395628
-1.292582 0.454234 18.406446
-1.387979 0.502098 18.417150
-1.485162 0.546258 18.427740
-1.583773 0.587158 18.438218
-1.103691 -1.389117 16.220420
-1.014177 -1.265863 16.237449
-0.930503 -1.138658 16.255038
-0.855190 -1.006452 16.273339
-0.789417 -0.869358 16.292338
-0.735878 -0.727185 16.312065
-0.698268 -0.580116 16.332502
-0.678168 -0.429755 16.353428
-0.682518 -0.278190 16.374563
-0.709042 -0.128892 16.395419
-0.761537 0.013469 16.415353
-0.834682 0.146651 16.434043
-0.925820 0.268484 16.451181
-1.031037 0.378737 16.466728
-1.146118 0.478891 16.480885
-1.269631 0.568718 16.493617
-1.398448 0.650933 16.505296
-1.102506 -1.387520 16.220640
-1.015306 -1.267498 16.237223
-1.013047 -1.264229 16.237675
-0.931570 -1.140334 16.254807
-0.929436 -1.136982 16.255270
-0.856100 -1.008217 16.273095
-0.854281 -1.004688 16.273584
-0.790227 -0.871169 16.292087
-0.788607 -0.867546 16.292589
-0.736436 -0.729088 16.311801
-0.735321 -0.725283 16.312329
-0.698667 -0.582057 16.332232
-0.697868 -0.578175 16.332772
-0.678183 -0.431735 16.353152
-0.678152 -0.427774 16.353704
-0.682315 -0.280161 16.374288
-0.682721 -0.276219 16.374838
-0.708614 -0.130826 16.395149
-0.709471 -0.126957 16.395690
-0.760682 0.011679 16.415102
-0.762392 0.015259 16.415604
-0.833644 0.144958 16.433805
-0.835720 0.148344 16.434280
-0.924495 0.267000 16.450972
-0.927145 0.269968 16.451390
-1.029605 0.377354 16.466533
-1.032469 0.380119 16.466923
-1.144528 0.477691 16.480715
-1.147709 0.480092 16.481055
-1.267982 0.567598 16.493458
-1.271280 0.569839 16.493776
-1.396751 0.649885 16.505147
-1.098440 -1.382041 16.221397
-1.019185 -1.273110 16.236447
-1.009168 -1.258617 16.238450
-0.935233 -1.146086 16.254011
-0.925774 -1.131230 16.256066
-0.859221 -1.014274 16.272256
-0.851160 -0.998631 16.274423
-0.793008 -0.877387 16.291225
-0.785827 -0.861329 16.293451
-0.738350 -0.735618 16.310894
-0.733407 -0.718752 16.313237
-0.700038 -0.588720 16.331306
-0.696497 -0.571512 16.333699
-0.678698 -0.438508 16.352209
-0.678099 -0.420974 16.354652
-0.681618 -0.286925 16.373344
-0.683418 -0.269455 16.375782
-0.707142 -0.137468 16.394221
-0.710943 -0.120316 16.396618
-0.757745 0.005533 16.414240
-0.765329 0.021405 16.416466
-0.830081 0.139147 16.432989
-0.839283 0.154156 16.435097
-0.919949 0.261907 16.450254
-0.931691 0.275062 16.452108
-1.024691 0.372607 16.465863
-1.037383 0.384866 16.467593
-1.139085 0.473549 16.480128
-1.153169 0.484213 16.481639
-1.262322 0.563751 16.492912
-1.276941 0.573685 16.494321
-1.390926 0.646288 16.504636
-1.089101 -1.369455 16.223136
-1.076778 -1.352849 16.225430
-1.064455 -1.336243 16.227724
-1.052132 -1.319637 16.230018
-1.039848 -1.303003 16.232315
-1.028093 -1.285998 16.234666
-1.000260 -1.245729 16.240232
-0.988505 -1.228723 16.242582
-0.976945 -1.211592 16.244951
-0.965845 -1.194160 16.247362
-0.954745 -1.176728 16.249773
-0.943645 -1.159297 16.252184
-0.917759 -1.117783 16.257927
-0.907417 -1.099900 16.260402
-0.897075 -1.082017 16.262877
-0.886733 -1.064134 16.265352
-0.876392 -1.046251 16.267828
-0.866390 -1.028186 16.270329
-0.843991 -0.984719 16.276350
-0.834532 -0.966363 16.278893
-0.825073 -0.948007 16.281435
-0.816247 -0.929353 16.284021
-0.807821 -0.910510 16.286633
-0.799394 -0.891667 16.289245
-0.779441 -0.847048 16.295431
-0.772033 -0.827796 16.298102
-0.764816 -0.808467 16.300784
-0.757600 -0.789138 16.303466
-0.750383 -0.769809 16.306148
-0.743167 -0.750480 16.308830
-0.729010 -0.703753 16.315320
-0.723210 -0.683963 16.318069
-0.717409 -0.664172 16.320818
-0.711609 -0.644381 16.323567
-0.707342 -0.624216 16.326370
-0.703187 -0.604023 16.329178
-0.693348 -0.556208 16.335826
-0.689498 -0.535969 16.338641
-0.687228 -0.515485 16.341493
-0.684958 -0.495001 16.344344
-0.682688 -0.474517 16.347196
-0.680418 -0.454033 16.350047
-0.677976 -0.405357 16.356828
-0.677813 -0.384751 16.359700
-0.677651 -0.364146 16.362573
-0.677489 -0.343540 16.365445
-0.677904 -0.322961 16.368314
-0.680017 -0.302461 16.371175
-0.685020 -0.253919 16.377950
-0.687132 -0.233419 16.380811
-0.690382 -0.213101 16.383649
-0.694842 -0.192974 16.386462
-0.699302 -0.172848 16.389276
-0.703762 -0.152721 16.392089
-0.715967 -0.105519 16.398689
-0.722727 -0.086032 16.401417
-0.729486 -0.066545 16.404145
-0.736246 -0.047058 16.406873
-0.743006 -0.027571 16.409601
-0.751001 -0.008582 16.412261
-0.772073 0.035520 16.418445
-0.780971 0.054145 16.421056
-0.789870 0.072769 16.423668
-0.800303 0.090576 16.426167
-0.811100 0.108188 16.428641
-0.821898 0.125799 16.431114
-0.847528 0.167462 16.436965
-0.859951 0.183989 16.439290
-0.872373 0.200517 16.441615
-0.884796 0.217044 16.443940
-0.897219 0.233571 16.446265
-0.909642 0.250098 16.448590
-0.942134 0.286761 16.453756
-0.955913 0.302197 16.455931
-0.969692 0.317634 16.458107
-0.983615 0.332935 16.460263
-0.998509 0.347320 16.462294
-1.013403 0.361705 16.464324
-1.048671 0.395768 16.469132
-1.063891 0.409800 16.471114
-1.079695 0.423199 16.473009
-1.095499 0.436597 16.474903
-1.111303 0.449996 16.476798
-1.127108 0.463394 16.478693
-1.165709 0.493677 16.482980
-1.182256 0.506166 16.484749
-1.198802 0.518654 16.486517
-1.215349 0.531143 16.488286
-1.232167 0.543259 16.490004
-1.249321 0.554916 16.491658
-1.289941 0.582520 16.495575
-1.307095 0.594177 16.497229
-1.324587 0.605323 16.498813
-1.342240 0.616224 16.500362
-1.359894 0.627125 16.501912
-1.377547 0.638026 16.503461
25 NaN NaN
-1.103987 -1.389516 16.220365
-1.040649 -1.304162 16.232155
-0.980234 -1.216757 16.244236
-0.923183 -1.127163 16.256628
-0.870030 -1.035251 16.269350
-0.821416 -0.940910 16.282418
-0.778109 -0.844071 16.295844
-0.741022 -0.744737 16.309627
-0.711214 -0.643035 16.323754
-0.689864 -0.539277 16.338181
-0.678202 -0.434029 16.352832
-0.677368 -0.328162 16.367588
-0.688222 -0.222849 16.382287
-0.711134 -0.119454 16.396739
-0.745860 -0.019343 16.410753
-0.791577 0.076343 16.424169
-0.847054 0.166832 16.436877
-0.910887 0.251755 16.448823
-0.981694 0.331079 16.460001
-1.058234 0.405005 16.470436
-1.139456 0.473863 16.480173
-1.224497 0.538047 16.489264
-1.312662 0.597960 16.497766
-1.403396 0.653988 16.505730
-1.496256 0.706492 16.513207
-1.096218 -1.392370 15.177923
-0.973172 -1.235614 15.233112
-0.861419 -1.071007 15.289367
-0.764787 -0.897470 15.346611
-0.688878 -0.714225 15.404515
-0.641553 -0.521711 15.462193
-0.632328 -0.323321 15.517783
-0.668848 -0.126934 15.568370
-0.751341 0.057059 15.611065
-0.871659 0.221285 15.644630
-1.018746 0.364101 15.669688
-1.183496 0.487570 15.687693
-1.359799 0.594820 15.700102
-1.095005 -1.390872 15.178454
-0.974336 -1.237149 15.232576
-0.972007 -1.234079 15.233649
-0.862461 -1.072624 15.288820
-0.860377 -1.069390 15.289914
-0.765662 -0.899180 15.346055
-0.763912 -0.895759 15.347168
-0.689519 -0.716035 15.403954
-0.688236 -0.712416 15.405077
-0.641869 -0.523607 15.461640
-0.641236 -0.519816 15.462747
-0.632219 -0.325249 15.517263
-0.632438 -0.321393 15.518304
-0.668259 -0.128790 15.567915
-0.669437 -0.125078 15.568824
-0.750321 0.055378 15.610701
-0.752360 0.058741 15.611429
-0.870323 0.219822 15.644357
-0.872994 0.222749 15.644904
-1.017203 0.362843 15.669491
-1.020288 0.365358 15.669884
-1.181820 0.486486 15.687557
-1.185171 0.488653 15.687829
-1.358037 0.593878 15.700014
-1.089702 -1.384326 15.180775
-0.979424 -1.243855 15.230232
-0.967008 -1.227311 15.236001
-0.867014 -1.079688 15.286429
-0.855824 -1.062325 15.292305
-0.769484 -0.906652 15.343623
-0.760090 -0.888287 15.349600
-0.692322 -0.723940 15.401502
-0.685434 -0.704511 15.407529
-0.643251 -0.531890 15.459222
-0.639854 -0.511533 15.465165
-0.631738 -0.333672 15.514987
-0.632919 -0.312970 15.520579
-0.665683 -0.136901 15.565930
-0.672013 -0.116967 15.570809
-0.745865 0.048032 15.609109
-0.756816 0.066087 15.613021
-0.864489 0.213427 15.643162
-0.878828 0.229143 15.646099
-1.010463 0.357349 15.668632
-1.027029 0.370853 15.670743
-1.174499 0.481752 15.686965
-1.192492 0.493388 15.688421
-1.350337 0.589764 15.699629
-1.076669 -1.368238 15.186479
-1.059388 -1.346906 15.194041
-1.042107 -1.325574 15.201604
-1.025089 -1.304047 15.209194
-1.008509 -1.282192 15.216833
-0.991929 -1.260338 15.224471
-0.955112 -1.210404 15.241820
-0.939339 -1.187986 15.249535
-0.923566 -1.165569 15.257250
-0.907877 -1.143097 15.264972
-0.893040 -1.120074 15.272762
-0.878204 -1.097052 15.280553
-0.845267 -1.044588 15.298222
-0.831525 -1.020919 15.306084
-0.817783 -0.997251 15.313946
-0.804040 -0.973583 15.321808
-0.791333 -0.949366 15.329721
-0.778878 -0.925016 15.337646
-0.751142 -0.869716 15.355590
-0.740208 -0.844661 15.363562
-0.729273 -0.819606 15.371533
-0.718339 -0.794551 15.379504
-0.708341 -0.769129 15.387486
-0.699209 -0.743368 15.395476
-0.678566 -0.685077 15.413555
-0.671565 -0.658650 15.421521
-0.664564 -0.632223 15.429488
-0.657563 -0.605796 15.437455
-0.651151 -0.579236 15.445401
-0.646648 -0.552246 15.453280
-0.636458 -0.491177 15.471107
-0.634038 -0.463914 15.478858
-0.632406 -0.436549 15.486561
-0.630773 -0.409184 15.494264
-0.629141 -0.381819 15.501967
-0.630557 -0.354374 15.509395
-0.634100 -0.292269 15.526172
-0.637176 -0.264953 15.533403
-0.642145 -0.237802 15.540404
-0.647115 -0.210652 15.547405
-0.652084 -0.183501 15.554407
-0.659354 -0.156835 15.561050
-0.678342 -0.097033 15.575689
-0.687263 -0.070783 15.582057
-0.698892 -0.045458 15.587907
-0.710522 -0.020132 15.593757
-0.722152 0.005193 15.599607
-0.734913 0.029977 15.605198
-0.767768 0.084142 15.616933
-0.782289 0.108082 15.622119
-0.798980 0.130668 15.626722
-0.815963 0.153073 15.631245
-0.832946 0.175477 15.635769
-0.850150 0.197711 15.640224
-0.893167 0.244859 15.649036
-0.912179 0.265697 15.652930
-0.932173 0.285629 15.656479
-0.952824 0.304951 15.659797
-0.973476 0.324274 15.663114
-0.994127 0.343597 15.666431
-1.043594 0.384357 15.672854
-1.065558 0.402262 15.675652
-1.087852 0.419759 15.678306
-1.110866 0.436364 15.680645
-1.133880 0.452970 15.682983
-1.156894 0.469576 15.685321
-1.210484 0.505023 15.689878
-1.234340 0.520450 15.691809
-1.258217 0.535846 15.693730
-1.282753 0.550211 15.695302
-1.307290 0.564575 15.696875
-1.331827 0.578940 15.698447
26 NaN NaN
-1.096522 -1.392744 15.177791
-1.031304 -1.312238 15.206331
-0.968730 -1.229760 15.235158
-0.909204 -1.145157 15.264275
-0.853213 -1.058272 15.293676
-0.801352 -0.968952 15.323347
-0.754349 -0.877063 15.353253
-0.713087 -0.782517 15.383333
-0.678629 -0.685314 15.413483
-0.652214 -0.585604 15.443542
-0.635223 -0.483776 15.473267
-0.629065 -0.380545 15.502326
-0.634970 -0.277009 15.530294
-0.653712 -0.174604 15.556701
-0.685365 -0.074915 15.581103
-0.729232 0.020611 15.603168
-0.784008 0.110917 15.622734
-0.848079 0.195441 15.639800
-0.919812 0.274063 15.654494
-0.997736 0.346973 15.667011
-1.080617 0.414538 15.677571
-1.167464 0.477203 15.686395
-1.257493 0.535422 15.693684
-1.350091 0.589632 15.699617
-1.444780 0.640231 15.704351
-1.541187 0.687574 15.708021
-1.095766 -1.391739 14.656652
-0.939356 -1.158087 14.759107
-0.812559 -0.907115 14.861126
-0.728334 -0.638093 14.960407
-0.703413 -0.355177 15.052409
-0.751695 -0.071230 15.130460
-0.873137 0.195260 15.188875
-1.051453 0.432042 15.227055
-1.266875 0.638339 15.248612
-1.094667 -1.390214 14.657336
-0.940337 -1.159690 14.758422
-0.938374 -1.156485 14.759792
-0.813297 -0.908846 14.860449
-0.811820 -0.905384 14.861803
-0.728715 -0.639947 14.959761
-0.727954 -0.636238 14.961052
-0.703305 -0.357092 15.051840
-0.703520 -0.353263 15.052977
-0.751046 -0.073070 15.130020
-0.752343 -0.069390 15.130901
-0.872174 0.193541 15.188534
-0.874101 0.196979 15.189217
-1.050143 0.430545 15.226849
-1.052763 0.433539 15.227260
-1.265349 0.637050 15.248512
-1.088087 -1.381081 14.661431
-0.946216 -1.169287 14.754320
-0.932496 -1.146888 14.763894
-0.817720 -0.919213 14.856394
-0.807398 -0.895017 14.865858
-0.730995 -0.651053 14.955896
-0.725674 -0.625133 14.964917
-0.702661 -0.368557 15.048434
-0.704165 -0.341797 15.056383
-0.747347 -0.084133 15.127333
-0.756227 -0.058370 15.133538
-0.866402 0.183246 15.186487
-0.880334 0.207022 15.191096
-1.042296 0.421579 15.225617
-1.060610 0.442505 15.228493
-1.256210 0.629330 15.247915
-1.070865 -1.357179 14.672150
-1.047933 -1.325353 14.686423
-1.025638 -1.293089 14.700707
-1.003853 -1.260474 14.714999
-0.982086 -1.227848 14.729291
-0.961600 -1.194404 14.743585
-0.918060 -1.121213 14.774616
-0.899050 -1.086899 14.788890
-0.880210 -1.052495 14.803160
-0.862881 -1.017283 14.817384
-0.845552 -0.982070 14.831607
-0.829294 -0.946346 14.845780
-0.796235 -0.867712 14.876444
-0.783008 -0.830672 14.890431
-0.769781 -0.793633 14.904419
-0.758159 -0.756028 14.918267
-0.747414 -0.718115 14.932039
-0.736962 -0.680120 14.945780
-0.719707 -0.596066 14.975034
-0.714054 -0.556885 14.988204
-0.709229 -0.517533 15.001266
-0.705063 -0.478095 15.014225
-0.703655 -0.438302 15.026757
-0.702247 -0.398508 15.039289
-0.705852 -0.311789 15.065298
-0.709167 -0.271878 15.076945
-0.715207 -0.232088 15.088024
-0.721246 -0.192297 15.099103
-0.730105 -0.152893 15.109514
-0.739952 -0.113624 15.119691
-0.766391 -0.029528 15.140441
-0.779925 0.008876 15.149632
-0.796319 0.046322 15.157971
-0.813302 0.083571 15.166135
-0.831186 0.120425 15.174001
-0.851298 0.156302 15.181132
-0.897518 0.232836 15.195698
-0.920399 0.267209 15.201826
-0.944184 0.300993 15.207596
-0.969469 0.333801 15.212773
-0.994754 0.366609 15.217951
-1.021759 0.398114 15.222392
-1.081962 0.465264 15.231342
-1.111062 0.494989 15.234826
-1.140163 0.524714 15.238310
-1.170635 0.553100 15.241114
-1.201223 0.581373 15.243861
-1.232291 0.609125 15.246354
26 NaN NaN
-1.096041 -1.392120 14.656481
-1.037742 -1.311210 14.692766
-0.982361 -1.228297 14.729099
-0.930283 -1.143275 14.765438
-0.881958 -1.056047 14.801725
-0.837906 -0.966533 14.837883
-0.798728 -0.874693 14.873808
-0.765106 -0.780540 14.909363
-0.737794 -0.684171 14.944370
-0.717598 -0.585796 14.978608
-0.705335 -0.485775 15.011807
-0.701757 -0.384639 15.043657
-0.707465 -0.283089 15.073823
-0.722815 -0.181965 15.101980
-0.747840 -0.082169 15.127842
-0.782235 0.015432 15.151202
-0.825398 0.110100 15.171949
-0.876515 0.201286 15.190073
-0.934672 0.288650 15.205648
-0.998942 0.372044 15.218809
-1.068454 0.451467 15.229724
-1.142428 0.527027 15.238581
-1.220185 0.598899 15.245563
-1.301149 0.667292 15.250849
-1.384839 0.732432 15.254603
-1.470849 0.794546 15.256971
-1.093162 -1.389044 14.135255
-0.981179 -1.220905 14.165230
-0.881131 -1.046046 14.198587
-0.796695 -0.863970 14.235949
-0.732953 -0.674728 14.277978
-0.696503 -0.479712 14.325181
-0.694634 -0.282770 14.377501
-0.732739 -0.090745 14.433830
-0.810918 0.088243 14.492013
-0.923326 0.248368 14.549718
-1.061564 0.387851 14.605350
-1.217891 0.508033 14.658239
-1.386301 0.611992 14.708406
-1.092040 -1.387413 14.135541
-0.982247 -1.222568 14.164928
-0.980111 -1.219241 14.165531
-0.882067 -1.047781 14.198248
-0.880196 -1.044311 14.198925
-0.797453 -0.865781 14.235566
-0.795938 -0.862159 14.236331
-0.733471 -0.676611 14.277544
-0.732436 -0.672846 14.278411
-0.696701 -0.481641 14.324692
-0.696305 -0.477783 14.325670
-0.694437 -0.284686 14.376964
-0.694832 -0.280853 14.378039
-0.732115 -0.092558 14.433263
-0.733363 -0.088931 14.434397
-0.809912 0.086611 14.491444
-0.811925 0.089875 14.492583
-0.922029 0.246949 14.549166
-0.924623 0.249787 14.550269
-1.060156 0.386536 14.604812
-1.062972 0.389165 14.605889
-1.216318 0.506907 14.657729
-1.219463 0.509159 14.658749
-1.384618 0.611026 14.707923
-1.087187 -1.380361 14.136777
-0.986866 -1.229763 14.163622
-0.975492 -1.212046 14.166837
-0.886111 -1.055285 14.196783
-0.876152 -1.036807 14.200390
-0.800728 -0.873613 14.233911
-0.792663 -0.854327 14.237986
-0.735707 -0.684752 14.275669
-0.730199 -0.664704 14.280287
-0.697559 -0.489984 14.322579
-0.695448 -0.469440 14.327782
-0.693583 -0.292972 14.374638
-0.695685 -0.272567 14.380365
-0.729416 -0.100401 14.430810
-0.736061 -0.081088 14.436850
-0.805560 0.079554 14.488981
-0.816276 0.096932 14.495046
-0.916603 0.240665 14.546767
-0.930232 0.255923 14.552654
-1.054070 0.380849 14.602484
-1.069394 0.394489 14.608164
-1.209518 0.502038 14.655524
-1.226263 0.514027 14.660953
-1.377339 0.606845 14.705839
-1.075290 -1.363073 14.139808
-1.059518 -1.340154 14.143826
-1.043746 -1.317236 14.147844
-1.028216 -1.294169 14.151934
-1.013203 -1.270785 14.156178
-0.998191 -1.247402 14.160421
-0.964822 -1.194038 14.170224
-0.950678 -1.170164 14.174714
-0.936535 -1.146290 14.179204
-0.922391 -1.122416 14.183694
-0.909168 -1.098069 14.188432
-0.896025 -1.073681 14.193193
-0.866648 -1.018223 14.204086
-0.854661 -0.993304 14.209142
-0.842674 -0.968386 14.214197
-0.830687 -0.943468 14.219253
-0.819402 -0.918269 14.224477
-0.808757 -0.892814 14.229855
-0.784633 -0.835126 14.242042
-0.775483 -0.809169 14.247753
-0.766400 -0.783191 14.253478
-0.757317 -0.757212 14.259203
-0.748461 -0.731173 14.264975
-0.741191 -0.704712 14.271071
-0.724716 -0.644744 14.284885
-0.718619 -0.618060 14.291196
-0.713444 -0.591202 14.297676
-0.708269 -0.564343 14.304157
-0.703094 -0.537484 14.310637
-0.699660 -0.510438 14.317400
-0.693346 -0.448986 14.332962
-0.690998 -0.421862 14.339890
-0.690880 -0.394700 14.347125
-0.690763 -0.367537 14.354359
-0.690646 -0.340374 14.361594
-0.691491 -0.313288 14.368937
-0.697777 -0.252251 14.386066
-0.700551 -0.225319 14.393624
-0.705638 -0.198813 14.401376
-0.711420 -0.172437 14.409187
-0.717203 -0.146060 14.416997
-0.722985 -0.119683 14.424808
-0.742676 -0.061861 14.442863
-0.751446 -0.036371 14.450834
-0.761273 -0.011321 14.458829
-0.772867 0.012994 14.466862
-0.784461 0.037308 14.474896
-0.796055 0.061623 14.482929
-0.826945 0.114233 14.501084
-0.841089 0.137169 14.509089
-0.855232 0.160105 14.517094
-0.871545 0.181586 14.524999
-0.887904 0.203035 14.532902
-0.904263 0.224485 14.540805
-0.943984 0.270967 14.558500
-0.962215 0.290911 14.566250
-0.980445 0.310855 14.574000
-0.999581 0.329946 14.581643
-1.019364 0.348427 14.589210
-1.039147 0.366908 14.596776
-1.085278 0.407389 14.613722
-1.106336 0.424490 14.621090
-1.127394 0.441591 14.628458
-1.148645 0.458455 14.635788
-1.170746 0.474279 14.642954
-1.192847 0.490102 14.650119
-1.243464 0.525237 14.666235
-1.266419 0.539890 14.673202
-1.289374 0.554543 14.680169
-1.312329 0.569196 14.687136
-1.335837 0.583009 14.693952
-1.359494 0.596596 14.700728
25 NaN NaN
-1.093443 -1.389451 14.135183
-1.033000 -1.301621 14.150582
-0.975468 -1.212009 14.166844
-0.921268 -1.120519 14.184050
-0.870901 -1.027062 14.202292
-0.824966 -0.931574 14.221666
-0.784177 -0.834034 14.242273
-0.749372 -0.734490 14.264211
-0.721518 -0.633103 14.287566
-0.701690 -0.530197 14.312395
-0.691017 -0.426315 14.338704
-0.690567 -0.322259 14.366419
-0.701192 -0.219092 14.395372
-0.723342 -0.118057 14.425289
-0.756935 -0.020420 14.455823
-0.801347 0.072721 14.486596
-0.855528 0.160585 14.517261
-0.918201 0.242762 14.547539
-0.988050 0.319174 14.577233
-1.063851 0.389987 14.606225
-1.144539 0.455516 14.634457
-1.229228 0.516150 14.661915
-1.317193 0.572301 14.688612
-1.407849 0.624368 14.714577
-1.500730 0.672728 14.739849
-1.084159 -1.399698 13.092784
-0.972076 -1.224272 13.122736
-0.873260 -1.041620 13.155905
-0.791870 -0.851300 13.192859
-0.733609 -0.653595 13.234162
-0.705684 -0.450482 13.280135
-0.715492 -0.246825 13.330424
-0.767344 -0.050474 13.383609
-0.859283 0.130421 13.437506
-0.983920 0.291093 13.490142
-1.132442 0.431007 13.540413
-1.297526 0.552156 13.587986
-1.473983 0.657288 13.632951
-1.083066 -1.398047 13.093062
-0.973114 -1.225956 13.122445
-0.971046 -1.222583 13.123030
-0.874162 -1.043376 13.155581
-0.872358 -1.039865 13.156229
-0.792592 -0.853129 13.192497
-0.791148 -0.849470 13.193222
-0.734091 -0.655493 13.233757
-0.733127 -0.651697 13.234567
-0.705853 -0.452423 13.279685
-0.705515 -0.448540 13.280585
-0.715279 -0.248752 13.329934
-0.715705 -0.244897 13.330913
-0.766723 -0.052306 13.383098
-0.767964 -0.048643 13.384120
-0.858293 0.128760 13.436995
-0.860272 0.132082 13.438017
-0.982645 0.289633 13.489648
-0.985195 0.292552 13.490636
-1.130965 0.429743 13.539944
-1.133920 0.432271 13.540882
-1.295910 0.551063 13.587543
-1.299141 0.553248 13.588429
-1.472273 0.656339 13.632532
-1.078221 -1.390729 13.094292
-0.977712 -1.233421 13.121151
-0.966729 -1.214964 13.124392
-0.878157 -1.051155 13.154145
-0.868648 -1.031959 13.157728
-0.795790 -0.861237 13.190893
-0.788205 -0.841280 13.194874
-0.736227 -0.663905 13.231962
-0.731164 -0.643254 13.236389
-0.706602 -0.461025 13.277690
-0.704778 -0.439938 13.282582
-0.714337 -0.257293 13.327766
-0.716647 -0.236356 13.333081
-0.763972 -0.060420 13.380832
-0.770715 -0.040529 13.386385
-0.853910 0.121398 13.434730
-0.864656 0.139444 13.440281
-0.976995 0.283166 13.487459
-0.990845 0.299019 13.492825
-1.124419 0.424143 13.537865
-1.140466 0.437872 13.542961
-1.288751 0.546222 13.585579
-1.306300 0.558090 13.590392
-1.464694 0.652137 13.630677
-1.066275 -1.372683 13.097327
-1.050431 -1.348749 13.101353
-1.034587 -1.324816 13.105378
-1.019128 -1.300654 13.109501
-1.004090 -1.276241 13.113731
-0.989052 -1.251828 13.117961
-0.956082 -1.196177 13.127750
-0.941962 -1.171261 13.132204
-0.927843 -1.146344 13.136658
-0.914144 -1.121218 13.141209
-0.901077 -1.095778 13.145906
-0.888010 -1.070337 13.150603
-0.859709 -1.012372 13.161469
-0.847853 -0.986394 13.166430
-0.835997 -0.960416 13.171391
-0.824591 -0.934264 13.176445
-0.814133 -0.907748 13.181691
-0.803675 -0.881231 13.186937
-0.781537 -0.820893 13.199059
-0.772693 -0.793856 13.204611
-0.763849 -0.766819 13.210162
-0.755460 -0.739667 13.215791
-0.748476 -0.712157 13.221663
-0.741492 -0.684648 13.227534
-0.727503 -0.622223 13.241064
-0.722649 -0.594330 13.247265
-0.717795 -0.566437 13.253465
-0.713343 -0.538503 13.259720
-0.710895 -0.510371 13.266245
-0.708447 -0.482238 13.272770
-0.704941 -0.418700 13.287731
-0.705157 -0.390533 13.294559
-0.705373 -0.362367 13.301388
-0.705851 -0.334222 13.308241
-0.708932 -0.306289 13.315331
-0.712014 -0.278355 13.322421
-0.720996 -0.215664 13.338562
-0.727047 -0.188272 13.345850
-0.733097 -0.160880 13.353139
-0.739194 -0.133502 13.360429
-0.748191 -0.106966 13.367838
-0.757188 -0.080429 13.375246
-0.779197 -0.021206 13.391994
-0.790990 0.004201 13.399440
-0.802783 0.029608 13.406885
-0.814576 0.055015 13.414331
-0.828763 0.079169 13.421740
-0.843099 0.103245 13.429146
-0.876653 0.156828 13.445811
-0.893223 0.179458 13.453116
-0.909793 0.202088 13.460420
-0.926364 0.224718 13.467725
-0.944584 0.246068 13.474903
-0.963062 0.267218 13.482062
-1.005507 0.314306 13.498144
-1.025586 0.334006 13.505130
-1.045665 0.353705 13.512115
-1.065744 0.373404 13.519101
-1.086870 0.392014 13.525939
-1.108278 0.410331 13.532738
-1.157022 0.451195 13.548015
-1.179527 0.468221 13.554624
-1.202033 0.485246 13.561233
-1.224538 0.502271 13.567841
-1.247687 0.518450 13.574317
-1.271099 0.534283 13.580738
-1.324178 0.569700 13.595180
-1.348340 0.584441 13.601420
-1.372501 0.599181 13.607660
-1.396663 0.613922 13.613901
-1.421220 0.628032 13.620032
-1.446006 0.641775 13.626101
26 NaN NaN
-1.084433 -1.400111 13.092715
-1.026318 -1.312325 13.107478
-0.971158 -1.222781 13.122995
-0.919369 -1.131391 13.139331
-0.871442 -1.038080 13.156559
-0.827958 -0.942800 13.174756
-0.789601 -0.845547 13.193998
-0.757166 -0.746389 13.214356
-0.731555 -0.645502 13.235889
-0.713753 -0.543215 13.258627
-0.704777 -0.440054 13.282554
-0.705569 -0.336776 13.307592
-0.716867 -0.234359 13.333588
-0.739049 -0.133930 13.360310
-0.772035 -0.036636 13.387472
-0.815275 0.056519 13.414772
-0.867844 0.144797 13.441928
-0.928605 0.227779 13.468713
-0.996368 0.305340 13.494964
-1.070005 0.377584 13.520583
-1.148518 0.444762 13.545518
-1.231059 0.507205 13.569756
-1.316927 0.565277 13.593307
-1.405549 0.619343 13.616196
-1.496460 0.669750 13.638454
-1.589285 0.716820 13.660119
-1.075976 -1.462146 12.052172
-0.923899 -1.206051 12.094030
-0.801016 -0.936104 12.143118
-0.720788 -0.652523 12.201168
-0.701811 -0.360967 12.269280
-0.761281 -0.077219 12.345909
-0.901274 0.175795 12.425780
-1.099955 0.387079 12.503329
-1.335389 0.559020 12.576225
-1.074912 -1.460473 12.052436
-0.924847 -1.207788 12.093735
-0.922952 -1.204315 12.094325
-0.801721 -0.937942 12.142766
-0.800310 -0.934266 12.143469
-0.721127 -0.654449 12.200747
-0.720449 -0.650598 12.201590
-0.701630 -0.362897 12.268788
-0.701993 -0.359037 12.269771
-0.760632 -0.079034 12.345384
-0.762051 -0.075451 12.346440
-0.900168 0.174215 12.425250
-0.902380 0.177375 12.426309
-1.098501 0.385802 12.502827
-1.101410 0.388356 12.503832
-1.333734 0.558000 12.575758
-1.068516 -1.450408 12.054026
-0.930549 -1.218232 12.091962
-0.917250 -1.193871 12.096098
-0.805965 -0.948999 12.140650
-0.796067 -0.923209 12.145585
-0.723165 -0.666031 12.198212
-0.718411 -0.639015 12.204125
-0.700537 -0.374508 12.265830
-0.703085 -0.347427 12.272729
-0.757153 -0.090112 12.342238
-0.766686 -0.064817 12.349631
-0.893515 0.164710 12.422065
-0.909033 0.186879 12.429494
-1.089749 0.378120 12.499804
-1.110162 0.396039 12.506854
-1.323773 0.551865 12.572950
-1.051762 -1.424047 12.058188
-1.029452 -1.388945 12.063731
-1.007751 -1.353496 12.069439
-0.986576 -1.317746 12.075289
-0.965401 -1.281997 12.081139
-0.945483 -1.245587 12.087316
-0.903176 -1.166105 12.100957
-0.884759 -1.128976 12.107507
-0.866383 -1.091830 12.114067
-0.849650 -1.053984 12.121015
-0.832917 -1.016138 12.127963
-0.817079 -0.977959 12.135110
-0.785115 -0.894198 12.151159
-0.772538 -0.854943 12.159000
-0.759961 -0.815688 12.166840
-0.748692 -0.776111 12.174932
-0.738668 -0.736227 12.183264
-0.728644 -0.696344 12.191595
-0.713073 -0.608678 12.210766
-0.707817 -0.568097 12.219899
-0.704004 -0.527373 12.229259
-0.700197 -0.486649 12.238619
-0.700044 -0.445864 12.248479
-0.699890 -0.405080 12.258338
-0.705945 -0.317017 12.280475
-0.709971 -0.276561 12.290810
-0.717930 -0.236775 12.301504
-0.725889 -0.196990 12.312198
-0.735903 -0.157768 12.323029
-0.748039 -0.119129 12.333999
-0.778824 -0.036965 12.357989
-0.794987 0.000122 12.369118
-0.813172 0.036195 12.380270
-0.833058 0.071414 12.391441
-0.852945 0.106632 12.402612
-0.876090 0.139817 12.413722
-0.928159 0.210495 12.437753
-0.954229 0.241489 12.448721
-0.980379 0.272413 12.459683
-1.008876 0.301266 12.470454
-1.037373 0.330119 12.481226
-1.066827 0.358000 12.491888
-1.133222 0.416000 12.514750
-1.165424 0.440853 12.525044
-1.197626 0.465706 12.535338
-1.230551 0.489621 12.545500
-1.264141 0.512675 12.555543
-1.297731 0.535729 12.565585
26 NaN NaN
-1.076242 -1.462564 12.052106
-1.019106 -1.372667 12.066302
-0.964877 -1.281113 12.081284
-0.913950 -1.187826 12.097125
-0.866787 -1.092742 12.113900
-0.823935 -0.995822 12.131692
-0.786034 -0.897069 12.150586
-0.753828 -0.796547 12.170663
-0.728160 -0.694419 12.191997
-0.709960 -0.590984 12.214639
-0.700197 -0.486715 12.238603
-0.699805 -0.382297 12.263846
-0.709556 -0.278632 12.290253
-0.729931 -0.176781 12.317630
-0.760999 -0.077866 12.345715
-0.802377 0.017079 12.374207
-0.853289 0.107243 12.402805
-0.912695 0.192111 12.431248
-0.979446 0.271469 12.459331
-1.052415 0.345349 12.486911
-1.130574 0.413956 12.513903
-1.213035 0.477599 12.540264
-1.299053 0.536637 12.565980
-1.388014 0.591438 12.591062
-1.479420 0.642362 12.615528
-1.572863 0.689746 12.639407
-1.067767 -1.555968 11.013904
-0.927229 -1.333864 11.099892
-0.808065 -1.100454 11.187968
-0.719330 -0.854593 11.277792
-0.671671 -0.597940 11.367950
-0.677476 -0.336238 11.455518
-0.746723 -0.081544 11.535640
-0.874087 0.153440 11.604468
-1.049852 0.359267 11.659607
-1.256616 0.537407 11.702944
-1.484626 0.690225 11.736059
-1.066707 -1.554388 11.014521
-0.928182 -1.335507 11.099263
-0.926277 -1.332222 11.100521
-0.808798 -1.102199 11.187322
-0.807331 -1.098709 11.188614
-0.719864 -0.856406 11.277139
-0.718795 -0.852779 11.278444
-0.671804 -0.599828 11.367304
-0.671538 -0.596051 11.368596
-0.677275 -0.338129 11.454898
-0.677678 -0.334347 11.456138
-0.745988 -0.083324 11.535100
-0.747458 -0.079764 11.536179
-0.873012 0.151818 11.604009
-0.875266 0.154997 11.604898
-1.048461 0.357875 11.659250
-1.051243 0.360660 11.659963
-1.255013 0.536241 11.702680
-1.258220 0.538573 11.703207
-1.482931 0.689186 11.735846
-1.060781 -1.545554 11.017968
-0.933505 -1.344689 11.095747
-0.920953 -1.323039 11.104037
-0.812898 -1.111955 11.183711
-0.803232 -1.088952 11.192225
-0.722853 -0.866544 11.273489
-0.715807 -0.842641 11.282094
-0.672548 -0.610384 11.363694
-0.670795 -0.585495 11.372207
-0.676147 -0.348700 11.451433
-0.678806 -0.323776 11.459604
-0.741877 -0.093275 11.532082
-0.751569 -0.069813 11.539197
-0.867157 0.142657 11.601397
-0.881857 0.163705 11.607298
-1.040685 0.350093 11.657256
-1.059020 0.368442 11.661957
-1.246049 0.529721 11.701206
-1.267184 0.545092 11.704681
-1.473450 0.683378 11.734652
-1.045452 -1.522706 11.026884
-1.025057 -1.492305 11.038746
-1.004966 -1.461722 11.050646
-0.985547 -1.430735 11.062627
-0.966129 -1.399747 11.074609
-0.947276 -1.368442 11.086652
-0.907183 -1.299286 11.113132
-0.889982 -1.267102 11.125338
-0.872896 -1.234858 11.137555
-0.855965 -1.202540 11.149785
-0.840275 -1.169636 11.162112
-0.824584 -1.136731 11.174440
-0.792627 -1.063717 11.201564
-0.778518 -1.030140 11.213991
-0.765678 -0.996090 11.226475
-0.753362 -0.961845 11.238983
-0.741045 -0.927600 11.251491
-0.730582 -0.892767 11.264048
-0.708777 -0.816239 11.291540
-0.700787 -0.780758 11.304116
-0.692798 -0.745277 11.316693
-0.686119 -0.709544 11.329249
-0.680704 -0.673566 11.341786
-0.675289 -0.637589 11.354322
-0.668871 -0.558189 11.381546
-0.666644 -0.521842 11.393952
-0.667201 -0.485359 11.406180
-0.667758 -0.448876 11.418408
-0.669349 -0.412424 11.430542
-0.673230 -0.376043 11.442469
-0.684150 -0.296715 11.468278
-0.691479 -0.260735 11.479793
-0.698807 -0.224755 11.491309
-0.709282 -0.189426 11.502353
-0.720072 -0.154163 11.513349
-0.731245 -0.119015 11.524276
-0.762202 -0.044073 11.547003
-0.777944 -0.010469 11.557044
-0.795237 0.022510 11.566750
-0.812530 0.055489 11.576457
-0.831858 0.087434 11.585652
-0.852011 0.118962 11.594641
-0.898906 0.186228 11.613507
-0.921591 0.216196 11.621768
-0.944955 0.245669 11.629808
-0.969837 0.274037 11.637355
-0.994719 0.302406 11.644902
-1.020569 0.329961 11.652097
-1.079136 0.388574 11.667116
-1.107348 0.413972 11.673396
-1.135710 0.439227 11.679616
-1.164221 0.464320 11.685770
-1.193932 0.488122 11.691394
-1.223643 0.511923 11.697017
-1.290370 0.561956 11.708494
-1.321220 0.584393 11.713567
-1.352750 0.605931 11.718283
-1.384562 0.627097 11.722851
-1.416374 0.648263 11.727419
-1.448929 0.668356 11.731566
27 NaN NaN
-1.068032 -1.556363 11.013750
-1.011007 -1.471363 11.046918
-0.956713 -1.384721 11.080419
-0.905486 -1.296359 11.114252
-0.857714 -1.206207 11.148411
-0.813845 -1.114209 11.182877
-0.774397 -1.020334 11.217620
-0.739963 -0.924592 11.252589
-0.711211 -0.827050 11.287708
-0.688875 -0.727859 11.322867
-0.673738 -0.627283 11.357913
-0.666585 -0.525725 11.392650
-0.668142 -0.423743 11.426831
-0.678990 -0.322052 11.460169
-0.699474 -0.221484 11.492356
-0.729632 -0.122919 11.523093
-0.769174 -0.027193 11.552122
-0.817512 0.064990 11.579253
-0.873844 0.153119 11.604380
-0.937256 0.236891 11.627473
-1.006816 0.316197 11.648571
-1.081639 0.391079 11.667758
-1.160930 0.461685 11.685148
-1.243997 0.528229 11.700869
-1.330249 0.590960 11.715052
-1.419193 0.650139 11.727824
-1.510415 0.706024 11.739305
-1.059092 -1.639588 9.974579
-0.926860 -1.418249 9.980730
-0.812197 -1.187428 9.988977
-0.721704 -0.946286 9.999903
-0.662911 -0.695788 10.014029
-0.644287 -0.439498 10.031755
-0.676328 -0.184961 10.053346
-0.758769 0.057653 10.078016
-0.888740 0.278349 10.104793
-1.054325 0.473795 10.132487
-1.245415 0.644537 10.160341
-1.454476 0.792924 10.187938
-1.058029 -1.637895 9.974622
-0.927819 -1.420003 9.980674
-0.925900 -1.416495 9.980786
-0.813026 -1.189247 9.988906
-0.811369 -1.185609 9.989048
-0.722269 -0.948202 9.999804
-0.721139 -0.944370 10.000002
-0.663243 -0.697757 10.013907
-0.662580 -0.693819 10.014150
-0.644175 -0.441489 10.031597
-0.644400 -0.437507 10.031913
-0.675880 -0.186902 10.053165
-0.676777 -0.183021 10.053526
-0.757993 0.055821 10.077818
-0.759545 0.059486 10.078215
-0.887558 0.276750 10.104580
-0.889922 0.279949 10.105006
-1.052947 0.472362 10.132271
-1.055703 0.475229 10.132703
-1.243835 0.643330 10.160126
-1.246995 0.645744 10.160556
-1.452805 0.791845 10.187726
-1.052429 -1.628981 9.974848
-0.932870 -1.429237 9.980381
-0.920849 -1.407262 9.981079
-0.817389 -1.198822 9.988533
-0.807006 -1.176034 9.989421
-0.725244 -0.958289 9.999283
-0.718165 -0.934284 10.000523
-0.664987 -0.708120 10.013269
-0.660836 -0.683456 10.014789
-0.644007 -0.451977 10.030799
-0.644993 -0.427028 10.032745
-0.673519 -0.197118 10.052214
-0.679138 -0.172804 10.054478
-0.753906 0.046174 10.076773
-0.763714 0.069094 10.079263
-0.881338 0.268329 10.103459
-0.896142 0.288369 10.106127
-1.045693 0.464816 10.131134
-1.062958 0.482774 10.133840
-1.235516 0.636975 10.158995
-1.255314 0.652098 10.161688
-1.444009 0.786168 10.186607
-1.038106 -1.606180 9.975426
-1.019063 -1.575865 9.976195
-1.000133 -1.545481 9.976978
-0.981972 -1.514633 9.977857
-0.963810 -1.483785 9.978735
-0.945789 -1.452857 9.979631
-0.907930 -1.383642 9.981830
-0.891150 -1.352031 9.982874
-0.875075 -1.320054 9.984002
-0.858999 -1.288077 9.985129
-0.843387 -1.255880 9.986310
-0.828549 -1.223315 9.987579
-0.796670 -1.151190 9.990467
-0.783224 -1.118032 9.991890
-0.769777 -1.084875 9.993313
-0.757281 -1.051363 9.994838
-0.745402 -1.017620 9.996429
-0.733523 -0.983877 9.998019
-0.710556 -0.908482 10.001855
-0.700440 -0.874179 10.003627
-0.691981 -0.839446 10.005561
-0.683843 -0.804630 10.007527
-0.675705 -0.769814 10.009493
-0.669447 -0.734631 10.011635
-0.656546 -0.656923 10.016438
-0.653054 -0.621366 10.018825
-0.649563 -0.585808 10.021213
-0.646295 -0.550238 10.023620
-0.645464 -0.514535 10.026228
-0.644633 -0.478831 10.028837
-0.646510 -0.400222 10.034872
-0.648526 -0.364583 10.037701
-0.651487 -0.329042 10.040596
-0.656483 -0.293715 10.043636
-0.661479 -0.258387 10.046675
-0.667480 -0.223253 10.049780
-0.685177 -0.146670 10.056911
-0.694854 -0.112391 10.060241
-0.705880 -0.078493 10.063650
-0.716907 -0.044596 10.067058
-0.729554 -0.011312 10.070548
-0.743452 0.021497 10.074101
-0.776179 0.092808 10.082022
-0.792752 0.124338 10.085690
-0.809325 0.155867 10.089358
-0.827832 0.186273 10.093095
-0.846832 0.216391 10.096849
-0.865832 0.246510 10.100602
-0.912055 0.309908 10.108995
-0.933267 0.338502 10.112809
-0.956309 0.365640 10.116658
-0.979351 0.392778 10.120508
-1.002464 0.419852 10.124358
-1.027136 0.445515 10.128225
-1.081881 0.501703 10.136750
-1.107953 0.525942 10.140621
-1.134025 0.550181 10.144492
-1.160426 0.574046 10.148361
-1.187695 0.596931 10.152225
-1.214964 0.619816 10.156089
-1.276593 0.668352 10.164583
-1.304885 0.689962 10.168432
-1.333620 0.710968 10.172271
-1.362786 0.731386 10.176100
-1.391952 0.751805 10.179929
-1.421509 0.771645 10.183745
28 NaN NaN
-1.059358 -1.640011 9.974568
-1.002487 -1.549479 9.976864
-0.948250 -1.457355 9.979488
-0.896952 -1.363574 9.982467
-0.848946 -1.268080 9.985834
-0.804636 -1.170833 9.989624
-0.764482 -1.071817 9.993874
-0.729009 -0.971055 9.998624
-0.698801 -0.868620 10.003914
-0.674500 -0.764659 10.009784
-0.656791 -0.659414 10.016270
-0.646365 -0.553245 10.023400
-0.643883 -0.446644 10.031188
-0.649904 -0.340237 10.039633
-0.664820 -0.234765 10.048708
-0.688791 -0.131029 10.058368
-0.721711 -0.029826 10.068543
-0.763206 0.068128 10.079151
-0.812688 0.162265 10.090103
-0.869417 0.252193 10.101311
-0.932587 0.337700 10.112696
-1.001389 0.418734 10.124189
-1.075062 0.495364 10.135737
-1.152915 0.567743 10.147297
-1.234346 0.636081 10.158835
-1.318831 0.700615 10.170330
-1.405930 0.761590 10.181764
-1.495267 0.819252 10.193126
-1.056239 -1.663700 8.411328
-0.925522 -1.428307 8.375643
-0.814099 -1.182489 8.345660
-0.729433 -0.925491 8.323551
-0.679602 -0.659042 8.311647
-0.674373 -0.387867 8.312737
-0.722135 -0.121556 8.329164
-0.821356 0.128850 8.360377
-0.966775 0.353518 8.404755
-1.144549 0.551470 8.458269
-1.346071 0.723203 8.518425
-1.055236 -1.661992 8.411054
-0.926425 -1.430075 8.375888
-0.924619 -1.426540 8.375398
-0.814802 -1.184352 8.345846
-0.813395 -1.180626 8.345473
-0.729961 -0.927416 8.323686
-0.728905 -0.923567 8.323417
-0.679786 -0.661033 8.311681
-0.679418 -0.657050 8.311613
-0.674274 -0.389864 8.312689
-0.674472 -0.385870 8.312785
-0.721572 -0.123466 8.328982
-0.722697 -0.119645 8.329346
-0.820503 0.127061 8.360112
-0.822208 0.130640 8.360642
-0.965576 0.351959 8.404392
-0.967975 0.355076 8.405118
-1.143116 0.550143 8.457840
-1.145983 0.552798 8.458698
-1.344531 0.722013 8.517966
-1.049714 -1.652589 8.409541
-0.931393 -1.439806 8.377237
-0.919651 -1.416809 8.374049
-0.818675 -1.194606 8.346872
-0.809522 -1.170373 8.344447
-0.732868 -0.938008 8.324428
-0.725998 -0.912975 8.322675
-0.680799 -0.671993 8.311870
-0.678405 -0.646090 8.311424
-0.673728 -0.400856 8.312425
-0.675018 -0.374878 8.313049
-0.718474 -0.133983 8.327981
-0.725795 -0.109129 8.330346
-0.815809 0.117210 8.358655
-0.827522 0.140137 8.362276
-0.958972 0.343381 8.402392
-0.974579 0.363654 8.407118
-1.135306 0.542749 8.455501
-1.153872 0.560103 8.461058
-1.336053 0.715460 8.515442
-1.035470 -1.628336 8.405639
-1.016522 -1.596073 8.400448
-0.997850 -1.563641 8.395340
-0.979802 -1.530825 8.390415
-0.961753 -1.498009 8.385491
-0.944208 -1.464905 8.380716
-0.906836 -1.391710 8.370570
-0.890783 -1.357794 8.366236
-0.874851 -1.323816 8.361938
-0.859031 -1.289783 8.357672
-0.844346 -1.255203 8.353741
-0.829661 -1.220624 8.349811
-0.799533 -1.143924 8.341802
-0.786245 -1.108740 8.338282
-0.774013 -1.073155 8.335073
-0.762288 -1.037378 8.332014
-0.750564 -1.001600 8.328954
-0.740367 -0.965328 8.326342
-0.719012 -0.885519 8.320910
-0.710990 -0.848660 8.318936
-0.702968 -0.811801 8.316961
-0.695941 -0.774742 8.315278
-0.690084 -0.737449 8.313936
-0.684228 -0.700156 8.312595
-0.675793 -0.617819 8.310938
-0.672439 -0.580204 8.310326
-0.671550 -0.542440 8.310431
-0.670662 -0.504677 8.310536
-0.670447 -0.466925 8.310837
-0.672320 -0.429209 8.311743
-0.678256 -0.346706 8.314260
-0.683017 -0.309274 8.316002
-0.687777 -0.271842 8.317744
-0.694986 -0.234862 8.320193
-0.702692 -0.197973 8.322784
-0.710483 -0.161108 8.325401
-0.733786 -0.082003 8.332927
-0.745599 -0.046356 8.336699
-0.759052 -0.011315 8.340942
-0.772506 0.023726 8.345184
-0.787595 0.058002 8.349895
-0.803701 0.091802 8.354896
-0.841459 0.164504 8.366556
-0.859999 0.196919 8.372250
-0.878985 0.229034 8.378071
-0.899711 0.259976 8.384386
-0.920437 0.290918 8.390700
-0.941939 0.321255 8.397234
-0.991612 0.385781 8.412276
-1.015606 0.414027 8.419513
-1.039953 0.441960 8.426850
-1.064300 0.469893 8.434187
-1.090093 0.496381 8.441930
-1.115903 0.522851 8.449677
-1.174223 0.578947 8.467148
-1.201295 0.604014 8.475248
-1.228990 0.628316 8.483522
-1.257148 0.652053 8.491925
-1.285305 0.675789 8.500328
-1.314184 0.698559 8.508930
28 NaN NaN
-1.056490 -1.664127 8.411397
-1.003378 -1.573692 8.396848
-0.952788 -1.481708 8.383045
-0.905002 -1.388119 8.370073
-0.860345 -1.292877 8.358024
-0.819183 -1.195951 8.347006
-0.781937 -1.097335 8.337141
-0.749074 -0.997055 8.328565
-0.721117 -0.895189 8.321429
-0.698632 -0.791882 8.315894
-0.682219 -0.687362 8.312134
-0.672480 -0.581962 8.310321
-0.669990 -0.476131 8.310616
-0.675239 -0.370433 8.313156
-0.688579 -0.265534 8.318038
-0.710173 -0.162160 8.325301
-0.739962 -0.061040 8.334921
-0.777662 0.037158 8.346811
-0.822799 0.131879 8.360825
-0.874757 0.222722 8.376783
-0.932843 0.309440 8.394480
-0.996349 0.391934 8.413710
-1.064587 0.470222 8.434273
-1.136928 0.544414 8.455988
-1.212807 0.614674 8.478693
-1.291730 0.681205 8.502245
-1.373272 0.744225 8.526524
-1.457071 0.803959 8.551426
-1.080123 -1.425012 5.293353
-0.918987 -1.199973 5.326478
-0.780061 -0.961441 5.364588
-0.675763 -0.707124 5.409345
-0.624503 -0.439007 5.462054
-0.648019 -0.168987 5.522209
-0.758490 0.077582 5.585515
-0.934375 0.284098 5.646383
-1.152089 0.448540 5.702158
-1.078924 -1.423427 5.293580
-0.920080 -1.201629 5.326225
-0.917895 -1.198317 5.326730
-0.780919 -0.963223 5.364287
-0.779203 -0.959660 5.364890
-0.676385 -0.708993 5.409002
-0.675141 -0.705254 5.409688
-0.624589 -0.440962 5.461643
-0.624417 -0.437051 5.462466
-0.647632 -0.170898 5.521763
-0.648406 -0.167076 5.522655
-0.757427 0.075950 5.585065
-0.759554 0.079215 5.585966
-0.932888 0.282826 5.645970
-0.935862 0.285370 5.646796
-1.150442 0.447472 5.701774
-1.072174 -1.414506 5.294859
-0.926231 -1.210952 5.324804
-0.911744 -1.188994 5.328152
-0.785750 -0.973251 5.362589
-0.774373 -0.949632 5.366587
-0.679886 -0.719519 5.407073
-0.671640 -0.694728 5.411617
-0.625073 -0.451970 5.459326
-0.623933 -0.426043 5.464782
-0.645454 -0.181655 5.519249
-0.650952 -0.156422 5.525181
-0.751440 0.066757 5.582529
-0.765541 0.088408 5.588502
-0.924856 0.275313 5.643602
-0.944233 0.292532 5.649120
-1.141171 0.441460 5.699612
-1.054693 -1.391404 5.298171
-1.031432 -1.360663 5.302579
-1.008478 -1.329708 5.307061
-0.986176 -1.298299 5.311702
-0.963873 -1.266889 5.316343
-0.942162 -1.235096 5.321122
-0.895813 -1.164849 5.331834
-0.875815 -1.132005 5.337000
-0.855901 -1.099111 5.342184
-0.836211 -1.066095 5.347415
-0.817798 -1.032388 5.352916
-0.799385 -0.998680 5.358416
-0.761864 -0.923661 5.370983
-0.745219 -0.889104 5.376832
-0.730174 -0.853883 5.382973
-0.715622 -0.818459 5.389205
-0.701071 -0.783034 5.395438
-0.688953 -0.746779 5.402077
-0.663691 -0.667176 5.416781
-0.654574 -0.630134 5.423871
-0.645456 -0.593093 5.430962
-0.638396 -0.555697 5.438322
-0.632741 -0.518059 5.445866
-0.627085 -0.480422 5.453410
-0.622681 -0.397535 5.470782
-0.621953 -0.359633 5.478847
-0.624732 -0.321848 5.487216
-0.627511 -0.284062 5.495586
-0.632308 -0.246583 5.504080
-0.639813 -0.209513 5.512740
-0.660151 -0.129557 5.531812
-0.672392 -0.093811 5.540634
-0.684833 -0.058148 5.549458
-0.701524 -0.024256 5.558301
-0.718216 0.009636 5.567145
-0.735934 0.042951 5.575961
-0.781046 0.112214 5.595069
-0.803882 0.142317 5.603678
-0.827839 0.171618 5.612220
-0.851797 0.200919 5.620762
-0.878138 0.228141 5.629083
-0.904810 0.255073 5.637372
-0.965913 0.311080 5.655141
-0.994761 0.335761 5.663152
-1.024461 0.359415 5.671023
-1.055037 0.382018 5.678750
-1.085613 0.404621 5.686478
-1.117161 0.425889 5.694011
24 NaN NaN
-1.080423 -1.425408 5.293296
-1.015619 -1.339765 5.305575
-0.953487 -1.252261 5.318504
-0.894433 -1.162758 5.332153
-0.838955 -1.071119 5.346596
-0.787660 -0.977217 5.361918
-0.741292 -0.880951 5.378211
-0.700758 -0.782272 5.395572
-0.667152 -0.681237 5.414089
-0.641758 -0.578068 5.433838
-0.626008 -0.473250 5.454848
-0.621366 -0.367617 5.477078
-0.629104 -0.262409 5.500382
-0.650000 -0.159200 5.524496
-0.684081 -0.059675 5.549059
-0.730555 0.034692 5.573683
-0.788007 0.122901 5.598018
-0.854726 0.204501 5.621807
-0.929014 0.279512 5.644894
-1.009367 0.348257 5.667208
-1.094537 0.411218 5.688734
-1.183535 0.468933 5.709494
-1.275586 0.521931 5.729529
-1.370088 0.570701 5.748888
