0.258020 0.258036 0.258312 0.259726 0.261968 0.259860 0.257752 0.255643 0.248274 0.243624 0.242520 0.242459 0.242397 0.241289 0.236372 0.228581 0.222184 0.215787 0.209390 0.204164 0.200866 0.200193 0.200156 0.200119 0.199456 0.196594 0.192060 0.188174 0.184289 0.180404 0.177063 0.174955 0.174523 0.174499 0.174476 0.174048 0.172152 0.169149 0.166482 0.163816 0.161149 0.158777 0.157280 0.156974 0.156957 0.156940 0.156634 0.155292 0.153164 0.151317 0.149470 0.147623 0.146016 0.145002 0.144794 0.144782 
0.258009 0.257978 0.257599 0.254433 0.249419 0.242074 0.234729 0.227383 0.221922 0.218474 0.217838 0.217786 0.217736 0.217109 0.214691 0.210859 0.208172 0.205484 0.202796 0.200645 0.199287 0.199000 0.198977 0.198954 0.198667 0.197418 0.195440 0.193522 0.191604 0.189686 0.187780 0.186576 0.186315 0.186294 0.186273 0.186013 0.184857 0.183027 0.181299 0.179571 0.177842 0.176236 0.175222 0.175003 0.174985 0.174968 0.174750 0.173802 0.172302 0.170938 0.169574 0.168210 0.166980 0.166204 0.166039 0.166025 0.166012 0.165849 0.165141 0.164018 0.162988 0.161958 0.160927 0.159956 0.159342 0.159208 0.159197 0.159186 0.159051 0.158453 0.157507 0.156582 0.155656 0.154731 0.153836 0.153271 0.153147 0.153137 0.153127 0.153004 0.152457 0.151590 0.150766 0.149941 0.149116 0.148332 0.147838 0.147730 0.147721 
0.258069 0.258278 0.262279 0.280892 0.310389 0.319617 0.328845 0.338074 0.312489 0.296346 0.293110 0.292941 0.292771 0.289530 0.275263 0.252652 0.239176 0.225700 0.212223 0.204850 0.200198 0.199322 0.199276 0.199232 0.198393 0.194809 0.189129 0.183266 0.177403 0.171540 0.162520 0.156828 0.155582 0.155517 0.155453 0.154227 0.149403 0.141758 0.137177 0.132597 0.128016 0.125756 0.124331 0.124093 0.124081 0.124068 0.123838 0.123025 0.121736 0.120996 0.120256 0.119516 0.119047 0.118751 0.118696 0.118694 0.118691 0.118637 0.118414 0.118061 0.117793 0.117525 0.117257 0.117046 0.116913 0.116886 0.116885 0.116884 0.116858 0.116746 0.116570 0.116428 0.116286 0.116144 0.116032 0.115961 0.115947 0.115946 0.115945 0.115931 0.115873 0.115780 0.115707 0.115634 0.115560 0.115502 0.115465 0.115458 0.115457 0.115457 0.115450 0.115419 0.115370 0.115329 0.115288 0.115248 0.115214 0.115192 0.115188 0.115188 
0.156953 0.156940 0.156846 0.156593 0.156254 0.155911 0.155567 0.155224 0.154873 0.154609 0.154510 0.154495 0.154481 0.154381 0.154110 0.153749 0.153380 0.153011 0.152642 0.152270 0.151991 0.151887 0.151873 0.151858 0.151754 0.151477 0.151108 0.150747 0.150385 0.150024 0.149677 0.149416 0.149320 0.149306 0.149293 0.149197 0.149000 0.148736 0.148509 0.148282 0.148055 0.147863 0.147719 0.147670 0.147663 0.147657 0.147609 0.147482 0.147313 0.147165 0.147017 0.146869 0.146733 0.146632 0.146597 0.146592 0.146587 0.146551 0.146460 0.146339 0.146230 0.146121 0.146012 0.145914 0.145841 0.145814 0.145810 
0.200142 0.200088 0.199874 0.199360 0.198680 0.197996 0.197312 0.196628 0.195949 0.195436 0.195224 0.195171 0.195118 0.194906 0.194399 0.193729 0.193068 0.192407 0.191746 0.191098 0.190609 0.190407 0.190356 0.190306 0.190104 0.189625 0.188990 0.188376 0.187763 0.187149 0.186561 0.186117 0.185935 0.185890 0.185845 0.185664 0.185235 0.184666 0.184113 0.183559 0.183006 0.182468 0.182062 0.181896 0.181855 0.181814 0.181649 0.181259 0.180742 0.180238 0.179734 0.179230 0.178741 0.178373 0.178221 0.178183 0.178145 0.177994 0.177637 0.177163 0.176706 0.176250 0.175793 0.175352 0.175019 0.174883 0.174849 0.174816 0.174681 0.174361 0.173937 0.173534 0.173130 0.172727 0.172340 0.172047 0.171927 0.171897 0.171869 0.171754 0.171484 0.171127 0.170787 0.170446 0.170106 0.169793 0.169557 0.169461 0.169437 0.169413 0.169317 0.169100 0.168813 0.168583 0.168352 0.168122 0.167926 0.167777 0.167718 0.167704 0.167689 0.167630 0.167491 0.167307 0.167154 0.167002 0.166849 0.166704 0.166595 0.166558 0.166549 0.166539 0.166502 0.166412 0.166294 0.166186 0.166079 0.165971 0.165874 0.165800 0.165768 0.165760 0.165752 0.165721 0.165658 0.165574 0.165491 0.165408 0.165325 0.165258 0.165207 0.165186 0.165180 0.165175 0.165153 0.165103 0.165037 0.164981 0.164926 0.164871 0.164819 0.164779 0.164765 0.164762 0.164758 0.164744 0.164709 0.164663 0.164623 0.164583 0.164543 0.164506 0.164477 0.164465 0.164462 0.164460 0.164450 0.164429 0.164400 0.164374 0.164348 0.164322 0.164300 0.164284 0.164277 0.164275 
0.242417 0.242251 0.241725 0.240551 0.239005 0.237491 0.235978 0.234464 0.232998 0.231885 0.231393 0.231238 0.231083 0.230595 0.229523 0.228111 0.226753 0.225394 0.224036 0.222741 0.221758 0.221326 0.221189 0.221053 0.220624 0.219699 0.218481 0.217343 0.216205 0.215067 0.214002 0.213193 0.212842 0.212731 0.212622 0.212276 0.211522 0.210530 0.209616 0.208702 0.207787 0.206940 0.206297 0.206013 0.205923 0.205835 0.205555 0.204951 0.204156 0.203417 0.202678 0.201939 0.201240 0.200709 0.200483 0.200412 0.200342 0.200120 0.199647 0.199023 0.198490 0.197957 0.197424 0.196952 0.196595 0.196437 0.196387 0.196337 0.196179 0.195830 0.195370 0.194915 0.194459 0.194004 0.193554 0.193213 0.193061 0.193013 0.192966 0.192814 0.192478 0.192035 0.191582 0.191129 0.190677 0.190203 0.189843 0.189683 0.189632 0.189582 0.189422 0.189067 0.188600 0.188140 0.187680 0.187219 0.186766 0.186422 0.186269 0.186221 0.186172 0.186020 0.185681 0.185235 0.184798 0.184362 0.183925 0.183500 0.183177 0.183034 0.182988 0.182944 0.182801 0.182492 0.182085 0.181694 0.181304 0.180913 0.180535 0.180247 0.180122 0.180083 0.180045 0.179923 0.179657 0.179305 0.178964 0.178623 0.178282 0.177968 0.177730 0.177627 0.177594 0.177562 0.177459 0.177234 0.176939 0.176666 0.176394 0.176121 0.175876 0.175691 0.175609 0.175583 0.175557 0.175476 0.175298 0.175064 0.174868 0.174672 0.174476 0.174289 0.174146 0.174083 0.174063 0.174043 0.173981 0.173863 0.173708 0.173563 0.173418 0.173273 0.173137 0.173034 0.172995 0.172983 0.172971 0.172932 0.172845 0.172731 0.172617 0.172503 0.172389 0.172299 0.172230 0.172199 0.172190 0.172180 0.172149 0.172080 0.171990 0.171911 0.171832 0.171753 0.171678 0.171621 0.171595 0.171587 0.171579 0.171553 0.171497 0.171424 0.171361 0.171298 0.171235 0.171171 0.171123 0.171101 0.171094 0.171088 0.171069 0.171030 0.170979 0.170927 0.170874 0.170822 0.170774 0.170738 0.170723 0.170718 0.170714 0.170699 0.170665 0.170620 0.170577 0.170533 0.170489 0.170451 0.170422 0.170409 0.170405 0.170401 0.170388 0.170359 0.170321 0.170288 0.170255 0.170222 0.170189 0.170165 0.170154 0.170150 0.170147 0.170135 0.170113 0.170083 0.170054 0.170025 0.169995 0.169965 0.169942 0.169932 0.169930 
0.217766 0.217685 0.217273 0.216254 0.214900 0.213631 0.212362 0.211093 0.209912 0.209024 0.208683 0.208616 0.208549 0.208212 0.207381 0.206276 0.205255 0.204234 0.203213 0.202258 0.201539 0.201262 0.201207 0.201153 0.200879 0.200200 0.199299 0.198459 0.197619 0.196780 0.195996 0.195406 0.195178 0.195134 0.195089 0.194863 0.194298 0.193546 0.192831 0.192116 0.191400 0.190723 0.190213 0.190021 0.189984 0.189945 0.189748 0.189257 0.188605 0.187972 0.187339 0.186706 0.186093 0.185632 0.185453 0.185418 0.185383 0.185205 0.184761 0.184171 0.183613 0.183056 0.182499 0.181977 0.181584 0.181432 0.181402 0.181372 0.181220 0.180853 0.180366 0.179913 0.179460 0.179008 0.178591 0.178278 0.178159 0.178135 0.178114 0.178005 0.177734 0.177374 0.177060 0.176746 0.176432 0.176161 0.175957 0.175887 0.175873 0.175859 0.175790 0.175612 0.175376 0.175180 0.174985 0.174789 0.174628 0.174506 0.174459 0.174450 0.174441 0.174394 0.174279 0.174126 0.173993 0.173859 0.173726 0.173598 0.173503 0.173465 0.173457 0.173450 0.173412 0.173331 0.173225 0.173124 0.173024 0.172924 0.172829 0.172758 0.172734 0.172730 0.172725 0.172700 0.172636 0.172550 0.172476 0.172401 0.172327 0.172259 0.172208 0.172189 0.172185 0.172182 0.172162 0.172115 0.172052 0.171997 0.171943 0.171888 0.171841 0.171805 0.171791 0.171789 
0.198963 0.198909 0.198730 0.198326 0.197794 0.197275 0.196756 0.196237 0.195733 0.195350 0.195184 0.195134 0.195084 0.194919 0.194551 0.194066 0.193599 0.193131 0.192664 0.192211 0.191868 0.191719 0.191675 0.191630 0.191482 0.191152 0.190716 0.190295 0.189873 0.189451 0.189044 0.188736 0.188603 0.188563 0.188523 0.188392 0.188100 0.187715 0.187344 0.186972 0.186600 0.186241 0.185968 0.185850 0.185814 0.185779 0.185661 0.185397 0.185049 0.184714 0.184380 0.184046 0.183720 0.183474 0.183367 0.183335 0.183303 0.183196 0.182959 0.182647 0.182342 0.182037 0.181732 0.181437 0.181214 0.181117 0.181088 0.181059 0.180963 0.180746 0.180460 0.180184 0.179908 0.179633 0.179367 0.179165 0.179077 0.179050 0.179024 0.178935 0.178740 0.178481 0.178236 0.177992 0.177747 0.177506 0.177324 0.177249 0.177226 0.177204 0.177130 0.176963 0.176742 0.176528 0.176314 0.176099 0.175907 0.175761 0.175697 0.175678 0.175659 0.175596 0.175454 0.175268 0.175099 0.174931 0.174762 0.174603 0.174483 0.174431 0.174415 0.174400 0.174348 0.174245 0.174110 0.173985 0.173860 0.173736 0.173623 0.173538 0.173505 0.173495 0.173485 0.173452 0.173377 0.173279 0.173190 0.173102 0.173013 0.172937 0.172880 0.172855 0.172847 0.172839 0.172814 0.172757 0.172682 0.172622 0.172562 0.172503 0.172443 0.172397 0.172377 0.172371 0.172366 0.172351 0.172316 0.172270 0.172221 0.172172 0.172123 0.172084 0.172054 0.172041 0.172037 0.172033 0.172020 0.171989 0.171948 0.171914 0.171880 0.171846 0.171816 0.171793 0.171782 0.171779 0.171776 0.171765 0.171745 0.171718 0.171694 0.171670 0.171647 0.171623 0.171605 0.171600 0.171598 0.171596 0.171591 0.171577 0.171560 0.171542 0.171525 0.171508 0.171496 0.171488 0.171484 0.171483 0.171482 0.171478 0.171469 0.171457 0.171450 0.171443 0.171435 0.171427 0.171421 0.171419 0.171418 0.171417 0.171414 0.171412 0.171409 0.171405 0.171401 0.171397 0.171395 0.171394 0.171394 0.171394 
0.186284 0.186245 0.186119 0.185840 0.185472 0.185111 0.184750 0.184390 0.184038 0.183771 0.183653 0.183617 0.183580 0.183463 0.183203 0.182862 0.182529 0.182196 0.181863 0.181539 0.181293 0.181184 0.181150 0.181117 0.181009 0.180770 0.180455 0.180149 0.179843 0.179537 0.179243 0.179020 0.178924 0.178893 0.178863 0.178767 0.178555 0.178276 0.178004 0.177732 0.177460 0.177198 0.176998 0.176911 0.176884 0.176857 0.176770 0.176579 0.176328 0.176080 0.175833 0.175585 0.175344 0.175162 0.175081 0.175055 0.175030 0.174949 0.174770 0.174534 0.174306 0.174078 0.173851 0.173631 0.173464 0.173391 0.173367 0.173344 0.173271 0.173107 0.172892 0.172684 0.172475 0.172267 0.172061 0.171905 0.171837 0.171815 0.171795 0.171729 0.171584 0.171392 0.171204 0.171016 0.170828 0.170651 0.170518 0.170460 0.170442 0.170424 0.170366 0.170237 0.170068 0.169908 0.169747 0.169587 0.169444 0.169335 0.169287 0.169272 0.169258 0.169211 0.169107 0.168971 0.168858 0.168745 0.168632 0.168525 0.168444 0.168409 0.168397 0.168386 0.168351 0.168287 0.168201 0.168123 0.168045 0.167966 0.167896 0.167843 0.167824 0.167818 0.167812 0.167793 0.167751 0.167695 0.167641 0.167587 0.167533 0.167494 0.167465 0.167452 0.167448 0.167444 0.167431 0.167402 0.167363 0.167335 0.167308 0.167280 0.167256 0.167237 0.167229 0.167226 0.167223 0.167215 0.167198 0.167177 0.167162 0.167147 0.167132 0.167117 0.167105 0.167100 0.167099 0.167099 0.167097 0.167093 0.167087 0.167080 0.167073 0.167065 0.167064 0.167063 0.167063 0.167063 0.167063 0.167063 0.167062 0.167061 0.167062 0.167063 0.167064 0.167069 0.167072 0.167074 0.167074 0.167074 0.167076 0.167078 0.167082 0.167091 0.167100 0.167109 0.167117 0.167123 0.167126 0.167127 0.167128 0.167130 0.167139 0.167152 0.167164 0.167175 0.167187 0.167200 0.167209 0.167214 0.167216 0.167217 0.167223 0.167233 0.167248 0.167262 0.167275 0.167289 0.167305 0.167317 0.167323 0.167324 
0.159193 0.159177 0.159101 0.158913 0.158663 0.158416 0.158168 0.157921 0.157676 0.157491 0.157420 0.157405 0.157390 0.157319 0.157141 0.156906 0.156681 0.156455 0.156230 0.156011 0.155845 0.155780 0.155767 0.155753 0.155689 0.155534 0.155327 0.155125 0.154923 0.154721 0.154526 0.154378 0.154321 0.154309 0.154297 0.154240 0.154099 0.153912 0.153730 0.153547 0.153365 0.153188 0.153054 0.153003 0.152992 0.152981 0.152930 0.152801 0.152630 0.152477 0.152324 0.152171 0.152037 0.151936 0.151899 0.151891 0.151884 0.151847 0.151758 0.151639 0.151546 0.151453 0.151360 0.151288 0.151233 0.151214 0.151210 0.151206 0.151187 0.151142 0.151083 0.151041 0.150998 0.150956 0.150929 0.150909 0.150902 0.150900 0.150899 0.150892 0.150877 0.150858 0.150849 0.150840 0.150832 0.150836 0.150839 0.150840 0.150840 0.150841 0.150842 0.150848 0.150856 0.150870 0.150885 0.150899 0.150921 0.150938 0.150945 0.150946 0.150948 0.150954 0.150974 0.151000 0.151029 0.151058 0.151088 0.151122 0.151147 0.151157 0.151159 
