0.279456 0.279396 0.278566 0.273474 0.265406 0.255894 0.246383 0.236872 0.228787 0.223684 0.222688 0.222617 0.222547 0.221575 0.217640 0.211405 0.206848 0.202290 0.197733 0.194183 0.191942 0.191488 0.191455 0.191423 0.190975 0.189061 0.186029 0.183449 0.180870 0.178291 0.176061 0.174654 0.174358 0.174336 0.174315 0.174023 0.172746 0.170724 0.168864 0.167004 0.165143 0.163401 0.162302 0.162064 0.162047 0.162030 0.161793 0.160729 0.159043 0.157466 0.155888 0.154311 0.152851 0.151930 0.151734 0.151720 0.151706 0.151512 0.150656 0.149300 0.148059 0.146818 0.145577 0.144447 0.143735 0.143583 0.143572 
0.279444 0.279340 0.278327 0.275042 0.270466 0.266085 0.261704 0.257324 0.253419 0.250615 0.249747 0.249658 0.249569 0.248707 0.246250 0.242828 0.239925 0.237022 0.234118 0.231596 0.229785 0.229233 0.229176 0.229120 0.228573 0.227022 0.224862 0.222999 0.221135 0.219272 0.217627 0.216446 0.216079 0.216041 0.216005 0.215650 0.214596 0.213127 0.211821 0.210515 0.209209 0.208036 0.207193 0.206924 0.206896 0.206869 0.206600 0.205828 0.204754 0.203766 0.202778 0.201791 0.200870 0.200209 0.200002 0.199981 0.199959 0.199751 0.199130 0.198264 0.197457 0.196650 0.195843 0.195074 0.194522 0.194343 0.194324 0.194306 0.194130 0.193609 0.192883 0.192158 0.191433 0.190709 0.189996 0.189484 0.189318 0.189301 0.189284 0.189117 0.188617 0.187920 0.187218 0.186516 0.185814 0.185117 0.184616 0.184452 0.184435 0.184418 0.184254 0.183759 0.183069 0.182380 0.181690 0.181000 0.180311 0.179815 0.179654 0.179637 0.179620 0.179459 0.178973 0.178296 0.177625 0.176954 0.176283 0.175620 0.175143 0.174988 0.174972 0.174956 0.174802 0.174334 0.173682 0.173042 0.172402 0.171762 0.171134 0.170683 0.170535 0.170520 0.170505 0.170358 0.169915 0.169298 0.168693 0.168088 0.167484 0.166894 0.166470 0.166332 0.166318 0.166304 0.166166 0.165751 0.165173 0.164609 0.164044 0.163479 0.162928 0.162532 0.162403 0.162390 0.162377 0.162248 0.161861 0.161321 0.160796 0.160271 0.159746 0.159235 0.158868 0.158748 0.158736 0.158724 0.158605 0.158246 0.157746 0.157259 0.156772 0.156286 0.155813 0.155473 0.155363 0.155351 0.155340 0.155229 0.154898 0.154435 0.153985 0.153535 0.153085 0.152648 0.152334 0.152231 0.152221 0.152210 0.152108 0.151802 0.151375 0.150960 0.150545 0.150130 0.149726 0.149436 0.149341 0.149332 0.149322 0.149228 0.148945 0.148552 0.148168 0.147785 0.147402 0.147028 0.146759 0.146672 0.146663 0.146654 0.146567 0.146305 0.145940 0.145583 0.145227 0.144870 0.144522 0.144271 0.144190 0.144181 
0.279545 0.279846 0.284259 0.303211 0.333237 0.351913 0.370589 0.389265 0.372532 0.361971 0.360212 0.360092 0.359883 0.356823 0.340689 0.315127 0.296036 0.276944 0.257852 0.245056 0.236979 0.235493 0.235391 0.235293 0.233847 0.228300 0.219511 0.213635 0.207759 0.201883 0.197242 0.194313 0.193700 0.193658 0.193617 0.193001 0.190098 0.185498 0.180299 0.175099 0.169899 0.163534 0.159517 0.158588 0.158524 0.158461 0.157534 0.153559 0.147261 0.142723 0.138186 0.133648 0.130832 0.129054 0.128739 0.128717 0.128697 0.128394 0.127238 0.125406 0.124280 0.123154 0.122028 0.121316 0.120867 0.120783 0.120777 0.120771 0.120688 0.120364 0.119851 0.119475 0.119099 0.118724 0.118437 0.118257 0.118221 0.118218 0.118216 0.118181 0.118032 0.117798 0.117607 0.117417 0.117227 0.117072 0.116974 0.116955 0.116953 0.116952 0.116932 0.116849 0.116717 0.116607 0.116497 0.116387 0.116296 0.116238 0.116226 0.116225 0.116224 0.116212 0.116162 0.116083 0.116015 0.115948 0.115880 0.115823 0.115787 0.115780 0.115779 0.115779 0.115771 0.115739 0.115689 0.115645 0.115602 0.115558 0.115520 0.115496 0.115491 0.115490 0.115490 0.115485 0.115463 0.115428 0.115394 0.115361 0.115328 0.115294 0.115273 0.115268 0.115268 
0.151717 0.151704 0.151649 0.151517 0.151341 0.151165 0.150990 0.150814 0.150637 0.150504 0.150449 0.150435 0.150422 0.150367 0.150233 0.150055 0.149877 0.149699 0.149521 0.149339 0.149202 0.149146 0.149133 0.149119 0.149063 0.148928 0.148749 0.148571 0.148393 0.148216 0.148040 0.147907 0.147852 0.147839 0.147826 0.147771 0.147640 0.147466 0.147294 0.147122 0.146950 0.146779 0.146651 0.146598 0.146585 0.146573 0.146520 0.146394 0.146227 0.146062 0.145897 0.145731 0.145568 0.145444 0.145394 0.145382 0.145370 0.145321 0.145216 0.145076 0.144956 0.144835 0.144715 0.144607 0.144525 0.144492 0.144484 0.144476 0.144443 0.144366 0.144265 0.144174 0.144083 0.143992 0.143911 0.143849 0.143825 0.143819 0.143813 0.143789 0.143731 0.143653 0.143583 0.143514 0.143444 0.143376 0.143324 0.143305 0.143301 0.143296 0.143278 0.143233 0.143173 0.143117 0.143062 0.143006 0.142954 0.142914 0.142898 0.142894 0.142890 0.142873 0.142839 0.142793 0.142749 0.142705 0.142661 0.142622 0.142592 0.142580 0.142577 0.142574 0.142562 0.142534 0.142497 0.142464 0.142430 0.142397 0.142366 0.142344 0.142335 0.142332 
0.174328 0.174296 0.174182 0.173918 0.173569 0.173228 0.172887 0.172546 0.172207 0.171950 0.171841 0.171810 0.171780 0.171671 0.171422 0.171094 0.170770 0.170447 0.170124 0.169807 0.169567 0.169464 0.169436 0.169407 0.169306 0.169070 0.168760 0.168453 0.168147 0.167841 0.167541 0.167313 0.167216 0.167189 0.167162 0.167066 0.166843 0.166548 0.166260 0.165972 0.165684 0.165401 0.165187 0.165096 0.165071 0.165046 0.164955 0.164746 0.164471 0.164201 0.163932 0.163662 0.163399 0.163200 0.163115 0.163091 0.163068 0.162983 0.162788 0.162531 0.162280 0.162030 0.161779 0.161534 0.161349 0.161271 0.161250 0.161228 0.161151 0.160973 0.160737 0.160509 0.160281 0.160053 0.159834 0.159667 0.159597 0.159577 0.159557 0.159487 0.159327 0.159117 0.158936 0.158755 0.158574 0.158407 0.158281 0.158230 0.158215 0.158201 0.158150 0.158032 0.157876 0.157729 0.157583 0.157436 0.157298 0.157193 0.157149 0.157136 0.157124 0.157079 0.156983 0.156855 0.156732 0.156610 0.156488 0.156374 0.156287 0.156252 0.156242 0.156232 0.156196 0.156113 0.156004 0.155900 0.155797 0.155693 0.155595 0.155520 0.155488 0.155479 0.155470 0.155437 0.155367 0.155274 0.155183 0.155093 0.155002 0.154919 0.154856 0.154829 0.154822 0.154815 0.154788 0.154726 0.154644 0.154568 0.154492 0.154416 0.154341 0.154285 0.154260 0.154254 0.154247 0.154222 0.154172 0.154105 0.154038 0.153971 0.153904 0.153844 0.153798 0.153778 0.153772 0.153767 0.153747 0.153701 0.153641 0.153585 0.153529 0.153473 0.153417 0.153375 0.153357 0.153352 
0.191443 0.191396 0.191145 0.190514 0.189675 0.188881 0.188086 0.187291 0.186553 0.185998 0.185782 0.185741 0.185701 0.185487 0.184961 0.184262 0.183593 0.182925 0.182257 0.181608 0.181119 0.180926 0.180890 0.180853 0.180659 0.180163 0.179503 0.178862 0.178221 0.177579 0.176955 0.176485 0.176304 0.176269 0.176235 0.176055 0.175602 0.174999 0.174425 0.173851 0.173277 0.172738 0.172331 0.172178 0.172149 0.172121 0.171968 0.171591 0.171090 0.170653 0.170216 0.169779 0.169425 0.169159 0.169057 0.169038 0.169019 0.168919 0.168702 0.168412 0.168170 0.167927 0.167685 0.167478 0.167323 0.167277 0.167269 0.167260 0.167214 0.167094 0.166935 0.166806 0.166677 0.166548 0.166442 0.166363 0.166334 0.166329 0.166323 0.166294 0.166222 0.166127 0.166050 0.165973 0.165896 0.165832 0.165783 0.165764 0.165760 0.165756 0.165737 0.165699 0.165648 0.165602 0.165555 0.165509 0.165468 0.165437 0.165427 0.165425 0.165423 0.165414 0.165388 0.165354 0.165326 0.165299 0.165272 0.165251 0.165235 0.165229 0.165228 
0.222590 0.222481 0.221870 0.220283 0.218171 0.216130 0.214089 0.212048 0.210175 0.208767 0.208256 0.208165 0.208077 0.207580 0.206359 0.204734 0.203307 0.201881 0.200455 0.199211 0.198276 0.197935 0.197874 0.197826 0.197552 0.196882 0.195990 0.195137 0.194283 0.193429 0.192589 0.191958 0.191717 0.191675 0.191632 0.191392 0.190767 0.189934 0.189046 0.188158 0.187271 0.186383 0.185717 0.185460 0.185414 0.185369 0.185113 0.184456 0.183582 0.182753 0.181924 0.181095 0.180318 0.179734 0.179514 0.179475 0.179436 0.179218 0.178679 0.177962 0.177312 0.176662 0.176012 0.175451 0.175029 0.174885 0.174860 0.174834 0.174692 0.174341 0.173874 0.173512 0.173150 0.172789 0.172512 0.172305 0.172226 0.172212 0.172199 0.172120 0.171966 0.171761 0.171585 0.171409 0.171233 0.171086 0.170975 0.170938 0.170931 0.170924 0.170886 0.170790 0.170662 0.170557 0.170451 0.170346 0.170254 0.170184 0.170156 0.170152 0.170147 0.170121 0.170064 0.169988 0.169918 0.169848 0.169778 0.169717 0.169670 0.169654 0.169651 
0.249609 0.249415 0.248617 0.246739 0.244250 0.241902 0.239553 0.237205 0.234991 0.233319 0.232649 0.232486 0.232324 0.231661 0.230110 0.228055 0.226165 0.224275 0.222385 0.220641 0.219324 0.218800 0.218673 0.218547 0.218030 0.216851 0.215290 0.213935 0.212580 0.211226 0.210009 0.209090 0.208721 0.208631 0.208543 0.208182 0.207366 0.206285 0.205309 0.204333 0.203357 0.202468 0.201797 0.201536 0.201473 0.201409 0.201148 0.200616 0.199911 0.199254 0.198597 0.197940 0.197302 0.196821 0.196621 0.196573 0.196524 0.196326 0.195846 0.195211 0.194586 0.193962 0.193337 0.192714 0.192244 0.192049 0.192002 0.191954 0.191760 0.191289 0.190667 0.190035 0.189404 0.188773 0.188130 0.187644 0.187447 0.187399 0.187351 0.187155 0.186687 0.186066 0.185470 0.184873 0.184276 0.183699 0.183264 0.183086 0.183043 0.183000 0.182827 0.182414 0.181868 0.181349 0.180830 0.180312 0.179827 0.179461 0.179312 0.179276 0.179240 0.179092 0.178754 0.178306 0.177887 0.177469 0.177050 0.176691 0.176420 0.176313 0.176286 0.176260 0.176153 0.175903 0.175571 0.175305 0.175040 0.174775 0.174539 0.174360 0.174298 0.174283 0.174268 0.174207 0.174059 0.173864 0.173702 0.173541 0.173380 0.173234 0.173125 0.173079 0.173068 0.173059 0.173023 0.172938 0.172827 0.172718 0.172610 0.172501 0.172412 0.172344 0.172315 0.172308 0.172301 0.172272 0.172212 0.172131 0.172056 0.171982 0.171907 0.171845 0.171798 0.171778 0.171773 0.171768 0.171747 0.171695 0.171627 0.171574 0.171522 0.171469 0.171418 0.171380 0.171366 0.171363 0.171359 0.171346 0.171311 0.171266 0.171226 0.171186 0.171145 0.171106 0.171076 0.171064 0.171061 0.171058 0.171048 0.171023 0.170991 0.170958 0.170925 0.170892 0.170862 0.170840 0.170830 0.170828 
0.229136 0.228976 0.228519 0.227568 0.226319 0.225149 0.223979 0.222808 0.221699 0.220854 0.220470 0.220336 0.220204 0.219826 0.219035 0.217997 0.217015 0.216033 0.215051 0.214125 0.213419 0.213100 0.212988 0.212878 0.212562 0.211902 0.211035 0.210230 0.209425 0.208620 0.207858 0.207277 0.207014 0.206923 0.206832 0.206573 0.206034 0.205328 0.204665 0.204003 0.203341 0.202716 0.202240 0.202025 0.201950 0.201876 0.201664 0.201223 0.200645 0.200100 0.199555 0.199009 0.198506 0.198122 0.197952 0.197892 0.197834 0.197666 0.197322 0.196869 0.196447 0.196024 0.195602 0.195208 0.194907 0.194772 0.194725 0.194679 0.194547 0.194269 0.193902 0.193536 0.193170 0.192803 0.192435 0.192155 0.192024 0.191978 0.191932 0.191801 0.191518 0.191147 0.190774 0.190401 0.190028 0.189651 0.189363 0.189229 0.189182 0.189136 0.189002 0.188717 0.188344 0.187972 0.187600 0.187228 0.186860 0.186580 0.186450 0.186405 0.186361 0.186234 0.185964 0.185609 0.185254 0.184900 0.184546 0.184198 0.183933 0.183814 0.183772 0.183731 0.183613 0.183362 0.183033 0.182712 0.182391 0.182070 0.181763 0.181530 0.181426 0.181389 0.181353 0.181249 0.181026 0.180733 0.180444 0.180154 0.179864 0.179599 0.179397 0.179305 0.179273 0.179241 0.179149 0.178956 0.178701 0.178460 0.178218 0.177977 0.177763 0.177600 0.177525 0.177499 0.177473 0.177399 0.177243 0.177037 0.176851 0.176664 0.176478 0.176313 0.176187 0.176129 0.176109 0.176088 0.176031 0.175909 0.175749 0.175612 0.175476 0.175340 0.175215 0.175120 0.175076 0.175061 0.175045 0.175002 0.174909 0.174787 0.174693 0.174599 0.174504 0.174413 0.174343 0.174310 0.174299 0.174288 0.174255 0.174191 0.174107 0.174038 0.173969 0.173900 0.173830 0.173777 0.173752 0.173744 0.173735 0.173710 0.173666 0.173609 0.173555 0.173501 0.173447 0.173392 0.173351 0.173331 0.173324 0.173318 0.173302 0.173272 0.173233 0.173192 0.173152 0.173111 0.173069 0.173037 0.173027 0.173023 0.173019 0.173009 0.172986 0.172955 0.172923 0.172890 0.172858 0.172829 0.172807 0.172799 0.172796 0.172793 0.172785 0.172767 0.172742 0.172718 0.172693 0.172668 0.172650 0.172636 0.172630 0.172628 0.172626 0.172619 0.172605 0.172586 0.172568 0.172549 0.172531 0.172518 0.172508 0.172503 0.172501 0.172499 0.172494 0.172484 0.172469 0.172456 0.172444 0.172431 0.172421 0.172413 0.172410 0.172408 0.172407 0.172403 0.172395 0.172384 0.172375 0.172366 0.172357 0.172349 0.172343 0.172340 0.172339 
0.206876 0.206793 0.206337 0.205209 0.203708 0.202341 0.200974 0.199606 0.198362 0.197427 0.197081 0.197018 0.196956 0.196615 0.195770 0.194645 0.193629 0.192613 0.191597 0.190673 0.189978 0.189718 0.189671 0.189625 0.189368 0.188726 0.187872 0.187077 0.186283 0.185489 0.184744 0.184185 0.183972 0.183933 0.183895 0.183683 0.183151 0.182443 0.181776 0.181109 0.180442 0.179817 0.179348 0.179178 0.179147 0.179116 0.178947 0.178519 0.177950 0.177439 0.176928 0.176417 0.175976 0.175645 0.175521 0.175498 0.175476 0.175353 0.175072 0.174699 0.174399 0.174098 0.173798 0.173553 0.173369 0.173313 0.173303 0.173293 0.173237 0.173094 0.172905 0.172763 0.172622 0.172481 0.172380 0.172304 0.172273 0.172267 0.172262 0.172230 0.172168 0.172085 0.172020 0.171954 0.171889 0.171838 0.171799 0.171788 0.171787 0.171785 0.171774 0.171743 0.171703 0.171680 0.171657 0.171634 0.171624 0.171617 0.171614 0.171614 0.171613 0.171610 0.171610 0.171610 0.171613 0.171617 0.171621 0.171629 0.171635 0.171639 0.171640 
0.199964 0.199896 0.199646 0.199066 0.198300 0.197565 0.196830 0.196096 0.195393 0.194861 0.194639 0.194580 0.194521 0.194304 0.193803 0.193141 0.192508 0.191876 0.191243 0.190640 0.190183 0.189994 0.189943 0.189893 0.189706 0.189274 0.188704 0.188163 0.187623 0.187082 0.186569 0.186181 0.186020 0.185977 0.185934 0.185774 0.185404 0.184916 0.184450 0.183984 0.183517 0.183073 0.182737 0.182599 0.182562 0.182524 0.182385 0.182061 0.181632 0.181225 0.180818 0.180410 0.180017 0.179720 0.179595 0.179562 0.179528 0.179404 0.179121 0.178747 0.178388 0.178029 0.177670 0.177331 0.177074 0.176967 0.176939 0.176910 0.176805 0.176558 0.176232 0.175930 0.175627 0.175324 0.175036 0.174818 0.174727 0.174702 0.174678 0.174587 0.174394 0.174140 0.173894 0.173648 0.173402 0.173194 0.173037 0.172972 0.172955 0.172938 0.172874 0.172727 0.172534 0.172377 0.172220 0.172063 0.171918 0.171808 0.171763 0.171751 0.171742 0.171707 0.171624 0.171515 0.171413 0.171311 0.171209 0.171133 0.171075 0.171050 0.171044 0.171037 0.171013 0.170955 0.170880 0.170825 0.170771 0.170716 0.170660 0.170617 0.170605 0.170602 0.170599 0.170587 0.170559 0.170521 0.170488 0.170456 0.170423 0.170399 0.170381 0.170373 0.170371 0.170368 0.170360 0.170342 0.170319 0.170304 0.170289 0.170274 0.170263 0.170255 0.170254 0.170253 0.170253 0.170252 0.170248 0.170244 0.170242 0.170239 0.170237 0.170239 0.170241 0.170241 0.170241 0.170241 0.170242 0.170246 0.170252 0.170259 0.170267 0.170274 0.170285 0.170294 0.170298 0.170299 0.170300 0.170304 0.170312 0.170324 0.170338 0.170353 0.170368 0.170384 0.170395 0.170400 0.170401 
0.184429 0.184402 0.184323 0.184149 0.183920 0.183691 0.183461 0.183232 0.183001 0.182826 0.182746 0.182719 0.182693 0.182613 0.182436 0.182205 0.181972 0.181739 0.181506 0.181271 0.181092 0.181011 0.180984 0.180956 0.180875 0.180695 0.180459 0.180231 0.180003 0.179775 0.179551 0.179380 0.179303 0.179277 0.179251 0.179174 0.179006 0.178785 0.178566 0.178347 0.178128 0.177912 0.177748 0.177673 0.177649 0.177624 0.177550 0.177388 0.177175 0.176964 0.176754 0.176544 0.176337 0.176179 0.176107 0.176084 0.176061 0.175991 0.175840 0.175642 0.175446 0.175249 0.175053 0.174862 0.174717 0.174651 0.174629 0.174607 0.174541 0.174396 0.174207 0.174020 0.173834 0.173648 0.173466 0.173328 0.173265 0.173245 0.173224 0.173162 0.173026 0.172848 0.172674 0.172501 0.172328 0.172158 0.172029 0.171970 0.171951 0.171931 0.171873 0.171747 0.171582 0.171420 0.171259 0.171098 0.170938 0.170817 0.170761 0.170743 0.170725 0.170671 0.170556 0.170405 0.170255 0.170106 0.169957 0.169812 0.169702 0.169654 0.169638 0.169623 0.169575 0.169471 0.169334 0.169200 0.169066 0.168932 0.168810 0.168718 0.168676 0.168662 0.168648 0.168606 0.168515 0.168396 0.168285 0.168175 0.168064 0.167969 0.167896 0.167864 0.167853 0.167843 0.167811 0.167743 0.167654 0.167581 0.167509 0.167436 0.167367 0.167315 0.167292 0.167284 0.167276 0.167253 0.167210 0.167154 0.167103 0.167053 0.167003 0.166953 0.166916 0.166902 0.166897 0.166893 0.166880 0.166852 0.166816 0.166779 0.166743 0.166707 0.166678 0.166656 0.166648 0.166645 0.166643 0.166634 0.166615 0.166591 0.166567 0.166543 0.166519 0.166501 0.166487 0.166480 0.166477 0.166475 0.166468 0.166453 0.166432 0.166418 0.166403 0.166388 0.166375 0.166365 0.166360 0.166358 0.166357 0.166352 0.166343 0.166330 0.166322 0.166314 0.166305 0.166295 0.166288 0.166284 0.166283 0.166282 0.166278 0.166275 0.166270 0.166264 0.166257 0.166251 0.166245 0.166241 0.166240 0.166240 0.166239 0.166238 0.166236 0.166233 0.166229 0.166225 0.166221 0.166220 0.166220 0.166220 0.166220 0.166220 0.166220 0.166219 0.166218 0.166218 0.166218 0.166218 0.166219 0.166220 0.166220 0.166220 0.166220 0.166221 0.166221 0.166221 0.166223 0.166225 0.166227 0.166229 0.166230 0.166231 0.166231 
0.170516 0.170502 0.170445 0.170305 0.170121 0.169928 0.169736 0.169543 0.169346 0.169197 0.169133 0.169117 0.169100 0.169037 0.168883 0.168681 0.168474 0.168268 0.168062 0.167853 0.167696 0.167630 0.167613 0.167596 0.167530 0.167373 0.167165 0.166956 0.166746 0.166537 0.166327 0.166169 0.166104 0.166087 0.166070 0.166005 0.165850 0.165644 0.165441 0.165239 0.165037 0.164839 0.164689 0.164627 0.164611 0.164595 0.164533 0.164387 0.164194 0.164004 0.163814 0.163624 0.163441 0.163302 0.163245 0.163231 0.163216 0.163159 0.163026 0.162850 0.162680 0.162509 0.162339 0.162171 0.162045 0.161993 0.161980 0.161967 0.161915 0.161793 0.161632 0.161477 0.161322 0.161166 0.161016 0.160902 0.160855 0.160843 0.160831 0.160783 0.160675 0.160531 0.160390 0.160250 0.160109 0.159978 0.159879 0.159838 0.159827 0.159817 0.159775 0.159678 0.159549 0.159441 0.159333 0.159225 0.159132 0.159062 0.159036 0.159030 0.159023 0.158998 0.158939 0.158861 0.158795 0.158729 0.158663 0.158605 0.158562 0.158544 0.158539 0.158535 0.158518 0.158485 0.158442 0.158401 0.158361 0.158321 0.158290 0.158267 0.158258 0.158255 0.158253 0.158243 0.158223 0.158195 0.158175 0.158154 0.158134 0.158117 0.158105 0.158100 0.158099 0.158098 0.158094 0.158083 0.158069 0.158059 0.158050 0.158040 0.158031 0.158024 0.158022 0.158021 0.158021 0.158020 0.158017 0.158014 0.158011 0.158008 0.158005 0.158005 0.158005 0.158004 0.158004 0.158004 0.158004 0.158004 0.158004 0.158006 0.158008 0.158010 0.158014 0.158017 0.158018 0.158019 0.158019 0.158020 0.158022 0.158025 0.158030 0.158034 0.158039 0.158042 0.158044 0.158046 0.158047 
0.149330 0.149325 0.149303 0.149249 0.149178 0.149106 0.149033 0.148961 0.148886 0.148829 0.148806 0.148800 0.148794 0.148770 0.148712 0.148635 0.148557 0.148478 0.148400 0.148320 0.148260 0.148235 0.148229 0.148222 0.148197 0.148136 0.148056 0.147975 0.147895 0.147814 0.147734 0.147673 0.147647 0.147641 0.147635 0.147609 0.147548 0.147466 0.147384 0.147302 0.147220 0.147138 0.147077 0.147051 0.147045 0.147039 0.147014 0.146954 0.146874 0.146794 0.146714 0.146635 0.146555 0.146494 0.146469 0.146463 0.146456 0.146431 0.146371 0.146291 0.146212 0.146132 0.146053 0.145975 0.145916 0.145892 0.145886 0.145880 0.145856 0.145797 0.145719 0.145643 0.145568 0.145493 0.145418 0.145362 0.145340 0.145335 0.145329 0.145307 0.145253 0.145183 0.145115 0.145047 0.144979 0.144914 0.144865 0.144845 0.144840 0.144835 0.144815 0.144782 0.144738 0.144713 0.144687 0.144662 0.144647 0.144635 0.144630 0.144629 0.144628 0.144623 0.144615 0.144604 0.144598 0.144593 0.144587 0.144588 0.144588 0.144589 0.144589 0.144589 0.144590 0.144592 0.144594 0.144602 0.144609 0.144617 0.144625 0.144632 0.144636 0.144637 0.144638 0.144642 0.144651 0.144663 0.144677 0.144692 0.144706 0.144723 0.144735 0.144740 0.144741 0.144743 0.144748 0.144763 0.144782 0.144802 0.144822 0.144842 0.144865 0.144882 0.144889 0.144891 0.144892 0.144899 0.144917 0.144941 0.144966 0.144991 0.145016 0.145043 0.145063 0.145072 0.145074 
