-1.273504 0.872565 15.053622
-1.283876 0.877423 15.048441
-1.294248 0.882281 15.043261
-1.757057 1.099500 14.813278
-2.218651 1.319296 14.599133
-2.701099 1.584038 14.541145
-3.235797 1.711965 14.497240
-1.300672 0.885290 15.040052
-1.755407 1.098727 14.814102
-1.758707 1.100273 14.812454
-2.216928 1.318434 14.599672
-2.220373 1.320157 14.598595
-2.699360 1.583064 14.541316
-2.702837 1.585012 14.540974
-3.233837 1.711596 14.497392
-1.325388 0.896867 15.027707
-1.730688 1.087147 14.826441
-1.783414 1.111829 14.800071
-2.191127 1.305526 14.607737
-2.246174 1.333065 14.590530
-2.673323 1.568475 14.543880
-2.729782 1.597770 14.538235
-3.204483 1.706074 14.499669
-1.378724 0.921877 15.001142
-1.438442 0.949912 14.971483
-1.498177 0.977984 14.941893
-1.557912 1.006057 14.912306
-1.617643 1.034121 14.882700
-1.677362 1.062158 14.853045
-1.836703 1.136735 14.773313
-1.896371 1.164658 14.743449
-1.956089 1.192694 14.713793
-2.015876 1.220885 14.684423
-2.075936 1.249558 14.656094
-2.136530 1.278843 14.629638
-2.302416 1.361752 14.577264
-2.365874 1.394747 14.566663
-2.429371 1.428982 14.561380
-2.492423 1.464204 14.557583
-2.555057 1.500182 14.553899
-2.617195 1.536920 14.549320
-2.788399 1.624302 14.532234
-2.856995 1.646059 14.526004
-2.927005 1.662826 14.520196
-2.998066 1.675182 14.514806
-3.069558 1.684899 14.509674
-3.140889 1.695653 14.504433
-4.637009 1.933419 14.390923
-5.579759 2.851229 14.299839
-6.105679 4.171226 14.234599
-6.790536 5.414389 14.161722
-7.719516 6.483469 14.078711
-8.896756 7.267710 13.988160
-10.235450 7.730638 13.896291
-11.640274 7.926600 13.807419
-13.059749 7.927632 13.722722
-3.237757 1.712333 14.497088
-4.635052 1.933040 14.391083
-4.638967 1.933797 14.390763
-5.579056 2.849359 14.299922
-5.580461 2.853100 14.299755
-6.104851 4.169408 14.234695
-6.106506 4.173044 14.234503
-6.789391 5.412753 14.161833
-6.791680 5.416026 14.161612
-7.717994 6.482177 14.078835
-7.721038 6.484760 14.078587
-8.894970 7.266819 13.988290
-8.898542 7.268602 13.988031
-10.233505 7.730189 13.896419
-10.237395 7.731087 13.896164
-11.638283 7.926449 13.807541
-11.642265 7.926750 13.807296
-13.057755 7.927743 13.722838
-3.267111 1.717855 14.494812
-4.605735 1.927373 14.393483
-4.668283 1.939464 14.388363
-5.568531 2.821341 14.301175
-5.591019 2.881105 14.298492
-6.092451 4.142177 14.236136
-6.119112 4.200179 14.233051
-6.772786 5.387875 14.163464
-6.808825 5.440535 14.159957
-7.695259 6.462761 14.080694
-7.743837 6.504102 14.076726
-8.868224 7.253471 13.990232
-8.925289 7.281950 13.986089
-10.204378 7.723460 13.898331
-10.266522 7.737816 13.894252
-11.608469 7.924194 13.809378
-11.672079 7.929005 13.805460
-13.027896 7.929401 13.724577
-3.401226 1.743549 14.484392
-3.614759 1.778701 14.468605
-3.828852 1.810601 14.453348
-4.042770 1.843505 14.437767
-4.256678 1.876070 14.421361
-4.470968 1.905690 14.404385
-4.800187 1.974280 14.377308
-4.998461 2.059431 14.359682
-5.183362 2.171562 14.342248
-5.357932 2.298560 14.325602
-5.465813 2.483144 14.314045
-5.523451 2.692151 14.306586
-5.639581 3.009016 14.292453
-5.714541 3.212415 14.282673
-5.790033 3.415618 14.272903
-5.869701 3.617206 14.262965
-5.952649 3.817464 14.252847
-6.036841 4.017198 14.242674
-6.177525 4.323870 14.226380
-6.272090 4.518880 14.215715
-6.370859 4.711778 14.204855
-6.475186 4.901714 14.193740
-6.584522 5.088801 14.182399
-6.698064 5.273350 14.170872
-6.888158 5.551905 14.152354
-7.016681 5.726317 14.140191
-7.150134 5.896942 14.127829
-7.294154 6.058727 14.115061
-7.440501 6.218425 14.102207
-7.592762 6.372350 14.089147
-7.847298 6.593427 14.068243
-8.012720 6.733169 14.054758
-8.190622 6.856550 14.040948
-8.371614 6.975437 14.027069
-8.554720 7.090928 14.013152
-8.746055 7.192217 13.999109
-9.048323 7.341438 13.977206
-9.247957 7.425224 13.963122
-9.450691 7.501290 13.949054
-9.655146 7.572569 13.935008
-9.862315 7.635518 13.921016
-10.071568 7.691208 13.907089
-10.400034 7.767037 13.885530
-10.612820 7.807195 13.871796
-10.826757 7.840810 13.858164
-11.041123 7.871591 13.844581
-11.256382 7.895238 13.831129
-11.472230 7.913061 13.817793
-11.808586 7.936100 13.797134
-12.025117 7.941472 13.784079
-12.241653 7.946780 13.771026
-12.458240 7.947201 13.758096
-12.674774 7.941247 13.745334
-12.891314 7.935427 13.732568
156 NaN NaN
-1.268319 0.870136 15.056212
-1.351305 0.909005 15.014762
-1.434341 0.947984 14.973515
-1.517402 0.987019 14.932370
-1.600464 1.026056 14.891230
-1.683503 1.065041 14.849995
-1.766495 1.103922 14.808567
-1.849433 1.142684 14.766921
-1.932409 1.181530 14.725427
-2.015541 1.220725 14.684581
-2.099051 1.260594 14.645191
-2.183758 1.301840 14.610040
-2.270345 1.345157 14.582974
-2.358529 1.390787 14.567274
-2.446809 1.438384 14.559929
-2.534246 1.487878 14.555432
-2.620646 1.538960 14.549066
-2.708055 1.587936 14.540460
-2.799234 1.629206 14.531124
-2.895352 1.657251 14.522604
-2.994105 1.674644 14.515090
-3.093513 1.688155 14.507954
-3.192581 1.703835 14.500592
-3.291136 1.722375 14.492949
-3.389582 1.741485 14.485274
-3.488339 1.758992 14.477799
-3.587425 1.774643 14.470559
-3.686664 1.789376 14.463463
-3.785908 1.804093 14.456415
-3.885102 1.819125 14.449331
-3.984251 1.834399 14.442131
-4.083363 1.849822 14.434740
-4.182483 1.865097 14.427151
-4.281682 1.879768 14.419409
-4.381015 1.893439 14.411563
-4.480362 1.906969 14.403635
-4.579439 1.922290 14.395635
-4.677862 1.941315 14.387579
-4.775045 1.965845 14.379469
-4.870053 1.997719 14.371304
-4.961473 2.038731 14.363122
-5.048935 2.087679 14.354988
-5.134088 2.140584 14.346915
-5.218963 2.193944 14.338875
-5.302237 2.249750 14.330995
-5.377564 2.315765 14.323701
-5.433926 2.398407 14.317834
-5.469276 2.492346 14.313633
-5.494886 2.589540 14.310249
-5.521529 2.686448 14.306817
-5.553630 2.781675 14.302948
-5.588968 2.875744 14.298743
-5.624869 2.969592 14.294339
-5.659998 3.063726 14.289836
-5.694640 3.158039 14.285289
-5.729172 3.252393 14.280749
-5.763983 3.346645 14.276230
-5.799482 3.440638 14.271696
-5.836072 3.534210 14.267110
-5.873801 3.627326 14.262459
-5.912199 3.720166 14.257772
-5.950764 3.812936 14.253076
-5.989372 3.905689 14.248380
-6.028531 3.998209 14.243659
-6.068805 4.090245 14.238885
-6.110435 4.181673 14.234046
-6.153079 4.272630 14.229159
-6.196335 4.363297 14.224242
-6.240018 4.453757 14.219306
-6.284400 4.543875 14.214337
-6.329804 4.633478 14.209321
-6.376449 4.722439 14.204247
-6.424302 4.810753 14.199118
-6.473300 4.898434 14.193937
-6.523366 4.985506 14.188708
-6.574395 5.072015 14.183435
-6.626276 5.158014 14.178125
-6.679022 5.243482 14.172777
-6.733013 5.328165 14.167375
-6.788687 5.411746 14.161901
-6.846248 5.494033 14.156346
-6.905148 5.575365 14.150736
-6.964695 5.656223 14.145099
-7.024514 5.736879 14.139451
-7.085395 5.816732 14.133760
-7.148385 5.894922 14.127986
-7.214114 5.970816 14.122106
-7.281632 6.045122 14.116160
-7.349624 6.118996 14.110196
-7.417195 6.193255 14.104247
-7.485405 6.266923 14.098276
-7.555884 6.338409 14.092225
-7.629743 6.406385 14.086061
-7.705832 6.471859 14.079828
-7.782378 6.536800 14.073581
-7.858027 6.602786 14.067361
-7.933754 6.668681 14.061138
-8.011442 6.732235 14.054859
-8.092496 6.791418 14.048490
-8.176005 6.847096 14.042065
-8.260283 6.901606 14.035624
-8.343970 6.957020 14.029195
-8.427502 7.012668 14.022770
-8.512221 7.066481 14.016321
-8.599212 7.116522 14.009834
-8.688083 7.163153 14.003322
-8.777804 7.208135 13.996802
-8.867522 7.253121 13.990283
-8.957325 7.297938 13.983763
-9.047867 7.341237 13.977238
-9.139701 7.381715 13.970709
-9.232722 7.419394 13.964182
-9.326457 7.455265 13.957659
-9.420507 7.490305 13.951140
-9.514819 7.524630 13.944623
-9.609588 7.557674 13.938112
-9.704984 7.588863 13.931612
-9.801007 7.618066 13.925126
-9.897539 7.645545 13.918655
-9.994474 7.671574 13.912197
-10.091738 7.696346 13.905753
-10.189288 7.719975 13.899321
-10.287084 7.742566 13.892902
-10.385137 7.764013 13.886497
-10.483504 7.783979 13.880112
-10.582225 7.802123 13.873753
-10.681249 7.818540 13.867421
-10.780451 7.833865 13.861106
-10.879719 7.848754 13.854799
-10.979044 7.863260 13.848499
-11.078532 7.876611 13.842219
-11.178266 7.887984 13.835976
-11.278220 7.897266 13.829773
-11.378274 7.905436 13.823594
-11.478331 7.913557 13.817416
-11.578369 7.921917 13.811232
-11.678470 7.929489 13.805066
-11.778700 7.935116 13.798942
-11.879037 7.938419 13.792872
-11.979411 7.940501 13.786831
-12.079783 7.942634 13.780789
-12.180140 7.945361 13.774732
-12.280508 7.947677 13.768686
-12.380900 7.948371 13.762679
-12.481288 7.946852 13.756731
-12.581651 7.944029 13.750817
-12.682009 7.941030 13.744908
-12.782380 7.938501 13.738987
-12.882744 7.935757 13.733071
-12.983073 7.931890 13.727186
-13.083325 7.926323 13.721350
-13.183502 7.919501 13.715550
-13.283637 7.912066 13.709769
-13.383774 7.904658 13.703986
-13.483956 7.897918 13.698184
-13.584215 7.892487 13.692344
