-1.352572 0.655254 6.396599
-1.361747 0.663333 6.396752
-1.370923 0.671412 6.396906
-1.788054 1.033358 6.380542
-2.183793 1.349177 6.244530
-2.519874 1.549693 5.862379
-2.917730 1.676599 5.509823
-1.376636 0.676442 6.397002
-1.786555 1.032035 6.380505
-1.789554 1.034681 6.380579
-2.182541 1.348387 6.245874
-2.185046 1.349966 6.243185
-2.518586 1.549024 5.863755
-2.521162 1.550362 5.861003
-2.916256 1.676164 5.511103
-1.398820 0.695975 6.397374
-1.764392 1.012482 6.379962
-1.811640 1.054288 6.381654
-2.163873 1.336514 6.265455
-2.203557 1.361632 6.223310
-2.499551 1.539137 5.884094
-2.540379 1.560038 5.840747
-2.894500 1.669630 5.530017
-1.446796 0.737873 6.396671
-1.500683 0.784520 6.394070
-1.554697 0.830894 6.389787
-1.608708 0.877277 6.385558
-1.662684 0.923732 6.381772
-1.716544 0.970426 6.379483
-1.859033 1.096708 6.385478
-1.912453 1.143894 6.387030
-1.966205 1.190254 6.383693
-2.020367 1.234676 6.370289
-2.072141 1.273369 6.340970
-2.121652 1.308310 6.303954
-2.243110 1.386338 6.179903
-2.286645 1.413061 6.130132
-2.329639 1.439179 6.079579
-2.372545 1.465257 6.028928
-2.415496 1.491336 5.978317
-2.459219 1.517189 5.928253
-2.584450 1.577832 5.798305
-2.635406 1.595559 5.751736
-2.687910 1.611194 5.706078
-2.741471 1.625345 5.661162
-2.794753 1.640031 5.616088
-2.847682 1.655289 5.570792
-3.988099 1.894547 4.629972
-5.089206 2.113903 3.791034
-5.987879 2.867931 3.105788
-6.616005 3.979140 2.525614
-7.317927 5.015640 1.893385
-8.131388 5.929264 1.208924
-9.077557 6.646833 0.466175
-10.136328 7.120149 -0.318814
-11.265189 7.341552 -1.118775
-12.422716 7.347975 -1.909655
-2.919204 1.677034 5.508543
-3.986581 1.894238 4.631237
-3.989616 1.894856 4.628706
-5.087601 2.113370 3.792100
-5.090812 2.114437 3.789967
-5.987051 2.866250 3.106486
-5.988707 2.869612 3.105090
-6.615069 3.977602 2.526484
-6.616940 3.980679 2.524744
-7.316852 5.014237 1.894321
-7.319002 5.017043 1.892449
-8.130118 5.928108 1.209950
-8.132658 5.930419 1.207898
-9.076105 6.646006 0.467275
-9.079008 6.647659 0.465075
-10.134761 7.119647 -0.317677
-10.137897 7.120646 -0.319950
-11.263553 7.341385 -1.117636
-11.266826 7.341705 -1.119913
-12.421059 7.348075 -1.908538
-2.940993 1.683464 5.489631
-3.964157 1.889665 4.649947
-4.012045 1.899423 4.610001
-5.063793 2.106461 3.808180
-5.114538 2.122327 3.774200
-5.974681 2.841540 3.116982
-6.000949 2.894462 3.094774
-6.601321 3.954794 2.539314
-6.630764 4.003422 2.511882
-7.301101 4.993360 1.908098
-7.334886 5.037779 1.878610
-8.111743 5.910457 1.224934
-8.151424 5.947502 1.192740
-9.054645 6.633803 0.483534
-9.100463 6.659874 0.448819
-10.111654 7.112006 -0.300901
-10.161087 7.127992 -0.336745
-11.239381 7.338913 -1.100802
-11.291034 7.343895 -1.136734
-12.396579 7.349551 -1.892036
-3.041836 1.710148 5.403907
-3.206859 1.741283 5.271378
-3.372717 1.770960 5.139515
-3.536871 1.802883 5.006055
-3.699588 1.835569 4.871026
-3.861767 1.868722 4.735463
-4.114462 1.920274 4.524494
-4.276522 1.953297 4.388758
-4.439964 1.986029 4.254623
-4.607677 2.017670 4.125623
-4.780701 2.047878 4.003456
-4.954636 2.080014 3.883096
-5.222818 2.160589 3.703186
-5.395656 2.220287 3.592122
-5.557470 2.301635 3.479750
-5.679933 2.441038 3.373838
-5.800353 2.581266 3.266262
-5.915374 2.731384 3.167566
-6.058291 3.006809 3.046584
-6.153422 3.179554 2.963663
-6.248389 3.348507 2.873043
-6.343272 3.517099 2.781655
-6.439937 3.684744 2.690399
-6.538684 3.850468 2.597865
-6.694387 4.106906 2.452905
-6.797428 4.268855 2.358393
-6.902027 4.429362 2.263133
-7.008623 4.587976 2.166926
-7.117918 4.743952 2.069444
-7.229557 4.897546 1.970841
-7.407978 5.131929 1.815142
-7.526663 5.277880 1.713223
-7.647631 5.421200 1.610247
-7.771137 5.561464 1.506101
-7.899124 5.696053 1.399893
-8.028707 5.828550 1.292978
-8.237856 6.024483 1.123188
-8.375902 6.144796 1.012526
-8.515597 6.262487 0.901148
-8.661589 6.369514 0.787112
-8.808047 6.475735 0.672902
-8.957194 6.576784 0.557597
-9.198159 6.716375 0.374670
-9.353894 6.803714 0.256827
-9.514554 6.878962 0.137276
-9.676256 6.951466 0.017386
-9.839584 7.019249 -0.103004
-10.006119 7.077009 -0.224264
-10.267370 7.160240 -0.413541
-10.437558 7.204166 -0.535514
-10.608883 7.243098 -0.657618
-10.781173 7.277306 -0.779770
-10.954658 7.304955 -0.901889
-11.129024 7.327097 -1.023881
-11.401730 7.353027 -1.213532
-11.577712 7.361996 -1.334870
-11.754067 7.366928 -1.455919
-11.930649 7.368830 -1.576709
-12.107666 7.363216 -1.696746
-12.284770 7.355432 -1.816544
169 NaN NaN
-1.347985 0.651215 6.396522
-1.423293 0.717523 6.397784
-1.499114 0.783173 6.394195
-1.575124 0.848432 6.388167
-1.651126 0.913712 6.382264
-1.726915 0.979417 6.379042
-1.802149 1.045794 6.380888
-1.876796 1.112608 6.386911
-1.952190 1.178760 6.387162
-2.028174 1.241079 6.368357
-2.100283 1.294036 6.323440
-2.166734 1.338425 6.262846
-2.229577 1.378031 6.195374
-2.290839 1.415635 6.125337
-2.351261 1.452299 6.054079
-2.411596 1.489030 5.982782
-2.473122 1.525410 5.912334
-2.537742 1.558973 5.843286
-2.607134 1.586991 5.776460
-2.680782 1.609311 5.712055
-2.756156 1.629225 5.648849
-2.830984 1.650174 5.585336
-2.904725 1.672762 5.521111
-2.978703 1.694592 5.456900
-3.054234 1.713203 5.393501
-3.131408 1.728314 5.331148
-3.209374 1.741715 5.269386
-3.287365 1.755213 5.207678
-3.365020 1.769486 5.145721
-3.442295 1.784289 5.083414
-3.519163 1.799360 5.020669
-3.595675 1.814581 4.957526
-3.671936 1.829942 4.894114
-3.748053 1.845431 4.830560
-3.824107 1.861003 4.766952
-3.900167 1.876593 4.703355
-3.976289 1.892143 4.639821
-4.052439 1.907649 4.576312
-4.128536 1.923139 4.512735
-4.204524 1.938638 4.449028
-4.280561 1.954119 4.385378
-4.356909 1.969539 4.322086
-4.433836 1.984841 4.259469
-4.511663 1.999923 4.197923
-4.590724 2.014658 4.137884
-4.671216 2.028961 4.079671
-4.752687 2.043033 4.022775
-4.834483 2.057180 3.966365
-4.916068 2.071936 3.909807
-4.997376 2.088966 3.853496
-5.078374 2.110301 3.798232
-5.158923 2.137088 3.744705
-5.239341 2.166667 3.692450
-5.320265 2.195478 3.640551
-5.401645 2.222258 3.588275
-5.480990 2.253553 3.535454
-5.553759 2.297954 3.482800
-5.615228 2.358930 3.432276
-5.669480 2.427777 3.383418
-5.723513 2.496325 3.333901
-5.781350 2.560373 3.282677
-5.839730 2.624558 3.232246
-5.893916 2.695096 3.185911
-5.940735 2.774271 3.145885
-5.982948 2.857921 3.109943
-6.024510 2.942292 3.074918
-6.067894 3.025151 3.038529
-6.112521 3.106519 3.000320
-6.157440 3.186730 2.960061
-6.202074 3.266146 2.917947
-6.246507 3.345157 2.874870
-6.290903 3.424175 2.831767
-6.335447 3.503333 2.789075
-6.380354 3.582342 2.746486
-6.425836 3.660878 2.703635
-6.471905 3.738853 2.660390
-6.518318 3.816499 2.616919
-6.564824 3.894067 2.573408
-6.611410 3.971582 2.529889
-6.658347 4.048801 2.486220
-6.705903 4.125473 2.442260
-6.754119 4.201549 2.397983
-6.802797 4.277200 2.353485
-6.851745 4.352600 2.308856
-6.900957 4.427752 2.264101
-6.950597 4.502501 2.219143
-7.000823 4.576690 2.173909
-7.051675 4.650270 2.128381
-7.103101 4.723279 2.082579
-7.155050 4.795757 2.036527
-7.207489 4.867732 1.990239
-7.260400 4.939216 1.943729
-7.313772 5.010216 1.897005
-7.367703 5.080619 1.850020
-7.422349 5.150239 1.802696
-7.477836 5.218916 1.754975
-7.534033 5.286779 1.706921
-7.590683 5.354115 1.658658
-7.647590 5.421153 1.610281
-7.704977 5.487618 1.561683
-7.763253 5.552996 1.512671
-7.822719 5.616871 1.463110
-7.883070 5.679594 1.413147
-7.943783 5.741838 1.363024
-8.004488 5.804098 1.312910
-8.065604 5.865802 1.262610
-8.127803 5.926000 1.211820
-8.191518 5.983999 1.160355
-8.256213 6.040521 1.108465
-8.321108 6.096739 1.056494
-8.385716 6.153404 1.004651
-8.450684 6.209508 0.952650
-8.516922 6.263568 0.900096
-8.584909 6.314653 0.846805
-8.653873 6.363993 0.793118
-8.722838 6.413336 0.739436
-8.791288 6.463620 0.685967
-8.860051 6.513328 0.632364
-8.930175 6.560452 0.578205
-9.002096 6.603924 0.523348
-9.074958 6.645353 0.468144
-9.147802 6.686827 0.412950
-9.220192 6.729304 0.357922
-9.292849 6.771183 0.302789
-9.366616 6.810493 0.247249
-9.441760 6.846383 0.191237
-9.517631 6.880339 0.134995
-9.593561 6.914135 0.078734
-9.669313 6.948413 0.022526
-9.745366 6.981853 -0.033779
-9.822227 7.012942 -0.090328
-9.899996 7.041201 -0.147123
-9.978277 7.067750 -0.204043
-10.056693 7.093830 -0.260995
-10.135146 7.119775 -0.317957
-10.213879 7.144715 -0.374982
-10.293125 7.167715 -0.432107
-10.372904 7.188565 -0.489318
-10.453034 7.207900 -0.546572
-10.533351 7.226388 -0.603844
-10.613815 7.244189 -0.661128
-10.694491 7.260955 -0.718424
-10.775440 7.276327 -0.775726
-10.856665 7.290197 -0.833022
-10.938126 7.302683 -0.890300
-11.019791 7.313910 -0.947549
-11.101624 7.324028 -1.004765
-11.183590 7.333210 -1.061950
-11.265661 7.341600 -1.119104
-11.347854 7.349035 -1.176215
-11.430206 7.355137 -1.233255
-11.512735 7.359584 -1.290191
-11.595395 7.362652 -1.347029
-11.678119 7.364979 -1.403811
-11.760858 7.367102 -1.460578
-11.843640 7.368681 -1.517300
-11.926518 7.368917 -1.573901
-12.009513 7.367164 -1.630303
-12.092575 7.363903 -1.686541
-12.175656 7.360123 -1.742720
-12.258726 7.356610 -1.798931
-12.341806 7.352853 -1.855114
-12.424922 7.347842 -1.911142
-12.508071 7.340780 -1.966898
-12.591221 7.332036 -2.022415
-12.674363 7.322370 -2.077793
-12.757502 7.312537 -2.133147
-12.840649 7.303295 -2.188589
-12.923802 7.295400 -2.244229
