0.132746 0.132741 0.132676 0.132391 0.131939 0.131533 0.131127 0.130721 0.130355 0.130124 0.130075 0.130071 0.130067 0.130018 0.129802 0.129459 0.129134 0.128808 0.128483 0.128171 0.127974 0.127931 0.127928 0.127924 0.127881 0.127688 0.127382 0.127079 0.126775 0.126471 0.126167 0.125974 0.125932 0.125928 0.125925 0.125883 0.125690 0.125386 0.125085 0.124785 0.124484 0.124192 0.124007 0.123967 0.123964 0.123961 0.123921 0.123742 0.123459 0.123187 0.122916 0.122644 0.122387 0.122224 0.122189 0.122186 0.122184 0.122149 0.121994 0.121750 0.121520 0.121291 0.121061 0.120847 0.120712 0.120683 0.120681 0.120679 0.120650 0.120522 0.120320 0.120131 0.119942 0.119753 0.119577 0.119465 0.119441 0.119439 
0.132748 0.132753 0.132790 0.132885 0.133011 0.133125 0.133240 0.133354 0.133465 0.133548 0.133577 0.133581 0.133584 0.133613 0.133695 0.133804 0.133919 0.134034 0.134149 0.134272 0.134364 0.134400 0.134404 0.134408 0.134443 0.134547 0.134685 0.134836 0.134986 0.135137 0.135300 0.135422 0.135468 0.135473 0.135478 0.135523 0.135653 0.135827 0.136010 0.136193 0.136377 0.136569 0.136713 0.136766 0.136772 0.136778 0.136832 0.136981 0.137180 0.137386 0.137592 0.137797 0.138009 0.138167 0.138225 0.138232 0.138238 0.138297 0.138459 0.138676 0.138899 0.139122 0.139344 0.139572 0.139743 0.139805 0.139812 0.139819 0.139882 0.140056 0.140289 0.140528 0.140767 0.141006 0.141249 0.141431 0.141498 0.141506 0.141513 0.141580 0.141767 0.142018 0.142273 0.142528 0.142783 0.143044 0.143239 0.143311 0.143319 0.143327 0.143399 0.143600 0.143869 0.144143 0.144418 0.144693 0.144974 0.145184 0.145261 0.145270 0.145278 0.145356 0.145571 0.145859 0.146153 0.146448 0.146742 0.147045 0.147272 0.147355 0.147364 0.147374 0.147456 0.147687 0.147996 0.148312 0.148628 0.148945 0.149268 0.149509 0.149598 0.149608 0.149618 0.149706 0.149954 0.150284 0.150622 0.150960 0.151298 0.151643 0.151901 0.151996 0.152006 0.152017 0.152111 0.152375 0.152727 0.153086 0.153446 0.153805 0.154173 0.154447 0.154548 0.154559 0.154571 0.154672 0.154953 0.155328 0.155713 0.156097 0.156482 0.156876 0.157172 0.157280 0.157292 0.157304 0.157412 0.157715 0.158120 0.158536 0.158953 0.159370 0.159800 0.160121 0.160239 0.160253 0.160266 0.160384 0.160717 0.161162 0.161619 0.162076 0.162533 0.163004 0.163357 0.163487 0.163501 0.163516 0.163646 0.164012 0.164500 0.165006 0.165512 0.166018 0.166540 0.166931 0.167074 0.167090 0.167107 0.167251 0.167651 0.168186 0.168741 0.169295 0.169850 0.170419 0.170845 0.171003 0.171021 0.171039 0.171197 0.171636 0.172221 0.172828 0.173435 0.174042 0.174661 0.175125 0.175294 0.175313 0.175333 0.175503 0.175980 0.176618 0.177269 0.177920 0.178571 0.179240 0.179742 0.179925 0.179946 0.179967 0.180151 0.180665 0.181352 0.182056 0.182759 0.183463 0.184184 0.184724 0.184922 0.184944 0.184967 0.185165 0.185717 0.186455 0.187212 0.187970 0.188727 0.189500 0.190078 0.190290 0.190314 
0.132747 0.132747 0.132740 0.132653 0.132514 0.132208 0.131902 0.131596 0.131309 0.131128 0.131089 0.131086 0.131083 0.131045 0.130884 0.130627 0.130421 0.130214 0.130007 0.129840 0.129735 0.129714 0.129712 0.129711 0.129689 0.129593 0.129440 0.129272 0.129104 0.128936 0.128728 0.128596 0.128563 0.128560 0.128558 0.128523 0.128327 0.128016 0.127516 0.127016 0.126516 0.125809 0.125363 0.125255 0.125246 0.125238 0.125126 0.124565 0.123677 0.122643 0.121608 0.120574 0.119678 0.119112 0.119002 0.118994 0.118986 0.118879 0.118461 0.117798 0.117356 0.116914 0.116472 0.116193 0.116018 0.115985 0.115983 0.115980 0.115949 0.115826 0.115630 0.115494 0.115358 0.115222 0.115122 0.115059 0.115047 0.115046 0.115045 0.115033 0.114982 0.114901 0.114835 0.114769 0.114703 0.114648 0.114613 0.114606 0.114606 0.114605 0.114598 0.114568 0.114520 0.114479 0.114438 0.114398 0.114363 0.114341 0.114337 0.114336 0.114336 0.114332 0.114313 0.114283 0.114257 0.114232 0.114207 0.114186 0.114172 0.114170 0.114169 0.114169 0.114166 0.114155 0.114137 0.114122 0.114107 0.114093 0.114080 0.114073 0.114071 0.114071 0.114071 0.114070 0.114063 0.114053 0.114045 0.114037 0.114029 0.114022 0.114018 0.114017 0.114017 0.114017 0.114016 0.114012 0.114007 0.114001 0.113996 0.113990 0.113985 0.113982 0.113981 0.113981 
0.120680 0.120679 0.120671 0.120651 0.120625 0.120596 0.120568 0.120540 0.120510 0.120488 0.120479 0.120478 0.120476 0.120467 0.120444 0.120414 0.120382 0.120350 0.120318 0.120284 0.120259 0.120249 0.120248 0.120246 0.120236 0.120209 0.120174 0.120138 0.120102 0.120066 0.120028 0.120000 0.119989 0.119987 0.119985 0.119974 0.119949 0.119915 0.119888 0.119860 0.119833 0.119807 0.119788 0.119780 0.119779 0.119777 0.119770 0.119752 0.119728 0.119706 0.119683 0.119661 0.119639 0.119624 0.119618 0.119617 0.119615 0.119610 0.119595 0.119575 0.119557 0.119539 0.119521 0.119505 0.119493 0.119488 0.119487 0.119486 0.119481 0.119470 0.119456 0.119442 0.119429 0.119415 0.119403 0.119394 0.119390 0.119390 
0.123964 0.123963 0.123962 0.123957 0.123950 0.123943 0.123936 0.123929 0.123921 0.123915 0.123912 0.123911 0.123910 0.123907 0.123900 0.123891 0.123881 0.123870 0.123860 0.123848 0.123840 0.123836 0.123835 0.123834 0.123830 0.123820 0.123808 0.123794 0.123780 0.123767 0.123752 0.123741 0.123736 0.123734 0.123733 0.123727 0.123715 0.123699 0.123682 0.123665 0.123648 0.123629 0.123615 0.123608 0.123607 0.123605 0.123598 0.123584 0.123564 0.123543 0.123522 0.123500 0.123478 0.123461 0.123454 0.123452 0.123449 0.123442 0.123424 0.123400 0.123375 0.123351 0.123326 0.123300 0.123281 0.123272 0.123269 0.123267 0.123258 0.123238 0.123211 0.123184 0.123157 0.123130 0.123112 0.123099 0.123093 0.123091 0.123090 0.123084 0.123071 0.123053 0.123036 0.123019 0.123001 0.122984 0.122971 0.122965 0.122964 0.122962 0.122956 0.122943 0.122926 0.122909 0.122892 0.122874 0.122857 0.122844 0.122838 0.122837 0.122835 0.122829 0.122816 0.122799 0.122782 0.122765 0.122748 0.122730 0.122717 0.122711 0.122710 0.122708 0.122702 0.122690 0.122673 0.122656 0.122640 0.122623 0.122606 0.122594 0.122589 0.122587 0.122586 0.122580 0.122568 0.122552 0.122536 0.122520 0.122505 0.122489 0.122477 0.122472 0.122471 0.122469 0.122464 0.122453 0.122437 0.122423 0.122408 0.122393 0.122378 0.122367 0.122362 0.122361 0.122360 0.122355 0.122344 0.122330 0.122316 0.122302 0.122287 0.122274 0.122263 0.122259 0.122258 0.122256 0.122252 0.122241 0.122228 0.122214 0.122201 0.122187 0.122174 0.122164 0.122159 0.122158 
0.127928 0.127927 0.127926 0.127924 0.127920 0.127916 0.127911 0.127906 0.127900 0.127896 0.127893 0.127893 0.127892 0.127890 0.127884 0.127877 0.127868 0.127859 0.127850 0.127840 0.127832 0.127829 0.127827 0.127826 0.127823 0.127815 0.127804 0.127792 0.127780 0.127768 0.127757 0.127748 0.127744 0.127743 0.127742 0.127738 0.127729 0.127717 0.127705 0.127693 0.127681 0.127668 0.127659 0.127655 0.127653 0.127652 0.127648 0.127638 0.127625 0.127610 0.127595 0.127580 0.127564 0.127553 0.127547 0.127546 0.127544 0.127538 0.127525 0.127507 0.127487 0.127468 0.127449 0.127428 0.127411 0.127404 0.127402 0.127400 0.127392 0.127375 0.127352 0.127327 0.127303 0.127278 0.127251 0.127231 0.127222 0.127219 0.127217 0.127208 0.127186 0.127157 0.127127 0.127096 0.127066 0.127034 0.127010 0.126999 0.126996 0.126992 0.126981 0.126955 0.126920 0.126885 0.126849 0.126814 0.126789 0.126770 0.126762 0.126760 0.126757 0.126749 0.126731 0.126706 0.126683 0.126659 0.126635 0.126612 0.126594 0.126587 0.126584 0.126582 0.126574 0.126557 0.126535 0.126512 0.126490 0.126468 0.126446 0.126430 0.126423 0.126421 0.126419 0.126412 0.126395 0.126374 0.126354 0.126333 0.126313 0.126293 0.126277 0.126271 0.126269 0.126267 0.126260 0.126245 0.126226 0.126207 0.126188 0.126169 0.126150 0.126136 0.126130 0.126128 0.126127 0.126121 0.126107 0.126090 0.126072 0.126055 0.126037 0.126021 0.126009 0.126003 0.126002 0.126000 0.125995 0.125982 0.125966 0.125950 0.125934 0.125919 0.125903 0.125892 0.125886 0.125885 0.125883 0.125878 0.125867 0.125852 0.125838 0.125823 0.125808 0.125794 0.125783 0.125778 0.125777 0.125775 0.125771 0.125760 0.125746 0.125732 0.125717 0.125703 0.125689 0.125679 0.125674 0.125673 0.125672 0.125667 0.125656 0.125643 0.125629 0.125616 0.125602 0.125589 0.125579 0.125574 0.125573 
0.130071 0.130073 0.130087 0.130116 0.130156 0.130177 0.130197 0.130218 0.130223 0.130227 0.130228 0.130228 0.130228 0.130227 0.130224 0.130221 0.130209 0.130198 0.130187 0.130171 0.130159 0.130158 0.130158 0.130157 0.130156 0.130151 0.130144 0.130132 0.130120 0.130109 0.130096 0.130086 0.130084 0.130084 0.130084 0.130081 0.130070 0.130055 0.130028 0.130001 0.129974 0.129930 0.129897 0.129884 0.129882 0.129880 0.129865 0.129821 0.129762 0.129687 0.129612 0.129537 0.129447 0.129380 0.129353 0.129349 0.129346 0.129328 0.129282 0.129220 0.129160 0.129101 0.129042 0.128985 0.128942 0.128927 0.128924 0.128922 0.128907 0.128866 0.128811 0.128758 0.128705 0.128652 0.128601 0.128563 0.128549 0.128547 0.128545 0.128531 0.128494 0.128446 0.128398 0.128351 0.128303 0.128257 0.128222 0.128208 0.128207 0.128205 0.128192 0.128157 0.128110 0.128063 0.128016 0.127968 0.127920 0.127883 0.127869 0.127867 
0.133581 0.133579 0.133574 0.133563 0.133547 0.133528 0.133510 0.133492 0.133470 0.133453 0.133446 0.133444 0.133442 0.133434 0.133416 0.133391 0.133362 0.133333 0.133304 0.133274 0.133251 0.133241 0.133239 0.133236 0.133226 0.133202 0.133171 0.133140 0.133109 0.133078 0.133048 0.133026 0.133019 0.133017 0.133015 0.133008 0.132990 0.132967 0.132944 0.132920 0.132896 0.132872 0.132854 0.132846 0.132844 0.132842 0.132834 0.132815 0.132790 0.132763 0.132737 0.132711 0.132683 0.132662 0.132653 0.132651 0.132649 0.132640 0.132618 0.132589 0.132558 0.132528 0.132497 0.132465 0.132440 0.132430 0.132427 0.132424 0.132413 0.132388 0.132354 0.132317 0.132280 0.132243 0.132204 0.132175 0.132162 0.132159 0.132155 0.132143 0.132113 0.132074 0.132035 0.131996 0.131957 0.131912 0.131879 0.131864 0.131860 0.131856 0.131841 0.131806 0.131760 0.131708 0.131657 0.131605 0.131551 0.131511 0.131496 0.131491 0.131487 0.131472 0.131435 0.131386 0.131338 0.131290 0.131242 0.131195 0.131160 0.131145 0.131141 0.131137 0.131122 0.131087 0.131041 0.130997 0.130954 0.130910 0.130867 0.130835 0.130822 0.130819 0.130815 0.130803 0.130773 0.130733 0.130695 0.130657 0.130619 0.130583 0.130556 0.130545 0.130542 0.130538 0.130527 0.130501 0.130466 0.130433 0.130401 0.130368 0.130336 0.130312 0.130303 0.130300 0.130298 0.130288 0.130265 0.130235 0.130206 0.130178 0.130149 0.130121 0.130101 0.130092 0.130089 0.130087 0.130078 0.130059 0.130032 0.130007 0.129982 0.129956 0.129932 0.129913 0.129906 0.129904 0.129902 0.129894 0.129876 0.129852 0.129829 0.129806 0.129783 0.129760 0.129743 0.129736 0.129734 0.129732 0.129725 0.129708 0.129687 0.129665 0.129643 0.129621 0.129600 0.129583 0.129577 0.129575 
0.135472 0.135469 0.135455 0.135417 0.135366 0.135311 0.135257 0.135203 0.135145 0.135101 0.135084 0.135081 0.135078 0.135062 0.135019 0.134962 0.134909 0.134855 0.134801 0.134751 0.134714 0.134700 0.134698 0.134695 0.134681 0.134642 0.134590 0.134531 0.134472 0.134413 0.134346 0.134295 0.134274 0.134270 0.134266 0.134245 0.134188 0.134112 0.134027 0.133942 0.133857 0.133764 0.133693 0.133665 0.133660 0.133655 0.133627 0.133553 0.133454 0.133376 0.133299 0.133221 0.133147 0.133092 0.133072 0.133068 0.133064 0.133044 0.132992 0.132924 0.132861 0.132798 0.132735 0.132678 0.132635 0.132618 0.132615 0.132612 0.132596 0.132556 0.132503 0.132454 0.132406 0.132357 0.132312 0.132278 0.132265 0.132262 0.132260 0.132248 0.132218 0.132177 0.132140 0.132102 0.132065 0.132030 0.132004 0.131994 0.131992 0.131991 0.131981 0.131956 0.131924 0.131893 0.131862 0.131832 0.131803 0.131781 0.131772 0.131770 0.131769 0.131760 0.131739 0.131712 0.131684 0.131657 0.131629 0.131603 0.131582 0.131575 0.131573 
0.139811 0.139807 0.139788 0.139739 0.139673 0.139603 0.139534 0.139464 0.139392 0.139339 0.139316 0.139311 0.139306 0.139284 0.139228 0.139154 0.139077 0.139000 0.138923 0.138842 0.138782 0.138756 0.138751 0.138746 0.138721 0.138658 0.138575 0.138487 0.138400 0.138313 0.138221 0.138151 0.138123 0.138117 0.138110 0.138082 0.138009 0.137913 0.137811 0.137709 0.137607 0.137500 0.137420 0.137388 0.137381 0.137374 0.137341 0.137259 0.137150 0.137040 0.136931 0.136821 0.136744 0.136685 0.136663 0.136658 0.136654 0.136631 0.136578 0.136507 0.136441 0.136375 0.136308 0.136248 0.136203 0.136185 0.136181 0.136177 0.136159 0.136118 0.136063 0.136010 0.135958 0.135906 0.135857 0.135821 0.135806 0.135803 0.135800 0.135785 0.135751 0.135706 0.135663 0.135621 0.135578 0.135538 0.135507 0.135495 0.135492 0.135490 0.135478 0.135450 0.135413 0.135378 0.135342 0.135306 0.135271 0.135245 0.135235 0.135233 0.135231 0.135221 0.135197 0.135165 0.135133 0.135102 0.135071 0.135040 0.135016 0.135007 0.135006 
0.149606 0.149600 0.149574 0.149507 0.149417 0.149321 0.149225 0.149129 0.149025 0.148947 0.148915 0.148908 0.148900 0.148868 0.148785 0.148676 0.148561 0.148446 0.148331 0.148212 0.148121 0.148084 0.148075 0.148067 0.148029 0.147934 0.147807 0.147678 0.147548 0.147419 0.147288 0.147189 0.147149 0.147139 0.147130 0.147090 0.146989 0.146854 0.146716 0.146578 0.146440 0.146299 0.146193 0.146150 0.146140 0.146131 0.146088 0.145980 0.145837 0.145692 0.145547 0.145402 0.145254 0.145143 0.145098 0.145087 0.145077 0.145031 0.144919 0.144770 0.144619 0.144469 0.144318 0.144166 0.144051 0.144004 0.143993 0.143983 0.143936 0.143820 0.143668 0.143557 0.143446 0.143335 0.143242 0.143171 0.143143 0.143136 0.143130 0.143102 0.143036 0.142949 0.142869 0.142789 0.142708 0.142635 0.142580 0.142557 0.142552 0.142547 0.142525 0.142472 0.142403 0.142337 0.142271 0.142205 0.142145 0.142100 0.142082 0.142078 0.142073 0.142055 0.142010 0.141952 0.141896 0.141841 0.141786 0.141734 0.141696 0.141680 0.141676 0.141673 0.141657 0.141619 0.141568 0.141521 0.141473 0.141426 0.141380 0.141346 0.141332 0.141329 0.141326 0.141312 0.141278 0.141233 0.141190 0.141147 0.141104 0.141063 0.141031 0.141019 0.141016 0.141013 0.141000 0.140968 0.140926 0.140886 0.140845 0.140804 0.140763 0.140733 0.140720 0.140718 
0.175307 0.175283 0.175144 0.174772 0.174278 0.173760 0.173241 0.172723 0.172194 0.171796 0.171643 0.171616 0.171590 0.171437 0.171034 0.170499 0.169961 0.169423 0.168885 0.168360 0.167965 0.167814 0.167788 0.167761 0.167611 0.167225 0.166710 0.166204 0.165697 0.165190 0.164700 0.164332 0.164192 0.164168 0.164143 0.164004 0.163644 0.163166 0.162701 0.162235 0.161770 0.161313 0.160969 0.160840 0.160818 0.160795 0.160666 0.160336 0.159897 0.159523 0.159150 0.158777 0.158479 0.158255 0.158178 0.158164 0.158151 0.158075 0.157882 0.157625 0.157403 0.157182 0.156961 0.156770 0.156626 0.156572 0.156562 0.156553 0.156498 0.156371 0.156201 0.156047 0.155893 0.155739 0.155599 0.155494 0.155456 0.155450 0.155443 0.155406 0.155311 0.155184 0.155070 0.154956 0.154842 0.154737 0.154657 0.154627 0.154622 0.154617 0.154590 0.154517 0.154421 0.154329 0.154238 0.154146 0.154061 0.153997 0.153972 0.153968 
