0.008612
12
0.007703
12
0.003851
32
0.008612
18
0.002322
10
A9
0.001392
18
A7
0.002783
12
A4
0.001906
18
A2
0.002289
17
A1
0.003868
11
D1
0.002747
13
D2
0.002953
12
D5
0.001801
20
D9
0.002090
17
D13
0.004006
10
D19
0.003023
9
D28
