-1.532943 0.661189 16.436853
-1.536435 0.664785 16.423887
-1.539927 0.668382 16.410921
-1.688356 0.821250 15.859813
-1.835174 0.972454 15.314726
-1.982071 1.123709 14.769674
-2.129341 1.275176 14.224792
-1.542050 0.670568 16.403039
-1.687854 0.820732 15.861678
-1.688858 0.821767 15.857947
-1.834671 0.971937 15.316591
-1.835676 0.972972 15.312860
-1.981567 1.123191 14.771538
-1.982575 1.124228 14.767809
-2.128813 1.274644 14.226646
-1.549959 0.678714 16.373670
-1.679944 0.812586 15.891047
-1.696768 0.829913 15.828579
-1.826761 0.963790 15.345959
-1.843584 0.981117 15.283491
-1.973629 1.115027 14.800894
-1.990501 1.132385 14.738448
-2.120511 1.266260 14.255839
-1.567069 0.696335 16.310144
-1.586222 0.716061 16.239029
-1.605375 0.735787 16.167915
-1.624529 0.755513 16.096801
-1.643682 0.775239 16.025687
-1.662835 0.794965 15.954573
-1.713876 0.847534 15.765052
-1.733028 0.867259 15.693937
-1.752180 0.886984 15.622823
-1.771335 0.906711 15.551709
-1.790491 0.926438 15.480596
-1.809648 0.946167 15.409484
-1.860689 0.998736 15.219963
-1.879827 1.018452 15.148842
-1.898964 1.038167 15.077720
-1.918109 1.057888 15.006602
-1.937269 1.077619 14.935492
-1.956464 1.097371 14.864396
-2.007633 1.150019 14.674931
-2.026707 1.169696 14.603783
-2.045681 1.189308 14.532589
-2.064596 1.208884 14.461370
-2.083577 1.228501 14.390179
-2.102880 1.248322 14.319132
-3.375186 1.787760 14.083581
-4.849949 2.047501 14.059909
-5.637682 3.228232 13.968332
-6.226501 4.604491 13.898531
-7.026069 5.867619 13.819027
-8.109708 6.892746 13.729083
-9.434216 7.577415 13.633642
-10.886009 7.927180 13.539033
-12.378081 8.023304 13.448278
-2.129868 1.275708 14.222938
-3.373225 1.787367 14.083568
-3.377147 1.788154 14.083595
-4.848085 2.046779 14.059970
-4.851813 2.048224 14.059848
-5.636992 3.226357 13.968415
-5.638371 3.230108 13.968250
-6.225592 4.602712 13.898630
-6.227411 4.606270 13.898431
-7.024853 5.866036 13.819139
-7.027286 5.869203 13.818915
-8.108091 6.891577 13.729208
-8.111326 6.893916 13.728958
-9.432343 7.576724 13.633770
-9.436088 7.578106 13.633515
-10.884031 7.926906 13.539157
-10.887986 7.927453 13.538909
-12.376084 8.023325 13.448396
-2.138269 1.284144 14.193793
-3.342354 1.781174 14.083359
-3.408018 1.794346 14.083804
-4.818740 2.035406 14.060935
-4.881159 2.059597 14.058884
-5.626141 3.196827 13.969710
-5.649223 3.259637 13.966955
-6.211274 4.574713 13.900194
-6.241728 4.634269 13.896867
-7.005703 5.841104 13.820905
-7.046436 5.894135 13.817149
-8.082659 6.873117 13.731175
-8.136794 6.912326 13.726990
-9.402900 7.565749 13.635785
-9.465567 7.588985 13.631500
-10.852898 7.922624 13.541106
-10.919116 7.931758 13.536959
-12.344653 8.023492 13.450254
-2.192261 1.330712 14.069140
-2.361959 1.437626 13.997385
-2.556181 1.545533 14.050511
-2.756490 1.651869 14.076660
-2.974858 1.717204 14.080866
-3.200566 1.754138 14.082243
-3.549945 1.820664 14.083775
-3.775835 1.856526 14.081938
-4.001822 1.891818 14.080204
-4.227462 1.929130 14.076824
-4.453293 1.964903 14.070819
-4.679391 1.998848 14.064897
-5.008605 2.126923 14.053868
-5.199606 2.252229 14.044406
-5.357311 2.414908 14.030468
-5.433257 2.628837 14.010887
-5.497032 2.847519 13.991642
-5.576199 3.061562 13.976526
-5.700009 3.394625 13.960916
-5.783473 3.607326 13.950440
-5.868271 3.819495 13.939853
-5.957424 4.029856 13.929213
-6.052421 4.237638 13.918248
-6.148525 4.444908 13.907234
-6.309514 4.761504 13.889601
-6.420902 4.960937 13.877913
-6.535665 5.158435 13.866079
-6.655946 5.352597 13.854012
-6.785169 5.540890 13.841577
-6.920053 5.725183 13.828915
-7.137602 6.005719 13.808928
-7.292905 6.173073 13.795513
-7.451443 6.337394 13.781986
-7.614551 6.497118 13.768309
-7.787909 6.645629 13.754320
-7.967360 6.786732 13.740163
-8.254748 6.995035 13.717942
-8.448352 7.115867 13.703468
-8.648157 7.226230 13.688893
-8.849086 7.334545 13.674305
-9.055619 7.431563 13.659669
-9.268189 7.514707 13.645025
-9.601301 7.637230 13.622269
-9.819477 7.704274 13.607694
-10.040154 7.762620 13.593185
-10.262159 7.815741 13.578728
-10.485186 7.864370 13.564320
-10.710223 7.902586 13.550051
-11.061854 7.951351 13.528022
-11.288642 7.977415 13.513947
-11.516305 7.994460 13.500042
-11.744213 8.008058 13.486206
-11.972288 8.018495 13.472438
-12.200554 8.023369 13.458794
171 NaN NaN
-1.531197 0.659391 16.443337
-1.556428 0.685376 16.349652
-1.581659 0.711363 16.255968
-1.606892 0.737349 16.162284
-1.632124 0.763336 16.068601
-1.657356 0.789322 15.974917
-1.682587 0.815309 15.881232
-1.707818 0.841294 15.787548
-1.733048 0.867279 15.693863
-1.758279 0.893265 15.600179
-1.783513 0.919253 15.506496
-1.808751 0.945243 15.412814
-1.833987 0.971232 15.319132
-1.859214 0.997215 15.225446
-1.884425 1.023189 15.131753
-1.909635 1.049162 15.038059
-1.934870 1.075150 14.944377
-1.960157 1.101171 14.850717
-1.985478 1.127214 14.757073
-2.010742 1.153220 14.663403
-2.035844 1.179125 14.569662
-2.060741 1.204900 14.475830
-2.085746 1.230743 14.382045
-2.111230 1.256889 14.288475
-2.137713 1.283630 14.195353
-2.169927 1.313381 14.105061
-2.218756 1.351272 14.026524
-2.296193 1.400403 13.990300
-2.382946 1.449504 13.999646
-2.468195 1.496339 14.024621
-2.553044 1.543744 14.049894
-2.639021 1.592767 14.066813
-2.727434 1.639541 14.075587
-2.819790 1.678726 14.078999
-2.916350 1.706129 14.080424
-3.015021 1.724806 14.081169
-3.114312 1.739954 14.081673
-3.213417 1.756252 14.082328
-3.312070 1.775099 14.083154
-3.410548 1.794854 14.083821
-3.509202 1.813713 14.083982
-3.608211 1.830603 14.083480
-3.707439 1.846151 14.082590
-3.806740 1.861214 14.081643
-3.906001 1.876556 14.080900
-4.005190 1.892355 14.080180
-4.104310 1.908562 14.079130
-4.203364 1.925112 14.077408
-4.302410 1.941627 14.075006
-4.401565 1.957416 14.072255
-4.500932 1.971799 14.069497
-4.600412 1.985427 14.066926
-4.699390 2.002247 14.064383
-4.796685 2.026859 14.061659
-4.890233 2.063113 14.058586
-4.979375 2.109201 14.055151
-5.065195 2.161234 14.051384
-5.149272 2.216029 14.047285
-5.230707 2.274597 14.042627
-5.304720 2.342102 14.036928
-5.363229 2.423100 14.029741
-5.401968 2.515239 14.021320
-5.428933 2.611564 14.012459
-5.453230 2.708620 14.003627
-5.481947 2.804484 13.995175
-5.515071 2.898983 13.987418
-5.550363 2.992775 13.980630
-5.585624 3.086656 13.975029
-5.620260 3.180824 13.970412
-5.654877 3.275022 13.966280
-5.690108 3.368991 13.962134
-5.726262 3.462594 13.957686
-5.763048 3.555942 13.953036
-5.800108 3.649178 13.948326
-5.837207 3.742402 13.943674
-5.874706 3.835467 13.939061
-5.913157 3.928141 13.934428
-5.953065 4.020193 13.929719
-5.994315 4.111648 13.924931
-6.036299 4.202767 13.920100
-6.078401 4.293831 13.915264
-6.120422 4.384933 13.910435
-6.162990 4.475779 13.905586
-6.206827 4.566015 13.900680
-6.252498 4.655332 13.895691
-6.299771 4.743808 13.890630
-6.348154 4.831681 13.885520
-6.397182 4.919193 13.880383
-6.446739 5.006406 13.875222
-6.497000 5.093213 13.870031
-6.548151 5.179496 13.864803
-6.600415 5.265106 13.859527
-6.654107 5.349824 13.854192
-6.709544 5.433404 13.848784
-6.766917 5.515663 13.843298
-6.825703 5.596915 13.837755
-6.885143 5.677689 13.832187
-6.944539 5.758496 13.826621
-7.004180 5.839121 13.821045
-7.065266 5.918650 13.815413
-7.128984 5.996073 13.809682
-7.195788 6.070844 13.803839
-7.264609 6.143762 13.797926
-7.334248 6.215899 13.791986
-7.403754 6.288165 13.786050
-7.473517 6.360180 13.780105
-7.544452 6.431037 13.774121
-7.617403 6.499806 13.768073
-7.692518 6.566201 13.761959
-7.769320 6.630634 13.755796
-7.847347 6.693577 13.749600
-7.926263 6.755400 13.743380
-8.005985 6.816178 13.737139
-8.086466 6.875945 13.730879
-8.167707 6.934673 13.724602
-8.250001 6.991911 13.718301
-8.333743 7.047003 13.711968
-8.419262 7.099285 13.705603
-8.506344 7.148925 13.699212
-8.594282 7.197033 13.692809
-8.682410 7.244793 13.686404
-8.770425 7.292761 13.680000
-8.858947 7.339784 13.673591
-8.948704 7.384393 13.667169
-9.040205 7.425301 13.660737
-9.133068 7.463025 13.654304
-9.226642 7.498957 13.647875
-9.320369 7.534487 13.641446
-9.414106 7.569994 13.635017
-9.508143 7.604697 13.628590
-9.602773 7.637744 13.622169
-9.698162 7.668535 13.615760
-9.794203 7.697232 13.609364
-9.890762 7.724137 13.602982
-9.987725 7.749556 13.596613
-10.084991 7.773792 13.590255
-10.182473 7.797150 13.583905
-10.280093 7.819925 13.577562
-10.377879 7.841978 13.571228
-10.475969 7.862635 13.564909
-10.574480 7.881184 13.558618
-10.673428 7.897261 13.552361
-10.772642 7.911620 13.546131
-10.871962 7.925238 13.539913
-10.971267 7.938969 13.533693
-11.070593 7.952546 13.527475
-11.170053 7.965104 13.521275
-11.269732 7.975788 13.515108
-11.369617 7.984380 13.508979
-11.469620 7.991504 13.502880
-11.569677 7.997838 13.496797
-11.669753 8.003879 13.490720
-11.769854 8.009497 13.484652
-11.869992 8.014432 13.478598
-11.970173 8.018433 13.472565
-12.070391 8.021372 13.466555
-12.170638 8.023183 13.460571
-12.270901 8.023808 13.454616
-12.371167 8.023379 13.448686
-12.471429 8.022294 13.442772
-12.571688 8.020974 13.436865
-12.671948 8.019649 13.430957
-12.772200 8.017858 13.425061
-12.872429 8.014979 13.419193
-12.972599 8.010455 13.413369
-13.072692 8.004419 13.407587
-13.172725 7.997430 13.401831
-13.272730 7.990046 13.396087
-13.372748 7.982830 13.390338
-13.472813 7.976340 13.384568
-13.572952 7.971139 13.378762
