0.273341 0.273324 0.273101 0.271825 0.269804 0.264367 0.258929 0.253492 0.246415 0.241948 0.240957 0.240882 0.240808 0.239832 0.235583 0.228851 0.223388 0.217926 0.212464 0.208095 0.205337 0.204773 0.204731 0.204689 0.204131 0.201791 0.198083 0.194891 0.191698 0.188506 0.185717 0.183957 0.183588 0.183560 0.183532 0.183166 0.181578 0.179063 0.176811 0.174560 0.172309 0.170270 0.168982 0.168710 0.168690 0.168670 0.168399 0.167207 0.165318 0.163569 0.161819 0.160069 0.158454 0.157435 0.157217 0.157201 0.157185 0.156969 0.156022 0.154521 0.153141 0.151761 0.150381 0.149120 0.148324 0.148155 0.148142 0.148129 0.147961 0.147224 0.146056 0.144987 0.143918 0.142849 0.141870 0.141252 0.141120 0.141110 
0.273319 0.273215 0.272228 0.269255 0.265260 0.261027 0.256793 0.252560 0.248552 0.245570 0.244577 0.244472 0.244374 0.243432 0.240914 0.237529 0.234661 0.231792 0.228923 0.226618 0.224902 0.224326 0.224265 0.224208 0.223668 0.222238 0.220316 0.218713 0.217110 0.215507 0.214146 0.213134 0.212794 0.212758 0.212724 0.212405 0.211544 0.210387 0.209364 0.208341 0.207317 0.206400 0.205717 0.205480 0.205455 0.205431 0.205204 0.204581 0.203744 0.202949 0.202154 0.201359 0.200602 0.200038 0.199838 0.199817 0.199796 0.199599 0.199051 0.198316 0.197593 0.196870 0.196148 0.195428 0.194892 0.194699 0.194679 0.194660 0.194475 0.193941 0.193224 0.192507 0.191791 0.191075 0.190378 0.189860 0.189676 0.189657 0.189637 0.189453 0.188934 0.188237 0.187553 0.186869 0.186185 0.185510 0.185008 0.184830 0.184811 0.184793 0.184616 0.184126 0.183468 0.182828 0.182188 0.181548 0.180925 0.180462 0.180298 0.180281 0.180264 0.180101 0.179648 0.179039 0.178443 0.177847 0.177251 0.176666 0.176231 0.176078 0.176062 0.176046 0.175893 0.175466 0.174892 0.174327 0.173761 0.173196 0.172639 0.172225 0.172078 0.172063 0.172047 0.171900 0.171491 0.170940 0.170396 0.169851 0.169307 0.168768 0.168366 0.168224 0.168209 0.168194 0.168052 0.167654 0.167119 0.166594 0.166068 0.165542 0.165026 0.164642 0.164506 0.164491 0.164477 0.164340 0.163963 0.163456 0.162958 0.162460 0.161961 0.161474 0.161112 0.160984 0.160971 0.160957 0.160830 0.160477 0.160002 0.159537 0.159073 0.158608 0.158155 0.157818 0.157700 0.157687 0.157675 0.157556 0.157228 0.156788 0.156358 0.155929 0.155500 0.155082 0.154770 0.154661 0.154649 0.154638 0.154529 0.154226 0.153819 0.153423 0.153027 0.152631 0.152246 0.151959 0.151858 0.151848 0.151837 0.151737 0.151457 0.151082 0.150718 0.150353 0.149989 0.149635 0.149371 0.149278 0.149268 0.149259 0.149166 0.148909 0.148564 0.148226 0.147889 0.147552 0.147224 0.146979 0.146893 0.146884 0.146875 0.146789 0.146551 0.146231 0.145917 0.145604 0.145291 0.144984 0.144756 0.144675 0.144667 
0.273415 0.273707 0.277881 0.297224 0.327871 0.369550 0.411229 0.452908 0.445748 0.441230 0.436971 0.436673 0.436466 0.433503 0.410326 0.373607 0.343829 0.314052 0.284274 0.266314 0.254978 0.252921 0.252776 0.252639 0.250674 0.243202 0.231365 0.223905 0.216445 0.208985 0.203834 0.200583 0.199858 0.199807 0.199759 0.199065 0.196173 0.191591 0.186509 0.181428 0.176346 0.170423 0.166685 0.165829 0.165769 0.165709 0.164854 0.160891 0.154612 0.149290 0.143968 0.138646 0.135022 0.132734 0.132318 0.132288 0.132259 0.131839 0.130286 0.127827 0.126334 0.124841 0.123348 0.122439 0.121865 0.121759 0.121752 0.121745 0.121642 0.121236 0.120594 0.120147 0.119701 0.119255 0.118928 0.118722 0.118681 0.118678 0.118675 0.118635 0.118469 0.118206 0.117994 0.117782 0.117570 0.117396 0.117286 0.117263 0.117262 0.117260 0.117238 0.117144 0.116995 0.116869 0.116743 0.116618 0.116512 0.116445 0.116431 0.116430 0.116429 0.116416 0.116357 0.116265 0.116187 0.116109 0.116031 0.115965 0.115923 0.115915 0.115914 0.115913 0.115905 0.115868 0.115810 0.115760 0.115710 0.115661 0.115617 0.115590 0.115584 0.115584 0.115583 0.115578 0.115553 0.115514 0.115478 0.115442 0.115406 0.115372 0.115350 0.115345 0.115345 
0.148139 0.148127 0.148082 0.147978 0.147841 0.147703 0.147566 0.147429 0.147290 0.147186 0.147141 0.147129 0.147117 0.147073 0.146968 0.146831 0.146692 0.146554 0.146415 0.146277 0.146172 0.146128 0.146116 0.146104 0.146059 0.145954 0.145816 0.145677 0.145538 0.145399 0.145260 0.145155 0.145111 0.145099 0.145088 0.145044 0.144943 0.144809 0.144695 0.144581 0.144467 0.144359 0.144277 0.144244 0.144235 0.144226 0.144194 0.144119 0.144020 0.143926 0.143833 0.143739 0.143655 0.143592 0.143565 0.143558 0.143551 0.143525 0.143463 0.143381 0.143309 0.143237 0.143165 0.143093 0.143038 0.143018 0.143012 0.143007 0.142987 0.142939 0.142876 0.142815 0.142753 0.142691 0.142636 0.142595 0.142577 0.142572 0.142567 0.142549 0.142508 0.142453 0.142405 0.142357 0.142309 0.142260 0.142223 0.142209 0.142206 0.142202 0.142188 0.142156 0.142114 0.142073 0.142032 0.141990 0.141954 0.141926 0.141915 0.141911 0.141908 0.141896 0.141869 0.141833 0.141802 0.141770 0.141739 0.141708 0.141684 0.141675 0.141673 
0.168684 0.168661 0.168511 0.168118 0.167594 0.167073 0.166552 0.166031 0.165510 0.165120 0.164973 0.164950 0.164927 0.164780 0.164396 0.163883 0.163382 0.162881 0.162381 0.161894 0.161528 0.161392 0.161371 0.161350 0.161215 0.160863 0.160394 0.159953 0.159512 0.159071 0.158662 0.158354 0.158260 0.158245 0.158231 0.158140 0.157907 0.157597 0.157335 0.157074 0.156813 0.156586 0.156415 0.156358 0.156349 0.156341 0.156285 0.156136 0.155938 0.155767 0.155596 0.155424 0.155265 0.155146 0.155107 0.155100 0.155094 0.155055 0.154949 0.154809 0.154686 0.154563 0.154441 0.154328 0.154244 0.154215 0.154211 
0.204712 0.204639 0.204346 0.203654 0.202737 0.201853 0.200970 0.200086 0.199237 0.198596 0.198335 0.198269 0.198204 0.197946 0.197335 0.196526 0.195754 0.194982 0.194209 0.193483 0.192934 0.192707 0.192650 0.192594 0.192371 0.191858 0.191180 0.190542 0.189904 0.189266 0.188668 0.188217 0.188031 0.187984 0.187938 0.187752 0.187312 0.186729 0.186157 0.185584 0.185012 0.184454 0.184033 0.183858 0.183814 0.183771 0.183596 0.183176 0.182619 0.182080 0.181540 0.181001 0.180474 0.180077 0.179914 0.179873 0.179832 0.179670 0.179286 0.178777 0.178288 0.177799 0.177311 0.176838 0.176482 0.176338 0.176302 0.176266 0.176123 0.175786 0.175339 0.174918 0.174496 0.174075 0.173677 0.173377 0.173254 0.173223 0.173193 0.173070 0.172796 0.172433 0.172096 0.171759 0.171422 0.171158 0.170959 0.170877 0.170857 0.170837 0.170756 0.170567 0.170317 0.170117 0.169918 0.169719 0.169536 0.169397 0.169351 0.169339 0.169327 0.169281 0.169169 0.169021 0.168894 0.168767 0.168641 0.168530 0.168446 0.168411 0.168402 0.168393 0.168358 0.168292 0.168205 0.168117 0.168029 0.167940 0.167870 0.167818 0.167795 0.167790 0.167784 0.167762 0.167709 0.167639 0.167583 0.167528 0.167473 0.167422 0.167384 0.167370 0.167367 0.167363 0.167350 0.167315 0.167268 0.167228 0.167187 0.167147 0.167110 0.167083 0.167071 0.167068 0.167065 0.167054 0.167033 0.167005 0.166976 0.166947 0.166917 0.166893 0.166874 0.166867 0.166865 0.166863 0.166855 0.166838 0.166816 0.166799 0.166781 0.166763 0.166748 0.166736 0.166732 0.166731 
0.240840 0.240671 0.239306 0.235704 0.230894 0.226619 0.222343 0.218067 0.214636 0.212066 0.211220 0.211116 0.211015 0.210194 0.208170 0.205468 0.203406 0.201344 0.199282 0.197766 0.196630 0.196230 0.196181 0.196132 0.195737 0.194678 0.193264 0.191815 0.190367 0.188918 0.187464 0.186374 0.185978 0.185929 0.185880 0.185486 0.184458 0.183086 0.181843 0.180600 0.179357 0.178280 0.177474 0.177210 0.177177 0.177145 0.176884 0.176243 0.175387 0.174782 0.174176 0.173570 0.173177 0.172883 0.172780 0.172767 0.172758 0.172684 0.172482 0.172213 0.172020 0.171828 0.171635 0.171489 0.171379 0.171339 0.171334 0.171329 0.171286 0.171199 0.171082 0.170987 0.170893 0.170798 0.170717 0.170656 0.170636 0.170633 
0.244424 0.244234 0.243420 0.241509 0.238975 0.236635 0.234294 0.231954 0.229798 0.228171 0.227530 0.227380 0.227232 0.226599 0.225107 0.223129 0.221335 0.219541 0.217746 0.216135 0.214920 0.214453 0.214344 0.214236 0.213777 0.212701 0.211274 0.209982 0.208691 0.207399 0.206231 0.205350 0.205008 0.204928 0.204850 0.204516 0.203739 0.202709 0.201777 0.200844 0.199912 0.199104 0.198495 0.198259 0.198204 0.198150 0.197920 0.197387 0.196681 0.196037 0.195393 0.194748 0.194110 0.193629 0.193435 0.193389 0.193345 0.193152 0.192663 0.192015 0.191369 0.190723 0.190076 0.189433 0.188948 0.188750 0.188704 0.188658 0.188462 0.187976 0.187332 0.186701 0.186071 0.185440 0.184837 0.184381 0.184198 0.184155 0.184113 0.183930 0.183502 0.182935 0.182392 0.181850 0.181308 0.180813 0.180439 0.180289 0.180253 0.180218 0.180069 0.179721 0.179261 0.178831 0.178401 0.177972 0.177606 0.177329 0.177221 0.177195 0.177170 0.177062 0.176807 0.176469 0.176194 0.175918 0.175642 0.175403 0.175222 0.175157 0.175142 0.175126 0.175061 0.174905 0.174697 0.174530 0.174363 0.174196 0.174038 0.173919 0.173881 0.173872 0.173863 0.173826 0.173732 0.173608 0.173494 0.173379 0.173265 0.173157 0.173076 0.173043 0.173035 0.173029 0.173003 0.172940 0.172856 0.172777 0.172698 0.172620 0.172551 0.172498 0.172476 0.172471 0.172466 0.172444 0.172399 0.172340 0.172281 0.172222 0.172163 0.172114 0.172077 0.172062 0.172058 0.172054 0.172039 0.172004 0.171957 0.171913 0.171869 0.171825 0.171788 0.171760 0.171749 0.171746 
0.224232 0.224101 0.223678 0.222754 0.221537 0.220396 0.219256 0.218115 0.217033 0.216212 0.215857 0.215746 0.215637 0.215287 0.214526 0.213523 0.212590 0.211656 0.210722 0.209838 0.209168 0.208877 0.208786 0.208697 0.208409 0.207781 0.206954 0.206173 0.205392 0.204610 0.203881 0.203328 0.203088 0.203013 0.202940 0.202705 0.202188 0.201507 0.200864 0.200221 0.199579 0.198970 0.198507 0.198306 0.198243 0.198181 0.197983 0.197552 0.196983 0.196447 0.195912 0.195376 0.194862 0.194472 0.194301 0.194248 0.194195 0.194026 0.193652 0.193160 0.192688 0.192216 0.191744 0.191289 0.190944 0.190793 0.190746 0.190699 0.190547 0.190208 0.189760 0.189316 0.188872 0.188429 0.187992 0.187660 0.187515 0.187470 0.187424 0.187279 0.186957 0.186532 0.186116 0.185700 0.185284 0.184883 0.184579 0.184445 0.184403 0.184361 0.184228 0.183931 0.183540 0.183163 0.182786 0.182408 0.182042 0.181765 0.181642 0.181604 0.181566 0.181445 0.181179 0.180828 0.180497 0.180166 0.179835 0.179512 0.179266 0.179158 0.179124 0.179093 0.178993 0.178771 0.178479 0.178195 0.177911 0.177628 0.177373 0.177180 0.177098 0.177072 0.177047 0.176965 0.176785 0.176548 0.176336 0.176123 0.175911 0.175727 0.175587 0.175526 0.175507 0.175488 0.175428 0.175294 0.175118 0.174983 0.174848 0.174713 0.174582 0.174482 0.174438 0.174424 0.174410 0.174366 0.174291 0.174192 0.174096 0.174000 0.173903 0.173818 0.173754 0.173730 0.173723 0.173716 0.173693 0.173640 0.173570 0.173504 0.173438 0.173372 0.173322 0.173284 0.173267 0.173262 0.173256 0.173239 0.173198 0.173145 0.173103 0.173062 0.173020 0.172979 0.172948 0.172933 0.172929 0.172924 0.172909 0.172883 0.172849 0.172819 0.172790 0.172760 0.172730 0.172706 0.172699 0.172697 0.172695 0.172688 0.172672 0.172650 0.172627 0.172604 0.172582 0.172567 0.172556 0.172551 0.172549 0.172547 0.172542 0.172529 0.172512 0.172499 0.172486 0.172473 0.172461 0.172452 0.172448 0.172447 0.172446 0.172441 0.172433 0.172423 0.172416 0.172410 0.172403 0.172395 0.172390 0.172387 0.172386 0.172386 0.172385 0.172383 0.172380 0.172376 0.172371 0.172366 0.172364 0.172361 0.172361 0.172360 
0.205435 0.205356 0.205189 0.204885 0.204492 0.204107 0.203722 0.203338 0.202961 0.202669 0.202512 0.202437 0.202363 0.202206 0.201923 0.201556 0.201197 0.200838 0.200479 0.200127 0.199856 0.199709 0.199640 0.199571 0.199425 0.199161 0.198819 0.198487 0.198155 0.197822 0.197499 0.197250 0.197115 0.197051 0.196987 0.196852 0.196610 0.196295 0.195988 0.195681 0.195374 0.195076 0.194845 0.194720 0.194661 0.194602 0.194478 0.194254 0.193965 0.193682 0.193399 0.193116 0.192840 0.192626 0.192511 0.192457 0.192403 0.192288 0.192081 0.191814 0.191553 0.191293 0.191033 0.190780 0.190584 0.190478 0.190429 0.190379 0.190274 0.190083 0.189836 0.189594 0.189352 0.189110 0.188872 0.188689 0.188590 0.188543 0.188497 0.188398 0.188220 0.187989 0.187765 0.187541 0.187317 0.187095 0.186923 0.186832 0.186789 0.186746 0.186655 0.186490 0.186276 0.186067 0.185858 0.185649 0.185443 0.185284 0.185197 0.185156 0.185115 0.185029 0.184873 0.184670 0.184471 0.184271 0.184072 0.183879 0.183730 0.183649 0.183611 0.183573 0.183492 0.183346 0.183157 0.182968 0.182779 0.182591 0.182405 0.182262 0.182184 0.182147 0.182111 0.182034 0.181897 0.181719 0.181543 0.181366 0.181190 0.181016 0.180881 0.180808 0.180773 0.180738 0.180665 0.180532 0.180360 0.180194 0.180028 0.179862 0.179700 0.179575 0.179506 0.179474 0.179442 0.179374 0.179251 0.179092 0.178934 0.178777 0.178619 0.178467 0.178350 0.178288 0.178258 0.178229 0.178167 0.178054 0.177909 0.177765 0.177620 0.177476 0.177334 0.177224 0.177164 0.177136 0.177107 0.177048 0.176943 0.176808 0.176680 0.176552 0.176423 0.176297 0.176199 0.176146 0.176121 0.176096 0.176043 0.175947 0.175822 0.175703 0.175585 0.175466 0.175357 0.175273 0.175228 0.175206 0.175185 0.175139 0.175057 0.174950 0.174845 0.174740 0.174635 0.174531 0.174451 0.174412 0.174393 0.174376 0.174338 0.174271 0.174184 0.174099 0.174014 0.173930 0.173847 0.173783 0.173749 0.173732 0.173716 0.173682 0.173620 0.173540 0.173475 0.173409 0.173343 0.173279 0.173229 0.173202 0.173189 0.173177 0.173150 0.173101 0.173038 0.172977 0.172915 0.172854 0.172806 0.172768 0.172748 0.172739 0.172730 0.172710 0.172673 0.172626 0.172579 0.172532 0.172486 0.172439 0.172403 0.172383 0.172374 0.172364 0.172345 0.172317 0.172282 0.172247 0.172212 0.172176 0.172141 0.172113 0.172098 0.172091 0.172084 0.172069 0.172041 0.172005 0.171976 0.171946 0.171916 0.171891 0.171871 0.171860 0.171855 0.171850 0.171839 0.171819 0.171793 0.171766 0.171740 0.171713 0.171688 0.171669 0.171661 0.171657 0.171653 0.171645 0.171630 0.171611 0.171591 0.171570 0.171550 0.171529 0.171513 0.171505 0.171500 0.171496 0.171487 0.171473 0.171454 0.171440 0.171426 0.171411 0.171396 0.171385 0.171378 0.171375 0.171372 0.171366 0.171354 0.171339 0.171325 0.171312 0.171298 0.171290 0.171283 0.171279 0.171278 0.171276 0.171271 0.171263 0.171253 0.171242 0.171232 0.171221 0.171210 0.171201 0.171197 0.171194 0.171193 0.171191 0.171186 0.171181 0.171174 0.171168 0.171162 0.171155 0.171150 0.171147 0.171146 0.171145 0.171142 0.171136 0.171129 0.171126 0.171122 0.171119 0.171116 0.171114 0.171113 0.171112 0.171112 0.171111 0.171108 0.171105 0.171102 0.171099 0.171096 0.171095 0.171095 0.171095 0.171095 0.171095 0.171096 0.171096 0.171096 0.171095 0.171095 0.171094 0.171093 0.171093 0.171092 0.171092 0.171092 0.171091 0.171092 0.171094 0.171096 0.171098 0.171100 0.171101 0.171103 0.171103 0.171104 0.171104 0.171104 0.171105 0.171107 0.171109 0.171111 0.171113 0.171117 0.171120 0.171121 0.171122 
0.194665 0.194611 0.194407 0.193929 0.193298 0.192683 0.192069 0.191455 0.190857 0.190405 0.190217 0.190167 0.190117 0.189930 0.189498 0.188927 0.188381 0.187835 0.187289 0.186766 0.186371 0.186207 0.186164 0.186120 0.185957 0.185581 0.185084 0.184611 0.184138 0.183665 0.183210 0.182866 0.182722 0.182684 0.182646 0.182504 0.182177 0.181744 0.181333 0.180922 0.180511 0.180118 0.179820 0.179697 0.179664 0.179631 0.179509 0.179223 0.178845 0.178483 0.178121 0.177759 0.177408 0.177143 0.177034 0.177005 0.176976 0.176869 0.176620 0.176291 0.175975 0.175658 0.175341 0.175036 0.174806 0.174709 0.174684 0.174658 0.174561 0.174340 0.174048 0.173773 0.173498 0.173223 0.172965 0.172770 0.172691 0.172670 0.172649 0.172571 0.172389 0.172148 0.171928 0.171707 0.171487 0.171280 0.171123 0.171058 0.171041 0.171024 0.170959 0.170830 0.170659 0.170502 0.170344 0.170186 0.170064 0.169971 0.169933 0.169923 0.169913 0.169875 0.169788 0.169674 0.169585 0.169497 0.169409 0.169322 0.169256 0.169235 0.169230 0.169224 0.169204 0.169156 0.169092 0.169035 0.168979 0.168922 0.168878 0.168845 0.168831 0.168827 0.168823 0.168809 0.168781 0.168743 0.168713 0.168682 0.168652 0.168629 0.168611 0.168605 0.168604 0.168602 0.168596 0.168582 0.168563 0.168551 0.168539 0.168527 0.168516 0.168507 0.168504 0.168503 0.168502 0.168498 0.168497 0.168496 0.168494 0.168492 0.168490 0.168495 0.168498 0.168500 0.168500 0.168500 0.168502 0.168504 0.168508 0.168518 0.168529 0.168540 0.168549 0.168556 0.168560 0.168562 0.168563 0.168568 0.168578 0.168591 0.168606 0.168620 0.168635 0.168651 0.168664 0.168669 0.168670 
0.176057 0.176035 0.175964 0.175805 0.175595 0.175383 0.175171 0.174959 0.174744 0.174582 0.174509 0.174487 0.174464 0.174392 0.174230 0.174017 0.173804 0.173592 0.173380 0.173168 0.173008 0.172937 0.172915 0.172893 0.172822 0.172663 0.172454 0.172245 0.172036 0.171828 0.171624 0.171469 0.171401 0.171380 0.171359 0.171292 0.171141 0.170941 0.170746 0.170550 0.170355 0.170163 0.170018 0.169953 0.169933 0.169914 0.169849 0.169707 0.169519 0.169336 0.169153 0.168971 0.168792 0.168656 0.168596 0.168578 0.168559 0.168500 0.168367 0.168193 0.168022 0.167851 0.167680 0.167513 0.167386 0.167329 0.167311 0.167294 0.167238 0.167112 0.166947 0.166784 0.166622 0.166459 0.166301 0.166182 0.166129 0.166113 0.166096 0.166044 0.165926 0.165770 0.165616 0.165462 0.165308 0.165155 0.165040 0.164988 0.164972 0.164957 0.164905 0.164791 0.164641 0.164497 0.164354 0.164210 0.164068 0.163960 0.163912 0.163897 0.163883 0.163837 0.163736 0.163602 0.163470 0.163337 0.163205 0.163081 0.162988 0.162947 0.162935 0.162922 0.162882 0.162792 0.162673 0.162573 0.162473 0.162373 0.162289 0.162225 0.162197 0.162188 0.162180 0.162152 0.162093 0.162016 0.161954 0.161892 0.161830 0.161772 0.161727 0.161708 0.161702 0.161697 0.161682 0.161650 0.161607 0.161567 0.161527 0.161487 0.161458 0.161436 0.161427 0.161425 0.161422 0.161413 0.161394 0.161368 0.161347 0.161327 0.161306 0.161291 0.161279 0.161274 0.161273 0.161271 0.161266 0.161255 0.161241 0.161234 0.161228 0.161221 0.161213 0.161207 0.161204 0.161203 0.161203 0.161202 0.161201 0.161200 0.161198 0.161195 0.161192 0.161195 0.161196 0.161197 0.161197 0.161198 0.161199 0.161200 0.161203 0.161207 0.161211 0.161215 0.161221 0.161226 0.161228 0.161228 0.161229 0.161231 0.161235 0.161241 0.161250 0.161259 0.161268 0.161275 0.161281 0.161284 0.161284 0.161285 0.161289 0.161297 0.161309 0.161319 0.161329 0.161339 0.161350 0.161359 0.161363 0.161364 0.161365 0.161369 0.161378 0.161389 0.161400 0.161411 0.161423 0.161435 0.161444 0.161448 0.161449 0.161450 0.161454 0.161462 0.161473 0.161485 0.161497 0.161509 0.161520 0.161528 0.161531 0.161532 
0.151846 0.151839 0.151799 0.151689 0.151542 0.151390 0.151238 0.151086 0.150932 0.150816 0.150772 0.150765 0.150758 0.150714 0.150597 0.150440 0.150293 0.150147 0.150000 0.149863 0.149760 0.149721 0.149715 0.149709 0.149669 0.149568 0.149434 0.149305 0.149176 0.149047 0.148919 0.148823 0.148786 0.148780 0.148774 0.148737 0.148642 0.148515 0.148401 0.148287 0.148174 0.148078 0.148006 0.147980 0.147976 0.147972 0.147948 0.147892 0.147817 0.147760 0.147703 0.147646 0.147607 0.147578 0.147567 0.147565 0.147564 0.147554 0.147534 0.147508 0.147492 0.147475 0.147459 0.147453 0.147448 0.147446 0.147446 0.147445 0.147443 0.147444 0.147445 0.147450 0.147455 0.147460 0.147472 0.147480 0.147483 0.147484 
