0.156774 0.156762 0.156626 0.156032 0.155092 0.154200 0.153308 0.152417 0.151552 0.151007 0.150887 0.150877 0.150867 0.150748 0.150223 0.149391 0.148620 0.147848 0.147076 0.146363 0.145913 0.145816 0.145808 0.145800 0.145703 0.145279 0.144608 0.143967 0.143325 0.142684 0.142058 0.141663 0.141576 0.141568 0.141561 0.141474 0.141083 0.140465 0.139854 0.139244 0.138633 0.138035 0.137657 0.137574 0.137567 0.137559 0.137476 0.137108 0.136525 0.135966 0.135407 0.134848 0.134313 0.133974 0.133900 0.133894 0.133888 0.133814 0.133488 0.132972 0.132476 0.131980 0.131485 0.131010 0.130710 0.130644 0.130639 0.130633 0.130568 0.130281 0.129826 0.129395 0.128963 0.128532 0.128125 0.127869 0.127813 0.127808 0.127803 0.127747 0.127504 0.127118 0.126757 0.126395 0.126034 0.125696 0.125482 0.125436 0.125432 0.125428 0.125382 0.125179 0.124858 0.124557 0.124257 0.123956 0.123673 0.123495 0.123456 0.123452 
0.156777 0.156780 0.156804 0.156858 0.156931 0.156982 0.157034 0.157085 0.157136 0.157175 0.157189 0.157191 0.157193 0.157211 0.157262 0.157331 0.157430 0.157529 0.157629 0.157770 0.157876 0.157922 0.157928 0.157934 0.157982 0.158124 0.158314 0.158549 0.158783 0.159018 0.159301 0.159514 0.159600 0.159611 0.159621 0.159707 0.159948 0.160270 0.160620 0.160971 0.161321 0.161693 0.161972 0.162077 0.162090 0.162103 0.162208 0.162497 0.162884 0.163281 0.163678 0.164075 0.164482 0.164787 0.164900 0.164914 0.164928 0.165041 0.165353 0.165769 0.166193 0.166617 0.167042 0.167475 0.167800 0.167920 0.167935 0.167950 0.168070 0.168402 0.168844 0.169295 0.169747 0.170198 0.170659 0.171004 0.171131 0.171147 0.171163 0.171291 0.171642 0.172112 0.172592 0.173072 0.173552 0.174040 0.174406 0.174541 0.174557 0.174574 0.174709 0.175080 0.175574 0.176077 0.176580 0.177083 0.177590 0.177971 0.178110 0.178128 0.178145 0.178284 0.178667 0.179178 0.179697 0.180216 0.180734 0.181255 0.181644 0.181788 0.181806 0.181824 0.181967 0.182359 0.182882 0.183410 0.183938 0.184466 0.185002 0.185404 0.185552 0.185570 0.185589 0.185737 0.186143 0.186684 0.187231 0.187777 0.188323 0.188879 0.189295 0.189449 0.189469 0.189488 0.189642 0.190065 0.190629 0.191206 0.191782 0.192359 0.192944 0.193382 0.193543 0.193563 0.193583 0.193745 0.194194 0.194794 0.195414 0.196034 0.196654 0.197292 0.197770 0.197947 0.197969 0.197991 0.198168 0.198663 0.199324 0.200010 0.200695 0.201381 0.202087 0.202616 0.202812 0.202837 0.202861 0.203057 0.203603 0.204332 0.205079 0.205826 0.206572 0.207333 0.207904 0.208116 0.208143 0.208169 0.208383 0.208963 0.209737 0.210520 0.211303 0.212086 0.212857 0.213434 0.213648 0.213674 0.213701 0.213915 0.214498 0.215277 0.216042 0.216807 0.217573 0.218314 0.218870 0.219070 0.219095 0.219120 0.219318 0.219848 0.220557 0.221220 0.221883 0.222546 0.223169 0.223636 0.223801 0.223821 0.223842 0.224004 0.224425 0.224986 0.225503 0.226021 0.226539 0.226993 0.227333 0.227452 0.227467 0.227482 0.227598 0.227884 0.228267 0.228589 0.228911 0.229233 0.229479 0.229663 0.229723 0.229731 0.229738 0.229795 0.229929 0.230107 0.230210 0.230312 0.230415 0.230452 0.230480 0.230481 0.230481 0.230481 0.230481 0.230455 0.230421 0.230298 0.230175 0.230052 0.229870 0.229734 0.229682 0.229676 0.229668 0.229609 0.229424 0.229178 0.228858 0.228538 0.228218 0.227834 0.227546 0.227436 0.227422 
0.156777 0.156780 0.156813 0.156849 0.156906 0.156261 0.155615 0.154970 0.154284 0.153852 0.153769 0.153763 0.153757 0.153676 0.153314 0.152739 0.152172 0.151606 0.151039 0.150497 0.150154 0.150085 0.150080 0.150074 0.150002 0.149699 0.149219 0.148769 0.148319 0.147869 0.147437 0.147163 0.147103 0.147098 0.147093 0.147031 0.146731 0.146255 0.145567 0.144879 0.144191 0.143070 0.142362 0.142173 0.142158 0.142143 0.141949 0.140921 0.139291 0.136932 0.134573 0.132214 0.129677 0.128075 0.127752 0.127727 0.127702 0.127385 0.126122 0.124122 0.122842 0.121563 0.120283 0.119564 0.119110 0.119029 0.119023 0.119016 0.118936 0.118645 0.118184 0.117885 0.117587 0.117289 0.117083 0.116952 0.116927 0.116925 0.116923 0.116898 0.116795 0.116632 0.116500 0.116368 0.116237 0.116125 0.116055 0.116041 0.116039 0.116038 0.116024 0.115961 0.115863 0.115775 0.115688 0.115601 0.115523 0.115475 0.115464 0.115464 0.115463 0.115452 0.115408 0.115339 0.115277 0.115215 0.115154 0.115100 0.115066 0.115059 0.115058 0.115058 0.115051 0.115021 0.114973 0.114932 0.114891 0.114849 0.114814 0.114792 0.114787 0.114787 0.114786 0.114782 0.114762 0.114731 0.114704 0.114678 0.114651 0.114628 0.114614 0.114611 0.114610 0.114610 0.114607 0.114595 0.114574 0.114557 0.114539 0.114522 0.114506 0.114496 0.114494 0.114494 0.114494 0.114492 0.114483 0.114469 0.114456 0.114443 0.114430 0.114418 0.114410 0.114409 0.114409 
0.127808 0.127806 0.127800 0.127782 0.127759 0.127733 0.127707 0.127681 0.127653 0.127631 0.127622 0.127620 0.127618 0.127609 0.127584 0.127551 0.127515 0.127478 0.127441 0.127401 0.127371 0.127358 0.127355 0.127353 0.127340 0.127307 0.127263 0.127215 0.127168 0.127121 0.127070 0.127032 0.127017 0.127013 0.127010 0.126995 0.126954 0.126901 0.126843 0.126786 0.126729 0.126671 0.126628 0.126616 0.126614 0.126611 0.126599 0.126570 0.126531 0.126493 0.126455 0.126417 0.126381 0.126354 0.126344 0.126341 0.126339 0.126328 0.126302 0.126267 0.126233 0.126198 0.126164 0.126130 0.126105 0.126095 0.126092 0.126090 0.126080 0.126056 0.126024 0.125992 0.125961 0.125929 0.125898 0.125875 0.125866 0.125864 0.125862 0.125853 0.125832 0.125803 0.125775 0.125747 0.125719 0.125692 0.125672 0.125664 0.125663 
0.137566 0.137564 0.137554 0.137527 0.137491 0.137451 0.137410 0.137370 0.137325 0.137292 0.137278 0.137275 0.137272 0.137257 0.137220 0.137170 0.137116 0.137061 0.137007 0.136949 0.136905 0.136886 0.136882 0.136878 0.136860 0.136812 0.136749 0.136682 0.136614 0.136547 0.136476 0.136422 0.136400 0.136395 0.136390 0.136368 0.136311 0.136236 0.136156 0.136077 0.135997 0.135914 0.135851 0.135826 0.135820 0.135815 0.135789 0.135723 0.135637 0.135546 0.135455 0.135365 0.135271 0.135200 0.135171 0.135165 0.135159 0.135130 0.135057 0.134960 0.134860 0.134760 0.134660 0.134558 0.134481 0.134450 0.134443 0.134437 0.134406 0.134327 0.134223 0.134117 0.134011 0.133905 0.133798 0.133717 0.133685 0.133678 0.133671 0.133639 0.133558 0.133450 0.133360 0.133270 0.133180 0.133112 0.133061 0.133040 0.133036 0.133032 0.133012 0.132962 0.132897 0.132833 0.132770 0.132706 0.132645 0.132599 0.132581 0.132577 0.132573 0.132555 0.132510 0.132452 0.132394 0.132337 0.132280 0.132225 0.132183 0.132167 0.132163 0.132160 0.132143 0.132104 0.132051 0.132000 0.131949 0.131898 0.131848 0.131811 0.131797 0.131793 0.131790 0.131776 0.131741 0.131695 0.131651 0.131606 0.131561 0.131518 0.131485 0.131473 0.131470 0.131467 0.131455 0.131425 0.131384 0.131345 0.131306 0.131267 0.131229 0.131200 0.131189 0.131187 
0.141569 0.141571 0.141581 0.141602 0.141630 0.141652 0.141675 0.141698 0.141715 0.141728 0.141733 0.141734 0.141736 0.141740 0.141749 0.141761 0.141768 0.141774 0.141781 0.141782 0.141783 0.141782 0.141782 0.141782 0.141782 0.141779 0.141775 0.141765 0.141756 0.141746 0.141732 0.141721 0.141715 0.141714 0.141712 0.141707 0.141692 0.141673 0.141648 0.141624 0.141600 0.141572 0.141550 0.141541 0.141539 0.141536 0.141527 0.141501 0.141467 0.141429 0.141391 0.141353 0.141310 0.141278 0.141264 0.141261 0.141257 0.141244 0.141207 0.141159 0.141106 0.141054 0.141001 0.140943 0.140898 0.140879 0.140874 0.140869 0.140850 0.140803 0.140740 0.140672 0.140603 0.140534 0.140462 0.140407 0.140382 0.140376 0.140370 0.140345 0.140286 0.140207 0.140124 0.140041 0.139958 0.139871 0.139805 0.139777 0.139770 0.139763 0.139736 0.139666 0.139575 0.139517 0.139460 0.139402 0.139349 0.139308 0.139291 0.139287 0.139283 0.139266 0.139227 0.139174 0.139124 0.139073 0.139022 0.138972 0.138934 0.138919 0.138915 0.138911 0.138895 0.138858 0.138809 0.138761 0.138712 0.138664 0.138616 0.138580 0.138565 0.138561 0.138557 0.138543 0.138507 0.138459 0.138412 0.138365 0.138318 0.138272 0.138237 0.138222 0.138218 0.138215 0.138200 0.138166 0.138120 0.138075 0.138030 0.137984 0.137940 0.137907 0.137893 0.137889 0.137886 0.137872 0.137838 0.137794 0.137751 0.137708 0.137665 0.137622 0.137589 0.137576 0.137573 0.137569 0.137556 0.137524 0.137481 0.137439 0.137396 0.137354 0.137312 0.137280 0.137267 0.137263 0.137260 0.137247 0.137215 0.137173 0.137131 0.137088 0.137046 0.137004 0.136972 0.136959 0.136956 
0.145809 0.145811 0.145820 0.145838 0.145863 0.145881 0.145898 0.145915 0.145925 0.145933 0.145935 0.145936 0.145936 0.145938 0.145940 0.145942 0.145940 0.145937 0.145934 0.145927 0.145922 0.145918 0.145918 0.145917 0.145913 0.145903 0.145890 0.145872 0.145853 0.145835 0.145813 0.145796 0.145789 0.145787 0.145785 0.145777 0.145757 0.145731 0.145702 0.145672 0.145643 0.145611 0.145587 0.145577 0.145574 0.145572 0.145561 0.145537 0.145504 0.145469 0.145433 0.145398 0.145362 0.145335 0.145323 0.145320 0.145317 0.145304 0.145273 0.145233 0.145192 0.145151 0.145111 0.145065 0.145030 0.145015 0.145011 0.145007 0.144992 0.144954 0.144905 0.144848 0.144791 0.144734 0.144672 0.144625 0.144604 0.144598 0.144593 0.144571 0.144519 0.144451 0.144376 0.144301 0.144227 0.144147 0.144086 0.144060 0.144053 0.144046 0.144021 0.143955 0.143868 0.143778 0.143688 0.143598 0.143501 0.143428 0.143396 0.143388 0.143380 0.143348 0.143273 0.143173 0.143069 0.142964 0.142860 0.142784 0.142727 0.142706 0.142700 0.142695 0.142674 0.142625 0.142560 0.142498 0.142436 0.142374 0.142316 0.142272 0.142253 0.142248 0.142243 0.142225 0.142182 0.142126 0.142073 0.142020 0.141967 0.141916 0.141877 0.141861 0.141857 0.141853 0.141837 0.141799 0.141750 0.141701 0.141653 0.141604 0.141557 0.141522 0.141507 0.141503 0.141499 0.141484 0.141450 0.141405 0.141361 0.141316 0.141272 0.141230 0.141198 0.141184 0.141181 0.141177 0.141164 0.141132 0.141089 0.141049 0.141009 0.140968 0.140928 0.140897 0.140885 0.140881 0.140878 0.140866 0.140836 0.140798 0.140759 0.140720 0.140681 0.140642 0.140613 0.140601 0.140598 0.140594 0.140582 0.140553 0.140514 0.140476 0.140438 0.140399 0.140360 0.140330 0.140318 0.140315 0.140312 0.140299 0.140269 0.140229 0.140189 0.140149 0.140109 0.140068 0.140037 0.140024 0.140021 
0.150877 0.150877 0.150876 0.150872 0.150867 0.150856 0.150845 0.150834 0.150817 0.150805 0.150798 0.150796 0.150795 0.150788 0.150772 0.150751 0.150722 0.150692 0.150663 0.150628 0.150602 0.150590 0.150586 0.150582 0.150570 0.150540 0.150502 0.150457 0.150413 0.150368 0.150320 0.150284 0.150267 0.150262 0.150257 0.150240 0.150200 0.150149 0.150096 0.150043 0.149990 0.149939 0.149900 0.149883 0.149877 0.149872 0.149855 0.149816 0.149764 0.149712 0.149660 0.149608 0.149555 0.149515 0.149497 0.149491 0.149486 0.149468 0.149428 0.149375 0.149328 0.149282 0.149235 0.149196 0.149167 0.149154 0.149150 0.149146 0.149132 0.149102 0.149061 0.149021 0.148980 0.148939 0.148897 0.148864 0.148850 0.148845 0.148841 0.148826 0.148793 0.148748 0.148702 0.148656 0.148609 0.148560 0.148523 0.148506 0.148501 0.148497 0.148485 0.148456 0.148419 0.148377 0.148334 0.148292 0.148248 0.148214 0.148199 0.148194 0.148190 0.148174 0.148134 0.148082 0.148025 0.147967 0.147910 0.147847 0.147799 0.147776 0.147770 0.147763 0.147740 0.147689 0.147621 0.147548 0.147476 0.147404 0.147325 0.147266 0.147239 0.147231 0.147223 0.147196 0.147135 0.147055 0.146966 0.146877 0.146788 0.146698 0.146629 0.146599 0.146590 0.146580 0.146550 0.146476 0.146378 0.146279 0.146181 0.146082 0.145979 0.145902 0.145866 0.145855 0.145844 0.145808 0.145728 0.145622 0.145515 0.145407 0.145300 0.145205 0.145133 0.145108 0.145100 0.145093 0.145068 0.145013 0.144941 0.144876 0.144811 0.144746 0.144682 0.144634 0.144613 0.144606 0.144600 0.144579 0.144536 0.144481 0.144426 0.144372 0.144317 0.144267 0.144229 0.144213 0.144208 0.144203 0.144187 0.144151 0.144104 0.144058 0.144012 0.143966 0.143924 0.143892 0.143877 0.143873 0.143868 0.143854 0.143822 0.143779 0.143740 0.143702 0.143663 0.143625 0.143595 0.143582 0.143578 0.143574 0.143561 0.143534 0.143499 0.143464 0.143429 0.143393 0.143359 0.143333 0.143322 0.143319 0.143316 0.143305 0.143280 0.143248 0.143216 0.143184 0.143152 0.143122 0.143099 0.143089 0.143086 0.143083 0.143073 0.143050 0.143019 0.142990 0.142961 0.142932 0.142903 0.142881 0.142871 0.142868 0.142865 0.142855 0.142834 0.142806 0.142778 0.142749 0.142721 0.142692 0.142671 0.142662 0.142659 0.142656 0.142646 0.142625 0.142597 0.142568 0.142539 0.142511 0.142483 0.142461 0.142451 0.142449 0.142446 0.142436 0.142414 0.142385 0.142356 0.142327 0.142298 0.142269 0.142246 0.142236 0.142233 
0.157190 0.157184 0.157155 0.157081 0.156983 0.156873 0.156764 0.156655 0.156535 0.156444 0.156407 0.156399 0.156391 0.156352 0.156252 0.156120 0.155981 0.155842 0.155704 0.155560 0.155452 0.155407 0.155398 0.155388 0.155344 0.155233 0.155086 0.154937 0.154787 0.154638 0.154488 0.154375 0.154329 0.154319 0.154309 0.154263 0.154148 0.153995 0.153842 0.153689 0.153536 0.153389 0.153278 0.153242 0.153234 0.153226 0.153189 0.153097 0.152974 0.152846 0.152719 0.152591 0.152457 0.152356 0.152314 0.152305 0.152296 0.152254 0.152160 0.152035 0.151900 0.151765 0.151629 0.151478 0.151364 0.151317 0.151306 0.151296 0.151248 0.151126 0.150965 0.150790 0.150616 0.150441 0.150255 0.150115 0.150058 0.150046 0.150034 0.149977 0.149833 0.149641 0.149442 0.149243 0.149044 0.148845 0.148696 0.148645 0.148634 0.148623 0.148572 0.148450 0.148287 0.148135 0.147984 0.147833 0.147699 0.147598 0.147558 0.147549 0.147541 0.147501 0.147408 0.147285 0.147172 0.147060 0.146947 0.146848 0.146774 0.146745 0.146738 0.146732 0.146702 0.146634 0.146543 0.146460 0.146377 0.146293 0.146219 0.146163 0.146140 0.146135 0.146130 0.146108 0.146056 0.145987 0.145922 0.145857 0.145792 0.145733 0.145689 0.145671 0.145667 0.145663 0.145645 0.145604 0.145550 0.145498 0.145446 0.145394 0.145344 0.145307 0.145292 0.145289 0.145286 0.145271 0.145236 0.145190 0.145145 0.145101 0.145056 0.145012 0.144979 0.144966 0.144963 
0.162088 0.162079 0.162037 0.161927 0.161779 0.161618 0.161457 0.161295 0.161120 0.160987 0.160933 0.160922 0.160911 0.160856 0.160715 0.160528 0.160327 0.160127 0.159927 0.159719 0.159562 0.159499 0.159486 0.159473 0.159410 0.159247 0.159031 0.158808 0.158585 0.158362 0.158135 0.157963 0.157896 0.157882 0.157868 0.157800 0.157626 0.157395 0.157161 0.156926 0.156691 0.156454 0.156276 0.156205 0.156190 0.156176 0.156105 0.155925 0.155686 0.155445 0.155204 0.154964 0.154723 0.154542 0.154470 0.154455 0.154441 0.154369 0.154189 0.153949 0.153712 0.153475 0.153238 0.153060 0.152926 0.152878 0.152869 0.152859 0.152812 0.152699 0.152550 0.152414 0.152278 0.152142 0.152017 0.151923 0.151886 0.151879 0.151871 0.151834 0.151750 0.151637 0.151532 0.151426 0.151321 0.151221 0.151146 0.151119 0.151114 0.151108 0.151080 0.151011 0.150918 0.150831 0.150744 0.150657 0.150576 0.150515 0.150492 0.150487 0.150482 0.150459 0.150401 0.150324 0.150253 0.150181 0.150109 0.150043 0.149993 0.149973 0.149969 0.149965 0.149945 0.149897 0.149834 0.149774 0.149713 0.149653 0.149595 0.149551 0.149534 0.149530 
0.171144 0.171129 0.171074 0.170936 0.170754 0.170562 0.170370 0.170177 0.169975 0.169822 0.169757 0.169740 0.169723 0.169658 0.169496 0.169283 0.169064 0.168844 0.168625 0.168399 0.168228 0.168155 0.168137 0.168118 0.168045 0.167870 0.167638 0.167403 0.167168 0.166933 0.166696 0.166517 0.166441 0.166421 0.166402 0.166326 0.166143 0.165901 0.165658 0.165416 0.165173 0.164930 0.164747 0.164671 0.164651 0.164632 0.164555 0.164371 0.164127 0.163884 0.163642 0.163399 0.163157 0.162974 0.162898 0.162879 0.162860 0.162784 0.162603 0.162364 0.162125 0.161885 0.161646 0.161408 0.161229 0.161154 0.161135 0.161116 0.161042 0.160864 0.160629 0.160398 0.160167 0.159935 0.159706 0.159533 0.159462 0.159444 0.159426 0.159355 0.159191 0.158975 0.158814 0.158654 0.158493 0.158346 0.158234 0.158189 0.158177 0.158166 0.158120 0.158018 0.157882 0.157754 0.157626 0.157498 0.157382 0.157295 0.157259 0.157250 0.157241 0.157206 0.157121 0.157008 0.156905 0.156801 0.156698 0.156598 0.156523 0.156493 0.156486 0.156478 0.156449 0.156378 0.156284 0.156195 0.156106 0.156017 0.155931 0.155866 0.155838 0.155832 0.155825 0.155798 0.155737 0.155658 0.155579 0.155500 0.155421 0.155347 0.155291 0.155267 0.155261 0.155255 0.155231 0.155176 0.155103 0.155033 0.154963 0.154893 0.154825 0.154774 0.154753 0.154748 0.154742 0.154721 0.154671 0.154605 0.154541 0.154478 0.154414 0.154350 0.154301 0.154282 0.154277 0.154272 0.154253 0.154207 0.154146 0.154086 0.154025 0.153964 0.153905 0.153860 0.153841 0.153836 
0.189459 0.189422 0.189324 0.189120 0.188854 0.188587 0.188321 0.188054 0.187786 0.187582 0.187483 0.187445 0.187408 0.187309 0.187103 0.186834 0.186567 0.186300 0.186033 0.185765 0.185560 0.185461 0.185423 0.185385 0.185286 0.185080 0.184811 0.184544 0.184276 0.184008 0.183742 0.183538 0.183440 0.183403 0.183365 0.183267 0.183065 0.182800 0.182535 0.182270 0.182005 0.181743 0.181542 0.181446 0.181409 0.181373 0.181277 0.181080 0.180822 0.180569 0.180316 0.180064 0.179815 0.179625 0.179533 0.179499 0.179464 0.179373 0.179185 0.178939 0.178696 0.178453 0.178210 0.177970 0.177786 0.177698 0.177665 0.177631 0.177543 0.177362 0.177125 0.176891 0.176657 0.176423 0.176191 0.176014 0.175929 0.175897 0.175864 0.175780 0.175606 0.175380 0.175159 0.174937 0.174716 0.174499 0.174333 0.174253 0.174223 0.174192 0.174112 0.173949 0.173736 0.173525 0.173315 0.173104 0.172896 0.172737 0.172660 0.172631 0.172602 0.172526 0.172372 0.172169 0.171971 0.171772 0.171574 0.171378 0.171228 0.171156 0.171129 0.171101 0.171030 0.170885 0.170696 0.170510 0.170324 0.170138 0.169953 0.169812 0.169744 0.169718 0.169693 0.169625 0.169488 0.169310 0.169136 0.168961 0.168787 0.168614 0.168482 0.168418 0.168394 0.168370 0.168307 0.168205 0.168073 0.167951 0.167830 0.167708 0.167590 0.167501 0.167458 0.167441 0.167425 0.167382 0.167299 0.167191 0.167090 0.166989 0.166888 0.166789 0.166714 0.166678 0.166664 0.166650 0.166614 0.166544 0.166452 0.166367 0.166283 0.166198 0.166114 0.166050 0.166019 0.166007 0.165995 0.165964 0.165901 0.165820 0.165748 0.165675 0.165603 0.165530 0.165475 0.165448 0.165438 0.165427 0.165401 0.165347 0.165278 0.165215 0.165152 0.165089 0.165025 0.164977 0.164954 0.164945 0.164936 0.164913 0.164866 0.164804 0.164749 0.164693 0.164637 0.164582 0.164539 0.164518 0.164510 0.164502 0.164481 0.164439 0.164384 0.164334 0.164284 0.164234 0.164184 0.164145 0.164126 0.164119 0.164112 0.164093 0.164055 0.164005 0.163960 0.163916 0.163871 0.163826 0.163791 0.163774 0.163768 0.163762 0.163745 0.163710 0.163664 0.163624 0.163583 0.163542 0.163501 0.163469 0.163454 0.163448 0.163442 0.163427 0.163394 0.163352 0.163315 0.163277 0.163239 0.163201 0.163171 0.163157 0.163152 0.163146 0.163132 0.163102 0.163063 0.163027 0.162992 0.162957 0.162921 0.162893 0.162880 0.162875 0.162870 0.162857 0.162829 0.162792 0.162758 0.162724 0.162691 0.162656 0.162630 0.162617 0.162613 0.162608 0.162595 0.162568 0.162532 0.162499 0.162466 0.162433 0.162399 0.162374 0.162361 0.162356 
0.227437 0.227319 0.226290 0.223615 0.220043 0.216861 0.213679 0.210497 0.207722 0.205645 0.204941 0.204860 0.204781 0.204093 0.202348 0.200016 0.198044 0.196073 0.194101 0.192497 0.191296 0.190885 0.190837 0.190790 0.190384 0.189349 0.187966 0.186773 0.185580 0.184387 0.183412 0.182682 0.182438 0.182410 0.182384 0.182153 0.181579 0.180813 0.180196 0.179579 0.178962 0.178455 0.178076 0.177955 0.177941 0.177927 0.177807 0.177489 0.177064 0.176699 0.176334 0.175968 0.175654 0.175418 0.175338 0.175329 
