-1.590705 0.586406 14.143228
-1.597548 0.597593 14.149129
-1.604390 0.608780 14.155030
-1.900263 1.075082 14.393788
-2.260803 1.504948 14.555755
-2.769409 1.809436 14.514267
-3.347398 1.941693 14.473048
-1.608526 0.615540 14.158596
-1.899347 1.073520 14.392937
-1.901179 1.076643 14.394638
-2.259151 1.503820 14.555784
-2.262454 1.506076 14.555726
-2.767520 1.808791 14.514398
-2.771298 1.810081 14.514135
-3.345455 1.941237 14.473187
-1.623770 0.640463 14.171742
-1.884632 1.048514 14.379355
-1.915846 1.101657 14.408261
-2.233401 1.484880 14.555030
-2.288905 1.524145 14.555265
-2.738586 1.795336 14.516420
-2.801550 1.820413 14.512028
-3.314343 1.933923 14.475403
-1.657626 0.694267 14.199482
-1.696250 0.754361 14.229918
-1.735414 0.814343 14.259883
-1.774623 0.874317 14.289809
-1.813386 0.934382 14.320123
-1.851420 0.994590 14.351065
-1.948003 1.155752 14.437425
-1.985079 1.216114 14.469161
-2.025945 1.275702 14.497603
-2.072685 1.333316 14.520225
-2.124120 1.388585 14.537556
-2.179900 1.441082 14.549504
-2.346801 1.562166 14.552773
-2.412979 1.602335 14.546728
-2.479366 1.641867 14.539003
-2.545072 1.682647 14.532058
-2.610699 1.723698 14.525976
-2.676946 1.763822 14.520733
-2.867440 1.841361 14.507417
-2.943134 1.857816 14.502005
-3.019371 1.871458 14.496511
-3.095530 1.885559 14.491031
-3.171434 1.900972 14.485590
-3.246977 1.918111 14.480202
-4.836100 2.253655 14.355275
-5.495416 3.551746 14.261720
-6.126221 4.939204 14.190323
-6.983358 6.196571 14.110627
-8.123272 7.201190 14.022127
-9.492893 7.859479 13.928798
-10.978118 8.189600 13.835727
-12.498875 8.270265 13.745653
-3.349345 1.942127 14.472909
-4.834262 2.252905 14.355519
-4.837938 2.254405 14.355031
-5.494699 3.549882 14.261810
-5.496134 3.553611 14.261630
-6.125256 4.937455 14.190422
-6.127186 4.940953 14.190225
-6.982051 6.195061 14.110737
-6.984666 6.198080 14.110516
-8.121615 7.200077 14.022247
-8.124930 7.202302 14.022007
-9.490994 7.858863 13.928921
-9.494791 7.860095 13.928675
-10.976143 8.189312 13.835848
-10.980094 8.189887 13.835606
-12.496878 8.270298 13.745769
-3.380562 1.948977 14.470676
-4.804254 2.242319 14.359096
-4.867378 2.266420 14.351117
-5.483297 3.519977 14.263244
-5.507628 3.583481 14.260192
-6.109806 4.909434 14.192004
-6.142636 4.968974 14.188643
-6.961106 6.170884 14.112509
-7.005611 6.222258 14.108744
-8.095063 7.182253 14.024171
-8.151482 7.220126 14.020083
-9.460578 7.848994 13.930891
-9.525224 7.869910 13.926705
-10.944496 8.184712 13.837781
-11.011769 8.194284 13.833675
-12.464899 8.270826 13.747617
-3.524118 1.978922 14.460392
-3.752434 2.022207 14.444119
-3.980621 2.066123 14.427725
-4.208731 2.110104 14.410461
-4.437295 2.151640 14.393155
-4.664229 2.200290 14.373947
-4.998691 2.329405 14.332238
-5.153471 2.495780 14.307532
-5.211808 2.720595 14.299319
-5.272441 2.945148 14.290531
-5.350803 3.164251 14.279929
-5.432116 3.382313 14.269750
-5.561820 3.719976 14.253553
-5.650849 3.934984 14.242952
-5.741026 4.149506 14.232294
-5.837240 4.361368 14.221402
-5.937166 4.571509 14.210370
-6.040798 4.779827 14.199193
-6.214264 5.097150 14.181355
-6.331755 5.297948 14.169660
-6.456328 5.494413 14.157711
-6.586614 5.687132 14.145558
-6.723277 5.875360 14.133185
-6.866973 6.058255 14.120579
-7.103544 6.331589 14.100556
-7.264321 6.499617 14.087413
-7.432413 6.660313 14.074052
-7.606442 6.814558 14.060531
-7.787170 6.960846 14.046832
-7.974533 7.098549 14.032969
-8.275671 7.298276 14.011207
-8.477154 7.414304 13.997051
-8.681874 7.524535 13.982847
-8.891904 7.624203 13.968570
-9.105758 7.715449 13.954257
-9.321831 7.801272 13.939933
-9.665294 7.913633 13.917670
-9.888130 7.979971 13.903363
-10.114020 8.034960 13.889112
-10.341133 8.084801 13.874894
-10.569248 8.129690 13.860719
-10.799253 8.163771 13.846652
-11.157422 8.212082 13.824844
-11.389152 8.231270 13.810978
-11.620959 8.249703 13.797123
-11.853131 8.262231 13.783367
-12.085642 8.266577 13.769757
-12.318142 8.271474 13.756137
157 NaN NaN
-1.587284 0.580813 14.140277
-1.635339 0.659377 14.181719
-1.685301 0.737592 14.221541
-1.736239 0.815607 14.260514
-1.787236 0.893609 14.299436
-1.837377 0.971789 14.339103
-1.885733 1.050302 14.380293
-1.931970 1.129155 14.423236
-1.979391 1.207820 14.465202
-2.032516 1.285285 14.502177
-2.094719 1.359662 14.530125
-2.165522 1.429312 14.548019
-2.243365 1.493036 14.556059
-2.326705 1.549967 14.554607
-2.412767 1.602209 14.546752
-2.499111 1.653625 14.536705
-2.584192 1.707348 14.528103
-2.669942 1.760241 14.521223
-2.759641 1.806100 14.514947
-2.854918 1.838638 14.508312
-2.953342 1.860035 14.501276
-3.052608 1.877207 14.494113
-3.151491 1.896447 14.487012
-3.249744 1.918738 14.480004
-3.347823 1.941793 14.473018
-3.446229 1.963385 14.465979
-3.545027 1.983093 14.458892
-3.644020 2.001807 14.451811
-3.743037 2.020414 14.444785
-3.842003 2.039296 14.437774
-3.940920 2.058396 14.430665
-4.039794 2.077640 14.423344
-4.138665 2.096818 14.415826
-4.237612 2.115581 14.408249
-4.336702 2.133602 14.400755
-4.435841 2.151362 14.393270
-4.534734 2.170304 14.385466
-4.633009 2.191963 14.376997
-4.730150 2.217871 14.367507
-4.825490 2.249325 14.356685
-4.918276 2.287191 14.344350
-5.006856 2.333691 14.331008
-5.086291 2.394412 14.318255
-5.145848 2.474809 14.308667
-5.180240 2.569417 14.303547
-5.201274 2.668134 14.300742
-5.221148 2.767109 14.298058
-5.246840 2.864693 14.294298
-5.277431 2.960830 14.289797
-5.310941 3.055986 14.285099
-5.345731 3.150690 14.280563
-5.381073 3.245196 14.276144
-5.416368 3.339720 14.271748
-5.451359 3.434356 14.267309
-5.486621 3.528888 14.262820
-5.522854 3.623049 14.258287
-5.560456 3.716671 14.253716
-5.598940 3.809933 14.249123
-5.637659 3.903097 14.244524
-5.676221 3.996327 14.239927
-5.715123 4.089414 14.235313
-5.755059 4.182060 14.230658
-5.796522 4.274029 14.225945
-5.839149 4.365463 14.221189
-5.882352 4.456625 14.216411
-5.925694 4.547721 14.211627
-5.969515 4.638587 14.206824
-6.014404 4.728926 14.201980
-6.060840 4.818477 14.197077
-6.108634 4.907308 14.192124
-6.157340 4.995642 14.187137
-6.206584 5.083674 14.182129
-6.256528 5.171311 14.177095
-6.307578 5.258304 14.172021
-6.360094 5.344417 14.166893
-6.414043 5.429637 14.161715
-6.469175 5.514094 14.156494
-6.525264 5.597917 14.151239
-6.582331 5.681075 14.145950
-6.640556 5.763422 14.140620
-6.700111 5.844810 14.135246
-6.761046 5.925168 14.129826
-6.823317 6.004490 14.124362
-6.886883 6.082777 14.118854
-6.951700 6.160027 14.113305
-7.017727 6.236244 14.107718
-7.084924 6.311428 14.102096
-7.153337 6.385505 14.096437
-7.223095 6.458312 14.090738
-7.294324 6.529677 14.084994
-7.366992 6.599574 14.079207
-7.440881 6.668175 14.073385
-7.515774 6.735678 14.067538
-7.591642 6.802081 14.061665
-7.668724 6.867066 14.055759
-7.747266 6.930274 14.049815
-7.827295 6.991585 14.043833
-7.908488 7.051345 14.037823
-7.990507 7.109966 14.031795
-8.073225 7.167594 14.025753
-8.156926 7.223781 14.019689
-8.241922 7.277983 14.013597
-8.328314 7.329928 14.007477
-8.415745 7.380107 14.001338
-8.503817 7.429152 13.995190
-8.592318 7.477416 13.989036
-8.681525 7.524361 13.982871
-8.771776 7.569260 13.976691
-8.863234 7.611643 13.970496
-8.955566 7.652092 13.964293
-9.048365 7.691457 13.958087
-9.141370 7.730335 13.951880
-9.234808 7.768156 13.945671
-9.329018 7.804007 13.939459
-9.424200 7.837190 13.933247
-9.520081 7.868301 13.927037
-9.616288 7.898395 13.920830
-9.712546 7.928326 13.914623
-9.809014 7.957569 13.908419
-9.906003 7.985032 13.902221
-10.003720 8.009777 13.896037
-10.101972 8.032320 13.889866
-10.200442 8.053896 13.883702
-10.298884 8.075602 13.877537
-10.397382 8.097049 13.871375
-10.496196 8.116987 13.865225
-10.595511 8.134256 13.859099
-10.695208 8.149191 13.852999
-10.795045 8.163167 13.846909
-10.894833 8.177491 13.840816
-10.994594 8.191995 13.834720
-11.094521 8.205313 13.828639
-11.194752 8.216099 13.822591
-11.295221 8.224429 13.816580
-11.395772 8.231752 13.810583
-11.496287 8.239529 13.804580
-11.596755 8.247886 13.798567
-11.697288 8.255433 13.792568
-11.797964 8.260720 13.786605
-11.898746 8.263480 13.780689
-11.999556 8.265044 13.774795
-12.100362 8.266839 13.768896
-12.201153 8.269322 13.762984
-12.301953 8.271401 13.757080
-12.402774 8.271853 13.751208
-12.503586 8.270187 13.745381
-12.604373 8.267321 13.739579
-12.705156 8.264324 13.733781
-12.805950 8.261726 13.727973
-12.906737 8.258841 13.722172
-13.007485 8.254814 13.716397
-13.108156 8.249139 13.710661
-13.208755 8.242274 13.704954
-13.309314 8.234833 13.699261
-13.409876 8.227432 13.693567
-13.510483 8.220685 13.687857
-13.611164 8.215209 13.682116
