0.134898 0.134893 0.134833 0.134566 0.134141 0.133719 0.133297 0.132874 0.132456 0.132192 0.132134 0.132129 0.132125 0.132067 0.131812 0.131407 0.131026 0.130644 0.130263 0.129904 0.129677 0.129628 0.129624 0.129620 0.129571 0.129356 0.129014 0.128690 0.128365 0.128041 0.127727 0.127529 0.127486 0.127482 0.127478 0.127435 0.127240 0.126931 0.126626 0.126321 0.126016 0.125716 0.125527 0.125485 0.125482 0.125479 0.125437 0.125253 0.124960 0.124677 0.124394 0.124111 0.123837 0.123664 0.123627 0.123623 0.123620 0.123583 0.123413 0.123146 0.122888 0.122630 0.122372 0.122125 0.121968 0.121934 0.121932 0.121929 0.121895 0.121745 0.121507 0.121283 0.121059 0.120835 0.120626 0.120494 0.120465 0.120463 0.120461 0.120432 0.120308 0.120110 0.119926 0.119742 0.119558 0.119386 0.119278 0.119255 0.119253 
0.134900 0.134903 0.134923 0.134974 0.135041 0.135099 0.135156 0.135213 0.135272 0.135315 0.135333 0.135335 0.135337 0.135354 0.135405 0.135474 0.135560 0.135645 0.135731 0.135838 0.135918 0.135950 0.135954 0.135958 0.135990 0.136088 0.136218 0.136373 0.136527 0.136681 0.136854 0.136983 0.137032 0.137037 0.137043 0.137093 0.137232 0.137418 0.137613 0.137807 0.138001 0.138200 0.138349 0.138403 0.138410 0.138416 0.138471 0.138622 0.138823 0.139027 0.139230 0.139434 0.139639 0.139793 0.139849 0.139856 0.139862 0.139919 0.140074 0.140281 0.140491 0.140701 0.140911 0.141124 0.141284 0.141342 0.141349 0.141356 0.141415 0.141577 0.141794 0.142014 0.142235 0.142455 0.142681 0.142850 0.142913 0.142920 0.142927 0.142990 0.143164 0.143396 0.143632 0.143868 0.144105 0.144347 0.144528 0.144595 0.144603 0.144611 0.144677 0.144861 0.145107 0.145358 0.145609 0.145861 0.146117 0.146309 0.146379 0.146388 0.146396 0.146467 0.146662 0.146922 0.147188 0.147454 0.147720 0.147989 0.148191 0.148265 0.148274 0.148283 0.148357 0.148564 0.148840 0.149120 0.149401 0.149682 0.149967 0.150181 0.150260 0.150270 0.150279 0.150358 0.150577 0.150869 0.151167 0.151466 0.151764 0.152069 0.152298 0.152382 0.152392 0.152402 0.152486 0.152719 0.153030 0.153349 0.153668 0.153987 0.154313 0.154557 0.154647 0.154658 0.154669 0.154759 0.155010 0.155345 0.155689 0.156033 0.156377 0.156729 0.156992 0.157089 0.157100 0.157112 0.157209 0.157480 0.157840 0.158211 0.158582 0.158953 0.159334 0.159620 0.159725 0.159738 0.159750 0.159856 0.160147 0.160537 0.160936 0.161336 0.161736 0.162145 0.162451 0.162564 0.162577 0.162591 0.162704 0.163018 0.163437 0.163867 0.164297 0.164728 0.165166 0.165495 0.165616 0.165630 0.165644 0.165766 0.166099 0.166545 0.167000 0.167455 0.167910 0.168376 0.168725 0.168853 0.168869 0.168884 0.169012 0.169364 0.169833 0.170308 0.170782 0.171256 0.171737 0.172097 0.172229 0.172245 0.172261 0.172393 0.172759 0.173248 0.173744 0.174239 0.174735 0.175227 0.175596 0.175731 0.175747 0.175763 0.175897 0.176270 0.176767 0.177273 0.177779 0.178285 0.178797 0.179180 0.179321 0.179338 0.179354 0.179496 0.179873 0.180378 0.180885 0.181392 0.181898 0.182411 0.182796 0.182936 0.182953 0.182970 0.183110 0.183493 0.184005 0.184515 0.185025 0.185536 0.186037 0.186412 0.186550 0.186566 
0.134899 0.134900 0.134901 0.134864 0.134807 0.134464 0.134120 0.133777 0.133485 0.133301 0.133264 0.133261 0.133259 0.133223 0.133065 0.132814 0.132563 0.132311 0.132060 0.131826 0.131678 0.131648 0.131646 0.131643 0.131613 0.131483 0.131277 0.131081 0.130884 0.130687 0.130487 0.130361 0.130331 0.130329 0.130327 0.130296 0.130139 0.129891 0.129477 0.129064 0.128650 0.127972 0.127544 0.127434 0.127426 0.127417 0.127303 0.126626 0.125553 0.124116 0.122679 0.121241 0.120100 0.119380 0.119241 0.119230 0.119220 0.119085 0.118571 0.117757 0.117297 0.116837 0.116376 0.116121 0.115960 0.115931 0.115929 0.115927 0.115899 0.115790 0.115617 0.115497 0.115377 0.115256 0.115166 0.115109 0.115097 0.115097 0.115096 0.115084 0.115036 0.114959 0.114894 0.114829 0.114764 0.114708 0.114672 0.114665 0.114664 0.114664 0.114656 0.114624 0.114573 0.114529 0.114484 0.114440 0.114401 0.114376 0.114371 0.114371 0.114370 0.114365 0.114343 0.114308 0.114278 0.114248 0.114217 0.114192 0.114175 0.114172 0.114172 0.114171 0.114168 0.114154 0.114131 0.114112 0.114093 0.114074 0.114059 0.114049 0.114047 0.114047 0.114047 0.114045 0.114037 0.114024 0.114013 0.114003 0.113993 0.113985 0.113979 0.113978 0.113978 0.113978 0.113977 0.113973 0.113967 0.113962 0.113957 0.113952 0.113949 0.113946 0.113946 0.113946 
0.120463 0.120463 0.120463 0.120461 0.120460 0.120457 0.120454 0.120451 0.120446 0.120443 0.120441 0.120441 0.120440 0.120439 0.120434 0.120427 0.120420 0.120413 0.120405 0.120397 0.120390 0.120387 0.120387 0.120386 0.120383 0.120375 0.120365 0.120353 0.120341 0.120330 0.120316 0.120306 0.120302 0.120301 0.120300 0.120296 0.120285 0.120270 0.120253 0.120237 0.120220 0.120203 0.120189 0.120184 0.120182 0.120181 0.120175 0.120161 0.120141 0.120121 0.120100 0.120079 0.120057 0.120040 0.120033 0.120031 0.120030 0.120023 0.120005 0.119981 0.119956 0.119930 0.119905 0.119879 0.119860 0.119852 0.119850 0.119848 0.119840 0.119823 0.119800 0.119783 0.119765 0.119748 0.119731 0.119719 0.119714 0.119713 0.119712 0.119707 0.119695 0.119679 0.119663 0.119647 0.119631 0.119615 0.119603 0.119598 0.119597 0.119596 0.119592 0.119580 0.119565 0.119550 0.119535 0.119520 0.119505 0.119494 0.119489 0.119488 0.119487 0.119483 0.119473 0.119458 0.119445 0.119431 0.119417 0.119404 0.119394 0.119390 0.119389 0.119388 0.119385 0.119375 0.119362 0.119350 0.119338 0.119325 0.119313 0.119304 0.119301 0.119300 
0.121932 0.121934 0.121938 0.121949 0.121963 0.121976 0.121990 0.122003 0.122016 0.122025 0.122029 0.122031 0.122032 0.122036 0.122045 0.122057 0.122069 0.122080 0.122091 0.122102 0.122110 0.122113 0.122114 0.122116 0.122119 0.122127 0.122136 0.122146 0.122155 0.122164 0.122172 0.122178 0.122181 0.122182 0.122183 0.122186 0.122192 0.122200 0.122207 0.122214 0.122221 0.122227 0.122232 0.122234 0.122235 0.122236 0.122238 0.122242 0.122247 0.122252 0.122256 0.122261 0.122265 0.122268 0.122269 0.122270 0.122270 0.122271 0.122273 0.122276 0.122278 0.122280 0.122282 0.122283 0.122283 0.122283 0.122283 0.122283 0.122283 0.122283 0.122283 0.122282 0.122281 0.122280 0.122277 0.122275 0.122274 0.122274 0.122274 0.122273 0.122271 0.122268 0.122262 0.122257 0.122252 0.122247 0.122242 0.122240 0.122240 0.122239 0.122237 0.122231 0.122223 0.122214 0.122206 0.122197 0.122188 0.122181 0.122177 0.122176 0.122174 0.122170 0.122162 0.122150 0.122138 0.122126 0.122114 0.122108 0.122103 0.122101 0.122100 0.122099 0.122097 0.122093 0.122087 0.122081 0.122074 0.122068 0.122061 0.122056 0.122053 0.122052 0.122052 0.122049 0.122044 0.122037 0.122028 0.122020 0.122012 0.122004 0.121997 0.121994 0.121993 0.121992 0.121990 0.121983 0.121973 0.121964 0.121954 0.121945 0.121935 0.121927 0.121924 0.121923 0.121921 0.121918 0.121909 0.121899 0.121888 0.121877 0.121866 0.121855 0.121846 0.121842 0.121841 0.121840 0.121836 0.121827 0.121815 0.121804 0.121792 0.121780 0.121768 0.121759 0.121755 0.121753 0.121752 0.121748 0.121738 0.121726 0.121714 0.121701 0.121689 0.121676 0.121667 0.121662 0.121661 0.121659 0.121655 0.121645 0.121633 0.121620 0.121607 0.121594 0.121581 0.121571 0.121567 0.121565 0.121564 0.121559 0.121550 0.121536 0.121523 0.121510 0.121497 0.121484 0.121474 0.121469 0.121468 0.121466 0.121461 0.121451 0.121438 0.121425 0.121411 0.121398 0.121384 0.121374 0.121369 0.121368 
0.127482 0.127481 0.127477 0.127469 0.127458 0.127446 0.127435 0.127423 0.127410 0.127400 0.127396 0.127394 0.127393 0.127388 0.127378 0.127365 0.127350 0.127336 0.127321 0.127306 0.127294 0.127289 0.127287 0.127285 0.127280 0.127268 0.127253 0.127236 0.127220 0.127203 0.127187 0.127175 0.127169 0.127168 0.127166 0.127160 0.127147 0.127130 0.127113 0.127095 0.127078 0.127060 0.127047 0.127041 0.127039 0.127037 0.127030 0.127016 0.126998 0.126978 0.126959 0.126940 0.126919 0.126903 0.126895 0.126893 0.126891 0.126883 0.126867 0.126845 0.126822 0.126799 0.126776 0.126751 0.126733 0.126724 0.126722 0.126719 0.126711 0.126692 0.126666 0.126639 0.126612 0.126584 0.126557 0.126536 0.126526 0.126523 0.126520 0.126511 0.126488 0.126458 0.126427 0.126396 0.126366 0.126334 0.126310 0.126298 0.126295 0.126291 0.126280 0.126254 0.126221 0.126186 0.126152 0.126117 0.126081 0.126054 0.126041 0.126037 0.126033 0.126021 0.125994 0.125959 0.125933 0.125907 0.125881 0.125856 0.125837 0.125828 0.125826 0.125823 0.125815 0.125796 0.125771 0.125747 0.125723 0.125699 0.125675 0.125657 0.125649 0.125647 0.125644 0.125637 0.125619 0.125597 0.125574 0.125552 0.125529 0.125507 0.125491 0.125484 0.125482 0.125480 0.125472 0.125456 0.125435 0.125415 0.125394 0.125373 0.125354 0.125339 0.125332 0.125330 0.125328 0.125322 0.125307 0.125287 0.125269 0.125250 0.125232 0.125214 0.125200 0.125193 0.125192 0.125190 0.125183 0.125170 0.125153 0.125136 0.125120 0.125103 0.125086 0.125074 0.125069 0.125067 0.125065 0.125060 0.125048 0.125033 0.125018 0.125002 0.124987 0.124972 0.124962 0.124957 0.124955 0.124954 0.124949 0.124938 0.124924 0.124910 0.124896 0.124882 0.124869 0.124858 0.124854 0.124852 0.124851 0.124846 0.124836 0.124823 0.124810 0.124798 0.124785 0.124772 0.124763 0.124758 0.124757 0.124756 0.124751 0.124742 0.124731 0.124719 0.124707 0.124694 0.124683 0.124674 0.124670 0.124669 
0.129624 0.129624 0.129626 0.129627 0.129629 0.129628 0.129626 0.129625 0.129619 0.129615 0.129613 0.129613 0.129612 0.129610 0.129604 0.129596 0.129585 0.129574 0.129563 0.129549 0.129538 0.129533 0.129532 0.129531 0.129526 0.129514 0.129497 0.129479 0.129460 0.129442 0.129431 0.129423 0.129420 0.129419 0.129418 0.129414 0.129405 0.129393 0.129379 0.129365 0.129352 0.129336 0.129324 0.129318 0.129317 0.129316 0.129310 0.129296 0.129277 0.129256 0.129235 0.129214 0.129192 0.129176 0.129169 0.129168 0.129166 0.129160 0.129142 0.129119 0.129092 0.129066 0.129039 0.129007 0.128983 0.128973 0.128970 0.128968 0.128957 0.128931 0.128897 0.128859 0.128820 0.128782 0.128747 0.128721 0.128710 0.128707 0.128704 0.128693 0.128667 0.128632 0.128597 0.128562 0.128527 0.128493 0.128466 0.128456 0.128453 0.128450 0.128440 0.128414 0.128380 0.128347 0.128313 0.128280 0.128247 0.128223 0.128213 0.128210 0.128208 0.128197 0.128173 0.128142 0.128111 0.128080 0.128049 0.128019 0.127996 0.127987 0.127984 0.127982 0.127973 0.127950 0.127921 0.127892 0.127864 0.127835 0.127807 0.127786 0.127777 0.127775 0.127773 0.127764 0.127744 0.127717 0.127690 0.127664 0.127638 0.127612 0.127592 0.127584 0.127582 0.127580 0.127572 0.127553 0.127528 0.127503 0.127479 0.127454 0.127430 0.127412 0.127404 0.127402 0.127400 0.127393 0.127374 0.127350 0.127326 0.127303 0.127279 0.127255 0.127237 0.127230 0.127228 
0.132129 0.132129 0.132129 0.132127 0.132124 0.132111 0.132099 0.132087 0.132065 0.132049 0.132041 0.132040 0.132038 0.132030 0.132006 0.131973 0.131929 0.131886 0.131842 0.131795 0.131760 0.131748 0.131746 0.131744 0.131735 0.131711 0.131680 0.131646 0.131613 0.131580 0.131545 0.131518 0.131508 0.131506 0.131504 0.131493 0.131465 0.131428 0.131388 0.131348 0.131307 0.131264 0.131232 0.131219 0.131216 0.131214 0.131201 0.131165 0.131117 0.131065 0.131013 0.130960 0.130903 0.130861 0.130846 0.130843 0.130841 0.130826 0.130783 0.130726 0.130660 0.130594 0.130528 0.130454 0.130399 0.130375 0.130371 0.130366 0.130343 0.130284 0.130206 0.130136 0.130066 0.129995 0.129929 0.129879 0.129860 0.129856 0.129853 0.129834 0.129788 0.129726 0.129668 0.129610 0.129553 0.129499 0.129459 0.129444 0.129442 0.129439 0.129424 0.129387 0.129336 0.129291 0.129245 0.129199 0.129157 0.129126 0.129114 0.129111 0.129109 0.129097 0.129068 0.129029 0.128992 0.128954 0.128917 0.128882 0.128856 0.128846 0.128844 0.128842 0.128833 0.128807 0.128774 0.128741 0.128709 0.128677 0.128645 0.128621 0.128612 0.128610 
0.135334 0.135333 0.135320 0.135268 0.135191 0.135076 0.134960 0.134844 0.134701 0.134602 0.134571 0.134568 0.134565 0.134534 0.134425 0.134265 0.134119 0.133972 0.133826 0.133670 0.133564 0.133528 0.133524 0.133520 0.133483 0.133338 0.133125 0.132856 0.132586 0.132316 0.132083 0.131923 0.131881 0.131877 0.131873 0.131832 0.131706 0.131522 0.131371 0.131220 0.131068 0.130943 0.130858 0.130835 0.130833 
0.138409 0.138409 0.138405 0.138392 0.138376 0.138352 0.138328 0.138304 0.138272 0.138248 0.138238 0.138236 0.138234 0.138223 0.138194 0.138154 0.138106 0.138058 0.138011 0.137956 0.137914 0.137898 0.137895 0.137891 0.137874 0.137828 0.137766 0.137698 0.137629 0.137560 0.137486 0.137430 0.137407 0.137402 0.137398 0.137375 0.137314 0.137233 0.137147 0.137060 0.136974 0.136880 0.136810 0.136782 0.136777 0.136771 0.136743 0.136669 0.136571 0.136466 0.136361 0.136257 0.136147 0.136064 0.136032 0.136026 0.136019 0.135986 0.135900 0.135785 0.135666 0.135548 0.135429 0.135309 0.135218 0.135183 0.135176 0.135169 0.135136 0.135079 0.135002 0.134931 0.134860 0.134789 0.134723 0.134673 0.134654 0.134650 0.134647 0.134627 0.134580 0.134517 0.134456 0.134395 0.134334 0.134274 0.134230 0.134213 0.134210 0.134207 0.134190 0.134148 0.134091 0.134036 0.133982 0.133927 0.133874 0.133834 0.133819 0.133816 0.133813 0.133798 0.133759 0.133708 0.133658 0.133609 0.133559 0.133511 0.133475 0.133461 0.133458 0.133456 0.133441 0.133406 0.133360 0.133314 0.133268 0.133222 0.133177 0.133143 0.133130 0.133127 
0.142919 0.142915 0.142902 0.142871 0.142830 0.142787 0.142743 0.142700 0.142654 0.142619 0.142604 0.142599 0.142595 0.142579 0.142542 0.142494 0.142442 0.142391 0.142339 0.142285 0.142244 0.142226 0.142221 0.142216 0.142198 0.142154 0.142096 0.142036 0.141976 0.141917 0.141856 0.141809 0.141788 0.141783 0.141777 0.141756 0.141708 0.141644 0.141579 0.141514 0.141449 0.141382 0.141332 0.141310 0.141304 0.141297 0.141275 0.141223 0.141154 0.141083 0.141012 0.140941 0.140867 0.140812 0.140787 0.140781 0.140774 0.140750 0.140694 0.140621 0.140545 0.140469 0.140394 0.140316 0.140258 0.140232 0.140225 0.140218 0.140192 0.140132 0.140053 0.139973 0.139892 0.139812 0.139730 0.139669 0.139641 0.139634 0.139626 0.139599 0.139536 0.139452 0.139367 0.139282 0.139197 0.139111 0.139046 0.139017 0.139009 0.139001 0.138973 0.138907 0.138820 0.138732 0.138644 0.138556 0.138467 0.138400 0.138371 0.138362 0.138354 0.138325 0.138257 0.138168 0.138079 0.137989 0.137900 0.137811 0.137744 0.137715 0.137707 0.137698 0.137669 0.137625 0.137567 0.137513 0.137460 0.137407 0.137355 0.137316 0.137299 0.137294 0.137289 0.137274 0.137238 0.137191 0.137145 0.137099 0.137052 0.137011 0.136979 0.136966 0.136962 0.136958 0.136944 0.136913 0.136871 0.136833 0.136794 0.136755 0.136717 0.136688 0.136676 0.136672 0.136669 0.136656 0.136630 0.136595 0.136561 0.136526 0.136492 0.136460 0.136435 0.136425 0.136422 0.136419 0.136409 0.136384 0.136353 0.136323 0.136292 0.136262 0.136233 0.136211 0.136202 0.136199 0.136196 0.136186 0.136166 0.136138 0.136111 0.136084 0.136057 0.136031 0.136011 0.136003 0.136000 0.135998 0.135990 0.135971 0.135945 0.135921 0.135896 0.135871 0.135848 0.135830 0.135822 0.135820 0.135817 0.135809 0.135791 0.135767 0.135744 0.135721 0.135698 0.135675 0.135657 0.135650 0.135648 0.135646 0.135639 0.135622 0.135600 0.135577 0.135555 0.135533 0.135511 0.135494 0.135487 0.135485 
0.154656 0.154649 0.154610 0.154503 0.154361 0.154198 0.154035 0.153872 0.153691 0.153554 0.153500 0.153490 0.153480 0.153425 0.153276 0.153078 0.152866 0.152654 0.152441 0.152219 0.152052 0.151986 0.151974 0.151962 0.151896 0.151723 0.151492 0.151258 0.151023 0.150788 0.150551 0.150372 0.150304 0.150292 0.150279 0.150211 0.150032 0.149795 0.149556 0.149317 0.149077 0.148838 0.148658 0.148589 0.148576 0.148564 0.148495 0.148314 0.148073 0.147862 0.147650 0.147439 0.147269 0.147140 0.147094 0.147086 0.147078 0.147032 0.146915 0.146760 0.146620 0.146479 0.146338 0.146211 0.146116 0.146079 0.146072 0.146066 0.146029 0.145941 0.145823 0.145713 0.145603 0.145492 0.145389 0.145311 0.145282 0.145277 0.145272 0.145242 0.145168 0.145069 0.144977 0.144884 0.144791 0.144702 0.144636 0.144611 0.144607 0.144602 0.144578 0.144514 0.144429 0.144347 0.144265 0.144183 0.144104 0.144044 0.144021 0.144017 
0.179329 0.179296 0.179108 0.178625 0.177981 0.177346 0.176711 0.176076 0.175456 0.174990 0.174813 0.174782 0.174751 0.174576 0.174123 0.173521 0.172936 0.172350 0.171765 0.171190 0.170757 0.170591 0.170562 0.170533 0.170368 0.169951 0.169397 0.168842 0.168288 0.167734 0.167186 0.166775 0.166618 0.166590 0.166562 0.166406 0.166006 0.165475 0.164967 0.164459 0.163950 0.163509 0.163178 0.163080 0.163062 0.163045 0.162948 0.162715 0.162405 0.162154 0.161904 0.161653 0.161439 0.161279 0.161218 0.161207 0.161196 0.161137 0.161005 0.160829 0.160673 0.160518 0.160362 0.160227 0.160126 0.160089 0.160082 0.160076 0.160039 0.159949 0.159829 0.159726 0.159623 0.159520 0.159426 0.159356 0.159331 0.159327 0.159323 0.159301 0.159241 0.159163 0.159092 0.159022 0.158951 0.158888 0.158840 0.158822 0.158819 
