-2.354352 -1.421212 10.848147
-1.694190 -1.667965 11.779310
-1.235023 -1.782104 12.847726
-0.974434 -1.775074 13.987338
-0.892767 -1.665168 15.149232
-0.880794 -1.513478 16.310221
-0.844645 -1.377619 17.472660
-0.827673 -1.261886 18.637660
-0.839907 -1.157013 19.803819
-0.848651 -1.050890 20.969899
-0.851593 -0.942694 22.135821
-0.856856 -0.835327 23.301810
-2.353073 -1.421739 10.849591
-1.695152 -1.667656 11.777584
-1.693228 -1.668274 11.781036
-1.235628 -1.782020 12.845821
-1.234417 -1.782187 12.849630
-0.974727 -1.775175 13.985362
-0.974142 -1.774972 13.989314
-0.892804 -1.665414 15.147248
-0.892729 -1.664922 15.151217
-0.880838 -1.513728 16.308237
-0.880750 -1.513228 16.312205
-0.844708 -1.377833 17.470673
-0.844581 -1.377404 17.474648
-0.827667 -1.262071 18.635668
-0.827679 -1.261702 18.639651
-0.839883 -1.157191 19.801827
-0.839930 -1.156834 19.805811
-0.848643 -1.051074 20.967907
-0.848659 -1.050707 20.971891
-0.851588 -0.942879 22.133830
-0.851597 -0.942509 22.137812
-0.856840 -0.835508 23.299818
-2.337145 -1.428309 10.867593
-1.707139 -1.663808 11.756079
-1.681242 -1.672122 11.802541
-1.243175 -1.780979 12.822096
-1.226870 -1.783229 12.873355
-0.978365 -1.776438 13.960742
-0.970768 -1.773559 14.013962
-0.893273 -1.668477 15.122522
-0.892260 -1.661860 15.175942
-0.881364 -1.516861 16.283522
-0.880200 -1.510108 16.336921
-0.845495 -1.380508 17.445911
-0.843811 -1.374745 17.499412
-0.827590 -1.264368 18.610856
-0.827756 -1.259405 18.664464
-0.839578 -1.159407 19.777009
-0.840225 -1.154615 19.830629
-0.848545 -1.053364 20.943094
-0.848757 -1.048416 20.996704
-0.851529 -0.945183 22.109018
-0.851656 -0.940205 22.162624
-0.856654 -0.837766 23.275003
-2.265699 -1.457613 10.949542
-2.155941 -1.501570 11.083083
-2.050626 -1.542377 11.221134
-1.950006 -1.579913 11.363543
-1.853920 -1.614344 11.509810
-1.762421 -1.645679 11.659672
-1.628668 -1.688468 11.900768
-1.549404 -1.711748 12.058852
-1.474838 -1.732008 12.219609
-1.404912 -1.749320 12.382777
-1.339609 -1.763729 12.548133
-1.279060 -1.775185 12.715519
-1.193745 -1.787342 12.980897
-1.145060 -1.791573 13.152437
-1.100855 -1.793124 13.325232
-1.061116 -1.792031 13.499116
-1.026098 -1.788172 13.673973
-0.995464 -1.781769 13.849573
-0.956328 -1.766711 14.125426
-0.936871 -1.753931 14.302270
-0.921698 -1.738738 14.479345
-0.910196 -1.721478 14.656507
-0.901753 -1.702487 14.833665
-0.895862 -1.682039 15.010765
-0.890590 -1.647751 15.287649
-0.888922 -1.624792 15.464534
-0.887885 -1.601389 15.641365
-0.886971 -1.577805 15.818174
-0.885672 -1.554305 15.994991
-0.883394 -1.531189 16.171848
-0.877537 -1.496113 16.448623
-0.872638 -1.474384 16.625604
-0.867114 -1.453180 16.802629
-0.861188 -1.432503 16.979704
-0.855110 -1.412347 17.156834
-0.849124 -1.392677 17.334022
-0.840490 -1.362861 17.611341
-0.835786 -1.344391 17.788697
-0.832070 -1.326398 17.966124
-0.829481 -1.308833 18.143615
-0.827989 -1.291659 18.321156
-0.827462 -1.274828 18.498736
-0.828290 -1.249089 18.776596
-0.829635 -1.232927 18.954234
-0.831432 -1.216927 19.131883
-0.833545 -1.201040 19.309538
-0.835837 -1.185217 19.487197
-0.838159 -1.169405 19.664856
-0.841509 -1.144568 19.942780
-0.843311 -1.128569 20.120428
-0.844844 -1.112475 20.298071
-0.846123 -1.096290 20.475707
-0.847189 -1.080028 20.653338
-0.848072 -1.063701 20.830964
-0.849149 -1.038050 21.108832
-0.849685 -1.021599 21.286448
-0.850136 -1.005118 21.464061
-0.850533 -0.988618 21.641672
-0.850905 -0.972108 21.819283
-0.851278 -0.955599 21.996894
-0.851938 -0.929800 22.274749
-0.852452 -0.913341 22.452364
-0.853070 -0.896919 22.629982
-0.853819 -0.880544 22.807604
-0.854735 -0.864229 22.985231
-0.855846 -0.847983 23.162863
133 NaN NaN
-2.354671 -1.421080 10.847785
-2.290361 -1.447607 10.920467
-2.227413 -1.473146 10.994680
-2.165851 -1.497691 11.070376
-2.105696 -1.521237 11.147507
-2.046968 -1.543781 11.226024
-1.989682 -1.565320 11.305878
-1.933854 -1.585854 11.387018
-1.879495 -1.605384 11.469395
-1.826616 -1.623911 11.552958
-1.775225 -1.641437 11.637658
-1.725329 -1.657967 11.723445
-1.676933 -1.673506 11.810270
-1.630040 -1.688058 11.898086
-1.584651 -1.701629 11.986843
-1.540767 -1.714227 12.076497
-1.498388 -1.725859 12.167002
-1.457512 -1.736532 12.258312
-1.418136 -1.746255 12.350384
-1.380256 -1.755036 12.443176
-1.343869 -1.762884 12.536646
-1.308969 -1.769808 12.630754
-1.275551 -1.775816 12.725462
-1.243610 -1.780919 12.820730
-1.213139 -1.785124 12.916522
-1.184132 -1.788442 13.012803
-1.156583 -1.790880 13.109537
-1.130486 -1.792448 13.206691
-1.105835 -1.793155 13.304231
-1.082622 -1.793009 13.402127
-1.060843 -1.792019 13.500346
-1.040492 -1.790191 13.598860
-1.021563 -1.787535 13.697637
-1.004051 -1.784058 13.796651
-0.987952 -1.779766 13.895872
-0.973262 -1.774667 13.995273
-0.959976 -1.768766 14.094827
-0.948092 -1.762071 14.194508
-0.937603 -1.754589 14.294290
-0.928447 -1.746356 14.394144
-0.920534 -1.737424 14.494044
-0.913769 -1.727845 14.593969
-0.908059 -1.717671 14.693901
-0.903305 -1.706955 14.793827
-0.899413 -1.695749 14.893736
-0.896284 -1.684105 14.993621
-0.893823 -1.672074 15.093480
-0.891931 -1.659708 15.193311
-0.890513 -1.647059 15.293113
-0.889470 -1.634176 15.392891
-0.888707 -1.621110 15.492647
-0.888127 -1.607912 15.592387
-0.887634 -1.594631 15.692117
-0.887131 -1.581316 15.791842
-0.886523 -1.568019 15.891569
-0.885713 -1.554789 15.991303
-0.884604 -1.541677 16.091050
-0.883110 -1.528727 16.190813
-0.881231 -1.515955 16.290592
-0.879009 -1.503360 16.390387
-0.876486 -1.490939 16.490197
-0.873706 -1.478689 16.590021
-0.870710 -1.466610 16.689859
-0.867541 -1.454699 16.789713
-0.864242 -1.442953 16.889581
-0.860857 -1.431371 16.989466
-0.857427 -1.419950 17.089368
-0.853995 -1.408689 17.189288
-0.850605 -1.397584 17.289227
-0.847299 -1.386634 17.389186
-0.844120 -1.375836 17.489166
-0.841110 -1.365189 17.589167
-0.838313 -1.354689 17.689190
-0.835772 -1.344336 17.789234
-0.833529 -1.334126 17.889301
-0.831628 -1.324058 17.989389
-0.830104 -1.314128 18.089497
-0.828951 -1.304331 18.189624
-0.828142 -1.294656 18.289765
-0.827653 -1.285094 18.389920
-0.827456 -1.275637 18.490086
-0.827526 -1.266275 18.590260
-0.827837 -1.256999 18.690442
-0.828363 -1.247800 18.790631
-0.829079 -1.238669 18.890824
-0.829958 -1.229596 18.991022
-0.830974 -1.220573 19.091222
-0.832103 -1.211589 19.191425
-0.833317 -1.202636 19.291630
-0.834591 -1.193705 19.391836
-0.835900 -1.184786 19.492042
-0.837217 -1.175870 19.592249
-0.838517 -1.166948 19.692456
-0.839774 -1.158011 19.792661
-0.840962 -1.149048 19.892865
-0.842059 -1.140053 19.993068
-0.843063 -1.131025 20.093268
-0.843978 -1.121966 20.193466
-0.844811 -1.112876 20.293663
-0.845566 -1.103759 20.393857
-0.846248 -1.094616 20.494050
-0.846863 -1.085448 20.594240
-0.847415 -1.076259 20.694430
-0.847911 -1.067049 20.794617
-0.848354 -1.057820 20.894803
-0.848751 -1.048575 20.994988
-0.849105 -1.039315 21.095171
-0.849424 -1.030042 21.195354
-0.849711 -1.020757 21.295535
-0.849972 -1.011464 21.395716
-0.850212 -1.002162 21.495896
-0.850436 -0.992855 21.596076
-0.850650 -0.983545 21.696255
-0.850858 -0.974232 21.796434
-0.851065 -0.964919 21.896613
-0.851278 -0.955608 21.996792
-0.851501 -0.946301 22.096972
-0.851738 -0.936999 22.197152
-0.851996 -0.927704 22.297333
-0.852280 -0.918419 22.397514
-0.852595 -0.909144 22.497696
-0.852945 -0.899882 22.597880
-0.853336 -0.890635 22.698064
-0.853774 -0.881404 22.798250
-0.854262 -0.872192 22.898438
-0.854808 -0.863000 22.998627
-0.855415 -0.853830 23.098817
-0.856089 -0.844684 23.199009
-0.856835 -0.835563 23.299204
-0.857658 -0.826471 23.399400
-0.858563 -0.817407 23.499598
-0.859556 -0.808375 23.599798
-0.860641 -0.799376 23.700000
-2.354446 -1.421080 10.847339
-2.129648 -1.419898 10.455113
-1.873279 -1.417001 10.082470
-1.610392 -1.413740 9.714347
-1.361559 -1.411259 9.336675
-1.150527 -1.410805 8.936933
-1.010260 -1.413894 8.507801
-0.964559 -1.421323 8.058550
-0.981037 -1.431384 7.606730
-1.014487 -1.442132 7.155730
-1.031651 -1.452222 6.703843
-1.031341 -1.461596 6.251589
-1.021698 -1.470581 5.799413
-1.011492 -1.479543 5.347249
-1.009427 -1.488843 4.894995
-1.024030 -1.498830 4.443013
-2.353542 -1.421079 10.845555
-2.130736 -1.419909 10.456791
-2.128560 -1.419888 10.453435
-1.874440 -1.417015 10.084098
-1.872118 -1.416987 10.080842
-1.611536 -1.413753 9.715987
-1.609248 -1.413726 9.712706
-1.362605 -1.411267 9.338379
-1.360513 -1.411251 9.334970
-1.151311 -1.410799 8.938773
-1.149744 -1.410810 8.935093
-1.010682 -1.413871 8.509756
-1.009838 -1.413917 8.505846
-0.964562 -1.421282 8.060550
-0.964556 -1.421365 8.056551
-0.980897 -1.431337 7.608724
-0.981178 -1.431431 7.604735
-1.014352 -1.442085 7.157725
-1.014623 -1.442179 7.153735
-1.031621 -1.452180 6.705842
-1.031680 -1.452265 6.701843
-1.031367 -1.461556 6.253588
-1.031316 -1.461637 6.249589
-1.021749 -1.470542 5.801412
-1.021648 -1.470621 5.797414
-1.011527 -1.479503 5.349249
-1.011457 -1.479583 5.345250
-1.009400 -1.488801 4.896994
-1.009455 -1.488886 4.892996
-1.023919 -1.498784 4.445009
-2.345716 -1.421076 10.830089
-2.140164 -1.419998 10.471336
-2.119131 -1.419799 10.438891
-1.884503 -1.417140 10.098210
-1.862035 -1.416861 10.066744
-1.621452 -1.413869 9.730203
-1.599333 -1.413610 9.698490
-1.371673 -1.411337 9.353151
-1.351446 -1.411182 9.320198
-1.158103 -1.410750 8.954719
-1.142952 -1.410860 8.919146
-1.014340 -1.413671 8.526697
-1.006179 -1.414117 8.488905
-0.964960 -1.420939 8.077873
-0.964526 -1.421723 8.039221
-0.979680 -1.430928 7.626010
-0.982395 -1.431841 7.587450
-1.013176 -1.441677 7.175013
-1.015639 -1.442580 7.136437
-1.031366 -1.451810 6.723169
-1.031936 -1.452635 6.684516
-1.031587 -1.461205 6.270916
-1.031089 -1.461987 6.232261
-1.022187 -1.470200 5.818736
-1.021210 -1.470962 5.780090
-1.011831 -1.479156 5.366575
-1.011152 -1.479930 5.327923
-1.009202 -1.488433 4.914322
-1.009695 -1.489256 4.875668
-1.022961 -1.498385 4.462311
-2.324192 -1.421066 10.787556
-2.294565 -1.421007 10.731206
-2.263906 -1.420894 10.675400
-2.231881 -1.420708 10.620371
-2.199291 -1.420492 10.565675
-2.165727 -1.420223 10.511568
-2.093064 -1.419546 10.398983
-2.057573 -1.419172 10.346119
-2.021711 -1.418776 10.293509
-1.985558 -1.418365 10.241096
-1.948937 -1.417927 10.189010
-1.912180 -1.417482 10.137021
-1.834227 -1.416512 10.028027
-1.797076 -1.416044 9.976319
-1.759901 -1.415575 9.924626
-1.722799 -1.415111 9.872882
-1.685748 -1.414649 9.821101
-1.648933 -1.414200 9.769152
-1.572063 -1.413291 9.659392
-1.536157 -1.412893 9.606810
-1.500522 -1.412510 9.554046
-1.465327 -1.412152 9.500985
-1.430784 -1.411830 9.447500
-1.396610 -1.411528 9.393777
-1.327319 -1.411035 9.279087
-1.295321 -1.410850 9.224040
-1.264660 -1.410737 9.168235
-1.234763 -1.410664 9.112025
-1.205754 -1.410637 9.055344
-1.178380 -1.410695 8.997861
-1.124272 -1.410995 8.875289
-1.101187 -1.411269 8.815959
-1.079124 -1.411594 8.756241
-1.059347 -1.412030 8.695719
-1.041275 -1.412547 8.634687
-1.024525 -1.413127 8.573260
-0.997677 -1.414738 8.442020
-0.987579 -1.415624 8.379159
-0.980107 -1.416626 8.315943
-0.973750 -1.417677 8.252608
-0.969361 -1.418813 8.189097
-0.966511 -1.420015 8.125508
-0.964445 -1.422709 7.991562
-0.965257 -1.424064 7.927914
-0.966770 -1.425447 7.864274
-0.969536 -1.426882 7.800678
-0.972703 -1.428333 7.737102
-0.976493 -1.429809 7.673559
-0.985847 -1.432970 7.539920
-0.990708 -1.434489 7.476450
-0.995638 -1.436011 7.412987
-1.000591 -1.437533 7.349525
-1.005376 -1.439049 7.286050
-1.009943 -1.440556 7.222560
-1.018334 -1.443679 7.088856
-1.021658 -1.445137 7.025288
-1.024513 -1.446575 6.961695
-1.026834 -1.447991 6.898081
-1.028888 -1.449397 6.834457
-1.030410 -1.450781 6.770817
-1.032601 -1.453652 6.636862
-1.033014 -1.454990 6.573205
-1.033208 -1.456320 6.509546
-1.033154 -1.457639 6.445887
-1.032746 -1.458943 6.382229
-1.032191 -1.460241 6.318572
-1.030271 -1.462942 6.184608
-1.029140 -1.464216 6.120958
-1.027824 -1.465483 6.057311
-1.026417 -1.466745 5.993667
-1.024941 -1.468005 5.930023
-1.023369 -1.469261 5.866382
-1.020005 -1.471901 5.732445
-1.018421 -1.473156 5.668805
-1.016865 -1.474412 5.605163
-1.015376 -1.475672 5.541520
-1.013989 -1.476935 5.477875
-1.012669 -1.478201 5.414228
-1.010474 -1.480891 5.280268
-1.009634 -1.482177 5.216614
-1.009125 -1.483477 5.152956
-1.008774 -1.484784 5.089298
-1.008674 -1.486101 5.025639
-1.008931 -1.487433 4.961980
-1.010355 -1.490272 4.828014
-1.011626 -1.491646 4.764369
-1.013131 -1.493029 4.700729
-1.015223 -1.494436 4.637106
-1.017640 -1.495857 4.573496
-1.020420 -1.497292 4.509900
68 NaN NaN
-2.354671 -1.421080 10.847785
-2.308650 -1.421059 10.756843
-2.259572 -1.420878 10.667512
-2.207947 -1.420561 10.579627
-2.154217 -1.420131 10.493013
-2.098772 -1.419606 10.407485
-2.041958 -1.419007 10.322861
-1.984084 -1.418348 10.238959
-1.925428 -1.417646 10.155600
-1.866250 -1.416914 10.072613
-1.806790 -1.416167 9.989827
-1.747280 -1.415416 9.907077
-1.687945 -1.414676 9.824201
-1.629010 -1.413958 9.741040
-1.570701 -1.413275 9.657439
-1.513254 -1.412640 9.573243
-1.456915 -1.412067 9.488302
-1.401944 -1.411568 9.402469
-1.348624 -1.411160 9.315601
-1.297258 -1.410857 9.227564
-1.248176 -1.410676 9.138234
-1.201740 -1.410633 9.047501
-1.158341 -1.410748 8.955278
-1.118401 -1.411038 8.861507
-1.082369 -1.411522 8.766169
-1.050711 -1.412220 8.669293
-1.023901 -1.413149 8.570969
-1.002390 -1.414324 8.471355
-0.986226 -1.415742 8.370737
-0.974915 -1.417375 8.269459
-0.967888 -1.419194 8.167795
-0.964572 -1.421170 8.065943
-0.964398 -1.423278 7.964039
-0.966821 -1.425493 7.862165
-0.971316 -1.427792 7.760362
-0.977382 -1.430155 7.658642
-0.984539 -1.432562 7.556993
-0.992321 -1.434993 7.455390
-1.000269 -1.437431 7.353800
-1.007929 -1.439858 7.252188
-1.014841 -1.442255 7.150522
-1.020604 -1.444605 7.048783
-1.025173 -1.446907 6.946983
-1.028633 -1.449165 6.845138
-1.031069 -1.451380 6.743262
-1.032572 -1.453557 6.641367
-1.033233 -1.455700 6.539463
-1.033147 -1.457811 6.437556
-1.032408 -1.459896 6.335650
-1.031115 -1.461957 6.233750
-1.029366 -1.463999 6.131856
-1.027259 -1.466027 6.029969
-1.024896 -1.468043 5.928087
-1.022376 -1.470053 5.826208
-1.019800 -1.472061 5.724331
-1.017270 -1.474070 5.622453
-1.014885 -1.476086 5.520572
-1.012747 -1.478112 5.418685
-1.010956 -1.480152 5.316792
-1.009611 -1.482212 5.214892
-1.008811 -1.484293 5.112987
-1.008652 -1.486402 5.011080
-1.009231 -1.488541 4.909175
-1.010642 -1.490714 4.807279
-1.012977 -1.492926 4.705401
-1.016327 -1.495178 4.603552
-1.020777 -1.497476 4.501746
-1.026412 -1.499821 4.400000
-2.355018 -1.421441 10.847793
-3.478903 -1.599038 10.641293
-4.257016 -0.733785 10.212194
-4.790328 0.348934 9.878319
-5.334593 1.424330 9.537992
-5.880543 2.498603 9.196790
-6.433872 3.578812 8.889172
-7.029300 4.639633 8.592210
-7.707836 5.642919 8.275772
-8.503919 6.545422 7.933061
-9.434478 7.295165 7.563894
-10.486000 7.850560 7.176746
-11.620991 8.201524 6.784870
-12.799555 8.369845 6.399104
-2.356403 -1.422883 10.847822
-3.477247 -1.599966 10.641922
-3.480559 -1.598110 10.640664
-4.256094 -0.735455 10.212794
-4.257938 -0.732115 10.211594
-4.789447 0.347226 9.878872
-4.791210 0.350642 9.877766
-5.333722 1.422614 9.538537
-5.335465 1.426046 9.537448
-5.879668 2.496894 9.197350
-5.881418 2.500312 9.196230
-6.432969 3.577087 8.889630
-6.434775 3.580536 8.888714
-7.028291 4.637976 8.592698
-7.030310 4.641289 8.591722
-7.706670 5.641381 8.276296
-7.709003 5.644457 8.275247
-8.502536 6.544095 7.933632
-8.505302 6.546749 7.932491
-9.432890 7.294111 7.564500
-9.436066 7.296218 7.563287
-10.484239 7.849849 7.177371
-10.487762 7.851271 7.176120
-11.619135 8.201116 6.785493
-11.622848 8.201932 6.784247
-12.797654 8.369713 6.399711
-2.374795 -1.442025 10.848207
-3.455264 -1.612287 10.650274
-3.502542 -1.585790 10.632312
-4.243855 -0.757627 10.220759
-4.269660 -0.709548 10.203973
-4.777752 0.324550 9.886209
-4.802904 0.373318 9.870429
-5.322158 1.399834 9.545760
-5.347032 1.448822 9.530219
-5.868053 2.474208 9.204784
-5.893033 2.522997 9.188796
-6.420980 3.554193 8.895710
-6.446789 3.603410 8.882611
-7.014904 4.615983 8.599172
-7.043710 4.663273 8.585244
-7.691188 5.620969 8.283258
-7.724490 5.664864 8.268285
-8.484259 6.526385 7.941189
-8.523665 6.564363 7.924916
-9.411810 7.280127 7.572555
-9.457147 7.310202 7.555232
-10.460948 7.840184 7.185673
-10.511144 7.860711 7.167813
-11.594497 8.195700 6.793764
-11.647486 8.207348 6.775975
-12.772441 8.367731 6.407786
-2.462484 -1.524274 10.848124
-2.623095 -1.625476 10.837280
-2.801182 -1.688459 10.814154
-2.986873 -1.713969 10.780383
-3.172250 -1.703809 10.737445
-3.350381 -1.659062 10.686409
-3.597419 -1.522855 10.593129
-3.733763 -1.406417 10.527955
-3.858850 -1.279255 10.460125
-3.976868 -1.146364 10.390600
-4.086915 -1.006344 10.322076
-4.186693 -0.856936 10.257909
-4.321755 -0.606313 10.170163
-4.401055 -0.440309 10.119331
-4.479947 -0.273644 10.070031
-4.560050 -0.107516 10.020879
-4.641625 0.057650 9.970906
-4.724780 0.221532 9.919341
-4.855924 0.476258 9.837133
-4.939308 0.639788 9.784819
-5.021913 0.803916 9.733147
-5.104243 0.968267 9.681747
-5.186797 1.132475 9.630246
-5.269703 1.296432 9.578514
-5.399544 1.552169 9.497384
-5.482742 1.715880 9.445340
-5.565923 1.879633 9.393404
-5.649066 2.043491 9.341734
-5.732197 2.207390 9.290180
-5.815424 2.371086 9.238137
-5.945795 2.625925 9.155054
-6.029534 2.789225 9.102596
-6.113388 2.953440 9.053288
-6.197363 3.118773 9.008085
-6.281712 3.284583 8.965384
-6.366774 3.450121 8.923040
-6.501657 3.706954 8.854601
-6.589497 3.870369 8.809757
-6.678584 4.033061 8.764741
-6.769059 4.194959 8.719635
-6.861106 4.355886 8.674235
-6.954846 4.515701 8.628372
-7.104933 4.762760 8.555745
-7.203640 4.919175 8.508604
-7.304521 5.074043 8.460966
-7.407707 5.227218 8.412794
-7.513327 5.378543 8.364055
-7.621500 5.527858 8.314721
-7.795838 5.756582 8.236447
-7.911071 5.899962 8.185521
-8.029228 6.040711 8.133954
-8.150472 6.178558 8.081720
-8.274797 6.313377 8.028834
-8.402246 6.444983 7.975299
-8.607591 6.643625 7.890426
-8.743178 6.766113 7.835277
-8.881931 6.884722 7.779532
-9.023827 6.999275 7.723217
-9.168810 7.109621 7.666364
-9.316811 7.215613 7.609009
-9.553811 7.372047 7.518529
-9.709130 7.466327 7.460079
-9.867144 7.555791 7.401279
-10.027686 7.640428 7.342184
-10.190582 7.720256 7.282849
-10.355689 7.795254 7.223322
-10.617565 7.902757 7.130102
-10.787625 7.965470 7.070310
-10.959341 8.023475 7.010497
-11.132561 8.076848 6.950706
-11.307139 8.125672 6.890974
-11.482936 8.170041 6.831340
-11.759600 8.230607 6.738486
-11.937939 8.264014 6.679243
-12.117066 8.293310 6.620203
-12.296860 8.318691 6.561382
-12.477226 8.340282 6.502800
-12.658075 8.358211 6.444471
174 NaN NaN
-2.354671 -1.421080 10.847785
-2.424231 -1.493479 10.849243
-2.502426 -1.556429 10.846955
-2.587714 -1.609096 10.840980
-2.678437 -1.651097 10.831494
-2.773005 -1.682410 10.818736
-2.869984 -1.703228 10.802963
-2.968125 -1.713838 10.784415
-3.066320 -1.714522 10.763300
-3.163557 -1.705504 10.739794
-3.258847 -1.686922 10.714043
-3.351162 -1.658824 10.686173
-3.439367 -1.621196 10.656314
-3.522539 -1.574582 10.624715
-3.600623 -1.520641 10.591777
-3.674063 -1.461084 10.557819
-3.743584 -1.397424 10.523043
-3.810057 -1.330957 10.487552
-3.874400 -1.262777 10.451384
-3.936999 -1.193242 10.414738
-3.997602 -1.121984 10.378047
-4.055896 -1.048618 10.341780
-4.111539 -0.972787 10.306434
-4.164159 -0.894191 10.272532
-4.213455 -0.812694 10.240542
-4.259779 -0.728781 10.210397
-4.303795 -0.643106 10.181780
-4.346200 -0.556237 10.154352
-4.387706 -0.468673 10.127764
-4.429026 -0.380875 10.101662
-4.470616 -0.293140 10.075777
-4.512541 -0.205545 10.049959
-4.554838 -0.118151 10.024066
-4.597541 -0.031020 9.997956
-4.640685 0.055786 9.971487
-4.684285 0.142215 9.944542
-4.728250 0.228329 9.917181
-4.772436 0.314242 9.889545
-4.816701 0.400070 9.861773
-4.860904 0.485932 9.834005
-4.904904 0.571944 9.806381
-4.948629 0.658167 9.778978
-4.992140 0.744554 9.751752
-5.035519 0.831044 9.724644
-5.078845 0.917579 9.697594
-5.122198 1.004101 9.670543
-5.165652 1.090554 9.643436
-5.209218 1.176928 9.616258
-5.252876 1.263236 9.589018
-5.296601 1.349493 9.561723
-5.340372 1.435713 9.534383
-5.384166 1.521909 9.507005
-5.427966 1.608094 9.479604
-5.471766 1.694279 9.452202
-5.515562 1.780473 9.424824
-5.559352 1.866687 9.397495
-5.603130 1.952930 9.370241
-5.646895 2.039209 9.343079
-5.690654 2.125505 9.315962
-5.734424 2.211780 9.288798
-5.778221 2.297999 9.261497
-5.822061 2.384124 9.233970
-5.865958 2.470117 9.206125
-5.909921 2.555982 9.177988
-5.953944 2.641814 9.149845
-5.998019 2.727722 9.122018
-6.042134 2.813814 9.094832
-6.086279 2.900190 9.068612
-6.130438 2.986930 9.043650
-6.174633 3.073982 9.019859
-6.218905 3.161224 8.996927
-6.263305 3.248542 8.974537
-6.307883 3.335827 8.952370
-6.352689 3.422971 8.930110
-6.397771 3.509877 8.907480
-6.443150 3.596527 8.884467
-6.488836 3.682937 8.861157
-6.534842 3.769118 8.837632
-6.581179 3.855087 8.813979
-6.627860 3.940857 8.790282
-6.674900 4.026430 8.766584
-6.722323 4.111785 8.742864
-6.770150 4.196901 8.719092
-6.818406 4.281751 8.695241
-6.867112 4.366313 8.671280
-6.916291 4.450563 8.647185
-6.965963 4.534482 8.622947
-7.016148 4.618054 8.598568
-7.066866 4.701263 8.574050
-7.118136 4.784091 8.549395
-7.169979 4.866523 8.524605
-7.222412 4.948539 8.499680
-7.275457 5.030118 8.474616
-7.329132 5.111239 8.449407
-7.383456 5.191879 8.424047
-7.438449 5.272016 8.398530
-7.494128 5.351625 8.372853
-7.550512 5.430683 8.347012
-7.607618 5.509166 8.321004
-7.665462 5.587050 8.294826
-7.724060 5.664309 8.268477
-7.783429 5.740918 8.241954
-7.843584 5.816851 8.215257
-7.904537 5.892081 8.188383
-7.966302 5.966581 8.161331
-8.028892 6.040324 8.134099
-8.092318 6.113282 8.106687
-8.156590 6.185426 8.079094
-8.221719 6.256727 8.051319
-8.287710 6.327159 8.023364
-8.354571 6.396694 7.995228
-8.422307 6.465302 7.966914
-8.490924 6.532956 7.938422
-8.560424 6.599625 7.909753
-8.630810 6.665284 7.880911
-8.702078 6.729907 7.851899
-8.774228 6.793467 7.822719
-8.847258 6.855938 7.793375
-8.921164 6.917292 7.763870
-8.995941 6.977505 7.734208
-9.071579 7.036556 7.704395
-9.148070 7.094424 7.674436
-9.225402 7.151087 7.644337
-9.303565 7.206525 7.614102
-9.382548 7.260715 7.583737
-9.462335 7.313644 7.553249
-9.542910 7.365298 7.522645
-9.624255 7.415663 7.491931
-9.706353 7.464727 7.461115
-9.789188 7.512475 7.430204
-9.872739 7.558899 7.399203
-9.956985 7.603994 7.368122
-10.041904 7.647755 7.336968
-10.127476 7.690180 7.305747
-10.213678 7.731263 7.274468
-10.300489 7.771002 7.243138
-10.387886 7.809400 7.211764
-10.475846 7.846461 7.180353
-10.564344 7.882189 7.148913
-10.653359 7.916591 7.117450
-10.742868 7.949670 7.085972
-10.832849 7.981435 7.054485
-10.923279 8.011897 7.022995
-11.014134 8.041067 6.991509
-11.105394 8.068956 6.960032
-11.197038 8.095578 6.928571
-11.289043 8.120944 6.897130
-11.381391 8.145070 6.865716
-11.474061 8.167971 6.834332
-11.567033 8.189663 6.802984
-11.660289 8.210162 6.771677
-11.753811 8.229486 6.740414
-11.847580 8.247650 6.709199
-11.941581 8.264674 6.678036
-12.035797 8.280574 6.646928
-12.130211 8.295370 6.615880
-12.224810 8.309079 6.584892
-12.319578 8.321721 6.553969
-12.414502 8.333313 6.523113
-12.509569 8.343875 6.492326
-12.604766 8.353425 6.461610
-12.700080 8.361981 6.430967
-12.795501 8.369564 6.400398
-12.891018 8.376190 6.369906
-12.986620 8.381878 6.339492
-13.082297 8.386644 6.309156
-13.178040 8.390508 6.278901
-13.273841 8.393485 6.248726
-13.369690 8.395595 6.218633
-13.465580 8.396854 6.188622
-13.561503 8.397280 6.158694
-13.657453 8.396891 6.128850
-13.753421 8.395705 6.099089
-13.849403 8.393737 6.069411
-0.848422 -1.050499 20.970109
-0.778860 -0.927241 21.035857
-0.717910 -0.800107 21.102740
-0.669684 -0.668260 21.170812
-0.634094 -0.532802 21.239544
-0.616099 -0.394012 21.308373
-0.615364 -0.253699 21.376452
-0.635933 -0.113947 21.442423
-0.675911 0.023003 21.505361
-0.736032 0.154414 21.563876
-0.812817 0.279057 21.617674
-0.904358 0.395607 21.666276
-1.007522 0.504173 21.710006
-1.120046 0.604920 21.749138
-0.847505 -1.048931 20.970947
-0.779699 -0.928845 21.035006
-0.778022 -0.925636 21.036707
-0.718660 -0.801749 21.101880
-0.717160 -0.798465 21.103601
-0.670219 -0.669975 21.169934
-0.669148 -0.666544 21.171690
-0.634502 -0.534550 21.238661
-0.633686 -0.531054 21.240426
-0.616209 -0.395805 21.307495
-0.615990 -0.392218 21.309252
-0.615306 -0.255500 21.375584
-0.615423 -0.251898 21.377320
-0.635520 -0.115722 21.441598
-0.636345 -0.112173 21.443247
-0.675323 0.021264 21.504568
-0.676499 0.024743 21.506153
-0.735123 0.152782 21.563163
-0.736941 0.156047 21.564589
-0.811769 0.277490 21.617005
-0.813864 0.280624 21.618343
-0.903082 0.394180 21.665695
-0.905633 0.397034 21.666858
-1.006156 0.502816 21.709466
-1.008888 0.505531 21.710546
-1.118537 0.603693 21.748673
-0.844313 -1.043475 20.973868
-0.782619 -0.934431 21.032047
-0.775102 -0.920050 21.039666
-0.721271 -0.807467 21.098883
-0.714805 -0.792652 21.106622
-0.672085 -0.675947 21.166878
-0.667283 -0.660572 21.174745
-0.635922 -0.540635 21.235589
-0.632320 -0.524959 21.243499
-0.616589 -0.402048 21.304435
-0.615609 -0.385975 21.312312
-0.615103 -0.261770 21.372563
-0.615626 -0.245628 21.380342
-0.634084 -0.121901 21.438727
-0.637782 -0.105994 21.446119
-0.673276 0.015207 21.501809
-0.678546 0.030799 21.508913
-0.731958 0.147097 21.560681
-0.740105 0.161731 21.567072
-0.808123 0.272035 21.614675
-0.817511 0.286079 21.620673
-0.898643 0.389213 21.663670
-0.910073 0.402001 21.668883
-1.001400 0.498091 21.707586
-1.013645 0.510256 21.712426
-1.113279 0.599423 21.747057
-0.836948 -1.030886 20.980605
-0.827226 -1.014270 20.989498
-0.817504 -0.997653 20.998392
-0.807782 -0.981037 21.007285
-0.798250 -0.964330 21.016205
-0.789357 -0.947319 21.025218
-0.768364 -0.907162 21.046495
-0.759471 -0.890151 21.055508
-0.751155 -0.872894 21.064590
-0.743202 -0.855482 21.073716
-0.735249 -0.838070 21.082843
-0.727296 -0.820658 21.091969
-0.709587 -0.779160 21.113612
-0.702701 -0.761351 21.122839
-0.695814 -0.743542 21.132065
-0.688928 -0.725734 21.141292
-0.682069 -0.707916 21.150520
-0.676388 -0.689728 21.159827
-0.662979 -0.646792 21.181796
-0.657299 -0.628603 21.191103
-0.652171 -0.610274 21.200430
-0.647847 -0.591742 21.209787
-0.643522 -0.573209 21.219143
-0.639198 -0.554676 21.228500
-0.630187 -0.510702 21.250593
-0.627373 -0.491885 21.259958
-0.624558 -0.473068 21.269322
-0.621743 -0.454250 21.278686
-0.618928 -0.435433 21.288051
-0.617468 -0.416454 21.297376
-0.614731 -0.371569 21.319370
-0.613571 -0.352554 21.328688
-0.612775 -0.333523 21.337981
-0.613395 -0.314428 21.347184
-0.614014 -0.295333 21.356387
-0.614633 -0.276237 21.365590
-0.617195 -0.231197 21.387202
-0.619677 -0.212163 21.396215
-0.622159 -0.193128 21.405228
-0.624641 -0.174093 21.414241
-0.627123 -0.155059 21.423254
-0.630770 -0.136158 21.432101
-0.641096 -0.091737 21.452744
-0.645470 -0.072919 21.461488
-0.649848 -0.054102 21.470232
-0.656083 -0.035657 21.478635
-0.662318 -0.017212 21.487039
-0.668552 0.001233 21.495442
-0.683957 0.044575 21.515124
-0.691962 0.062508 21.523126
-0.699966 0.080441 21.531129
-0.707971 0.098374 21.539131
-0.715976 0.116307 21.547134
-0.724656 0.133982 21.554953
-0.747407 0.174846 21.572799
-0.757045 0.192157 21.580360
-0.766683 0.209467 21.587920
-0.777495 0.226221 21.595108
-0.788602 0.242834 21.602204
-0.799708 0.259448 21.609299
-0.826165 0.298529 21.625962
-0.838565 0.314405 21.632588
-0.850964 0.330281 21.639215
-0.863364 0.346157 21.645841
-0.875763 0.362033 21.652468
-0.888399 0.377752 21.658998
-0.920317 0.413462 21.673555
-0.933838 0.428590 21.679722
-0.947360 0.443718 21.685889
-0.961455 0.458407 21.691794
-0.975940 0.472797 21.697520
-0.990425 0.487188 21.703247
-1.024619 0.521159 21.716765
-1.039912 0.534852 21.722084
-1.055220 0.548533 21.727395
-1.070529 0.562213 21.732706
-1.085837 0.575893 21.738018
-1.101150 0.589570 21.743327
21 NaN NaN
-0.848651 -1.050890 20.969899
-0.800278 -0.968211 21.014149
-0.756030 -0.883568 21.058996
-0.716460 -0.796934 21.104404
-0.682197 -0.708327 21.150310
-0.653935 -0.617834 21.196614
-0.632421 -0.525632 21.243164
-0.618417 -0.432017 21.289751
-0.612649 -0.337425 21.336101
-0.615730 -0.242434 21.381882
-0.628076 -0.147748 21.426716
-0.649835 -0.054141 21.470214
-0.680849 0.037612 21.512016
-0.720669 0.126820 21.551825
-0.768614 0.212936 21.589434
-0.823867 0.295587 21.624734
-0.885556 0.374571 21.657701
-0.952828 0.449836 21.688383
-1.024898 0.521436 21.716875
-1.101066 0.589502 21.743301
-1.180729 0.654211 21.767798
-0.827472 -1.261428 18.637662
-0.800490 -1.199857 18.637979
-0.774520 -1.137867 18.638456
-0.750106 -1.075236 18.639181
-0.727997 -1.011774 18.640266
-0.707106 -0.947904 18.641538
-0.689041 -0.883174 18.643241
-0.673152 -0.817916 18.645266
-0.659005 -0.752236 18.647550
-0.649104 -0.685816 18.650445
-0.641156 -0.619182 18.653614
-0.636656 -0.552207 18.657262
-0.636303 -0.485166 18.661466
-0.638251 -0.418150 18.665975
-0.645900 -0.351567 18.671214
-0.656882 -0.285576 18.676859
-0.671311 -0.220199 18.682924
-0.691836 -0.156586 18.689687
-0.715002 -0.093958 18.696739
-0.743128 -0.033372 18.704321
-0.775366 0.024976 18.712308
-0.810011 0.081980 18.720529
-0.850005 0.135310 18.729229
-0.892052 0.186915 18.738093
-0.936827 0.236230 18.747174
-0.984853 0.282288 18.756481
-1.034273 0.326835 18.765877
-1.086286 0.368341 18.775426
-1.139858 0.407736 18.785047
-1.194507 0.445671 18.794720
-1.251238 0.480392 18.804465
-1.308642 0.513948 18.814226
-1.367135 0.545603 18.824012
-1.426672 0.575215 18.833806
-0.826670 -1.259597 18.637672
-0.801292 -1.201689 18.637969
-0.799687 -1.198025 18.637988
-0.775246 -1.139731 18.638435
-0.773794 -1.136004 18.638478
-0.750832 -1.077100 18.639160
-0.749380 -1.073373 18.639203
-0.728636 -1.013669 18.640231
-0.727359 -1.009879 18.640301
-0.707643 -0.949830 18.641487
-0.706568 -0.945978 18.641589
-0.689578 -0.885099 18.643190
-0.688503 -0.881248 18.643291
-0.673573 -0.819870 18.645198
-0.672731 -0.815962 18.645334
-0.659426 -0.754190 18.647482
-0.658584 -0.750282 18.647618
-0.649391 -0.687793 18.650358
-0.648817 -0.683838 18.650532
-0.641290 -0.621175 18.653505
-0.641023 -0.617190 18.653722
-0.636790 -0.554200 18.657154
-0.636522 -0.550215 18.657371
-0.636265 -0.487162 18.661335
-0.636341 -0.483171 18.661598
-0.638023 -0.420130 18.665819
-0.638478 -0.416169 18.666131
-0.645672 -0.353548 18.671059
-0.646127 -0.349586 18.671370
-0.656453 -0.287522 18.676679
-0.657311 -0.283631 18.677040
-0.670882 -0.222144 18.682743
-0.671740 -0.218254 18.683104
-0.691200 -0.158471 18.689483
-0.692471 -0.154700 18.689891
-0.714166 -0.095760 18.696513
-0.715839 -0.092155 18.696964
-0.742291 -0.035174 18.704095
-0.743964 -0.031569 18.704546
-0.774343 0.023275 18.712064
-0.776390 0.026677 18.712552
-0.808821 0.080394 18.720270
-0.811201 0.083567 18.720788
-0.848815 0.133723 18.728970
-0.851195 0.136896 18.729488
-0.890720 0.185448 18.737823
-0.893384 0.188382 18.738363
-0.935495 0.234763 18.746904
-0.938159 0.237698 18.747444
-0.983403 0.280939 18.756202
-0.986304 0.283637 18.756759
-1.032726 0.325601 18.765593
-1.035821 0.328070 18.766161
-1.084739 0.367107 18.775141
-1.087833 0.369576 18.775710
-1.138232 0.406608 18.784760
-1.141483 0.408865 18.785335
-1.192882 0.444543 18.794432
-1.196150 0.446774 18.795008
-1.249549 0.479361 18.804175
-1.252927 0.481423 18.804755
-1.306902 0.513006 18.813935
-1.310382 0.514890 18.814518
-1.365395 0.544661 18.823721
-1.368875 0.546545 18.824303
-1.424891 0.574354 18.833515
-0.825123 -1.256068 18.637690
-0.802839 -1.205217 18.637951
-0.798140 -1.194496 18.638006
-0.776645 -1.143320 18.638393
-0.772394 -1.132415 18.638519
-0.752231 -1.080689 18.639118
-0.747980 -1.069783 18.639245
-0.729866 -1.017319 18.640163
-0.726128 -1.006228 18.640369
-0.708678 -0.953539 18.641390
-0.705533 -0.942268 18.641686
-0.690614 -0.888809 18.643092
-0.687468 -0.877538 18.643389
-0.674383 -0.823634 18.645067
-0.671920 -0.812198 18.645465
-0.660237 -0.757954 18.647351
-0.657906 -0.746494 18.647768
-0.649943 -0.691602 18.650190
-0.648264 -0.680029 18.650700
-0.641548 -0.625013 18.653296
-0.640765 -0.613351 18.653931
-0.637048 -0.558038 18.656944
-0.636264 -0.546376 18.657580
-0.636191 -0.491005 18.661081
-0.636415 -0.479327 18.661852
-0.637585 -0.423946 18.665519
-0.638917 -0.412353 18.666431
-0.645234 -0.357364 18.670758
-0.646566 -0.345770 18.671671
-0.655626 -0.291269 18.676331
-0.658138 -0.279884 18.677387
-0.670055 -0.225891 18.682396
-0.672567 -0.214507 18.683452
-0.689976 -0.162103 18.689090
-0.693696 -0.151068 18.690284
-0.712554 -0.099233 18.696079
-0.717451 -0.088683 18.697399
-0.740679 -0.038647 18.703661
-0.745576 -0.028097 18.704981
-0.772370 0.019999 18.711594
-0.778362 0.029953 18.713022
-0.806781 0.077165 18.719794
-0.813493 0.086624 18.721287
-0.846523 0.130667 18.728472
-0.853487 0.139953 18.729987
-0.888154 0.182621 18.737302
-0.895951 0.191209 18.738883
-0.932929 0.231937 18.746383
-0.940725 0.240524 18.747965
-0.980608 0.278342 18.755666
-0.989098 0.286234 18.757295
-1.029745 0.323222 18.765046
-1.038802 0.330449 18.766709
-1.081758 0.364728 18.774594
-1.090814 0.371955 18.776257
-1.135100 0.404434 18.784205
-1.144616 0.411039 18.785889
-1.189749 0.442368 18.793878
-1.199404 0.448760 18.795567
-1.246295 0.477376 18.803617
-1.256181 0.483409 18.805314
-1.303549 0.511192 18.813374
-1.313734 0.516704 18.815078
-1.362042 0.542847 18.823160
-1.372227 0.548359 18.824864
-1.421459 0.572695 18.832953
-0.822479 -1.250034 18.637721
-0.819080 -1.242278 18.637761
-0.815681 -1.234521 18.637800
-0.812281 -1.226764 18.637840
-0.808882 -1.219008 18.637880
-0.805483 -1.211251 18.637920
-0.795496 -1.188463 18.638037
-0.792097 -1.180706 18.638077
-0.788698 -1.172949 18.638117
-0.785299 -1.165193 18.638157
-0.782113 -1.157348 18.638231
-0.779038 -1.149458 18.638322
-0.770002 -1.126277 18.638590
-0.766926 -1.118387 18.638682
-0.763851 -1.110497 18.638773
-0.760775 -1.102607 18.638864
-0.757699 -1.094717 18.638956
-0.754624 -1.086826 18.639047
-0.745588 -1.063646 18.639316
-0.742785 -1.055658 18.639449
-0.740081 -1.047634 18.639599
-0.737377 -1.039609 18.639748
-0.734673 -1.031585 18.639897
-0.731969 -1.023561 18.640047
-0.724025 -0.999986 18.640485
-0.721321 -0.991962 18.640634
-0.718617 -0.983938 18.640784
-0.715913 -0.975914 18.640933
-0.713209 -0.967889 18.641082
-0.710506 -0.959865 18.641232
-0.703763 -0.935925 18.641853
-0.701487 -0.927771 18.642067
-0.699211 -0.919616 18.642282
-0.696935 -0.911461 18.642496
-0.694659 -0.903307 18.642711
-0.692384 -0.895152 18.642925
-0.685698 -0.871195 18.643556
-0.683422 -0.863041 18.643770
-0.681146 -0.854886 18.643985
-0.679334 -0.846619 18.644268
-0.677552 -0.838345 18.644555
-0.675770 -0.830070 18.644843
-0.670534 -0.805762 18.645688
-0.668752 -0.797487 18.645976
-0.666969 -0.789213 18.646264
-0.665187 -0.780939 18.646552
-0.663405 -0.772665 18.646839
-0.661623 -0.764390 18.647127
-0.656961 -0.739982 18.648055
-0.655747 -0.731608 18.648424
-0.654532 -0.723235 18.648794
-0.653317 -0.714862 18.649163
-0.652103 -0.706489 18.649533
-0.650888 -0.698115 18.649902
-0.647320 -0.673516 18.650988
-0.646105 -0.665143 18.651357
-0.644890 -0.656770 18.651726
-0.643676 -0.648396 18.652096
-0.642556 -0.640014 18.652479
-0.641989 -0.631576 18.652938
-0.640324 -0.606788 18.654289
-0.639757 -0.598351 18.654748
-0.639190 -0.589914 18.655208
-0.638623 -0.581476 18.655668
-0.638056 -0.573039 18.656127
-0.637489 -0.564601 18.656587
-0.635823 -0.539813 18.657937
-0.635417 -0.531373 18.658419
-0.635579 -0.522924 18.658976
-0.635741 -0.514475 18.659533
-0.635903 -0.506026 18.660090
-0.636065 -0.497577 18.660648
-0.636541 -0.472755 18.662285
-0.636702 -0.464306 18.662842
-0.636864 -0.455857 18.663400
-0.637026 -0.447408 18.663957
-0.637188 -0.438959 18.664514
-0.637350 -0.430510 18.665072
-0.639666 -0.405828 18.666945
-0.640630 -0.397440 18.667605
-0.641593 -0.389052 18.668265
-0.642557 -0.380664 18.668925
-0.643521 -0.372276 18.669585
-0.644484 -0.363888 18.670245
-0.647315 -0.339245 18.672184
-0.648279 -0.330857 18.672844
-0.649242 -0.322469 18.673504
-0.650577 -0.314147 18.674209
-0.652394 -0.305911 18.674973
-0.654212 -0.297675 18.675737
-0.659552 -0.273478 18.677982
-0.661370 -0.265242 18.678746
-0.663188 -0.257006 18.679510
-0.665005 -0.248769 18.680274
-0.666823 -0.240533 18.681038
-0.668641 -0.232297 18.681802
-0.674427 -0.208229 18.684097
-0.677118 -0.200246 18.684961
-0.679809 -0.192263 18.685825
-0.682500 -0.184279 18.686689
-0.685191 -0.176296 18.687554
-0.687883 -0.168313 18.688418
-0.695789 -0.144859 18.690956
-0.698480 -0.136875 18.691820
-0.701171 -0.128892 18.692684
-0.703862 -0.120909 18.693549
-0.706553 -0.112925 18.694413
-0.709798 -0.105170 18.695336
-0.720207 -0.082746 18.698142
-0.723750 -0.075114 18.699097
-0.727293 -0.067481 18.700052
-0.730837 -0.059848 18.701007
-0.734380 -0.052216 18.701963
-0.737923 -0.044583 18.702918
-0.748332 -0.022160 18.705724
-0.751876 -0.014527 18.706679
-0.755994 -0.007208 18.707691
-0.760329 -0.000006 18.708724
-0.764664 0.007196 18.709757
-0.768999 0.014397 18.710790
-0.781734 0.035555 18.713825
-0.786069 0.042756 18.714858
-0.790404 0.049958 18.715891
-0.794739 0.057160 18.716925
-0.799074 0.064361 18.717958
-0.803409 0.071563 18.718991
-0.817412 0.091849 18.722139
-0.822450 0.098568 18.723235
-0.827489 0.105286 18.724331
-0.832527 0.112004 18.725427
-0.837566 0.118723 18.726523
-0.842604 0.125441 18.727619
-0.857406 0.145178 18.730839
-0.862445 0.151897 18.731935
-0.867483 0.158615 18.733031
-0.872522 0.165333 18.734127
-0.878126 0.171576 18.735268
-0.883767 0.177789 18.736412
-0.900338 0.196041 18.739773
-0.905979 0.202254 18.740917
-0.911619 0.208466 18.742061
-0.917260 0.214679 18.743205
-0.922900 0.220892 18.744349
-0.928541 0.227104 18.745493
-0.945120 0.245349 18.748855
-0.951262 0.251059 18.750034
-0.957404 0.256769 18.751213
-0.963546 0.262480 18.752391
-0.969689 0.268190 18.753570
-0.975831 0.273900 18.754749
-0.993876 0.290676 18.758212
-1.000018 0.296386 18.759391
-1.006160 0.302096 18.760570
-1.012302 0.307807 18.761749
-1.018444 0.313517 18.762928
-1.024648 0.319155 18.764110
-1.043899 0.334516 18.767644
-1.050451 0.339745 18.768847
-1.057003 0.344974 18.770050
-1.063556 0.350203 18.771253
-1.070108 0.355432 18.772456
-1.076661 0.360661 18.773659
-1.095911 0.376022 18.777193
-1.102464 0.381251 18.778395
-1.109090 0.386379 18.779602
-1.115975 0.391158 18.780820
-1.122860 0.395937 18.782039
-1.129744 0.400716 18.783257
-1.149971 0.414756 18.786837
-1.156855 0.419535 18.788056
-1.163740 0.424314 18.789274
-1.170625 0.429093 18.790493
-1.177510 0.433872 18.791711
-1.184394 0.438651 18.792930
-1.204968 0.452155 18.796522
-1.212121 0.456520 18.797750
-1.219273 0.460885 18.798978
-1.226426 0.465250 18.800206
-1.233579 0.469615 18.801434
-1.240731 0.473980 18.802662
-1.261745 0.486804 18.806269
-1.268898 0.491169 18.807497
-1.276050 0.495535 18.808725
-1.283203 0.499900 18.809953
-1.290449 0.504102 18.811183
-1.297817 0.508090 18.812416
-1.319466 0.519806 18.816037
-1.326835 0.523794 18.817270
-1.334204 0.527782 18.818503
-1.341573 0.531769 18.819735
-1.348942 0.535757 18.820968
-1.356311 0.539745 18.822201
-1.377959 0.551461 18.825823
-1.385416 0.555277 18.827056
-1.392960 0.558923 18.828290
-1.400503 0.562568 18.829525
-1.408047 0.566214 18.830759
-1.415591 0.569860 18.831993
22 NaN NaN
-0.827673 -1.261886 18.637660
-0.784148 -1.162566 18.638170
-0.744766 -1.061538 18.639340
-0.710145 -0.958796 18.641251
-0.681007 -0.854388 18.643998
-0.658190 -0.748452 18.647681
-0.642639 -0.641254 18.652411
-0.635382 -0.533241 18.658295
-0.637454 -0.425087 18.665429
-0.649788 -0.317721 18.673878
-0.673054 -0.212303 18.683656
-0.707497 -0.110125 18.694716
-0.752846 -0.012436 18.706941
-0.808331 0.079741 18.720164
-0.872824 0.165737 18.734193
-0.945030 0.245266 18.748838
-1.023662 0.318368 18.763929
-1.107551 0.385311 18.779329
-1.195698 0.446497 18.794931
-1.287278 0.502387 18.810652
-1.381630 0.553447 18.826437
-1.478223 0.600127 18.842241
-0.880567 -1.513040 16.310139
-0.792207 -1.336960 16.278474
-0.715036 -1.155112 16.250578
-0.652039 -0.967278 16.227468
-0.607149 -0.773747 16.210489
-0.585250 -0.575849 16.201320
-0.591671 -0.376680 16.201805
-0.630845 -0.181605 16.213504
-0.704957 0.001869 16.237226
-0.808978 0.168338 16.271303
-0.936658 0.315374 16.313620
-1.081655 0.443364 16.362011
-1.238853 0.554224 16.414712
-1.404567 0.650312 16.470447
-0.879656 -1.511290 16.309814
-0.793064 -1.338741 16.278782
-0.791350 -1.335180 16.278167
-0.715762 -1.156957 16.250842
-0.714310 -1.153267 16.250314
-0.652595 -0.969188 16.227674
-0.651483 -0.965368 16.227262
-0.607484 -0.775715 16.210621
-0.606815 -0.771780 16.210358
-0.585300 -0.577848 16.201354
-0.585200 -0.573850 16.201286
-0.591377 -0.378657 16.201722
-0.591965 -0.374704 16.201889
-0.630366 -0.183541 16.213357
-0.631404 -0.179695 16.213679
-0.704117 0.000075 16.236955
-0.705797 0.003664 16.237498
-0.807833 0.166742 16.270926
-0.810124 0.169933 16.271680
-0.935286 0.313992 16.313163
-0.938030 0.316755 16.314076
-1.080126 0.442181 16.361499
-1.083184 0.444548 16.362522
-1.237218 0.553212 16.414163
-1.240488 0.555237 16.415262
-1.402860 0.649442 16.469872
-0.875793 -1.503863 16.308432
-0.796697 -1.346297 16.280087
-0.787717 -1.327624 16.276862
-0.718842 -1.164783 16.251960
-0.711230 -1.145441 16.249196
-0.654956 -0.977291 16.228549
-0.649122 -0.957266 16.226387
-0.608903 -0.784061 16.211176
-0.605395 -0.763433 16.209802
-0.585512 -0.586329 16.201499
-0.584989 -0.565369 16.201141
-0.590130 -0.387042 16.201368
-0.593213 -0.366319 16.202243
-0.628334 -0.191755 16.212734
-0.634219 -0.171741 16.214571
-0.700554 -0.007539 16.235804
-0.709360 0.011278 16.238649
-0.802975 0.159973 16.269325
-0.814982 0.176703 16.273280
-0.929465 0.308131 16.311227
-0.943851 0.322617 16.316013
-1.073640 0.437160 16.359328
-1.089670 0.449568 16.364693
-1.230282 0.548916 16.411833
-1.247424 0.559533 16.417592
-1.395619 0.645754 16.467432
-0.866368 -1.485741 16.305060
-0.853876 -1.461725 16.300591
-0.841385 -1.437708 16.296122
-0.829066 -1.413595 16.291711
-0.817315 -1.389163 16.287491
-0.805564 -1.364732 16.283271
-0.779340 -1.308936 16.273843
-0.768427 -1.284073 16.269905
-0.757514 -1.259209 16.265967
-0.746601 -1.234346 16.262030
-0.736319 -1.209187 16.258305
-0.726359 -1.183879 16.254689
-0.703730 -1.126337 16.246473
-0.694856 -1.100579 16.243223
-0.685981 -1.074821 16.239974
-0.677106 -1.049063 16.236724
-0.668348 -1.023263 16.233514
-0.660715 -0.997062 16.230685
-0.643363 -0.937495 16.224252
-0.636364 -0.911106 16.221637
-0.630152 -0.884485 16.219289
-0.623939 -0.857864 16.216941
-0.617727 -0.831243 16.214592
-0.612367 -0.804427 16.212533
-0.601932 -0.743067 16.208446
-0.597341 -0.716076 16.206648
-0.594366 -0.688837 16.205399
-0.591617 -0.661563 16.204227
-0.588867 -0.634290 16.203055
-0.586118 -0.607016 16.201883
-0.584472 -0.544675 16.200788
-0.583788 -0.517251 16.200319
-0.583807 -0.489837 16.200091
-0.585398 -0.462448 16.200399
-0.586988 -0.435059 16.200707
-0.588579 -0.407670 16.201015
-0.596256 -0.345859 16.203106
-0.600289 -0.318744 16.204250
-0.604322 -0.291629 16.205395
-0.610238 -0.264924 16.207185
-0.616808 -0.238361 16.209199
-0.623377 -0.211799 16.211214
-0.641086 -0.152332 16.216749
-0.650187 -0.126609 16.219634
-0.659288 -0.100887 16.222520
-0.668814 -0.075358 16.225553
-0.680337 -0.050738 16.229274
-0.691859 -0.026117 16.232996
-0.719230 0.029166 16.241864
-0.732975 0.052483 16.246355
-0.746720 0.075801 16.250847
-0.760465 0.099118 16.255338
-0.775407 0.121566 16.260246
-0.791119 0.143456 16.265421
-0.826838 0.193220 16.277185
-0.844175 0.213691 16.282927
-0.861577 0.234105 16.288691
-0.878978 0.254520 16.294455
-0.896438 0.274874 16.300240
-0.915261 0.293828 16.306502
-0.958055 0.336919 16.320738
-0.977342 0.355322 16.327163
-0.997345 0.372874 16.333840
-1.017348 0.390427 16.340516
-1.037351 0.407979 16.347193
-1.057813 0.424910 16.354032
-1.105497 0.461819 16.369990
-1.126472 0.478054 16.377009
-1.148104 0.493283 16.384262
-1.169877 0.508297 16.391564
-1.191650 0.523311 16.398867
-1.213422 0.538325 16.406169
-1.264347 0.570015 16.423278
-1.286776 0.583906 16.430814
-1.309342 0.597536 16.438399
-1.332311 0.610400 16.446128
-1.355279 0.623265 16.453857
-1.378248 0.636130 16.461586
26 NaN NaN
-0.880794 -1.513478 16.310221
-0.831808 -1.419295 16.292695
-0.785726 -1.323486 16.276147
-0.742930 -1.225983 16.260705
-0.703869 -1.126739 16.246524
-0.669067 -1.025732 16.233781
-0.639136 -0.922988 16.222685
-0.614777 -0.818602 16.213477
-0.596779 -0.712772 16.206428
-0.585999 -0.605836 16.201832
-0.583315 -0.498315 16.199995
-0.589551 -0.390939 16.201204
-0.605361 -0.284644 16.205689
-0.631114 -0.180516 16.213587
-0.666790 -0.079684 16.224899
-0.711959 0.016832 16.239488
-0.765843 0.108242 16.257096
-0.827441 0.194059 16.277384
-0.895667 0.274098 16.299984
-0.969472 0.348415 16.324536
-1.047905 0.417240 16.350716
-1.130151 0.480902 16.378241
-1.215529 0.539778 16.406875
-1.303480 0.594252 16.436426
-1.393551 0.644701 16.466735
-1.485376 0.691473 16.497674
-0.892552 -1.664718 15.149200
-0.782695 -1.417898 15.133726
-0.693805 -1.162552 15.123983
-0.633363 -0.898913 15.121852
-0.609026 -0.629770 15.129131
-0.629080 -0.360893 15.147630
-0.700009 -0.102076 15.178499
-0.818411 0.137183 15.220404
-0.978952 0.348589 15.271580
-1.168721 0.532550 15.328782
-1.379906 0.690129 15.390086
-0.891696 -1.662915 15.149074
-0.783441 -1.419751 15.133822
-0.781948 -1.416045 15.133630
-0.694337 -1.164480 15.124021
-0.693273 -1.160625 15.123944
-0.633711 -0.900883 15.121841
-0.633016 -0.896943 15.121862
-0.609023 -0.631768 15.129030
-0.609029 -0.627773 15.129231
-0.628799 -0.362866 15.147460
-0.629361 -0.358920 15.147799
-0.699291 -0.103922 15.178225
-0.700727 -0.100229 15.178773
-0.817427 0.135475 15.220069
-0.819485 0.138832 15.220757
-0.977652 0.347123 15.271178
-0.980253 0.350055 15.271982
-1.167208 0.531320 15.328338
-1.170234 0.533780 15.329227
-1.378295 0.689038 15.389624
-0.886995 -1.653023 15.148378
-0.787537 -1.429918 15.134351
-0.777852 -1.405877 15.133101
-0.697256 -1.175056 15.124232
-0.690353 -1.150048 15.123734
-0.635616 -0.911690 15.121784
-0.631110 -0.886136 15.121919
-0.609005 -0.642728 15.128479
-0.609047 -0.616813 15.129783
-0.627259 -0.373691 15.146530
-0.630901 -0.348094 15.148729
-0.695351 -0.114054 15.176722
-0.704668 -0.090098 15.180275
-0.812026 0.126100 15.218234
-0.825530 0.147775 15.222734
-0.970519 0.339082 15.268972
-0.987386 0.358096 15.274189
-1.158906 0.524570 15.325900
-1.178537 0.540530 15.331664
-1.369456 0.683049 15.387088
-0.874877 -1.627523 15.146585
-0.858757 -1.593603 15.144200
-0.842943 -1.559537 15.141899
-0.827808 -1.525149 15.139786
-0.812673 -1.490760 15.137674
-0.798096 -1.456128 15.135714
-0.767294 -1.379668 15.131738
-0.754342 -1.344370 15.130223
-0.741503 -1.309028 15.128739
-0.728808 -1.273635 15.127294
-0.717310 -1.237821 15.126172
-0.705812 -1.202006 15.125051
-0.682828 -1.122783 15.123191
-0.672817 -1.086515 15.122468
-0.663964 -1.049951 15.122054
-0.655603 -1.013262 15.121770
-0.647242 -0.976572 15.121486
-0.640529 -0.939549 15.121636
-0.626795 -0.858190 15.122223
-0.622271 -0.820839 15.122943
-0.617748 -0.783487 15.123663
-0.614321 -0.746043 15.124666
-0.611998 -0.708505 15.125952
-0.609675 -0.670968 15.127238
-0.609092 -0.588559 15.131205
-0.609393 -0.550988 15.133157
-0.612000 -0.513532 15.135687
-0.614608 -0.476076 15.138217
-0.618005 -0.438719 15.140942
-0.623288 -0.401598 15.144132
-0.636771 -0.320575 15.151588
-0.644805 -0.284014 15.155447
-0.652840 -0.247454 15.159305
-0.663340 -0.211603 15.163752
-0.674140 -0.175840 15.168270
-0.685193 -0.140171 15.172848
-0.714825 -0.063981 15.184150
-0.729601 -0.029834 15.189593
-0.745705 0.003688 15.195342
-0.761809 0.037211 15.201090
-0.779579 0.069786 15.207213
-0.798101 0.101933 15.213505
-0.841115 0.170828 15.227828
-0.861846 0.201495 15.234605
-0.883142 0.231722 15.241502
-0.905853 0.260850 15.248703
-0.928565 0.289978 15.255904
-0.952129 0.318351 15.263283
-1.005776 0.378827 15.279877
-1.031587 0.405056 15.287718
-1.057581 0.431102 15.295595
-1.083683 0.457026 15.303494
-1.111005 0.481590 15.311634
-1.138327 0.506154 15.319774
-1.199939 0.557930 15.337948
-1.228408 0.581075 15.346308
-1.257547 0.603312 15.354791
-1.287006 0.625114 15.363333
-1.316464 0.646917 15.371876
-1.346670 0.667609 15.380552
28 NaN NaN
-0.892767 -1.665168 15.149232
-0.847646 -1.570223 15.142555
-0.805282 -1.473967 15.136642
-0.765969 -1.376379 15.131567
-0.730035 -1.277454 15.127413
-0.697851 -1.177211 15.124275
-0.669831 -1.075699 15.122253
-0.646430 -0.973008 15.121458
-0.628139 -0.869286 15.122009
-0.615478 -0.764747 15.124025
-0.608977 -0.659690 15.127625
-0.609148 -0.554507 15.132919
-0.616445 -0.449685 15.139999
-0.631228 -0.345799 15.148927
-0.653712 -0.243485 15.159724
-0.683936 -0.143402 15.172368
-0.721749 -0.046179 15.186790
-0.766815 0.047633 15.202877
-0.818651 0.137599 15.220485
-0.876669 0.223421 15.239450
-0.940232 0.304941 15.259604
-1.008697 0.382119 15.280781
-1.081448 0.455017 15.302828
-1.157919 0.523768 15.325610
-1.237603 0.588551 15.349007
-1.320056 0.649575 15.372917
-1.404894 0.707061 15.397254
-1.491787 0.761233 15.421945
-0.974187 -1.774652 13.987445
-0.822016 -1.497949 14.058324
-0.697617 -1.209073 14.134344
-0.612153 -0.908030 14.216159
-0.581287 -0.598390 14.303657
-0.622317 -0.291235 14.394658
-0.743546 -0.005681 14.484135
-0.934749 0.241322 14.566600
-1.174853 0.445225 14.639503
-1.445323 0.610906 14.703164
-0.973200 -1.772967 13.987873
-0.822883 -1.499694 14.057872
-0.821182 -1.496191 14.058782
-0.698268 -1.210900 14.133855
-0.696995 -1.207238 14.134837
-0.612493 -0.909928 14.215631
-0.611831 -0.906128 14.216688
-0.581199 -0.600309 14.303098
-0.581376 -0.596472 14.304215
-0.621736 -0.293064 14.394096
-0.622899 -0.289406 14.395220
-0.742495 -0.007298 14.483607
-0.744598 -0.004064 14.484663
-0.933350 0.239973 14.566129
-0.936148 0.242671 14.567071
-1.173233 0.444127 14.639091
-1.176473 0.446323 14.639915
-1.443570 0.610013 14.702804
-0.966862 -1.762154 13.990620
-0.828602 -1.510814 14.055000
-0.815826 -1.484908 14.061722
-0.702766 -1.222513 14.130770
-0.693005 -1.195461 14.138000
-0.615273 -0.922006 14.212311
-0.609768 -0.893929 14.220086
-0.581580 -0.612637 14.299565
-0.581944 -0.584165 14.307798
-0.619038 -0.305071 14.390475
-0.626632 -0.277671 14.398823
-0.736613 -0.018155 14.480131
-0.751342 0.006311 14.488052
-0.924944 0.230805 14.562991
-0.945125 0.251326 14.570094
-1.163180 0.436647 14.636344
-1.186865 0.453370 14.642557
-1.432519 0.603954 14.700407
-0.950094 -1.733546 13.997887
-0.927750 -1.695427 14.007571
-0.906138 -1.656930 14.017406
-0.884829 -1.618277 14.027304
-0.863893 -1.579444 14.037276
-0.843732 -1.540238 14.047401
-0.801654 -1.455057 14.069500
-0.782771 -1.415281 14.079865
-0.764909 -1.375090 14.090409
-0.747452 -1.334733 14.101025
-0.730527 -1.294181 14.111728
-0.714668 -1.253239 14.122606
-0.682447 -1.164301 14.146367
-0.668380 -1.122781 14.157518
-0.655768 -1.080861 14.168868
-0.643712 -1.038787 14.180296
-0.632426 -0.996541 14.191819
-0.622627 -0.953961 14.203525
-0.604309 -0.861652 14.229075
-0.597035 -0.818644 14.241053
-0.591818 -0.775408 14.253217
-0.587354 -0.732089 14.265450
-0.583974 -0.688719 14.277761
-0.582606 -0.645256 14.290217
-0.583446 -0.551603 14.317278
-0.585448 -0.508215 14.329910
-0.590119 -0.465086 14.342624
-0.595718 -0.422046 14.355367
-0.602668 -0.379247 14.368119
-0.612020 -0.336872 14.380890
-0.636507 -0.246623 14.408358
-0.649665 -0.205252 14.421063
-0.665641 -0.164884 14.433644
-0.682545 -0.124845 14.446185
-0.700772 -0.085406 14.458630
-0.721247 -0.046987 14.470913
-0.769188 0.033763 14.497017
-0.792967 0.070341 14.508963
-0.819016 0.105408 14.520606
-0.845770 0.140004 14.532155
-0.873522 0.173823 14.543538
-0.902898 0.206375 14.554651
-0.968875 0.274225 14.578093
-1.000522 0.304737 14.588751
-1.033669 0.333716 14.599055
-1.067259 0.362243 14.609254
-1.101492 0.390031 14.619278
-1.136733 0.416661 14.629027
-1.214359 0.472013 14.649548
-1.250996 0.496855 14.658864
-1.288553 0.520391 14.667856
-1.326368 0.543562 14.676759
-1.364580 0.566113 14.685506
-1.403392 0.587730 14.694019
29 NaN NaN
-0.974434 -1.775074 13.987338
-0.921195 -1.684242 14.010412
-0.870421 -1.592140 14.033997
-0.822382 -1.498720 14.058123
-0.777389 -1.403944 14.082819
-0.735796 -1.307784 14.108113
-0.698009 -1.210231 14.134033
-0.664491 -1.111303 14.160600
-0.635767 -1.011058 14.187828
-0.612420 -0.909608 14.215719
-0.595089 -0.807140 14.244257
-0.584452 -0.703936 14.273400
-0.581195 -0.600390 14.303075
-0.585964 -0.497028 14.333167
-0.599302 -0.394500 14.363522
-0.621578 -0.293560 14.393944
-0.652922 -0.195010 14.424208
-0.693189 -0.099634 14.454081
-0.741964 -0.008115 14.483340
-0.798610 0.079021 14.511797
-0.862347 0.161439 14.539310
-0.932331 0.238990 14.565786
-1.007727 0.311684 14.591178
-1.087756 0.379650 14.615478
-1.171718 0.443099 14.638706
-1.259009 0.502289 14.660901
-1.349110 0.557496 14.682112
-1.441586 0.609004 14.702396
-1.536074 0.657085 14.721810
-1.234728 -1.781734 12.847888
-1.098382 -1.604792 12.925172
-0.973189 -1.420404 13.003836
-0.862196 -1.227719 13.083843
-0.769568 -1.026042 13.164975
-0.701944 -0.814946 13.246647
-0.666376 -0.595999 13.327526
-0.670141 -0.373284 13.405371
-0.718467 -0.153802 13.477144
-0.811761 0.053727 13.539735
-0.943463 0.242674 13.591540
-1.103354 0.411409 13.633120
-1.283363 0.560891 13.665706
-1.477507 0.693282 13.690720
-1.233550 -1.780255 12.848539
-1.099482 -1.606326 12.924511
-1.097282 -1.603258 12.925833
-0.974192 -1.421998 13.003165
-0.972186 -1.418809 13.004508
-0.863077 -1.229380 13.083161
-0.861315 -1.226058 13.084524
-0.770294 -1.027774 13.164286
-0.768842 -1.024311 13.165664
-0.702354 -0.816778 13.245958
-0.701534 -0.813113 13.247336
-0.666508 -0.597877 13.326851
-0.666245 -0.594121 13.328200
-0.669946 -0.375169 13.404731
-0.670337 -0.371400 13.406012
-0.717922 -0.155635 13.476560
-0.719012 -0.151968 13.477728
-0.810741 0.052072 13.539266
-0.812781 0.055383 13.540203
-0.942200 0.241172 13.591153
-0.944726 0.244175 13.591928
-1.101909 0.410061 13.632807
-1.104798 0.412756 13.633434
-1.281788 0.559685 13.665457
-1.284939 0.562097 13.665955
-1.475800 0.692255 13.690548
-1.227790 -1.773026 12.851717
-1.104859 -1.613822 12.921281
-1.091906 -1.595762 12.929062
-0.979094 -1.429792 12.999883
-0.967284 -1.411016 13.007789
-0.867383 -1.237498 13.079832
-0.857009 -1.217940 13.087854
-0.773842 -1.036236 13.160919
-0.765515 -1.015765 13.169035
-0.704356 -0.825732 13.242589
-0.699532 -0.804159 13.250704
-0.667152 -0.607056 13.323554
-0.665601 -0.584942 13.331497
-0.668991 -0.384378 13.401600
-0.671292 -0.362190 13.409142
-0.715260 -0.164596 13.473706
-0.721675 -0.143007 13.480582
-0.805860 0.043933 13.536947
-0.817766 0.063472 13.542494
-0.936026 0.233836 13.589258
-0.950900 0.251512 13.593822
-1.094850 0.403477 13.631275
-1.111857 0.419340 13.634966
-1.274088 0.553789 13.664238
-1.292639 0.567993 13.667174
-1.467620 0.686989 13.689604
-1.213276 -1.754807 12.859727
-1.193997 -1.730608 12.870366
-1.174718 -1.706410 12.881006
-1.155982 -1.681823 12.891721
-1.137311 -1.657190 12.902446
-1.118641 -1.632556 12.913171
-1.078357 -1.576869 12.937202
-1.060360 -1.551776 12.948014
-1.042846 -1.526371 12.958882
-1.025600 -1.500794 12.969780
-1.008354 -1.475216 12.980679
-0.991448 -1.449432 12.991613
-0.954930 -1.391375 13.016060
-0.938892 -1.365078 13.027077
-0.923422 -1.338459 13.038146
-0.907952 -1.311839 13.049214
-0.892649 -1.285132 13.060294
-0.878235 -1.257958 13.071440
-0.846331 -1.197397 13.096256
-0.833108 -1.169652 13.107471
-0.819885 -1.141907 13.118685
-0.806661 -1.114161 13.129900
-0.794663 -1.085888 13.141165
-0.782785 -1.057562 13.152434
-0.757718 -0.994004 13.177546
-0.747362 -0.965100 13.188850
-0.737006 -0.936197 13.200154
-0.727788 -0.906925 13.211462
-0.719151 -0.877464 13.222771
-0.710514 -0.848004 13.234081
-0.694485 -0.781593 13.259193
-0.687782 -0.751620 13.270469
-0.681975 -0.721467 13.281708
-0.677433 -0.691060 13.292896
-0.672890 -0.660652 13.304085
-0.668774 -0.630188 13.315246
-0.663978 -0.561810 13.339806
-0.662259 -0.531059 13.350802
-0.662698 -0.500180 13.361604
-0.663137 -0.469300 13.372407
-0.663576 -0.438421 13.383209
-0.666584 -0.407589 13.393711
-0.673699 -0.338979 13.417032
-0.679524 -0.308418 13.427126
-0.685574 -0.277880 13.437187
-0.691624 -0.247341 13.447248
-0.699637 -0.217175 13.456961
-0.708549 -0.187179 13.466514
-0.730261 -0.120953 13.487381
-0.741953 -0.091742 13.496350
-0.753644 -0.062532 13.505320
-0.766483 -0.033756 13.514009
-0.780787 -0.005535 13.522341
-0.795091 0.022686 13.530674
-0.830331 0.083858 13.548266
-0.847018 0.110935 13.555932
-0.864115 0.137773 13.563469
-0.882926 0.163612 13.570464
-0.901737 0.189451 13.577460
-0.920548 0.215289 13.584456
-0.966459 0.270002 13.598596
-0.987124 0.294562 13.604937
-1.009301 0.317914 13.610686
-1.031565 0.341197 13.616401
-1.053828 0.364480 13.622116
-1.077060 0.386882 13.627414
-1.129647 0.435935 13.638826
-1.154086 0.457148 13.643573
-1.178875 0.478003 13.648155
-1.203665 0.498858 13.652737
-1.228908 0.519195 13.657087
-1.254683 0.538931 13.661166
-1.312421 0.582380 13.670038
-1.339031 0.601067 13.673656
-1.365642 0.619754 13.677275
-1.392405 0.638232 13.680803
-1.419727 0.655944 13.684000
-1.447049 0.673655 13.687197
31 NaN NaN
-1.235023 -1.782104 12.847726
-1.172620 -1.703776 12.882164
-1.112186 -1.624039 12.916879
-1.053934 -1.542815 12.951875
-0.998110 -1.460024 12.987152
-0.944998 -1.375586 13.022709
-0.894925 -1.289423 13.058534
-0.848271 -1.201467 13.094611
-0.805471 -1.111663 13.130910
-0.767027 -1.019982 13.167386
-0.733508 -0.926434 13.203973
-0.705553 -0.831085 13.240576
-0.683859 -0.734081 13.277067
-0.669159 -0.635673 13.313276
-0.662185 -0.536243 13.348989
-0.663606 -0.436316 13.383946
-0.673950 -0.336556 13.417856
-0.693527 -0.237737 13.450412
-0.722367 -0.140676 13.481325
-0.760200 -0.046152 13.510349
-0.806486 0.045169 13.537312
-0.860490 0.132793 13.562120
-0.921366 0.216413 13.584760
-0.988246 0.295895 13.605281
-1.060301 0.371249 13.623778
-1.136777 0.442586 13.640373
-1.217010 0.510085 13.655204
-1.300433 0.573962 13.668408
-1.386565 0.634447 13.680120
-1.475002 0.691774 13.690468
-1.565407 0.746170 13.699567
-1.693810 -1.667640 11.779317
-1.509393 -1.505872 11.783602
-1.333393 -1.335130 11.791183
-1.168848 -1.153589 11.802947
-1.020519 -0.959032 11.820150
-0.897131 -0.748653 11.844821
-0.811832 -0.521754 11.879265
-0.781774 -0.283618 11.925168
-0.820627 -0.049194 11.981581
-0.925086 0.162991 12.044007
-1.077071 0.344275 12.107631
-1.257307 0.498244 12.170058
-1.454987 0.630144 12.230635
-1.692289 -1.666342 11.779345
-1.510858 -1.507232 11.783552
-1.507929 -1.504511 11.783652
-1.334785 -1.336564 11.791105
-1.332002 -1.333696 11.791261
-1.170141 -1.155111 11.802835
-1.167554 -1.152068 11.803060
-1.021676 -0.960656 11.819993
-1.019363 -0.957407 11.820307
-0.897956 -0.750458 11.844571
-0.896305 -0.746849 11.845071
-0.812306 -0.523669 11.878934
-0.811359 -0.519839 11.879596
-0.781771 -0.285573 11.924750
-0.781776 -0.281662 11.925586
-0.820099 -0.051060 11.981096
-0.821156 -0.047327 11.982066
-0.923940 0.161436 12.043487
-0.926231 0.164546 12.044527
-1.075678 0.342935 12.107117
-1.078465 0.345614 12.108145
-1.255756 0.497086 12.169556
-1.258859 0.499402 12.170560
-1.453332 0.629131 12.230148
-1.684619 -1.659791 11.779485
-1.518247 -1.514096 11.783298
-1.500540 -1.497647 11.783905
-1.341806 -1.343798 11.790712
-1.324981 -1.326462 11.791653
-1.176666 -1.162784 11.802267
-1.161030 -1.144395 11.803628
-1.027507 -0.968850 11.819201
-1.013649 -0.949139 11.821135
-0.902120 -0.759559 11.843311
-0.892141 -0.737747 11.846331
-0.814693 -0.533327 11.877264
-0.808971 -0.510181 11.881266
-0.781759 -0.295439 11.922643
-0.781788 -0.271796 11.927694
-0.817432 -0.060477 11.978649
-0.823823 -0.037910 11.984514
-0.918672 0.153254 12.040876
-0.932008 0.172390 12.047148
-1.068650 0.336179 12.104522
-1.085493 0.352370 12.110740
-1.247930 0.491244 12.167026
-1.266685 0.505243 12.173090
-1.444986 0.624026 12.227689
-1.665161 -1.643174 11.779841
-1.639306 -1.621094 11.780314
-1.613451 -1.599013 11.780786
-1.587989 -1.576486 11.781419
-1.562579 -1.553899 11.782073
-1.537169 -1.531312 11.782727
-1.481798 -1.480235 11.784548
-1.456893 -1.457099 11.785402
-1.432346 -1.433593 11.786394
-1.408018 -1.409860 11.787470
-1.383690 -1.386127 11.788546
-1.359614 -1.362148 11.789716
-1.307172 -1.308112 11.792649
-1.283783 -1.283477 11.794072
-1.260889 -1.258386 11.795673
-1.237996 -1.233294 11.797274
-1.215207 -1.208113 11.798912
-1.193216 -1.182249 11.800826
-1.144578 -1.124853 11.805101
-1.123652 -1.098147 11.807370
-1.102726 -1.071441 11.809638
-1.081800 -1.044735 11.811907
-1.061956 -1.017252 11.814519
-1.042300 -0.989634 11.817190
-1.000005 -0.927618 11.823491
-0.981875 -0.899021 11.826622
-0.963745 -0.870425 11.829753
-0.946705 -0.841220 11.833192
-0.930424 -0.811592 11.836846
-0.914142 -0.781965 11.840500
-0.881578 -0.714659 11.849527
-0.867542 -0.683980 11.853773
-0.854398 -0.652970 11.858237
-0.843085 -0.621281 11.863146
-0.831773 -0.589592 11.868055
-0.820750 -0.557826 11.873028
-0.802914 -0.485682 11.885503
-0.795120 -0.453089 11.891182
-0.790887 -0.419958 11.897560
-0.786654 -0.386827 11.903937
-0.782421 -0.353696 11.910315
-0.781729 -0.320464 11.917296
-0.781818 -0.246771 11.933041
-0.785500 -0.213888 11.940664
-0.790051 -0.181092 11.948411
-0.794601 -0.148297 11.956158
-0.801681 -0.116103 11.964191
-0.810669 -0.084363 11.972440
-0.832817 -0.014868 11.990908
-0.845872 0.015332 11.999495
-0.858927 0.045533 12.008083
-0.873072 0.075165 12.016728
-0.889638 0.103535 12.025501
-0.906205 0.131904 12.034274
-0.946662 0.192287 12.053799
-0.966135 0.218725 12.062636
-0.985724 0.245069 12.071472
-1.007541 0.269615 12.080290
-1.029359 0.294161 12.089108
-1.051176 0.318706 12.097926
-1.103321 0.369507 12.117322
-1.127011 0.392279 12.126069
-1.151876 0.413775 12.134735
-1.177058 0.434926 12.143380
-1.202241 0.456077 12.152026
-1.228078 0.476427 12.160607
-1.286536 0.520061 12.179509
-1.313422 0.539063 12.187975
-1.340767 0.557443 12.196383
-1.368111 0.575823 12.204791
-1.395681 0.593869 12.213165
-1.423814 0.611076 12.221452
29 NaN NaN
-1.694190 -1.667965 11.779310
-1.610423 -1.596427 11.780842
-1.528099 -1.523249 11.782960
-1.447411 -1.448291 11.785727
-1.368594 -1.371400 11.789214
-1.291927 -1.292404 11.793502
-1.217758 -1.211113 11.798690
-1.146512 -1.127320 11.804892
-1.078718 -1.040802 11.812241
-1.015039 -0.951332 11.820895
-0.956308 -0.858695 11.831037
-0.903567 -0.762722 11.842873
-0.858104 -0.663351 11.856629
-0.821465 -0.560720 11.872528
-0.795402 -0.455297 11.890756
-0.781696 -0.348023 11.911407
-0.781826 -0.240363 11.934410
-0.796559 -0.134191 11.959490
-0.825657 -0.031431 11.986198
-0.867927 0.066354 12.014004
-0.921574 0.158224 12.042413
-0.984640 0.243849 12.071034
-1.055307 0.323353 12.099596
-1.132044 0.397118 12.127927
-1.213621 0.465635 12.155932
-1.299076 0.529421 12.183564
-1.387664 0.588965 12.210804
-1.478807 0.644713 12.237652
-1.572056 0.697060 12.264120
-1.361214 -1.410908 9.336763
-1.230395 -1.274377 9.371042
-1.107407 -1.131157 9.406833
-0.994446 -0.980350 9.444325
-0.894547 -0.821045 9.483701
-0.813604 -0.651877 9.525217
-0.757000 -0.473715 9.568604
-0.731416 -0.288997 9.613196
-0.742696 -0.102781 9.657713
-0.794934 0.076884 9.700176
-0.881691 0.243449 9.739091
-0.994840 0.394465 9.773966
-1.127295 0.530048 9.804913
-1.273974 0.651096 9.832208
-1.430314 0.760094 9.856499
-1.359835 -1.409504 9.337116
-1.231733 -1.275819 9.370681
-1.229058 -1.272935 9.371404
-1.108641 -1.132684 9.406453
-1.106173 -1.129630 9.407214
-0.995540 -0.981975 9.443923
-0.993352 -0.978724 9.444728
-0.895445 -0.822780 9.483274
-0.893649 -0.819309 9.484127
-0.814377 -0.653668 9.524779
-0.812832 -0.650085 9.525656
-0.757451 -0.475608 9.568144
-0.756549 -0.471821 9.569063
-0.731447 -0.290941 9.612729
-0.731385 -0.287052 9.613663
-0.742256 -0.104679 9.657263
-0.743136 -0.100882 9.658163
-0.794269 0.075047 9.699743
-0.795598 0.078720 9.700608
-0.880648 0.241787 9.738704
-0.882734 0.245111 9.739477
-0.993527 0.392995 9.773629
-0.996153 0.395936 9.774303
-1.125801 0.528752 9.804620
-1.128790 0.531345 9.805207
-1.272413 0.649876 9.831934
-1.275535 0.652315 9.832482
-1.428652 0.759008 9.856258
-1.354161 -1.403727 9.338568
-1.237235 -1.281751 9.369193
-1.223556 -1.267003 9.372891
-1.113718 -1.138965 9.404887
-1.101096 -1.123348 9.408780
-1.000038 -0.988660 9.442266
-0.988853 -0.972039 9.446384
-0.899513 -0.829720 9.481562
-0.889953 -0.812172 9.485882
-0.817557 -0.661038 9.522974
-0.809652 -0.642715 9.527461
-0.759305 -0.483397 9.566255
-0.754694 -0.464032 9.570952
-0.731575 -0.298940 9.610810
-0.731257 -0.279054 9.615582
-0.740932 -0.112564 9.655388
-0.744944 -0.093073 9.660014
-0.791537 0.067495 9.697964
-0.798331 0.086273 9.702387
-0.876357 0.234950 9.737116
-0.887025 0.251948 9.741066
-0.988127 0.386946 9.772242
-1.001554 0.401985 9.775690
-1.119702 0.523370 9.803402
-1.134937 0.536677 9.806413
-1.265990 0.644860 9.830807
-1.281957 0.657331 9.833609
-1.421815 0.754542 9.855268
-1.340423 -1.389741 9.342083
-1.322228 -1.371216 9.346740
-1.304033 -1.352691 9.351396
-1.285844 -1.334159 9.356054
-1.268200 -1.315136 9.360823
-1.250556 -1.296113 9.365593
-1.210329 -1.252560 9.376510
-1.193318 -1.232999 9.381401
-1.176308 -1.213438 9.386292
-1.159297 -1.193876 9.391183
-1.142287 -1.174315 9.396074
-1.126008 -1.154172 9.401095
-1.088806 -1.108141 9.412571
-1.072645 -1.087912 9.417612
-1.057219 -1.067144 9.422774
-1.041793 -1.046376 9.427935
-1.026367 -1.025607 9.433097
-1.010941 -1.004839 9.438259
-0.977961 -0.955853 9.450393
-0.963535 -0.934415 9.455704
-0.949258 -0.912887 9.461034
-0.936010 -0.890738 9.466501
-0.922763 -0.868590 9.471968
-0.909515 -0.846442 9.477434
-0.881005 -0.794893 9.490131
-0.869154 -0.772006 9.495758
-0.857303 -0.749119 9.501386
-0.845644 -0.726146 9.507032
-0.835449 -0.702513 9.512818
-0.825254 -0.678880 9.518605
-0.802451 -0.624691 9.531867
-0.794214 -0.600343 9.537802
-0.785976 -0.575995 9.543738
-0.777739 -0.551646 9.549673
-0.769743 -0.527231 9.555621
-0.763796 -0.502254 9.561680
-0.750204 -0.445175 9.575527
-0.744896 -0.420085 9.581605
-0.741572 -0.394645 9.587744
-0.738249 -0.369205 9.593883
-0.734926 -0.343765 9.600022
-0.731885 -0.318305 9.606163
-0.730947 -0.259689 9.620229
-0.730537 -0.234040 9.626384
-0.730856 -0.208419 9.632523
-0.733540 -0.182892 9.638612
-0.736223 -0.157364 9.644701
-0.738906 -0.131837 9.650791
-0.749321 -0.074167 9.664495
-0.755120 -0.049126 9.670431
-0.760918 -0.024084 9.676367
-0.767394 0.000769 9.682250
-0.776158 0.024989 9.687954
-0.784921 0.049209 9.693658
-0.805931 0.104163 9.706587
-0.817372 0.127309 9.712002
-0.828813 0.150454 9.717416
-0.840255 0.173600 9.722831
-0.852208 0.196475 9.728175
-0.865968 0.218399 9.733270
-0.897414 0.268500 9.744912
-0.911874 0.289966 9.749888
-0.927583 0.310616 9.754654
-0.943293 0.331266 9.759421
-0.959002 0.351917 9.764187
-0.975052 0.372302 9.768885
-1.014629 0.416629 9.779047
-1.031948 0.436025 9.783494
-1.049725 0.455007 9.787835
-1.068361 0.473213 9.791981
-1.086996 0.491419 9.796126
-1.105632 0.509625 9.800272
-1.149819 0.549588 9.809333
-1.169531 0.566688 9.813200
-1.189243 0.583788 9.817068
-1.209253 0.600545 9.820850
-1.229848 0.616630 9.824464
-1.250442 0.632716 9.828078
-1.297851 0.669037 9.836228
-1.319173 0.684198 9.839612
-1.340495 0.699359 9.842996
-1.361817 0.714520 9.846379
-1.383335 0.729408 9.849695
-1.405261 0.743729 9.852871
26 NaN NaN
-1.361559 -1.411259 9.336675
-1.286074 -1.334406 9.355992
-1.212876 -1.255489 9.375778
-1.142306 -1.174339 9.396068
-1.074774 -1.090779 9.416900
-1.010780 -1.004623 9.438312
-0.950935 -0.915690 9.460342
-0.895982 -0.823815 9.483019
-0.846823 -0.728880 9.506362
-0.804537 -0.630856 9.530364
-0.770372 -0.529872 9.554981
-0.745706 -0.426289 9.580108
-0.731925 -0.320795 9.605565
-0.730223 -0.214442 9.631086
-0.741349 -0.108598 9.656334
-0.765390 -0.004770 9.680946
-0.801726 0.095657 9.704597
-0.849170 0.191636 9.727051
-0.906237 0.282556 9.748178
-0.971392 0.368203 9.767946
-1.043225 0.448656 9.786389
-1.120526 0.524176 9.803585
-1.202295 0.595110 9.819629
-1.287727 0.661837 9.834621
-1.376178 0.724732 9.848659
-1.467136 0.784146 9.861832
-1.021433 -1.470164 5.799486
-0.892162 -1.255162 5.837177
-0.782109 -1.030300 5.877860
-0.699492 -0.794731 5.922122
-0.654613 -0.550044 5.970154
-0.658395 -0.302098 6.021301
-0.722758 -0.063036 6.073667
-0.841865 0.154449 6.124349
-1.005604 0.341981 6.171117
-1.198911 0.500428 6.213394
-1.020372 -1.468493 5.799776
-0.893109 -1.256897 5.836868
-0.891216 -1.253428 5.837486
-0.782907 -1.032104 5.877529
-0.781310 -1.028496 5.878190
-0.699977 -0.796636 5.921755
-0.699006 -0.792826 5.922489
-0.654810 -0.551995 5.969763
-0.654416 -0.548093 5.970545
-0.658042 -0.304023 6.020888
-0.658748 -0.300174 6.021714
-0.722015 -0.064847 6.073257
-0.723502 -0.061225 6.074076
-0.840781 0.152815 6.123958
-0.842950 0.156084 6.124739
-1.004158 0.340644 6.170770
-1.007051 0.343318 6.171465
-1.197311 0.499271 6.213076
-1.014867 -1.459821 5.801282
-0.898021 -1.265901 5.835264
-0.886304 -1.244423 5.839089
-0.787051 -1.041466 5.875813
-0.777166 -1.019134 5.879906
-0.702498 -0.806525 5.919849
-0.696486 -0.782937 5.924394
-0.655832 -0.562125 5.967732
-0.653393 -0.537963 5.972575
-0.657034 -0.314126 6.018761
-0.660581 -0.290183 6.023860
-0.718157 -0.074248 6.071131
-0.727360 -0.051825 6.076202
-0.835150 0.144332 6.121932
-0.848581 0.164567 6.126765
-0.996650 0.333705 6.168966
-1.014559 0.350257 6.173268
-1.189008 0.493262 6.211424
-1.000822 -1.437699 5.805122
-0.982151 -1.408292 5.810228
-0.963597 -1.378817 5.815353
-0.945870 -1.348860 5.820619
-0.928144 -1.318902 5.825885
-0.910553 -1.288871 5.831173
-0.873772 -1.221453 5.843180
-0.857527 -1.190715 5.848681
-0.842085 -1.159581 5.854304
-0.826642 -1.128446 5.859927
-0.811677 -1.097101 5.865617
-0.797624 -1.065351 5.871436
-0.767479 -0.994904 5.884399
-0.755015 -0.962535 5.890425
-0.742552 -0.930166 5.896451
-0.731113 -0.897457 5.902599
-0.720474 -0.864483 5.908841
-0.709836 -0.831509 5.915083
-0.690055 -0.757709 5.929256
-0.681508 -0.724174 5.935719
-0.674817 -0.690268 5.942351
-0.668655 -0.656256 5.949031
-0.662492 -0.622244 5.955712
-0.658441 -0.587966 5.962553
-0.650784 -0.512122 5.977755
-0.650303 -0.477636 5.984819
-0.649832 -0.443150 5.991882
-0.649367 -0.408664 5.998946
-0.652153 -0.374315 6.006146
-0.654938 -0.339966 6.013345
-0.665257 -0.264696 6.029333
-0.671473 -0.230816 6.036608
-0.678457 -0.197119 6.043884
-0.688154 -0.164067 6.051164
-0.697850 -0.131016 6.058444
-0.708313 -0.098230 6.065708
-0.737203 -0.027843 6.081625
-0.751680 0.003394 6.088772
-0.767928 0.033815 6.095841
-0.784176 0.064236 6.102909
-0.801692 0.093921 6.109890
-0.820786 0.122690 6.116762
-0.864579 0.185055 6.131780
-0.886153 0.212072 6.138416
-0.907728 0.239088 6.145053
-0.930706 0.264933 6.151519
-0.954394 0.290183 6.157899
-0.978083 0.315433 6.164278
-1.033713 0.367959 6.177869
-1.059174 0.391491 6.183984
-1.085936 0.413584 6.189869
-1.112872 0.435484 6.195724
-1.139807 0.457384 6.201578
-1.167826 0.477933 6.207209
25 NaN NaN
-1.021698 -1.470581 5.799413
-0.965770 -1.382490 5.814707
-0.912668 -1.292750 5.830482
-0.862769 -1.201283 5.846773
-0.816511 -1.108020 5.863615
-0.774414 -1.012916 5.881046
-0.737082 -0.915958 5.899096
-0.705217 -0.817192 5.917793
-0.679615 -0.716749 5.937150
-0.661158 -0.614882 5.957158
-0.650772 -0.512005 5.977779
-0.649362 -0.408729 5.998933
-0.657703 -0.305870 6.020491
-0.676316 -0.204418 6.042276
-0.705350 -0.105449 6.064075
-0.744531 -0.009990 6.085662
-0.793187 0.081107 6.106829
-0.850367 0.167259 6.127408
-0.914980 0.248170 6.147284
-0.985927 0.323795 6.166391
-1.062188 0.394276 6.184708
-1.142868 0.459872 6.202243
-1.227209 0.520907 6.219025
-1.314583 0.577726 6.235093
-1.404475 0.630673 6.250491
