-1.818883 0.552855 15.452743
-1.821240 0.557913 15.442206
-1.823597 0.562971 15.431670
-1.931797 0.795010 14.948497
-2.039049 1.024826 14.470225
-2.147721 1.255413 13.992701
-2.502159 1.521904 13.875271
-1.825072 0.566136 15.425076
-1.931402 0.794162 14.950264
-1.932193 0.795859 14.946729
-2.038653 1.023978 14.471992
-2.039445 1.025675 14.468457
-2.147254 1.254524 13.994431
-2.148188 1.256302 13.990971
-2.500493 1.521004 13.874626
-1.830857 0.578549 15.399219
-1.925615 0.781748 14.976120
-1.937979 0.808272 14.920873
-2.032840 1.011544 14.497833
-2.045234 1.038091 14.442603
-2.140420 1.241517 14.019734
-2.155022 1.269309 13.965668
-2.476117 1.507848 13.865201
-1.843324 0.605294 15.343516
-1.857284 0.635232 15.281174
-1.871250 0.665174 15.218836
-1.885216 0.695118 15.156499
-1.899183 0.725061 15.094161
-1.913146 0.755001 15.031821
-1.950434 0.835008 14.865163
-1.964373 0.864932 14.802810
-1.978315 0.894857 14.740458
-1.992281 0.924800 14.678120
-2.006280 0.954766 14.615801
-2.020300 0.984748 14.553494
-2.057701 1.064835 14.386900
-2.071478 1.094643 14.324455
-2.085180 1.124396 14.261968
-2.098873 1.154143 14.199476
-2.112771 1.184037 14.137100
-2.127088 1.214230 14.074963
-2.174361 1.299283 13.913889
-2.201802 1.334889 13.860411
-2.247210 1.375395 13.824704
-2.303391 1.412989 13.817120
-2.363571 1.447969 13.825381
-2.423463 1.479526 13.845250
-3.823885 1.871226 13.964055
-5.160777 2.207168 13.956360
-5.707922 3.451048 13.858536
-6.272813 4.716398 13.792629
-7.021660 5.880348 13.718749
-8.015602 6.840050 13.635894
-9.223558 7.510084 13.547876
-10.553774 7.886272 13.459966
-11.930630 8.027330 13.375051
-13.315112 7.998410 13.293815
-2.503826 1.522803 13.875915
-3.821909 1.870916 13.964025
-3.825860 1.871535 13.964086
-5.159015 2.206223 13.956399
-5.162540 2.208113 13.956320
-5.707192 3.449188 13.858626
-5.708651 3.452908 13.858445
-6.271898 4.714622 13.792729
-6.273728 4.718174 13.792530
-7.020455 5.878756 13.718861
-7.022865 5.881941 13.718638
-8.014007 6.838849 13.636018
-8.017196 6.841251 13.635770
-9.221718 7.509310 13.548003
-9.225398 7.510858 13.547748
-10.551816 7.885886 13.460091
-10.555733 7.886658 13.459840
-11.928634 8.027260 13.375171
-11.932625 8.027400 13.374931
-13.313120 7.998554 13.293930
-2.528120 1.536729 13.884319
-3.793006 1.866384 13.963580
-3.854763 1.876067 13.964531
-5.133232 2.192401 13.956982
-5.188322 2.221935 13.955737
-5.696740 3.421891 13.859936
-5.719318 3.480122 13.857122
-6.258518 4.688642 13.794184
-6.287381 4.744011 13.791062
-7.002832 5.855456 13.720493
-7.040488 5.905241 13.717006
-7.990680 6.821280 13.637835
-8.040523 6.858820 13.633952
-9.194821 7.497944 13.549874
-9.252312 7.522183 13.545877
-10.523165 7.880237 13.461924
-10.584440 7.892011 13.458011
-11.899445 8.026234 13.376923
-11.961814 8.028422 13.373179
-13.283985 8.000672 13.295603
-2.639501 1.603696 13.914740
-2.829400 1.691849 13.937895
-3.036541 1.732979 13.945196
-3.244868 1.769540 13.951836
-3.452206 1.811479 13.958760
-3.660985 1.846052 13.961877
-3.986595 1.897578 13.966324
-4.195228 1.933205 13.966844
-4.404605 1.963968 13.965484
-4.613958 1.994425 13.964000
-4.814924 2.058974 13.960862
-5.009563 2.142001 13.958025
-5.289690 2.307233 13.949831
-5.373611 2.499695 13.930189
-5.436336 2.700548 13.907509
-5.506271 2.899366 13.888214
-5.578117 3.098049 13.875615
-5.650207 3.296812 13.865873
-5.768891 3.604019 13.851016
-5.849232 3.799589 13.841205
-5.929993 3.994986 13.831397
-6.015713 4.188238 13.821367
-6.105939 4.379425 13.811127
-6.198263 4.569601 13.800794
-6.350817 4.861378 13.784312
-6.455721 5.044876 13.773428
-6.564384 5.226171 13.762384
-6.676578 5.405284 13.751193
-6.797376 5.578665 13.739651
-6.923352 5.748343 13.727905
-7.125331 6.008113 13.709391
-7.268724 6.163268 13.697008
-7.413950 6.316737 13.684561
-7.563209 6.466199 13.671982
-7.722717 6.604657 13.659087
-7.886136 6.738535 13.646082
-8.148985 6.936337 13.625610
-8.325890 7.051746 13.612285
-8.506728 7.160892 13.598886
-8.690733 7.264597 13.585439
-8.879080 7.360120 13.571942
-9.072149 7.445749 13.558414
-9.375792 7.572421 13.537338
-9.575452 7.641200 13.523840
-9.777878 7.701537 13.510388
-9.980280 7.761944 13.496934
-10.185312 7.812570 13.483566
-10.392381 7.854331 13.470295
-10.715735 7.915165 13.449677
-10.924827 7.945188 13.436573
-11.134579 7.970329 13.423548
-11.344704 7.992158 13.410582
-11.555249 8.009526 13.397700
-11.766195 8.021143 13.384933
-12.095092 8.032765 13.365186
-12.306334 8.036241 13.352600
-12.517600 8.033409 13.340165
-12.728852 8.029221 13.327764
-12.940050 8.023008 13.315416
-13.150971 8.010397 13.303239
163 NaN NaN
-1.817704 0.550326 15.458011
-1.837644 0.593112 15.368882
-1.857600 0.635910 15.279762
-1.877565 0.678714 15.190648
-1.897531 0.721520 15.101534
-1.917492 0.764320 15.012417
-1.937438 0.807112 14.923292
-1.957366 0.849889 14.834156
-1.977293 0.892666 14.745020
-1.997258 0.935471 14.655905
-2.017295 0.978326 14.566832
-2.037359 1.021202 14.477773
-2.057314 1.063998 14.388653
-2.077009 1.106610 14.299386
-2.096525 1.149091 14.210018
-2.116392 1.191826 14.120848
-2.137069 1.235138 14.032143
-2.160619 1.279962 13.944945
-2.196008 1.329720 13.864968
-2.259783 1.386611 13.814817
-2.345348 1.438367 13.819336
-2.430917 1.483453 13.847723
-2.514933 1.528798 13.880210
-2.598406 1.579000 13.906220
-2.683493 1.630132 13.923860
-2.773401 1.674393 13.934474
-2.869423 1.704325 13.940341
-2.968449 1.723041 13.943584
-3.068221 1.737603 13.945946
-3.167664 1.754123 13.948918
-3.266499 1.773859 13.952654
-3.365145 1.794541 13.956329
-3.464105 1.813794 13.959093
-3.563508 1.830772 13.960761
-3.663142 1.846390 13.961902
-3.762830 1.861653 13.963115
-3.862459 1.877274 13.964649
-3.962004 1.893424 13.966103
-4.061448 1.910220 13.966997
-4.160819 1.927474 13.967032
-4.260303 1.944043 13.966487
-4.360097 1.958613 13.965755
-4.460230 1.970660 13.965145
-4.560215 1.983833 13.964516
-4.659130 2.003328 13.963567
-4.755172 2.033877 13.962037
-4.848133 2.072922 13.960209
-4.940234 2.113994 13.958652
-5.033736 2.151767 13.957806
-5.127355 2.189251 13.957115
-5.216104 2.236828 13.955110
-5.288867 2.305734 13.949975
-5.337103 2.393628 13.941539
-5.370228 2.488311 13.931467
-5.398799 2.584433 13.920674
-5.429280 2.679949 13.909751
-5.461790 2.774860 13.899420
-5.495499 2.869493 13.890460
-5.529626 2.964133 13.883343
-5.563908 3.058813 13.877638
-5.598209 3.153532 13.872754
-5.632469 3.248282 13.868173
-5.667058 3.342916 13.863688
-5.702506 3.437232 13.859208
-5.739276 3.531036 13.854647
-5.777158 3.624393 13.850002
-5.815535 3.717546 13.845320
-5.853813 3.810741 13.840646
-5.892019 3.903965 13.835983
-5.930810 3.996946 13.831299
-5.970857 4.089389 13.826557
-6.012409 4.181162 13.821744
-6.055040 4.272437 13.816881
-6.098271 4.363428 13.811991
-6.141815 4.454269 13.807087
-6.185911 4.544842 13.802158
-6.230881 4.634981 13.797191
-6.277003 4.724534 13.792173
-6.324370 4.813431 13.787101
-6.373019 4.901629 13.781972
-6.422961 4.989099 13.776787
-6.473972 5.075948 13.771557
-6.525720 5.162358 13.766296
-6.577912 5.248498 13.761016
-6.630855 5.334178 13.755704
-6.685326 5.418888 13.750330
-6.742074 5.502081 13.744862
-6.801029 5.583723 13.739307
-6.861100 5.664546 13.733708
-6.921164 5.745373 13.728109
-6.980893 5.826450 13.722524
-7.041639 5.906763 13.716899
-7.104937 5.985066 13.711178
-7.171656 6.060466 13.705333
-7.240591 6.133847 13.699411
-7.310174 6.206615 13.693467
-7.379184 6.279927 13.687543
-7.448316 6.353124 13.681614
-7.519005 6.424808 13.675633
-7.592487 6.493613 13.669563
-7.668498 6.559613 13.663418
-7.745930 6.623941 13.657233
-7.823775 6.687768 13.651037
-7.901843 6.751322 13.644833
-7.980763 6.813811 13.638608
-8.061168 6.874369 13.632344
-8.143317 6.932536 13.626040
-8.226914 6.988600 13.619704
-8.311643 7.042937 13.613346
-8.397256 7.095868 13.606971
-8.483648 7.147518 13.600582
-8.570737 7.197982 13.594182
-8.658498 7.247266 13.587773
-8.747149 7.294929 13.581353
-8.836954 7.340372 13.574920
-8.928085 7.383093 13.568477
-9.020213 7.423627 13.562030
-9.112813 7.463070 13.555582
-9.205437 7.502458 13.549135
-9.298209 7.541497 13.542688
-9.391703 7.578763 13.536242
-9.486420 7.612793 13.529803
-9.582307 7.643387 13.523381
-9.678770 7.672128 13.516971
-9.775270 7.700744 13.510561
-9.871572 7.730016 13.504147
-9.968071 7.758632 13.497738
-10.065211 7.784982 13.491346
-10.163205 7.807964 13.484986
-10.261746 7.828495 13.478655
-10.360500 7.847987 13.472336
-10.459224 7.867630 13.466015
-10.557982 7.887101 13.459696
-10.656951 7.905467 13.453392
-10.756269 7.921852 13.447116
-10.855897 7.936241 13.440870
-10.955725 7.949199 13.434647
-11.055662 7.961288 13.428438
-11.155675 7.972745 13.422241
-11.255771 7.983449 13.416057
-11.355960 7.993260 13.409889
-11.456246 8.002037 13.403741
-11.556630 8.009630 13.397615
-11.657108 8.015889 13.391517
-11.757661 8.020806 13.385446
-11.858258 8.024788 13.379396
-11.958873 8.028322 13.373356
-12.059491 8.031745 13.367318
-12.160127 8.034628 13.361292
-12.260791 8.036296 13.355294
-12.361471 8.036175 13.349338
-12.462141 8.034608 13.343418
-12.562802 8.032431 13.337513
-12.663467 8.030436 13.331604
-12.764133 8.028566 13.325692
-12.864786 8.026022 13.319797
-12.965391 8.021993 13.313940
-13.065915 8.016241 13.308131
-13.166370 8.009339 13.302353
-13.266789 8.001922 13.296590
-13.367217 7.994622 13.290824
-13.467694 7.988069 13.285036
-13.568249 7.982900 13.279210
