0.176090 0.176061 0.175642 0.173780 0.170829 0.168175 0.165521 0.162867 0.160617 0.159196 0.158906 0.158886 0.158866 0.158578 0.157349 0.155402 0.153733 0.152064 0.150395 0.148940 0.148021 0.147830 0.147816 0.147803 0.147613 0.146783 0.145469 0.144298 0.143127 0.141957 0.140909 0.140247 0.140108 0.140099 
0.176100 0.176110 0.176210 0.176517 0.176958 0.177421 0.177885 0.178348 0.178856 0.179209 0.179326 0.179338 0.179350 0.179465 0.179865 0.180439 0.181082 0.181725 0.182368 0.183078 0.183571 0.183724 0.183739 0.183755 0.183906 0.184432 0.185188 0.185991 0.186794 0.187597 0.188421 0.188994 0.189173 0.189191 0.189209 0.189388 0.189978 0.190826 0.191683 0.192539 0.193395 0.194246 0.194838 0.195016 0.195034 0.195052 0.195226 0.195790 0.196600 0.197384 0.198168 0.198951 0.199667 0.200165 0.200307 0.200322 0.200336 0.200476 0.200911 0.201536 0.202051 0.202567 0.203082 0.203464 0.203729 0.203798 0.203805 0.203812 0.203878 0.204046 0.204287 0.204373 0.204458 0.204543 0.204497 0.204465 0.204447 0.204445 0.204443 0.204422 0.204294 0.204111 0.203804 0.203498 0.203191 0.202794 0.202517 0.202423 0.202414 0.202404 0.202307 0.201964 0.201469 0.200939 0.200408 0.199877 0.199293 0.198888 0.198765 0.198753 0.198740 0.198615 0.198205 0.197615 0.197022 0.196429 0.195836 0.195233 0.194813 0.194689 0.194677 0.194665 0.194543 0.194144 0.193572 0.193012 0.192453 0.191894 0.191357 0.190984 0.190873 0.190862 0.190850 0.190739 0.190372 0.189846 0.189330 0.188815 0.188300 0.187782 0.187422 0.187310 0.187299 0.187288 0.187175 0.186806 0.186275 0.185730 0.185186 0.184641 0.184081 0.183692 0.183572 0.183559 0.183547 0.183424 0.183012 0.182418 0.181807 0.181195 0.180584 0.179962 0.179530 0.179397 0.179384 0.179370 0.179237 0.178796 0.178161 0.177525 0.176889 0.176253 0.175605 0.175155 0.175017 0.175004 0.174990 0.174853 0.174406 0.173763 0.173122 0.172482 0.171842 0.171207 0.170766 0.170632 0.170618 0.170605 0.170471 0.170031 0.169398 0.168775 0.168152 0.167528 0.166913 0.166485 0.166356 0.166343 0.166330 0.166201 0.165779 0.165172 0.164574 0.163976 0.163378 0.162790 0.162382 0.162259 0.162247 0.162235 0.162111 0.161708 0.161128 0.160559 0.159989 0.159419 0.158860 0.158471 0.158354 0.158343 0.158331 0.158214 0.157833 0.157285 0.156749 0.156212 0.155676 0.155150 0.154785 0.154675 0.154664 0.154653 0.154543 0.154187 0.153674 0.153175 0.152675 0.152176 0.151691 0.151353 0.151252 0.151242 0.151232 0.151130 0.150803 0.150333 0.149875 0.149418 0.148960 0.148518 0.148211 0.148119 0.148109 0.148100 0.148008 0.147710 0.147280 0.146864 0.146448 0.146033 0.145630 0.145350 0.145266 0.145257 
0.176100 0.176107 0.176224 0.176302 0.176425 0.175580 0.174735 0.173891 0.172548 0.171701 0.171536 0.171525 0.171514 0.171360 0.170553 0.169275 0.168125 0.166975 0.165825 0.164819 0.164185 0.164049 0.164040 0.164031 0.163898 0.163283 0.162308 0.161273 0.160238 0.159203 0.157972 0.157196 0.157005 0.156992 0.156979 0.156781 0.155605 0.153743 0.150841 0.147939 0.145037 0.142116 0.140272 0.139908 0.139884 0.139860 0.139506 0.138003 0.135622 0.133624 0.131626 0.129628 0.127970 0.126924 0.126722 0.126708 0.126695 0.126497 0.125715 0.124474 0.123608 0.122741 0.121874 0.121261 0.120875 0.120799 0.120794 0.120789 0.120716 0.120413 0.119932 0.119556 0.119180 0.118804 0.118504 0.118314 0.118276 0.118274 0.118271 0.118233 0.118075 0.117823 0.117619 0.117415 0.117212 0.117048 0.116944 0.116924 0.116922 0.116921 0.116901 0.116814 0.116678 0.116567 0.116455 0.116344 0.116253 0.116195 0.116184 0.116183 0.116182 0.116170 0.116121 0.116042 0.115976 0.115909 0.115842 0.115786 0.115750 0.115743 0.115742 0.115742 0.115734 0.115703 0.115652 0.115609 0.115565 0.115521 0.115483 0.115458 0.115453 0.115453 0.115452 0.115447 0.115425 0.115389 0.115355 0.115320 0.115286 0.115252 0.115231 0.115226 0.115226 
0.147817 0.147818 0.147823 0.147830 0.147840 0.147841 0.147842 0.147844 0.147837 0.147831 0.147829 0.147829 0.147828 0.147825 0.147815 0.147803 0.147784 0.147766 0.147747 0.147723 0.147705 0.147696 0.147693 0.147691 0.147682 0.147659 0.147629 0.147596 0.147564 0.147531 0.147497 0.147471 0.147458 0.147455 0.147451 0.147438 0.147408 0.147369 0.147328 0.147286 0.147244 0.147199 0.147164 0.147149 0.147145 0.147140 0.147125 0.147089 0.147042 0.146992 0.146942 0.146892 0.146840 0.146801 0.146783 0.146778 0.146772 0.146754 0.146710 0.146652 0.146590 0.146528 0.146467 0.146401 0.146352 0.146329 0.146322 0.146315 0.146292 0.146238 0.146168 0.146094 0.146020 0.145946 0.145867 0.145807 0.145780 0.145772 0.145764 0.145737 0.145675 0.145593 0.145506 0.145419 0.145332 0.145244 0.145177 0.145147 0.145139 0.145130 0.145100 0.145031 0.144940 0.144847 0.144755 0.144662 0.144568 0.144496 0.144465 0.144455 0.144446 0.144414 0.144342 0.144247 0.144151 0.144056 0.143960 0.143873 0.143806 0.143780 0.143772 0.143765 0.143739 0.143680 0.143603 0.143531 0.143459 0.143387 0.143317 0.143263 0.143240 0.143233 0.143227 0.143204 0.143155 0.143091 0.143029 0.142967 0.142905 0.142847 0.142803 0.142784 0.142778 0.142773 0.142754 0.142712 0.142657 0.142604 0.142551 0.142498 0.142446 0.142407 0.142390 0.142385 0.142380 0.142363 0.142325 0.142274 0.142227 0.142180 0.142133 0.142086 0.142050 0.142034 0.142030 0.142025 0.142011 0.141978 0.141934 0.141890 0.141845 0.141801 0.141759 0.141727 0.141713 0.141709 0.141705 0.141691 0.141659 0.141616 0.141576 0.141535 0.141495 0.141456 0.141426 0.141413 0.141409 0.141405 0.141392 0.141363 0.141324 0.141287 0.141250 0.141213 0.141176 0.141147 0.141136 0.141132 
0.158887 0.158894 0.158923 0.158979 0.159054 0.159094 0.159135 0.159176 0.159185 0.159191 0.159190 0.159190 0.159190 0.159187 0.159172 0.159151 0.159105 0.159059 0.159013 0.158944 0.158893 0.158868 0.158862 0.158856 0.158831 0.158772 0.158693 0.158614 0.158534 0.158454 0.158370 0.158307 0.158279 0.158273 0.158266 0.158238 0.158170 0.158080 0.157988 0.157896 0.157805 0.157714 0.157646 0.157615 0.157608 0.157600 0.157571 0.157502 0.157411 0.157322 0.157233 0.157143 0.157040 0.156962 0.156929 0.156921 0.156913 0.156879 0.156793 0.156678 0.156561 0.156443 0.156325 0.156193 0.156093 0.156051 0.156040 0.156030 0.155988 0.155880 0.155736 0.155581 0.155425 0.155270 0.155106 0.154982 0.154930 0.154918 0.154905 0.154854 0.154728 0.154562 0.154390 0.154218 0.154046 0.153873 0.153742 0.153686 0.153673 0.153659 0.153603 0.153469 0.153291 0.153114 0.152936 0.152759 0.152595 0.152470 0.152426 0.152416 0.152405 0.152362 0.152265 0.152136 0.152014 0.151892 0.151771 0.151661 0.151579 0.151545 0.151537 0.151529 0.151495 0.151420 0.151321 0.151228 0.151136 0.151044 0.150962 0.150900 0.150875 0.150869 0.150863 0.150838 0.150777 0.150695 0.150621 0.150547 0.150472 0.150399 0.150344 0.150323 0.150318 0.150313 0.150291 0.150238 0.150168 0.150099 0.150031 0.149963 0.149894 0.149842 0.149821 0.149816 0.149811 0.149791 0.149742 0.149678 0.149614 0.149551 0.149488 0.149426 0.149379 0.149359 0.149355 0.149350 0.149330 0.149285 0.149224 0.149163 0.149102 0.149041 0.148981 0.148936 0.148917 0.148913 
0.189181 0.189140 0.189025 0.188781 0.188462 0.188141 0.187820 0.187499 0.187178 0.186934 0.186819 0.186778 0.186736 0.186622 0.186380 0.186062 0.185746 0.185430 0.185113 0.184799 0.184559 0.184447 0.184406 0.184366 0.184253 0.184015 0.183702 0.183391 0.183080 0.182770 0.182464 0.182231 0.182122 0.182082 0.182043 0.181934 0.181703 0.181400 0.181102 0.180803 0.180505 0.180212 0.179988 0.179883 0.179846 0.179808 0.179703 0.179483 0.179195 0.178910 0.178626 0.178342 0.178061 0.177848 0.177747 0.177711 0.177675 0.177575 0.177365 0.177089 0.176819 0.176548 0.176278 0.176013 0.175811 0.175716 0.175682 0.175648 0.175554 0.175355 0.175094 0.174838 0.174582 0.174326 0.174075 0.173884 0.173794 0.173762 0.173730 0.173640 0.173452 0.173204 0.172964 0.172723 0.172483 0.172248 0.172068 0.171984 0.171954 0.171924 0.171841 0.171665 0.171434 0.171211 0.170989 0.170766 0.170548 0.170381 0.170303 0.170275 0.170247 0.170169 0.170006 0.169791 0.169587 0.169383 0.169179 0.168978 0.168825 0.168754 0.168728 0.168702 0.168631 0.168483 0.168290 0.168105 0.167920 0.167736 0.167555 0.167417 0.167352 0.167329 0.167306 0.167242 0.167112 0.166943 0.166780 0.166617 0.166455 0.166295 0.166173 0.166116 0.166096 0.166076 0.166020 0.165928 0.165806 0.165688 0.165569 0.165451 0.165334 0.165246 0.165204 0.165189 0.165176 0.165139 0.165063 0.164963 0.164864 0.164766 0.164667 0.164569 0.164494 0.164464 0.164453 0.164443 0.164413 0.164350 0.164268 0.164185 0.164103 0.164020 0.163941 0.163881 0.163856 0.163847 0.163838 0.163813 0.163760 0.163690 0.163620 0.163549 0.163479 0.163416 0.163367 0.163346 0.163339 0.163331 0.163310 0.163264 0.163204 0.163143 0.163082 0.163021 0.162969 0.162929 0.162911 0.162904 0.162898 0.162879 0.162839 0.162787 0.162735 0.162684 0.162632 0.162588 0.162554 0.162538 0.162532 0.162527 0.162510 0.162476 0.162431 0.162388 0.162345 0.162302 0.162265 0.162236 0.162223 0.162218 0.162213 0.162199 0.162170 0.162132 0.162097 0.162063 0.162028 0.161996 0.161972 0.161961 0.161957 0.161953 0.161941 0.161917 0.161885 0.161857 0.161829 0.161801 0.161775 0.161755 0.161746 0.161743 0.161739 0.161730 0.161710 0.161685 0.161663 0.161642 0.161621 0.161601 0.161585 0.161578 0.161575 0.161573 0.161565 0.161550 0.161530 0.161514 0.161498 0.161482 0.161466 0.161454 0.161448 0.161446 0.161444 0.161438 0.161427 0.161413 0.161401 0.161390 0.161379 0.161367 0.161359 0.161355 0.161353 
0.200306 0.200244 0.199966 0.199287 0.198386 0.197521 0.196656 0.195791 0.194962 0.194337 0.194089 0.194033 0.193978 0.193732 0.193135 0.192342 0.191580 0.190817 0.190055 0.189330 0.188783 0.188565 0.188517 0.188468 0.188253 0.187734 0.187045 0.186386 0.185728 0.185069 0.184440 0.183965 0.183776 0.183734 0.183692 0.183506 0.183057 0.182462 0.181895 0.181328 0.180762 0.180222 0.179816 0.179654 0.179618 0.179582 0.179424 0.179046 0.178545 0.178071 0.177597 0.177123 0.176680 0.176345 0.176212 0.176182 0.176153 0.176024 0.175722 0.175323 0.174955 0.174586 0.174218 0.173883 0.173631 0.173539 0.173519 0.173498 0.173409 0.173212 0.172952 0.172717 0.172481 0.172246 0.172038 0.171882 0.171820 0.171806 0.171792 0.171730 0.171601 0.171429 0.171265 0.171102 0.170939 0.170794 0.170684 0.170639 0.170629 0.170620 0.170575 0.170484 0.170363 0.170244 0.170125 0.170006 0.169894 0.169809 0.169775 0.169768 0.169760 0.169726 0.169656 0.169563 0.169474 0.169385 0.169297 0.169217 0.169158 0.169133 0.169128 0.169122 0.169097 0.169045 0.168976 0.168911 0.168846 0.168780 0.168724 0.168681 0.168663 0.168659 0.168655 0.168637 0.168600 0.168551 0.168504 0.168457 0.168410 0.168368 0.168337 0.168324 0.168321 
0.204424 0.204342 0.204121 0.203669 0.203076 0.202505 0.201934 0.201362 0.200812 0.200392 0.200195 0.200121 0.200048 0.199852 0.199450 0.198923 0.198415 0.197907 0.197399 0.196911 0.196538 0.196363 0.196298 0.196234 0.196061 0.195708 0.195246 0.194798 0.194350 0.193902 0.193467 0.193135 0.192979 0.192921 0.192864 0.192709 0.192390 0.191974 0.191570 0.191167 0.190764 0.190371 0.190071 0.189931 0.189878 0.189826 0.189686 0.189397 0.189019 0.188652 0.188286 0.187919 0.187569 0.187301 0.187176 0.187130 0.187083 0.186959 0.186698 0.186356 0.186020 0.185685 0.185349 0.185024 0.184776 0.184660 0.184617 0.184574 0.184458 0.184220 0.183907 0.183602 0.183297 0.182991 0.182699 0.182475 0.182371 0.182332 0.182294 0.182190 0.181976 0.181695 0.181420 0.181145 0.180870 0.180610 0.180412 0.180320 0.180285 0.180251 0.180159 0.179969 0.179720 0.179478 0.179235 0.178992 0.178768 0.178596 0.178516 0.178487 0.178457 0.178377 0.178213 0.177997 0.177786 0.177575 0.177364 0.177176 0.177032 0.176965 0.176940 0.176915 0.176848 0.176711 0.176532 0.176358 0.176184 0.176010 0.175861 0.175747 0.175694 0.175674 0.175654 0.175601 0.175491 0.175347 0.175208 0.175069 0.174929 0.174810 0.174719 0.174676 0.174659 0.174643 0.174600 0.174511 0.174394 0.174283 0.174172 0.174061 0.173967 0.173895 0.173861 0.173848 0.173835 0.173801 0.173729 0.173634 0.173544 0.173453 0.173363 0.173285 0.173226 0.173198 0.173187 0.173176 0.173148 0.173087 0.173008 0.172934 0.172859 0.172785 0.172721 0.172672 0.172648 0.172639 0.172630 0.172607 0.172557 0.172491 0.172431 0.172371 0.172310 0.172256 0.172215 0.172195 0.172188 0.172180 0.172160 0.172118 0.172063 0.172013 0.171963 0.171913 0.171870 0.171836 0.171819 0.171812 0.171806 0.171788 0.171753 0.171708 0.171667 0.171627 0.171586 0.171549 0.171521 0.171507 0.171502 0.171497 0.171483 0.171454 0.171416 0.171382 0.171349 0.171316 0.171285 0.171262 0.171251 0.171247 0.171242 0.171231 0.171207 0.171175 0.171148 0.171120 0.171093 0.171066 0.171046 0.171036 0.171033 0.171029 0.171019 0.171000 0.170974 0.170952 0.170931 0.170909 0.170888 0.170873 0.170865 0.170862 0.170859 0.170851 0.170835 0.170813 0.170796 0.170778 0.170760 0.170742 0.170728 0.170722 0.170719 0.170717 0.170710 0.170696 0.170677 0.170662 0.170647 0.170632 0.170616 0.170605 0.170599 0.170597 
0.202395 0.202318 0.202001 0.201259 0.200277 0.199370 0.198463 0.197555 0.196722 0.196093 0.195838 0.195776 0.195715 0.195462 0.194866 0.194077 0.193335 0.192593 0.191852 0.191162 0.190642 0.190433 0.190383 0.190333 0.190128 0.189648 0.189012 0.188391 0.187770 0.187148 0.186551 0.186101 0.185918 0.185874 0.185830 0.185649 0.185215 0.184641 0.184103 0.183565 0.183028 0.182521 0.182138 0.181986 0.181950 0.181914 0.181763 0.181405 0.180930 0.180492 0.180054 0.179617 0.179201 0.178888 0.178771 0.178742 0.178714 0.178597 0.178320 0.177952 0.177617 0.177282 0.176948 0.176647 0.176419 0.176327 0.176304 0.176283 0.176193 0.176001 0.175747 0.175514 0.175281 0.175048 0.174849 0.174698 0.174637 0.174622 0.174607 0.174546 0.174415 0.174241 0.174082 0.173923 0.173764 0.173634 0.173536 0.173494 0.173484 0.173474 0.173432 0.173334 0.173204 0.173092 0.172980 0.172868 0.172767 0.172691 0.172662 0.172655 0.172648 0.172619 0.172549 0.172455 0.172378 0.172300 0.172223 0.172150 0.172095 0.172076 0.172072 0.172067 0.172049 0.172002 0.171941 0.171886 0.171831 0.171777 0.171726 0.171687 0.171672 0.171668 0.171665 0.171653 0.171623 0.171584 0.171545 0.171507 0.171469 0.171435 0.171409 0.171399 0.171396 0.171393 0.171383 0.171362 0.171335 0.171308 0.171281 0.171254 0.171231 0.171214 0.171207 0.171205 
0.198736 0.198667 0.198238 0.197191 0.195796 0.194557 0.193317 0.192077 0.190979 0.190155 0.189850 0.189801 0.189752 0.189448 0.188678 0.187652 0.186697 0.185743 0.184788 0.183902 0.183238 0.182992 0.182953 0.182914 0.182670 0.182065 0.181259 0.180533 0.179807 0.179081 0.178450 0.177976 0.177802 0.177774 0.177747 0.177576 0.177172 0.176633 0.176201 0.175769 0.175337 0.175001 0.174749 0.174666 0.174652 0.174639 0.174556 0.174359 0.174097 0.173901 0.173705 0.173509 0.173353 0.173236 0.173200 0.173195 0.173189 0.173152 0.173061 0.172941 0.172855 0.172770 0.172685 0.172618 0.172568 0.172555 0.172553 0.172551 0.172539 0.172504 0.172459 0.172434 0.172410 0.172385 0.172370 0.172359 0.172356 0.172356 
0.190850 0.190803 0.190675 0.190409 0.190062 0.189729 0.189397 0.189065 0.188748 0.188506 0.188394 0.188354 0.188314 0.188203 0.187974 0.187675 0.187380 0.187085 0.186791 0.186507 0.186290 0.186189 0.186152 0.186116 0.186016 0.185808 0.185536 0.185273 0.185010 0.184747 0.184491 0.184296 0.184204 0.184170 0.184136 0.184044 0.183848 0.183591 0.183333 0.183075 0.182817 0.182567 0.182377 0.182287 0.182254 0.182222 0.182133 0.181946 0.181700 0.181459 0.181217 0.180976 0.180742 0.180564 0.180479 0.180449 0.180418 0.180333 0.180156 0.179923 0.179697 0.179470 0.179244 0.179028 0.178863 0.178785 0.178757 0.178729 0.178652 0.178491 0.178280 0.178077 0.177875 0.177672 0.177479 0.177332 0.177263 0.177237 0.177211 0.177138 0.176986 0.176787 0.176604 0.176420 0.176236 0.176062 0.175929 0.175867 0.175844 0.175822 0.175760 0.175632 0.175464 0.175314 0.175165 0.175015 0.174873 0.174765 0.174714 0.174696 0.174677 0.174627 0.174523 0.174387 0.174271 0.174155 0.174040 0.173927 0.173842 0.173802 0.173787 0.173773 0.173733 0.173656 0.173554 0.173467 0.173379 0.173292 0.173205 0.173139 0.173108 0.173096 0.173085 0.173054 0.172996 0.172921 0.172852 0.172783 0.172714 0.172646 0.172594 0.172569 0.172560 0.172551 0.172527 0.172486 0.172433 0.172381 0.172329 0.172278 0.172226 0.172187 0.172168 0.172161 0.172156 0.172142 0.172113 0.172076 0.172037 0.171997 0.171958 0.171918 0.171887 0.171876 0.171872 0.171868 0.171858 0.171836 0.171806 0.171777 0.171747 0.171718 0.171690 0.171669 0.171662 0.171659 0.171656 0.171649 0.171633 0.171612 0.171591 0.171569 0.171548 0.171530 0.171517 0.171512 0.171510 0.171509 0.171503 0.171493 0.171478 0.171464 0.171450 0.171435 0.171427 0.171421 0.171418 0.171417 0.171416 0.171413 0.171407 0.171399 0.171390 0.171382 0.171374 0.171370 0.171368 0.171367 0.171366 0.171366 0.171364 0.171361 0.171357 0.171354 0.171350 0.171347 0.171348 0.171348 0.171348 0.171348 0.171348 0.171348 0.171348 0.171348 0.171349 0.171350 0.171351 0.171354 0.171357 0.171358 0.171358 
0.183551 0.183519 0.183346 0.182912 0.182335 0.181788 0.181240 0.180693 0.180181 0.179797 0.179652 0.179624 0.179597 0.179454 0.179097 0.178624 0.178170 0.177717 0.177264 0.176829 0.176502 0.176377 0.176353 0.176330 0.176205 0.175899 0.175492 0.175100 0.174709 0.174318 0.173940 0.173656 0.173549 0.173529 0.173509 0.173403 0.173135 0.172777 0.172448 0.172119 0.171789 0.171489 0.171264 0.171176 0.171160 0.171144 0.171057 0.170857 0.170590 0.170367 0.170144 0.169921 0.169739 0.169601 0.169556 0.169547 0.169539 0.169497 0.169390 0.169247 0.169131 0.169014 0.168898 0.168808 0.168741 0.168718 0.168714 0.168709 0.168686 0.168632 0.168560 0.168503 0.168445 0.168388 0.168346 0.168314 0.168301 0.168298 0.168296 0.168283 0.168260 0.168230 0.168207 0.168183 0.168159 0.168142 0.168130 0.168127 0.168126 0.168125 0.168122 0.168113 0.168102 0.168099 0.168096 0.168093 0.168095 0.168097 0.168097 0.168097 
0.170613 0.170594 0.170481 0.170185 0.169791 0.169403 0.169015 0.168627 0.168240 0.167950 0.167841 0.167822 0.167804 0.167696 0.167416 0.167042 0.166686 0.166329 0.165972 0.165635 0.165381 0.165286 0.165269 0.165253 0.165159 0.164917 0.164595 0.164292 0.163989 0.163686 0.163398 0.163181 0.163102 0.163088 0.163074 0.162995 0.162789 0.162515 0.162259 0.162002 0.161746 0.161512 0.161336 0.161270 0.161259 0.161247 0.161181 0.161035 0.160840 0.160683 0.160525 0.160367 0.160246 0.160154 0.160121 0.160116 0.160110 0.160078 0.160007 0.159911 0.159837 0.159764 0.159690 0.159633 0.159589 0.159577 0.159575 0.159573 0.159560 0.159528 0.159485 0.159454 0.159423 0.159393 0.159371 0.159354 0.159348 0.159347 0.159346 0.159343 0.159333 0.159320 0.159312 0.159304 0.159296 0.159294 0.159293 0.159292 0.159292 0.159292 0.159290 0.159291 0.159292 0.159295 0.159298 0.159301 0.159305 0.159307 0.159308 0.159309 
0.148108 0.148104 0.148092 0.148066 0.148031 0.147996 0.147960 0.147925 0.147890 0.147863 0.147851 0.147847 0.147843 0.147830 0.147803 0.147768 0.147732 0.147697 0.147661 0.147625 0.147597 0.147584 0.147580 0.147575 0.147563 0.147535 0.147498 0.147462 0.147426 0.147390 0.147355 0.147328 0.147315 0.147311 0.147307 0.147295 0.147268 0.147233 0.147198 0.147164 0.147129 0.147095 0.147069 0.147057 0.147053 0.147049 0.147037 0.147012 0.146978 0.146944 0.146911 0.146877 0.146844 0.146819 0.146807 0.146803 0.146799 0.146788 0.146763 0.146731 0.146698 0.146666 0.146634 0.146601 0.146576 0.146564 0.146560 0.146556 0.146545 0.146520 0.146487 0.146454 0.146420 0.146387 0.146355 0.146330 0.146318 0.146315 0.146311 0.146299 0.146274 0.146241 0.146208 0.146175 0.146142 0.146110 0.146085 0.146074 0.146070 0.146066 0.146055 0.146030 0.145998 0.145969 0.145939 0.145910 0.145886 0.145868 0.145860 0.145857 0.145854 0.145846 0.145831 0.145810 0.145793 0.145775 0.145758 0.145742 0.145729 0.145724 0.145722 0.145721 0.145717 0.145708 0.145697 0.145687 0.145677 0.145667 0.145659 0.145653 0.145651 0.145650 0.145650 0.145648 0.145644 0.145640 0.145636 0.145632 0.145628 0.145628 0.145628 0.145628 0.145628 0.145628 0.145628 0.145627 0.145627 0.145629 0.145630 0.145631 0.145634 0.145637 0.145638 0.145638 0.145639 0.145640 0.145642 0.145645 0.145651 0.145657 0.145662 0.145668 0.145672 0.145674 0.145675 0.145676 0.145678 0.145683 0.145690 0.145698 0.145706 0.145714 0.145722 0.145728 0.145731 0.145731 0.145733 0.145736 0.145743 0.145753 0.145763 0.145772 0.145782 0.145792 0.145800 0.145804 0.145805 0.145806 0.145810 0.145819 0.145830 0.145841 0.145852 0.145863 0.145876 0.145885 0.145889 0.145891 0.145892 0.145897 0.145906 0.145918 0.145931 0.145944 0.145957 0.145970 0.145981 0.145985 0.145987 0.145989 0.145993 0.146004 0.146017 0.146031 0.146046 0.146060 0.146074 0.146085 0.146090 0.146092 
