-1.685405 0.681796 11.444167
-1.687861 0.687922 11.436108
-1.690317 0.694049 11.428049
-1.807868 0.992005 11.035075
-1.921462 1.286867 10.644719
-2.141034 1.579781 10.313994
-2.526947 1.831305 10.115016
-1.691899 0.697994 11.422858
-1.807395 0.990828 11.036621
-1.808340 0.993181 11.033528
-1.921004 1.285692 10.646272
-1.921919 1.288042 10.643166
-2.139573 1.578714 10.314845
-2.142496 1.580849 10.313142
-2.525281 1.830514 10.115791
-1.698320 0.714013 11.401785
-1.800954 0.974808 11.057687
-1.814781 1.009202 11.012462
-1.914773 1.269693 10.667416
-1.928151 1.304041 10.622022
-2.119664 1.564181 10.326435
-2.162405 1.595382 10.301552
-2.502600 1.819738 10.126344
-1.712022 0.748369 11.356552
-1.727168 0.786796 11.305863
-1.742219 0.825213 11.255139
-1.757237 0.863626 11.204402
-1.772263 0.902041 11.153668
-1.787387 0.940465 11.102972
-1.828659 1.043576 10.967296
-1.844344 1.082057 10.916812
-1.859749 1.120510 10.866222
-1.874838 1.158929 10.815514
-1.889071 1.197258 10.764487
-1.902754 1.235523 10.713265
-1.942652 1.338458 10.577122
-1.961719 1.377211 10.528030
-1.985274 1.416098 10.481131
-2.011923 1.454956 10.435931
-2.044462 1.493513 10.394340
-2.082738 1.531093 10.357311
-2.205878 1.626196 10.277652
-2.256380 1.659797 10.253243
-2.306652 1.693498 10.228498
-2.356712 1.727169 10.203297
-2.406270 1.760606 10.176815
-2.456851 1.792312 10.150175
-3.673325 2.181778 9.651542
-4.839954 2.493225 9.208417
-5.827451 3.145514 8.824437
-6.389548 4.265698 8.536725
-7.038789 5.333082 8.229454
-7.792110 6.322820 7.902308
-8.677842 7.186080 7.552032
-9.697777 7.874271 7.181827
-10.824322 8.360331 6.800166
-12.017349 8.646966 6.416654
-13.241549 8.758916 6.038705
-2.528612 1.832096 10.114241
-3.671540 2.181293 9.652303
-3.675110 2.182263 9.650781
-4.838097 2.492752 9.208991
-4.841810 2.493697 9.207842
-5.826514 3.143820 8.824940
-5.828388 3.147208 8.823933
-6.388600 4.264000 8.537190
-6.390495 4.267397 8.536259
-7.037707 5.331474 8.229946
-7.039871 5.334691 8.228962
-7.790823 6.321384 7.902837
-7.793396 6.324257 7.901778
-8.676349 7.184874 7.552595
-8.679345 7.187272 7.551468
-9.696094 7.873363 7.182414
-9.699460 7.875178 7.181239
-10.822518 8.359707 6.800762
-10.826126 8.360955 6.799569
-12.015468 8.646637 6.417248
-12.019230 8.647295 6.416060
-13.239635 8.758870 6.039285
-2.551293 1.842871 10.103688
-3.647186 2.174700 9.662564
-3.699421 2.188867 9.640422
-4.812812 2.486320 9.216815
-4.866941 2.500706 9.200021
-5.813753 3.120753 8.831793
-5.840865 3.170458 8.817232
-6.375693 4.240867 8.543530
-6.403402 4.290530 8.529920
-7.022975 5.309564 8.236643
-7.054603 5.356600 8.222266
-7.773450 6.301676 7.910021
-7.810921 6.343823 7.894568
-8.656021 7.168445 7.560260
-8.699839 7.203483 7.543779
-9.673179 7.861002 7.190414
-9.722350 7.887587 7.173243
-10.797948 8.351211 6.808889
-10.850697 8.369451 6.791443
-11.989848 8.642158 6.425339
-12.044850 8.651775 6.407969
-13.213581 8.758136 6.047190
-2.657916 1.885831 10.057957
-2.831821 1.944823 9.989029
-3.004576 2.005302 9.918506
-3.180721 2.055478 9.848430
-3.358997 2.098942 9.779107
-3.536177 2.144847 9.708566
-3.809910 2.218919 9.593309
-3.985374 2.266619 9.519725
-4.161846 2.314475 9.448703
-4.339288 2.362667 9.380370
-4.517562 2.411062 9.314392
-4.697930 2.457525 9.252912
-4.980518 2.534600 9.164276
-5.158354 2.594980 9.107679
-5.335322 2.659379 9.052991
-5.497836 2.750115 8.993595
-5.632344 2.876658 8.928445
-5.749998 3.020447 8.865960
-5.889756 3.281123 8.790959
-5.964847 3.457831 8.750874
-6.047854 3.630157 8.707470
-6.136233 3.799445 8.662666
-6.226545 3.967627 8.617538
-6.317477 4.135435 8.572263
-6.462603 4.395360 8.500999
-6.557735 4.560599 8.454911
-6.654417 4.724849 8.408520
-6.753059 4.887820 8.361746
-6.854201 5.049107 8.314479
-6.957076 5.209196 8.266876
-7.122463 5.455535 8.191652
-7.232142 5.610634 8.142740
-7.343337 5.764559 8.093543
-7.458262 5.915478 8.043646
-7.576455 6.063659 7.993149
-7.696041 6.210632 7.942401
-7.891148 6.432214 7.861692
-8.019253 6.571272 7.809441
-8.150078 6.707569 7.756725
-8.286204 6.838220 7.703125
-8.424010 6.967008 7.649262
-8.564395 7.092766 7.594987
-8.792931 7.277267 7.508841
-8.941079 7.393254 7.453395
-9.094062 7.502379 7.397259
-9.250557 7.606222 7.340659
-9.407676 7.709064 7.283984
-9.569210 7.804432 7.226759
-9.826312 7.944173 7.136904
-9.993208 8.029434 7.079103
-10.164289 8.105724 7.020920
-10.335962 8.180667 6.962700
-10.509263 8.251593 6.904361
-10.686081 8.313115 6.845836
-10.962846 8.406682 6.754486
-11.142951 8.457665 6.695916
-11.324407 8.503761 6.637376
-11.505786 8.550143 6.578834
-11.689255 8.587548 6.520437
-11.873621 8.620555 6.462151
-12.161771 8.669446 6.371282
-12.348000 8.690643 6.313436
-12.534104 8.712815 6.255546
-12.720689 8.730902 6.197855
-12.908015 8.741214 6.140597
-13.095305 8.752063 6.083305
168 NaN NaN
-1.684177 0.678733 11.448197
-1.707858 0.737807 11.370485
-1.731127 0.796839 11.292616
-1.754195 0.855850 11.214672
-1.777278 0.914863 11.136734
-1.800589 0.973899 11.058882
-1.824340 1.032980 10.981196
-1.848436 1.092095 10.903643
-1.871950 1.151152 10.825868
-1.893814 1.210032 10.747482
-1.914412 1.268766 10.668642
-1.937390 1.327762 10.590672
-1.966671 1.387275 10.515280
-2.005254 1.447053 10.444456
-2.055194 1.506230 10.380622
-2.118243 1.563144 10.327262
-2.191623 1.616712 10.284542
-2.269203 1.668329 10.247045
-2.346306 1.720148 10.208858
-2.422436 1.771514 10.168177
-2.500883 1.818922 10.127143
-2.584484 1.858639 10.088245
-2.672324 1.891166 10.052014
-2.761704 1.920709 10.016972
-2.850587 1.951277 9.981550
-2.938814 1.982921 9.945435
-3.027473 2.013095 9.909130
-3.117464 2.039459 9.873150
-3.208520 2.062518 9.837566
-3.299938 2.084359 9.802134
-3.391141 2.106879 9.766575
-3.481930 2.130387 9.730598
-3.572280 2.154471 9.693903
-3.662196 2.178754 9.656285
-3.751846 2.203111 9.618083
-3.841467 2.227511 9.579844
-3.931272 2.251932 9.542050
-4.021332 2.276381 9.504887
-4.111674 2.300877 9.468445
-4.202307 2.325441 9.432782
-4.293180 2.350105 9.397804
-4.384226 2.374910 9.363379
-4.475458 2.399789 9.329505
-4.567133 2.424334 9.296600
-4.659540 2.448061 9.265178
-4.752688 2.471023 9.235418
-4.845931 2.494746 9.206567
-4.938491 2.521006 9.177726
-5.029915 2.550578 9.148467
-5.120777 2.581982 9.119356
-5.211859 2.613487 9.091052
-5.302910 2.645653 9.063410
-5.391571 2.683201 9.034911
-5.474187 2.731137 9.004138
-5.548136 2.790477 8.971172
-5.615153 2.857266 8.937520
-5.678036 2.928201 8.904324
-5.737660 3.002519 8.872565
-5.792133 3.081673 8.843405
-5.839170 3.166696 8.818143
-5.879462 3.256104 8.796481
-5.916910 3.347119 8.776394
-5.955477 3.437552 8.755824
-5.996611 3.526573 8.734092
-6.039786 3.614433 8.711598
-6.084437 3.701461 8.688750
-6.130068 3.787938 8.665749
-6.176235 3.874108 8.642660
-6.222536 3.960197 8.619538
-6.268943 4.046221 8.596385
-6.315629 4.132078 8.573176
-6.362753 4.217673 8.549886
-6.410350 4.302982 8.526507
-6.458401 4.388013 8.503041
-6.506885 4.472772 8.479487
-6.555786 4.557269 8.455849
-6.605088 4.641509 8.432133
-6.654796 4.725490 8.408339
-6.705006 4.809143 8.384447
-6.755844 4.892380 8.360431
-6.807386 4.975142 8.336276
-6.859514 5.057503 8.312005
-6.912064 5.139571 8.287654
-6.964962 5.221395 8.263236
-7.018434 5.302812 8.238706
-7.072764 5.383608 8.214011
-7.128084 5.463670 8.189124
-7.184120 5.543191 8.164101
-7.240535 5.622420 8.139006
-7.297220 5.701441 8.113862
-7.354573 5.779937 8.088592
-7.413050 5.857530 8.063111
-7.472779 5.934085 8.037396
-7.533299 6.009969 8.011538
-7.594100 6.085611 7.985630
-7.655100 6.161080 7.959687
-7.716884 6.235859 7.933601
-7.780063 6.309371 7.907265
-7.844689 6.381523 7.880673
-7.910111 6.452904 7.853945
-7.975676 6.524145 7.827194
-8.041403 6.595227 7.800417
-8.108038 6.665397 7.773483
-8.176300 6.733873 7.746272
-8.246093 6.800687 7.718810
-8.316620 6.866681 7.691232
-8.387142 6.932681 7.663658
-8.457828 6.998494 7.636057
-8.529534 7.063121 7.608292
-8.603009 7.125602 7.580249
-8.677975 7.186188 7.551982
-8.753551 7.245971 7.523629
-8.828997 7.305929 7.495298
-8.904642 7.365621 7.466938
-8.981380 7.423817 7.438416
-9.059904 7.479450 7.409642
-9.139763 7.533058 7.380691
-9.220074 7.585960 7.351686
-9.300171 7.639202 7.322712
-9.380516 7.692048 7.293704
-9.461970 7.743081 7.264552
-9.545092 7.791226 7.235198
-9.629319 7.837343 7.205724
-9.713826 7.882928 7.176224
-9.798087 7.928984 7.146753
-9.882637 7.974485 7.117250
-9.968247 8.017874 7.087633
-10.055301 8.058191 7.057882
-10.143198 8.096593 7.028066
-10.231221 8.134703 6.998244
-10.319008 8.173366 6.968441
-10.407101 8.211305 6.938613
-10.496150 8.246874 6.908716
-10.586360 8.279338 6.878758
-10.677162 8.310095 6.848780
-10.767967 8.340844 6.818805
-10.858576 8.372175 6.788837
-10.949481 8.402621 6.758857
-11.041199 8.430491 6.728861
-11.133783 8.455354 6.698872
-11.226745 8.478786 6.668897
-11.319633 8.502511 6.638920
-11.412373 8.526801 6.608938
-11.505380 8.550054 6.578964
-11.599035 8.570584 6.549030
-11.693285 8.588306 6.519160
-11.787750 8.604912 6.489321
-11.882105 8.622101 6.459467
-11.976361 8.639799 6.429598
-12.070840 8.656319 6.399762
-12.165795 8.670026 6.370021
-12.261118 8.681193 6.340385
-12.356542 8.691572 6.310786
-12.451861 8.702777 6.281149
-12.547124 8.714404 6.251492
-12.642551 8.724746 6.221895
-12.738283 8.732289 6.192442
-12.834209 8.737585 6.163120
-12.930176 8.742304 6.133834
-13.026083 8.747856 6.104497
-13.121968 8.753684 6.075142
-13.217938 8.758347 6.045860
-13.314041 8.760661 6.016737
-13.410216 8.761002 5.987759
-13.506414 8.760325 5.958860
-13.602614 8.759585 5.929966
-13.698794 8.759736 5.901002
-13.794911 8.761733 5.871902
