0.133005 0.133000 0.132938 0.132667 0.132238 0.131848 0.131457 0.131067 0.130715 0.130493 0.130445 0.130441 0.130437 0.130389 0.130180 0.129850 0.129536 0.129222 0.128907 0.128607 0.128417 0.128376 0.128372 0.128369 0.128327 0.128143 0.127852 0.127567 0.127283 0.126998 0.126716 0.126538 0.126499 0.126495 0.126492 0.126453 0.126275 0.125992 0.125711 0.125430 0.125149 0.124873 0.124698 0.124660 0.124656 0.124653 0.124615 0.124444 0.124174 0.123912 0.123651 0.123390 0.123138 0.122979 0.122944 0.122941 0.122938 0.122904 0.122751 0.122508 0.122278 0.122048 0.121818 0.121600 0.121463 0.121433 0.121430 0.121427 0.121398 0.121266 0.121059 0.120865 0.120670 0.120476 0.120293 0.120178 0.120152 0.120150 0.120148 0.120123 0.120014 0.119841 0.119678 0.119516 0.119353 0.119200 0.119103 0.119082 0.119080 
0.133008 0.133011 0.133041 0.133118 0.133220 0.133315 0.133411 0.133507 0.133601 0.133672 0.133698 0.133701 0.133705 0.133731 0.133801 0.133895 0.133992 0.134089 0.134187 0.134290 0.134367 0.134397 0.134401 0.134405 0.134435 0.134521 0.134635 0.134762 0.134888 0.135014 0.135151 0.135254 0.135293 0.135298 0.135303 0.135342 0.135452 0.135600 0.135756 0.135912 0.136068 0.136233 0.136356 0.136402 0.136407 0.136413 0.136459 0.136588 0.136760 0.136938 0.137116 0.137293 0.137477 0.137614 0.137665 0.137671 0.137677 0.137728 0.137869 0.138057 0.138250 0.138443 0.138635 0.138832 0.138980 0.139035 0.139041 0.139048 0.139103 0.139254 0.139457 0.139662 0.139868 0.140074 0.140283 0.140441 0.140499 0.140506 0.140514 0.140572 0.140733 0.140948 0.141167 0.141386 0.141605 0.141828 0.141995 0.142057 0.142064 0.142072 0.142134 0.142305 0.142533 0.142766 0.142998 0.143230 0.143468 0.143646 0.143712 0.143720 0.143729 0.143795 0.143976 0.144219 0.144467 0.144714 0.144962 0.145214 0.145403 0.145473 0.145482 0.145490 0.145560 0.145753 0.146010 0.146273 0.146536 0.146800 0.147069 0.147272 0.147346 0.147355 0.147365 0.147439 0.147645 0.147919 0.148199 0.148478 0.148758 0.149043 0.149258 0.149337 0.149346 0.149356 0.149436 0.149654 0.149946 0.150244 0.150542 0.150840 0.151146 0.151374 0.151458 0.151469 0.151479 0.151563 0.151796 0.152106 0.152424 0.152741 0.153059 0.153383 0.153627 0.153716 0.153727 0.153739 0.153829 0.154077 0.154409 0.154748 0.155087 0.155427 0.155775 0.156035 0.156132 0.156144 0.156155 0.156252 0.156519 0.156875 0.157241 0.157607 0.157973 0.158349 0.158631 0.158735 0.158748 0.158761 0.158866 0.159156 0.159544 0.159943 0.160341 0.160740 0.161151 0.161459 0.161573 0.161587 0.161602 0.161717 0.162035 0.162459 0.162895 0.163332 0.163768 0.164219 0.164557 0.164683 0.164699 0.164714 0.164840 0.165187 0.165650 0.166130 0.166610 0.167090 0.167583 0.167953 0.168090 0.168107 0.168124 0.168261 0.168642 0.169150 0.169671 0.170193 0.170714 0.171254 0.171659 0.171808 0.171827 0.171845 0.171995 0.172409 0.172962 0.173534 0.174106 0.174677 0.175261 0.175698 0.175860 0.175880 0.175900 0.176062 0.176510 0.177108 0.177726 0.178345 0.178963 0.179598 0.180074 0.180250 0.180272 0.180294 0.180471 0.180959 0.181610 0.182280 0.182949 0.183619 0.184309 0.184826 0.185018 0.185042 0.185066 0.185258 0.185791 0.186503 0.187237 0.187971 0.188705 0.189456 0.190018 0.190227 0.190252 
0.133007 0.133006 0.133003 0.132949 0.132863 0.132588 0.132314 0.132039 0.131773 0.131605 0.131563 0.131560 0.131557 0.131512 0.131342 0.131072 0.130848 0.130624 0.130400 0.130217 0.130102 0.130079 0.130077 0.130075 0.130052 0.129956 0.129804 0.129659 0.129515 0.129370 0.129207 0.129104 0.129079 0.129077 0.129075 0.129050 0.128925 0.128728 0.128412 0.128096 0.127780 0.127268 0.126945 0.126859 0.126853 0.126846 0.126758 0.126310 0.125602 0.124688 0.123774 0.122860 0.121865 0.121237 0.121100 0.121090 0.121079 0.120943 0.120377 0.119480 0.118828 0.118175 0.117522 0.117099 0.116832 0.116782 0.116778 0.116774 0.116726 0.116537 0.116237 0.116038 0.115839 0.115639 0.115501 0.115413 0.115396 0.115395 0.115393 0.115376 0.115309 0.115202 0.115120 0.115037 0.114955 0.114888 0.114845 0.114836 0.114836 0.114835 0.114827 0.114790 0.114732 0.114683 0.114634 0.114584 0.114542 0.114515 0.114509 0.114509 0.114508 0.114503 0.114479 0.114442 0.114409 0.114377 0.114345 0.114317 0.114300 0.114296 0.114296 0.114296 0.114292 0.114277 0.114253 0.114232 0.114212 0.114192 0.114175 0.114164 0.114161 0.114161 0.114161 0.114159 0.114150 0.114135 0.114123 0.114110 0.114098 0.114088 0.114082 0.114080 0.114080 0.114080 0.114079 0.114073 0.114065 0.114058 0.114050 0.114043 0.114037 0.114033 0.114032 0.114032 0.114032 0.114031 0.114028 0.114022 0.114016 0.114010 0.114004 0.113997 0.113992 0.113991 0.113991 
0.120151 0.120152 0.120155 0.120163 0.120174 0.120185 0.120195 0.120205 0.120214 0.120220 0.120223 0.120224 0.120225 0.120227 0.120234 0.120242 0.120248 0.120255 0.120261 0.120267 0.120271 0.120273 0.120273 0.120273 0.120275 0.120278 0.120282 0.120285 0.120287 0.120290 0.120291 0.120292 0.120292 0.120292 0.120292 0.120293 0.120292 0.120292 0.120290 0.120288 0.120286 0.120282 0.120279 0.120277 0.120277 0.120276 0.120274 0.120270 0.120264 0.120255 0.120247 0.120239 0.120233 0.120229 0.120228 0.120228 0.120227 0.120227 0.120223 0.120219 0.120214 0.120210 0.120205 0.120198 0.120194 0.120191 0.120191 0.120190 0.120188 0.120182 0.120175 0.120167 0.120158 0.120150 0.120140 0.120133 0.120130 0.120129 0.120129 0.120125 0.120117 0.120106 0.120095 0.120084 0.120073 0.120060 0.120051 0.120047 0.120045 0.120044 0.120040 0.120030 0.120017 0.120004 0.119990 0.119977 0.119963 0.119953 0.119948 0.119947 0.119946 0.119941 0.119930 0.119916 0.119902 0.119888 0.119874 0.119859 0.119848 0.119843 0.119842 0.119841 0.119836 0.119825 0.119811 0.119796 0.119782 0.119767 0.119753 0.119742 0.119737 0.119736 0.119734 0.119730 0.119719 0.119704 0.119689 0.119675 0.119660 0.119646 0.119635 0.119630 0.119629 
0.122941 0.122940 0.122936 0.122927 0.122915 0.122902 0.122889 0.122875 0.122861 0.122850 0.122845 0.122844 0.122843 0.122838 0.122826 0.122811 0.122794 0.122778 0.122761 0.122743 0.122730 0.122724 0.122722 0.122721 0.122715 0.122700 0.122681 0.122661 0.122641 0.122620 0.122599 0.122582 0.122575 0.122574 0.122572 0.122565 0.122547 0.122524 0.122500 0.122475 0.122451 0.122425 0.122405 0.122397 0.122395 0.122393 0.122384 0.122364 0.122338 0.122309 0.122281 0.122253 0.122224 0.122202 0.122192 0.122190 0.122187 0.122178 0.122156 0.122128 0.122108 0.122088 0.122069 0.122049 0.122034 0.122028 0.122027 0.122025 0.122019 0.122004 0.121985 0.121967 0.121948 0.121929 0.121911 0.121897 0.121891 0.121890 0.121888 0.121883 0.121869 0.121850 0.121833 0.121815 0.121797 0.121779 0.121766 0.121760 0.121759 0.121757 0.121752 0.121739 0.121722 0.121704 0.121687 0.121670 0.121654 0.121641 0.121636 0.121635 0.121633 0.121628 0.121616 0.121599 0.121584 0.121568 0.121552 0.121537 0.121525 0.121520 0.121519 0.121518 0.121513 0.121502 0.121487 0.121472 0.121458 0.121443 0.121429 0.121418 0.121413 0.121412 0.121411 0.121406 0.121396 0.121382 0.121368 0.121354 0.121341 0.121327 0.121317 0.121312 0.121311 
0.126495 0.126493 0.126483 0.126456 0.126420 0.126381 0.126343 0.126305 0.126264 0.126233 0.126221 0.126219 0.126217 0.126205 0.126173 0.126129 0.126083 0.126036 0.125990 0.125939 0.125901 0.125886 0.125884 0.125881 0.125866 0.125825 0.125771 0.125712 0.125654 0.125595 0.125533 0.125486 0.125467 0.125464 0.125461 0.125442 0.125392 0.125326 0.125255 0.125185 0.125115 0.125041 0.124985 0.124964 0.124960 0.124957 0.124935 0.124879 0.124804 0.124752 0.124700 0.124649 0.124601 0.124564 0.124550 0.124548 0.124546 0.124532 0.124497 0.124452 0.124408 0.124365 0.124322 0.124281 0.124251 0.124239 0.124237 0.124236 0.124224 0.124196 0.124158 0.124123 0.124089 0.124054 0.124021 0.123997 0.123988 0.123987 0.123986 0.123977 0.123955 0.123925 0.123898 0.123871 0.123844 0.123819 0.123801 0.123794 0.123792 0.123791 0.123784 0.123767 0.123744 0.123722 0.123700 0.123679 0.123658 0.123643 0.123638 0.123637 
0.128372 0.128372 0.128371 0.128369 0.128366 0.128363 0.128359 0.128355 0.128350 0.128346 0.128344 0.128343 0.128343 0.128340 0.128335 0.128329 0.128321 0.128314 0.128306 0.128297 0.128290 0.128287 0.128286 0.128284 0.128281 0.128274 0.128264 0.128253 0.128242 0.128231 0.128220 0.128211 0.128207 0.128206 0.128205 0.128201 0.128192 0.128182 0.128171 0.128160 0.128149 0.128139 0.128131 0.128128 0.128127 0.128126 0.128123 0.128116 0.128107 0.128097 0.128088 0.128079 0.128069 0.128061 0.128058 0.128057 0.128055 0.128052 0.128043 0.128031 0.128018 0.128006 0.127993 0.127980 0.127970 0.127964 0.127962 0.127961 0.127955 0.127943 0.127927 0.127910 0.127894 0.127877 0.127858 0.127843 0.127836 0.127834 0.127832 0.127825 0.127810 0.127789 0.127768 0.127746 0.127725 0.127701 0.127683 0.127674 0.127672 0.127669 0.127661 0.127642 0.127617 0.127591 0.127564 0.127537 0.127509 0.127488 0.127478 0.127475 0.127471 0.127461 0.127442 0.127416 0.127393 0.127371 0.127348 0.127326 0.127309 0.127301 0.127298 0.127296 0.127288 0.127271 0.127249 0.127227 0.127205 0.127183 0.127161 0.127145 0.127137 0.127135 0.127132 0.127125 0.127109 0.127087 0.127066 0.127045 0.127023 0.127002 0.126986 0.126979 0.126977 0.126975 0.126968 0.126952 0.126931 0.126911 0.126890 0.126870 0.126850 0.126835 0.126828 0.126826 0.126824 0.126817 0.126802 0.126782 0.126763 0.126744 0.126724 0.126705 0.126691 0.126685 0.126682 0.126680 0.126674 0.126659 0.126640 0.126623 0.126605 0.126587 0.126569 0.126556 0.126550 0.126548 0.126546 0.126539 0.126526 0.126509 0.126492 0.126476 0.126459 0.126442 0.126429 0.126424 0.126422 0.126420 0.126414 0.126402 0.126387 0.126371 0.126355 0.126339 0.126324 0.126312 0.126307 0.126305 0.126303 0.126298 0.126287 0.126271 0.126256 0.126241 0.126226 0.126212 0.126201 0.126196 0.126194 0.126192 0.126187 0.126176 0.126161 0.126147 0.126133 0.126118 0.126104 0.126093 0.126088 0.126087 0.126085 0.126080 0.126069 0.126055 0.126041 0.126027 0.126012 0.125998 0.125987 0.125983 0.125981 0.125979 0.125974 0.125964 0.125950 0.125936 0.125922 0.125908 0.125894 0.125884 0.125879 0.125877 
0.130441 0.130443 0.130451 0.130468 0.130491 0.130506 0.130521 0.130537 0.130545 0.130551 0.130553 0.130553 0.130553 0.130555 0.130555 0.130555 0.130551 0.130547 0.130544 0.130536 0.130529 0.130526 0.130526 0.130525 0.130522 0.130514 0.130504 0.130490 0.130477 0.130464 0.130456 0.130450 0.130448 0.130447 0.130447 0.130445 0.130440 0.130433 0.130425 0.130417 0.130408 0.130398 0.130390 0.130387 0.130386 0.130385 0.130382 0.130373 0.130361 0.130346 0.130332 0.130317 0.130300 0.130286 0.130280 0.130279 0.130278 0.130272 0.130256 0.130236 0.130212 0.130188 0.130164 0.130141 0.130123 0.130116 0.130114 0.130112 0.130105 0.130087 0.130062 0.130030 0.129998 0.129966 0.129930 0.129902 0.129889 0.129886 0.129883 0.129870 0.129838 0.129795 0.129747 0.129699 0.129651 0.129609 0.129577 0.129564 0.129561 0.129558 0.129544 0.129512 0.129468 0.129425 0.129382 0.129339 0.129297 0.129265 0.129252 0.129249 0.129246 0.129233 0.129201 0.129159 0.129119 0.129078 0.129037 0.128997 0.128967 0.128954 0.128951 0.128948 0.128936 0.128907 0.128868 0.128830 0.128792 0.128753 0.128716 0.128688 0.128677 0.128674 0.128672 0.128660 0.128633 0.128597 0.128562 0.128526 0.128491 0.128457 0.128431 0.128421 0.128419 0.128416 0.128406 0.128380 0.128347 0.128314 0.128281 0.128248 0.128216 0.128192 0.128182 0.128180 0.128178 0.128168 0.128144 0.128111 0.128080 0.128048 0.128016 0.127985 0.127961 0.127952 0.127949 0.127947 0.127937 0.127913 0.127881 0.127849 0.127817 0.127785 0.127753 0.127729 0.127719 0.127716 
0.133701 0.133700 0.133695 0.133685 0.133670 0.133654 0.133638 0.133622 0.133603 0.133589 0.133582 0.133580 0.133578 0.133572 0.133556 0.133534 0.133509 0.133485 0.133460 0.133433 0.133412 0.133403 0.133400 0.133397 0.133388 0.133367 0.133338 0.133309 0.133280 0.133250 0.133221 0.133199 0.133189 0.133186 0.133184 0.133174 0.133151 0.133121 0.133098 0.133076 0.133054 0.133031 0.133014 0.133007 0.133004 0.133002 0.132995 0.132977 0.132955 0.132931 0.132908 0.132885 0.132860 0.132842 0.132834 0.132831 0.132829 0.132821 0.132801 0.132775 0.132749 0.132723 0.132696 0.132668 0.132647 0.132638 0.132635 0.132632 0.132623 0.132601 0.132573 0.132542 0.132511 0.132480 0.132449 0.132425 0.132414 0.132411 0.132408 0.132397 0.132371 0.132336 0.132300 0.132265 0.132229 0.132190 0.132161 0.132150 0.132147 0.132144 0.132132 0.132106 0.132071 0.132033 0.131995 0.131956 0.131915 0.131884 0.131870 0.131866 0.131863 0.131849 0.131815 0.131771 0.131723 0.131676 0.131628 0.131579 0.131542 0.131525 0.131520 0.131515 0.131497 0.131457 0.131404 0.131358 0.131312 0.131266 0.131220 0.131185 0.131169 0.131165 0.131161 0.131146 0.131111 0.131066 0.131022 0.130977 0.130933 0.130890 0.130857 0.130843 0.130839 0.130835 0.130821 0.130790 0.130749 0.130708 0.130667 0.130626 0.130588 0.130559 0.130546 0.130543 0.130539 0.130527 0.130498 0.130461 0.130425 0.130389 0.130353 0.130318 0.130291 0.130279 0.130276 0.130273 0.130261 0.130236 0.130203 0.130170 0.130138 0.130105 0.130073 0.130049 0.130039 0.130037 0.130034 0.130024 0.130001 0.129970 0.129941 0.129912 0.129882 0.129854 0.129833 0.129824 0.129821 0.129818 0.129809 0.129788 0.129761 0.129734 0.129708 0.129682 0.129656 0.129636 0.129628 0.129625 0.129623 0.129615 0.129596 0.129571 0.129547 0.129522 0.129497 0.129474 0.129456 0.129448 0.129446 0.129444 0.129436 0.129418 0.129394 0.129371 0.129348 0.129325 0.129301 0.129284 0.129276 0.129274 0.129271 0.129264 0.129247 0.129224 0.129201 0.129178 0.129155 0.129132 0.129115 0.129107 0.129105 
0.135297 0.135294 0.135270 0.135205 0.135117 0.135023 0.134929 0.134835 0.134741 0.134671 0.134646 0.134642 0.134639 0.134614 0.134550 0.134465 0.134382 0.134298 0.134215 0.134117 0.134044 0.134014 0.134010 0.134006 0.133977 0.133890 0.133774 0.133641 0.133509 0.133376 0.133226 0.133114 0.133072 0.133066 0.133061 0.133016 0.132904 0.132754 0.132641 0.132528 0.132415 0.132316 0.132242 0.132216 0.132213 0.132209 0.132183 0.132120 0.132034 0.131960 0.131887 0.131813 0.131749 0.131701 0.131685 0.131683 0.131681 0.131665 0.131623 0.131568 0.131520 0.131472 0.131424 0.131382 0.131350 0.131339 0.131337 0.131336 0.131325 0.131295 0.131256 0.131220 0.131184 0.131148 0.131113 0.131087 0.131078 0.131076 
0.137670 0.137667 0.137649 0.137601 0.137537 0.137468 0.137399 0.137330 0.137258 0.137204 0.137183 0.137179 0.137175 0.137154 0.137100 0.137028 0.136955 0.136881 0.136808 0.136730 0.136672 0.136648 0.136643 0.136639 0.136614 0.136548 0.136460 0.136363 0.136265 0.136168 0.136060 0.135979 0.135947 0.135941 0.135935 0.135903 0.135824 0.135719 0.135631 0.135542 0.135454 0.135370 0.135307 0.135284 0.135280 0.135276 0.135253 0.135194 0.135115 0.135043 0.134971 0.134899 0.134832 0.134782 0.134762 0.134759 0.134756 0.134736 0.134690 0.134628 0.134569 0.134511 0.134453 0.134398 0.134357 0.134342 0.134339 0.134336 0.134321 0.134282 0.134230 0.134182 0.134134 0.134086 0.134040 0.134005 0.133992 0.133989 0.133987 0.133975 0.133942 0.133898 0.133856 0.133814 0.133772 0.133731 0.133700 0.133689 0.133687 
0.140505 0.140501 0.140473 0.140398 0.140298 0.140192 0.140086 0.139979 0.139866 0.139781 0.139749 0.139744 0.139739 0.139707 0.139620 0.139504 0.139382 0.139260 0.139139 0.139009 0.138912 0.138874 0.138868 0.138862 0.138825 0.138719 0.138578 0.138429 0.138280 0.138131 0.137972 0.137853 0.137808 0.137801 0.137793 0.137748 0.137642 0.137502 0.137391 0.137279 0.137168 0.137069 0.136994 0.136966 0.136962 0.136958 0.136931 0.136864 0.136776 0.136695 0.136615 0.136534 0.136461 0.136406 0.136386 0.136383 0.136380 0.136360 0.136310 0.136243 0.136181 0.136120 0.136058 0.136001 0.135959 0.135943 0.135941 0.135938 0.135922 0.135883 0.135830 0.135779 0.135729 0.135679 0.135630 0.135593 0.135580 0.135578 
0.145480 0.145476 0.145458 0.145414 0.145355 0.145293 0.145231 0.145169 0.145103 0.145053 0.145032 0.145027 0.145021 0.145000 0.144948 0.144879 0.144807 0.144734 0.144662 0.144587 0.144531 0.144506 0.144500 0.144493 0.144469 0.144409 0.144330 0.144250 0.144171 0.144092 0.144010 0.143948 0.143922 0.143915 0.143909 0.143882 0.143818 0.143733 0.143646 0.143560 0.143473 0.143383 0.143315 0.143285 0.143278 0.143270 0.143241 0.143172 0.143080 0.142984 0.142888 0.142792 0.142695 0.142622 0.142590 0.142582 0.142573 0.142541 0.142464 0.142363 0.142259 0.142155 0.142052 0.141944 0.141863 0.141829 0.141820 0.141811 0.141776 0.141694 0.141585 0.141505 0.141425 0.141345 0.141271 0.141215 0.141192 0.141186 0.141180 0.141158 0.141105 0.141036 0.140971 0.140906 0.140841 0.140779 0.140732 0.140712 0.140707 0.140702 0.140682 0.140638 0.140579 0.140522 0.140464 0.140407 0.140353 0.140313 0.140296 0.140291 0.140287 0.140270 0.140230 0.140176 0.140126 0.140076 0.140026 0.139976 0.139938 0.139923 0.139919 0.139915 0.139900 0.139865 0.139818 0.139772 0.139726 0.139679 0.139635 0.139602 0.139588 0.139584 0.139581 0.139566 0.139534 0.139490 0.139448 0.139405 0.139363 0.139321 0.139290 0.139277 0.139273 0.139270 0.139257 0.139226 0.139185 0.139145 0.139104 0.139064 0.139024 0.138994 0.138981 0.138977 0.138974 0.138961 0.138931 0.138892 0.138852 0.138812 0.138773 0.138734 0.138704 0.138691 0.138688 
0.156142 0.156135 0.156118 0.156084 0.156039 0.155993 0.155947 0.155900 0.155852 0.155815 0.155795 0.155787 0.155779 0.155760 0.155720 0.155668 0.155614 0.155560 0.155506 0.155450 0.155407 0.155385 0.155376 0.155366 0.155344 0.155300 0.155243 0.155182 0.155121 0.155061 0.154999 0.154951 0.154927 0.154917 0.154906 0.154882 0.154833 0.154770 0.154705 0.154640 0.154575 0.154508 0.154457 0.154430 0.154419 0.154408 0.154381 0.154329 0.154260 0.154191 0.154121 0.154052 0.153981 0.153926 0.153898 0.153886 0.153874 0.153846 0.153791 0.153718 0.153646 0.153573 0.153500 0.153426 0.153370 0.153341 0.153328 0.153316 0.153287 0.153230 0.153156 0.153081 0.153006 0.152931 0.152856 0.152798 0.152768 0.152755 0.152743 0.152713 0.152654 0.152577 0.152500 0.152424 0.152347 0.152270 0.152212 0.152182 0.152169 0.152157 0.152127 0.152068 0.151991 0.151913 0.151835 0.151758 0.151681 0.151623 0.151593 0.151580 0.151567 0.151538 0.151479 0.151402 0.151324 0.151247 0.151169 0.151092 0.151032 0.151001 0.150989 0.150976 0.150945 0.150886 0.150808 0.150729 0.150651 0.150572 0.150494 0.150434 0.150403 0.150390 0.150377 0.150347 0.150287 0.150209 0.150130 0.150051 0.149972 0.149893 0.149832 0.149801 0.149788 0.149775 0.149744 0.149683 0.149603 0.149524 0.149444 0.149365 0.149291 0.149235 0.149210 0.149200 0.149189 0.149165 0.149118 0.149057 0.148999 0.148940 0.148881 0.148824 0.148781 0.148759 0.148750 0.148741 0.148719 0.148678 0.148624 0.148570 0.148517 0.148464 0.148411 0.148371 0.148351 0.148342 0.148334 0.148315 0.148277 0.148229 0.148181 0.148133 0.148085 0.148037 0.148001 0.147983 0.147975 0.147967 0.147949 0.147914 0.147869 0.147825 0.147782 0.147738 0.147695 0.147661 0.147645 0.147637 0.147630 0.147613 0.147581 0.147538 0.147498 0.147458 0.147417 0.147378 0.147347 0.147332 0.147325 0.147319 0.147303 0.147273 0.147233 0.147195 0.147157 0.147119 0.147082 0.147053 0.147039 0.147033 0.147027 0.147012 0.146984 0.146946 0.146910 0.146873 0.146837 0.146802 0.146776 0.146762 0.146756 0.146750 0.146737 0.146710 0.146675 0.146641 0.146606 0.146571 0.146538 0.146512 0.146500 0.146494 0.146489 0.146476 0.146451 0.146418 0.146386 0.146353 0.146321 0.146288 0.146263 0.146250 0.146245 0.146240 0.146228 0.146204 0.146173 0.146142 0.146111 0.146080 0.146049 0.146025 0.146013 0.146008 0.146003 0.145990 0.145967 0.145938 0.145908 0.145879 0.145849 0.145819 0.145796 0.145785 0.145780 0.145775 0.145763 0.145740 0.145711 0.145683 0.145654 0.145626 0.145597 0.145575 0.145564 0.145559 0.145554 0.145543 0.145521 0.145492 0.145464 0.145436 0.145408 0.145380 0.145358 0.145347 0.145343 0.145338 0.145327 0.145305 0.145277 0.145249 0.145221 0.145193 0.145166 0.145145 0.145135 0.145130 0.145125 0.145115 0.145093 0.145066 0.145038 0.145010 0.144982 0.144955 0.144935 0.144924 0.144920 
0.180266 0.180240 0.180113 0.179784 0.179347 0.178885 0.178422 0.177960 0.177486 0.177129 0.176986 0.176957 0.176928 0.176784 0.176421 0.175938 0.175446 0.174954 0.174462 0.173972 0.173603 0.173457 0.173427 0.173397 0.173250 0.172880 0.172387 0.171905 0.171423 0.170941 0.170467 0.170110 0.169971 0.169942 0.169914 0.169775 0.169423 0.168955 0.168500 0.168046 0.167591 0.167143 0.166806 0.166673 0.166646 0.166619 0.166486 0.166155 0.165715 0.165286 0.164856 0.164427 0.164010 0.163696 0.163575 0.163551 0.163527 0.163407 0.163105 0.162705 0.162342 0.161979 0.161615 0.161360 0.161167 0.161098 0.161084 0.161070 0.161003 0.160837 0.160618 0.160426 0.160235 0.160043 0.159874 0.159746 0.159698 0.159688 0.159679 0.159631 0.159516 0.159363 0.159223 0.159083 0.158944 0.158820 0.158727 0.158689 0.158681 0.158673 0.158635 0.158548 0.158433 0.158326 0.158219 0.158113 0.158013 0.157938 0.157909 0.157902 0.157897 0.157869 0.157802 0.157713 0.157628 0.157543 0.157459 0.157378 0.157317 0.157295 0.157291 
