0.188872 0.188891 0.189228 0.190587 0.192741 0.193878 0.195015 0.196152 0.196261 0.196329 0.196323 0.196322 0.196322 0.196312 0.196291 0.196258 0.196295 0.196332 0.196369 0.196335 0.196314 0.196305 0.196304 0.196303 0.196286 0.196200 0.196065 0.195822 0.195579 0.195336 0.194836 0.194521 0.194423 0.194417 0.194411 0.194311 0.193757 0.192880 0.191417 0.189954 0.188491 0.186580 0.185374 0.185099 0.185083 0.185067 0.184790 0.183488 0.181424 0.179381 0.177338 0.175295 0.173348 0.172120 0.171859 0.171844 0.171829 0.171569 0.170385 0.168508 0.166669 0.164831 0.162992 0.161169 0.160019 0.159771 0.159756 0.159742 0.159494 0.158362 0.156569 0.154854 0.153138 0.151423 0.149826 0.148818 0.148605 0.148593 0.148581 0.148369 0.147429 0.145939 0.144587 0.143235 0.141884 0.140662 0.139891 0.139731 0.139721 
0.188860 0.188833 0.188518 0.187132 0.184937 0.182911 0.180886 0.178860 0.177017 0.175854 0.175607 0.175586 0.175565 0.175321 0.174268 0.172600 0.171126 0.169651 0.168177 0.166860 0.166029 0.165851 0.165836 0.165821 0.165644 0.164883 0.163678 0.162593 0.161507 0.160422 0.159424 0.158794 0.158657 0.158645 0.158634 0.158498 0.157897 0.156946 0.156031 0.155115 0.154200 0.153319 0.152763 0.152641 0.152631 0.152620 0.152499 0.151964 0.151118 0.150315 0.149513 0.148710 0.147950 0.147469 0.147365 0.147356 
0.188873 0.188900 0.189381 0.190120 0.191292 0.190152 0.189013 0.187874 0.185632 0.184217 0.183867 0.183848 0.183829 0.183478 0.181910 0.179424 0.177366 0.175307 0.173249 0.171493 0.170385 0.170154 0.170141 0.170128 0.169896 0.168800 0.167062 0.164954 0.162846 0.160739 0.156718 0.154181 0.153411 0.153369 0.153327 0.152540 0.148965 0.143298 0.138726 0.134154 0.129582 0.126677 0.124843 0.124545 0.124529 0.124514 0.124238 0.123252 0.121691 0.120805 0.119920 0.119034 0.118510 0.118179 0.118119 0.118115 0.118112 0.118053 0.117815 0.117439 0.117165 0.116891 0.116617 0.116408 0.116277 0.116251 0.116250 0.116248 0.116223 0.116115 0.115944 0.115807 0.115670 0.115532 0.115420 0.115350 0.115335 0.115335 0.115334 0.115320 0.115259 0.115164 0.115083 0.115002 0.114921 0.114854 0.114811 0.114803 0.114802 0.114802 0.114793 0.114756 0.114698 0.114649 0.114601 0.114552 0.114511 0.114486 0.114481 0.114480 
0.148591 0.148585 0.148548 0.148449 0.148317 0.148170 0.148024 0.147877 0.147713 0.147590 0.147542 0.147533 0.147524 0.147476 0.147347 0.147176 0.146996 0.146817 0.146638 0.146451 0.146311 0.146256 0.146247 0.146237 0.146181 0.146035 0.145841 0.145672 0.145504 0.145336 0.145193 0.145085 0.145045 0.145038 0.145031 0.144991 0.144893 0.144762 0.144645 0.144527 0.144409 0.144298 0.144214 0.144183 0.144177 0.144172 0.144142 0.144065 0.143962 0.143862 0.143763 0.143664 0.143569 0.143498 0.143471 0.143467 0.143462 0.143435 0.143366 0.143275 0.143190 0.143104 0.143019 0.142937 0.142875 0.142852 0.142848 
0.171837 0.171806 0.171661 0.171302 0.170826 0.170364 0.169901 0.169439 0.168990 0.168652 0.168520 0.168492 0.168464 0.168331 0.168005 0.167571 0.167151 0.166732 0.166312 0.165907 0.165602 0.165483 0.165457 0.165432 0.165313 0.165018 0.164628 0.164256 0.163884 0.163511 0.163156 0.162889 0.162784 0.162762 0.162740 0.162637 0.162380 0.162040 0.161723 0.161405 0.161087 0.160792 0.160570 0.160483 0.160465 0.160447 0.160362 0.160185 0.159950 0.159742 0.159534 0.159326 0.159150 0.159018 0.158966 0.158955 0.158944 0.158891 0.158771 0.158611 0.158468 0.158326 0.158183 0.158059 0.157966 0.157929 0.157921 0.157913 0.157875 0.157795 0.157689 0.157592 0.157495 0.157398 0.157313 0.157249 0.157222 0.157217 0.157211 0.157184 0.157133 0.157064 0.157003 0.156942 0.156880 0.156827 0.156787 0.156771 0.156768 0.156765 0.156754 0.156725 0.156687 0.156655 0.156622 0.156590 0.156564 0.156544 0.156539 0.156538 
0.185076 0.185047 0.184938 0.184680 0.184339 0.183996 0.183653 0.183310 0.182972 0.182717 0.182611 0.182583 0.182555 0.182449 0.182196 0.181862 0.181532 0.181202 0.180872 0.180546 0.180300 0.180197 0.180170 0.180143 0.180040 0.179797 0.179476 0.179160 0.178845 0.178529 0.178220 0.177987 0.177890 0.177864 0.177839 0.177742 0.177516 0.177217 0.176925 0.176634 0.176342 0.176063 0.175852 0.175765 0.175742 0.175719 0.175632 0.175428 0.175159 0.174908 0.174656 0.174405 0.174166 0.173985 0.173914 0.173895 0.173877 0.173806 0.173651 0.173446 0.173263 0.173081 0.172898 0.172734 0.172610 0.172558 0.172545 0.172532 0.172481 0.172371 0.172227 0.172093 0.171959 0.171824 0.171709 0.171621 0.171586 0.171577 0.171567 0.171532 0.171447 0.171334 0.171237 0.171139 0.171041 0.170945 0.170872 0.170841 0.170833 0.170827 0.170801 0.170738 0.170653 0.170570 0.170487 0.170404 0.170331 0.170275 0.170251 0.170245 0.170238 0.170214 0.170156 0.170080 0.170013 0.169946 0.169879 0.169815 0.169768 0.169749 0.169745 0.169740 0.169722 0.169677 0.169619 0.169564 0.169509 0.169454 0.169397 0.169355 0.169337 0.169333 0.169328 0.169310 0.169273 0.169224 0.169174 0.169124 0.169075 0.169029 0.168994 0.168980 0.168976 0.168972 0.168957 0.168922 0.168875 0.168831 0.168788 0.168744 0.168699 0.168666 0.168652 0.168649 
0.194403 0.194344 0.194000 0.193121 0.191951 0.190878 0.189804 0.188731 0.187753 0.187019 0.186742 0.186695 0.186649 0.186375 0.185688 0.184773 0.183928 0.183082 0.182237 0.181468 0.180890 0.180679 0.180644 0.180608 0.180400 0.179881 0.179190 0.178582 0.177974 0.177366 0.176837 0.176439 0.176306 0.176284 0.176262 0.176131 0.175801 0.175362 0.175005 0.174648 0.174291 0.173998 0.173779 0.173696 0.173682 0.173669 0.173592 0.173411 0.173170 0.172964 0.172758 0.172553 0.172386 0.172261 0.172214 0.172206 0.172198 0.172151 0.172044 0.171901 0.171783 0.171665 0.171546 0.171450 0.171378 0.171355 0.171351 0.171347 0.171324 0.171267 0.171191 0.171132 0.171073 0.171014 0.170962 0.170923 0.170912 0.170910 
0.196294 0.196252 0.196059 0.195589 0.194967 0.194372 0.193777 0.193182 0.192615 0.192188 0.192019 0.191983 0.191947 0.191778 0.191364 0.190815 0.190278 0.189742 0.189205 0.188669 0.188265 0.188105 0.188070 0.188035 0.187875 0.187480 0.186955 0.186441 0.185928 0.185415 0.184912 0.184533 0.184383 0.184351 0.184319 0.184170 0.183802 0.183314 0.182841 0.182368 0.181895 0.181438 0.181093 0.180959 0.180930 0.180902 0.180769 0.180442 0.180008 0.179601 0.179194 0.178786 0.178404 0.178115 0.178006 0.177983 0.177959 0.177851 0.177586 0.177234 0.176926 0.176619 0.176311 0.176045 0.175845 0.175772 0.175757 0.175741 0.175669 0.175494 0.175261 0.175075 0.174890 0.174705 0.174550 0.174433 0.174391 0.174381 0.174372 0.174330 0.174225 0.174085 0.173978 0.173872 0.173765 0.173675 0.173607 0.173581 0.173576 0.173570 0.173544 0.173479 0.173393 0.173322 0.173251 0.173181 0.173123 0.173079 0.173062 0.173058 0.173054 0.173037 0.172994 0.172937 0.172890 0.172843 0.172796 0.172759 0.172730 0.172719 0.172716 0.172714 0.172702 0.172675 0.172640 0.172609 0.172579 0.172548 0.172525 0.172509 0.172502 0.172500 0.172498 0.172491 0.172476 0.172455 0.172437 0.172419 0.172401 0.172387 0.172377 0.172372 0.172371 
0.196309 0.196253 0.195952 0.195205 0.194213 0.193300 0.192388 0.191475 0.190670 0.190066 0.189842 0.189801 0.189761 0.189542 0.189002 0.188285 0.187655 0.187025 0.186396 0.185912 0.185549 0.185416 0.185392 0.185367 0.185234 0.184894 0.184442 0.183994 0.183546 0.183098 0.182649 0.182311 0.182180 0.182156 0.182132 0.182001 0.181650 0.181182 0.180687 0.180193 0.179698 0.179200 0.178825 0.178680 0.178653 0.178626 0.178481 0.178121 0.177641 0.177180 0.176719 0.176258 0.175826 0.175501 0.175378 0.175356 0.175333 0.175210 0.174902 0.174493 0.174147 0.173801 0.173455 0.173173 0.172961 0.172881 0.172866 0.172852 0.172773 0.172612 0.172397 0.172227 0.172058 0.171888 0.171760 0.171663 0.171635 0.171630 0.171625 0.171597 0.171522 0.171423 0.171357 0.171292 0.171226 0.171184 0.171152 0.171138 0.171136 0.171133 0.171119 0.171093 0.171060 0.171035 0.171010 0.170986 0.170970 0.170957 0.170956 0.170955 0.170955 0.170953 0.170946 0.170937 0.170936 0.170934 0.170933 0.170938 0.170942 0.170942 0.170943 
0.175584 0.175574 0.175537 0.175445 0.175322 0.175189 0.175056 0.174923 0.174778 0.174669 0.174624 0.174612 0.174601 0.174555 0.174441 0.174290 0.174135 0.173979 0.173823 0.173663 0.173541 0.173490 0.173477 0.173465 0.173413 0.173289 0.173125 0.172960 0.172794 0.172629 0.172466 0.172343 0.172292 0.172279 0.172266 0.172215 0.172093 0.171933 0.171776 0.171619 0.171461 0.171308 0.171192 0.171145 0.171133 0.171122 0.171075 0.170962 0.170813 0.170668 0.170523 0.170378 0.170239 0.170134 0.170091 0.170081 0.170070 0.170028 0.169930 0.169799 0.169671 0.169542 0.169414 0.169285 0.169187 0.169146 0.169135 0.169125 0.169083 0.168984 0.168853 0.168722 0.168590 0.168459 0.168329 0.168230 0.168188 0.168178 0.168167 0.168125 0.168023 0.167888 0.167750 0.167611 0.167473 0.167328 0.167219 0.167173 0.167162 0.167150 0.167105 0.166996 0.166853 0.166710 0.166568 0.166425 0.166289 0.166186 0.166143 0.166133 0.166122 0.166080 0.165978 0.165844 0.165721 0.165598 0.165476 0.165363 0.165277 0.165246 0.165238 0.165230 0.165199 0.165127 0.165031 0.164949 0.164868 0.164786 0.164714 0.164659 0.164637 0.164631 0.164626 0.164607 0.164564 0.164508 0.164456 0.164404 0.164353 0.164311 0.164279 0.164265 0.164262 0.164259 0.164246 0.164218 0.164182 0.164148 0.164115 0.164082 0.164055 0.164035 0.164027 0.164025 0.164023 0.164015 0.163996 0.163971 0.163950 0.163929 0.163908 0.163886 0.163870 0.163864 0.163863 0.163862 0.163856 0.163842 0.163823 0.163805 0.163786 0.163768 0.163751 0.163738 0.163732 0.163731 0.163729 0.163724 0.163712 0.163697 0.163680 0.163664 0.163647 0.163632 0.163621 0.163616 0.163615 0.163613 0.163608 0.163596 0.163580 0.163565 0.163549 0.163534 0.163517 0.163505 0.163500 0.163498 
0.152629 0.152621 0.152596 0.152540 0.152467 0.152392 0.152316 0.152241 0.152166 0.152108 0.152083 0.152075 0.152067 0.152042 0.151984 0.151908 0.151833 0.151757 0.151681 0.151604 0.151546 0.151520 0.151512 0.151504 0.151478 0.151419 0.151341 0.151264 0.151187 0.151111 0.151035 0.150977 0.150952 0.150944 0.150936 0.150911 0.150854 0.150779 0.150705 0.150632 0.150558 0.150484 0.150428 0.150403 0.150395 0.150388 0.150363 0.150307 0.150234 0.150161 0.150088 0.150015 0.149943 0.149888 0.149864 0.149857 0.149849 0.149825 0.149772 0.149701 0.149631 0.149561 0.149491 0.149422 0.149369 0.149346 0.149339 0.149332 0.149310 0.149258 0.149190 0.149122 0.149053 0.148985 0.148919 0.148869 0.148847 0.148840 0.148833 0.148811 0.148761 0.148695 0.148631 0.148567 0.148504 0.148441 0.148393 0.148372 0.148366 0.148359 0.148338 0.148292 0.148232 0.148175 0.148118 0.148061 0.148016 0.147981 0.147968 0.147965 0.147961 0.147948 0.147921 0.147885 0.147851 0.147818 0.147785 0.147760 0.147741 0.147733 0.147731 0.147728 0.147721 0.147703 0.147681 0.147664 0.147648 0.147631 0.147617 0.147606 0.147601 0.147599 0.147598 0.147593 0.147585 0.147573 0.147566 0.147558 0.147550 0.147543 0.147538 0.147537 0.147537 0.147537 0.147536 0.147535 0.147533 0.147531 0.147529 0.147528 0.147530 0.147532 0.147532 0.147532 0.147533 0.147533 0.147535 0.147536 0.147541 0.147546 0.147551 0.147557 0.147562 0.147564 0.147564 0.147565 0.147567 0.147572 0.147580 0.147588 0.147597 0.147605 0.147614 0.147621 0.147625 0.147626 0.147627 0.147631 0.147640 0.147651 0.147663 0.147674 0.147686 0.147699 0.147710 0.147714 0.147715 0.147717 0.147721 0.147731 0.147745 0.147759 0.147774 0.147789 0.147804 0.147816 0.147821 0.147822 
