0.272903 0.272868 0.272336 0.267915 0.260910 0.251298 0.241687 0.232076 0.224254 0.219318 0.218372 0.218312 0.218253 0.217337 0.213626 0.207746 0.203266 0.198786 0.194305 0.190668 0.188372 0.187903 0.187873 0.187843 0.187380 0.185384 0.182222 0.179485 0.176748 0.174011 0.171591 0.170063 0.169746 0.169726 0.169706 0.169391 0.167976 0.165735 0.163665 0.161596 0.159526 0.157617 0.156412 0.156161 0.156145 0.156129 0.155878 0.154766 0.153003 0.151426 0.149849 0.148272 0.146859 0.145968 0.145782 0.145770 0.145758 0.145573 0.144761 0.143474 0.142317 0.141160 0.140003 0.138961 0.138304 0.138166 0.138157 
0.272905 0.272877 0.272583 0.270450 0.267180 0.262865 0.258549 0.254234 0.250040 0.247303 0.246646 0.246583 0.246523 0.245891 0.243393 0.239566 0.236092 0.232619 0.229145 0.226111 0.224131 0.223650 0.223604 0.223559 0.223081 0.221291 0.218546 0.216161 0.213777 0.211392 0.209310 0.207952 0.207631 0.207600 0.207569 0.207249 0.206024 0.204147 0.202476 0.200805 0.199134 0.197620 0.196632 0.196394 0.196371 0.196348 0.196110 0.195191 0.193782 0.192449 0.191116 0.189784 0.188498 0.187659 0.187451 0.187431 0.187411 0.187204 0.186382 0.185122 0.183882 0.182641 0.181400 0.180189 0.179400 0.179205 0.179187 0.179168 0.178973 0.178216 0.177055 0.175957 0.174859 0.173760 0.172734 0.172065 0.171901 0.171886 0.171870 0.171707 0.171078 0.170113 0.169219 0.168326 0.167432 0.166594 0.166047 0.165913 0.165900 0.165888 0.165754 0.165234 0.164437 0.163673 0.162909 0.162145 0.161408 0.160928 0.160808 0.160797 0.160785 0.160666 0.160197 0.159478 0.158777 0.158075 0.157374 0.156691 0.156246 0.156135 0.156125 0.156114 0.156003 0.155567 0.154899 0.154253 0.153608 0.152962 0.152339 0.151933 0.151832 0.151822 0.151812 0.151712 0.151317 0.150713 0.150128 0.149544 0.148960 0.148395 0.148027 0.147936 0.147927 0.147918 0.147827 0.147469 0.146919 0.146385 0.145851 0.145317 0.144798 0.144459 0.144375 0.144367 
0.272979 0.273253 0.277777 0.291541 0.313352 0.309857 0.306362 0.302867 0.287032 0.277039 0.274810 0.274675 0.274557 0.272604 0.264333 0.251227 0.239927 0.228627 0.217327 0.210360 0.205964 0.205174 0.205126 0.205079 0.204309 0.201098 0.196009 0.191794 0.187580 0.183366 0.179173 0.176527 0.175927 0.175891 0.175852 0.175211 0.169866 0.161398 0.154146 0.146894 0.139643 0.135215 0.132420 0.131929 0.131899 0.131870 0.131394 0.129684 0.126973 0.125511 0.124048 0.122585 0.121730 0.121190 0.121091 0.121086 0.121080 0.120984 0.120603 0.120000 0.119568 0.119137 0.118706 0.118384 0.118181 0.118140 0.118138 0.118135 0.118096 0.117931 0.117668 0.117460 0.117251 0.117043 0.116876 0.116771 0.116750 0.116749 0.116748 0.116727 0.116638 0.116498 0.116384 0.116269 0.116154 0.116060 0.116000 0.115989 0.115988 0.115987 0.115975 0.115925 0.115845 0.115779 0.115713 0.115647 0.115593 0.115559 0.115552 0.115551 0.115551 0.115544 0.115515 0.115468 0.115429 0.115389 0.115350 0.115317 0.115296 0.115292 0.115291 
0.156141 0.156128 0.156044 0.155824 0.155531 0.155231 0.154932 0.154632 0.154325 0.154095 0.154007 0.153992 0.153978 0.153890 0.153655 0.153343 0.153026 0.152709 0.152392 0.152072 0.151832 0.151740 0.151726 0.151711 0.151619 0.151380 0.151062 0.150746 0.150431 0.150115 0.149805 0.149573 0.149485 0.149471 0.149456 0.149369 0.149142 0.148840 0.148569 0.148298 0.148027 0.147810 0.147646 0.147590 0.147580 0.147571 0.147515 0.147370 0.147177 0.147010 0.146843 0.146676 0.146524 0.146410 0.146366 0.146359 0.146352 0.146312 0.146207 0.146068 0.145937 0.145806 0.145675 0.145556 0.145467 0.145433 0.145427 0.145422 0.145388 0.145305 0.145195 0.145093 0.144990 0.144888 0.144794 0.144724 0.144698 0.144693 
0.187862 0.187818 0.187543 0.186830 0.185880 0.184960 0.184040 0.183120 0.182246 0.181590 0.181347 0.181308 0.181269 0.181028 0.180404 0.179573 0.178786 0.177999 0.177212 0.176452 0.175882 0.175668 0.175634 0.175600 0.175387 0.174837 0.174104 0.173398 0.172692 0.171986 0.171317 0.170814 0.170628 0.170598 0.170568 0.170382 0.169909 0.169280 0.168697 0.168114 0.167531 0.167004 0.166608 0.166470 0.166448 0.166427 0.166298 0.165986 0.165570 0.165216 0.164862 0.164508 0.164213 0.163992 0.163915 0.163903 0.163891 0.163815 0.163630 0.163384 0.163179 0.162973 0.162768 0.162591 0.162459 0.162414 0.162407 0.162400 0.162355 0.162242 0.162092 0.161967 0.161842 0.161717 0.161609 0.161528 0.161502 0.161498 0.161494 0.161467 0.161399 0.161309 0.161238 0.161167 0.161095 0.161034 0.160989 0.160975 0.160973 
0.218291 0.218210 0.217959 0.217410 0.216688 0.215967 0.215245 0.214523 0.213792 0.213236 0.212982 0.212899 0.212817 0.212562 0.212007 0.211276 0.210569 0.209861 0.209154 0.208468 0.207948 0.207717 0.207642 0.207567 0.207339 0.206842 0.206189 0.205559 0.204929 0.204299 0.203696 0.203237 0.203034 0.202968 0.202902 0.202701 0.202263 0.201688 0.201137 0.200585 0.200033 0.199514 0.199119 0.198945 0.198888 0.198832 0.198660 0.198282 0.197784 0.197321 0.196857 0.196393 0.195962 0.195635 0.195489 0.195442 0.195395 0.195252 0.194950 0.194553 0.194191 0.193829 0.193467 0.193132 0.192878 0.192764 0.192727 0.192691 0.192578 0.192331 0.192006 0.191669 0.191332 0.190995 0.190646 0.190381 0.190260 0.190220 0.190180 0.190058 0.189782 0.189419 0.189039 0.188658 0.188278 0.187898 0.187610 0.187480 0.187438 0.187396 0.187266 0.186980 0.186605 0.186227 0.185849 0.185471 0.185095 0.184809 0.184680 0.184638 0.184596 0.184467 0.184181 0.183805 0.183439 0.183072 0.182706 0.182348 0.182076 0.181954 0.181914 0.181875 0.181754 0.181488 0.181139 0.180797 0.180455 0.180114 0.179783 0.179532 0.179420 0.179383 0.179347 0.179235 0.178991 0.178669 0.178362 0.178054 0.177747 0.177452 0.177228 0.177128 0.177095 0.177063 0.176963 0.176746 0.176460 0.176200 0.175940 0.175679 0.175436 0.175251 0.175169 0.175143 0.175116 0.175035 0.174872 0.174658 0.174461 0.174265 0.174069 0.173880 0.173737 0.173680 0.173661 0.173644 0.173592 0.173477 0.173326 0.173178 0.173031 0.172883 0.172758 0.172663 0.172624 0.172612 0.172599 0.172560 0.172474 0.172362 0.172257 0.172152 0.172048 0.171965 0.171902 0.171873 0.171864 0.171855 0.171826 0.171760 0.171672 0.171599 0.171525 0.171452 0.171383 0.171331 0.171307 0.171299 0.171291 0.171267 0.171214 0.171146 0.171087 0.171028 0.170969 0.170909 0.170864 0.170843 0.170836 0.170829 0.170808 0.170769 0.170717 0.170666 0.170614 0.170563 0.170513 0.170475 0.170460 0.170456 0.170451 0.170435 0.170401 0.170355 0.170309 0.170263 0.170217 0.170178 0.170149 0.170135 0.170131 0.170127 0.170113 0.170083 0.170044 0.170006 0.169969 0.169931 0.169896 0.169870 0.169857 0.169853 0.169849 0.169837 0.169810 0.169775 0.169743 0.169711 0.169679 0.169648 0.169623 0.169612 0.169609 0.169605 0.169594 0.169570 0.169539 0.169508 0.169478 0.169447 0.169416 0.169393 0.169382 0.169378 
0.246533 0.246337 0.244697 0.240532 0.234971 0.230304 0.225637 0.220970 0.217207 0.214389 0.213467 0.213356 0.213248 0.212350 0.210187 0.207299 0.205003 0.202707 0.200411 0.198859 0.197697 0.197282 0.197232 0.197182 0.196768 0.195656 0.194170 0.192759 0.191347 0.189936 0.188461 0.187356 0.186966 0.186920 0.186873 0.186487 0.185470 0.184111 0.182903 0.181696 0.180488 0.179449 0.178671 0.178423 0.178393 0.178364 0.178119 0.177511 0.176699 0.176093 0.175487 0.174881 0.174442 0.174113 0.174016 0.174004 0.173992 0.173895 0.173652 0.173327 0.173073 0.172818 0.172564 0.172362 0.172211 0.172165 0.172159 0.172153 0.172106 0.171985 0.171824 0.171694 0.171564 0.171434 0.171326 0.171245 0.171218 0.171215 
0.223573 0.223450 0.223001 0.221984 0.220640 0.219383 0.218126 0.216868 0.215694 0.214804 0.214437 0.214336 0.214236 0.213873 0.213058 0.211980 0.210961 0.209942 0.208923 0.207967 0.207243 0.206943 0.206860 0.206778 0.206479 0.205805 0.204913 0.204084 0.203254 0.202424 0.201640 0.201046 0.200799 0.200731 0.200663 0.200419 0.199865 0.199132 0.198446 0.197759 0.197073 0.196426 0.195937 0.195733 0.195677 0.195621 0.195419 0.194954 0.194341 0.193756 0.193171 0.192586 0.192029 0.191608 0.191432 0.191384 0.191335 0.191160 0.190759 0.190228 0.189707 0.189187 0.188666 0.188161 0.187779 0.187617 0.187572 0.187528 0.187368 0.186999 0.186511 0.186034 0.185558 0.185081 0.184625 0.184279 0.184133 0.184092 0.184052 0.183907 0.183570 0.183126 0.182704 0.182283 0.181861 0.181452 0.181143 0.181012 0.180976 0.180941 0.180814 0.180529 0.180152 0.179785 0.179418 0.179051 0.178720 0.178469 0.178363 0.178334 0.178305 0.178199 0.177957 0.177638 0.177356 0.177074 0.176792 0.176527 0.176326 0.176242 0.176219 0.176198 0.176121 0.175962 0.175752 0.175551 0.175349 0.175148 0.174995 0.174878 0.174829 0.174816 0.174802 0.174754 0.174641 0.174493 0.174375 0.174258 0.174140 0.174030 0.173946 0.173911 0.173901 0.173892 0.173859 0.173799 0.173719 0.173636 0.173553 0.173469 0.173411 0.173367 0.173347 0.173342 0.173336 0.173316 0.173269 0.173205 0.173155 0.173106 0.173056 0.173006 0.172968 0.172951 0.172946 0.172942 0.172926 0.172898 0.172860 0.172821 0.172781 0.172741 0.172714 0.172694 0.172685 0.172682 0.172680 0.172670 0.172648 0.172618 0.172595 0.172572 0.172550 0.172527 0.172510 0.172502 0.172500 0.172498 0.172490 0.172480 0.172465 0.172448 0.172431 0.172414 0.172404 0.172396 0.172393 0.172392 0.172391 0.172387 0.172378 0.172367 0.172359 0.172352 0.172345 0.172337 0.172331 0.172328 0.172327 
0.196359 0.196311 0.196104 0.195600 0.194932 0.194278 0.193623 0.192968 0.192328 0.191844 0.191649 0.191605 0.191561 0.191369 0.190906 0.190292 0.189706 0.189120 0.188534 0.187974 0.187552 0.187383 0.187344 0.187306 0.187139 0.186734 0.186198 0.185685 0.185171 0.184658 0.184172 0.183805 0.183659 0.183626 0.183593 0.183449 0.183106 0.182652 0.182222 0.181791 0.181361 0.180949 0.180638 0.180514 0.180486 0.180458 0.180335 0.180045 0.179660 0.179292 0.178925 0.178558 0.178212 0.177952 0.177847 0.177823 0.177800 0.177697 0.177457 0.177138 0.176836 0.176533 0.176231 0.175950 0.175739 0.175654 0.175635 0.175615 0.175531 0.175344 0.175095 0.174862 0.174630 0.174397 0.174181 0.174017 0.173953 0.173939 0.173924 0.173861 0.173726 0.173548 0.173386 0.173224 0.173063 0.172923 0.172818 0.172776 0.172767 0.172757 0.172716 0.172630 0.172516 0.172411 0.172307 0.172202 0.172112 0.172044 0.172017 0.172010 0.172004 0.171976 0.171917 0.171840 0.171768 0.171696 0.171625 0.171562 0.171515 0.171496 0.171491 0.171487 0.171467 0.171427 0.171374 0.171324 0.171274 0.171225 0.171184 0.171154 0.171141 0.171138 0.171135 0.171122 0.171097 0.171063 0.171032 0.171002 0.170972 0.170947 0.170929 0.170921 0.170920 0.170918 0.170910 0.170896 0.170877 0.170861 0.170844 0.170828 0.170816 0.170808 0.170804 0.170803 
0.179180 0.179154 0.179015 0.178661 0.178191 0.177727 0.177264 0.176801 0.176348 0.176007 0.175879 0.175855 0.175830 0.175702 0.175375 0.174941 0.174521 0.174101 0.173681 0.173276 0.172972 0.172855 0.172833 0.172811 0.172695 0.172403 0.172015 0.171650 0.171286 0.170921 0.170568 0.170303 0.170203 0.170184 0.170165 0.170066 0.169813 0.169478 0.169155 0.168831 0.168508 0.168205 0.167976 0.167888 0.167871 0.167855 0.167767 0.167551 0.167264 0.166998 0.166731 0.166464 0.166219 0.166035 0.165968 0.165956 0.165944 0.165881 0.165735 0.165541 0.165391 0.165241 0.165091 0.164979 0.164894 0.164865 0.164860 0.164854 0.164826 0.164760 0.164673 0.164612 0.164550 0.164489 0.164446 0.164413 0.164400 0.164397 0.164395 0.164382 0.164363 0.164338 0.164319 0.164300 0.164281 0.164269 0.164261 0.164261 0.164261 0.164261 0.164261 0.164259 0.164257 0.164261 0.164266 0.164270 0.164283 0.164293 0.164296 0.164297 0.164297 0.164300 0.164312 0.164328 0.164347 0.164365 0.164383 0.164402 0.164417 0.164424 0.164425 
0.156122 0.156111 0.156076 0.155997 0.155892 0.155786 0.155681 0.155576 0.155469 0.155389 0.155353 0.155342 0.155331 0.155295 0.155214 0.155108 0.155001 0.154895 0.154788 0.154682 0.154601 0.154565 0.154554 0.154543 0.154507 0.154428 0.154322 0.154217 0.154111 0.154006 0.153902 0.153823 0.153789 0.153778 0.153767 0.153733 0.153656 0.153554 0.153454 0.153354 0.153253 0.153156 0.153082 0.153049 0.153039 0.153029 0.152996 0.152923 0.152827 0.152732 0.152637 0.152542 0.152449 0.152379 0.152349 0.152339 0.152330 0.152299 0.152231 0.152142 0.152054 0.151966 0.151878 0.151791 0.151726 0.151697 0.151688 0.151679 0.151650 0.151586 0.151501 0.151417 0.151334 0.151250 0.151164 0.151099 0.151072 0.151063 0.151055 0.151027 0.150965 0.150883 0.150801 0.150720 0.150638 0.150560 0.150501 0.150475 0.150467 0.150460 0.150435 0.150380 0.150308 0.150243 0.150177 0.150112 0.150051 0.150005 0.149985 0.149979 0.149973 0.149953 0.149912 0.149858 0.149811 0.149765 0.149718 0.149673 0.149639 0.149625 0.149621 0.149617 0.149605 0.149578 0.149542 0.149507 0.149473 0.149439 0.149412 0.149392 0.149383 0.149381 0.149378 0.149370 0.149351 0.149326 0.149305 0.149285 0.149264 0.149247 0.149234 0.149228 0.149227 0.149225 0.149219 0.149207 0.149191 0.149181 0.149171 0.149161 0.149151 0.149143 0.149140 0.149139 0.149138 0.149135 0.149132 0.149127 0.149122 0.149117 0.149112 0.149110 0.149108 0.149108 0.149108 0.149108 0.149108 0.149108 0.149107 0.149107 0.149108 0.149108 0.149112 0.149114 0.149115 0.149116 0.149116 0.149117 0.149119 0.149122 0.149129 0.149135 0.149141 0.149147 0.149152 0.149154 0.149155 0.149155 0.149158 0.149164 0.149173 0.149181 0.149190 0.149198 0.149208 0.149214 0.149218 0.149219 
