-1.330643 0.626574 6.045119
-1.340185 0.635313 6.043592
-1.349728 0.644053 6.042066
-1.768613 1.024129 5.964178
-2.175134 1.363284 5.796944
-2.543486 1.580000 5.428406
-2.967899 1.711904 5.079793
-1.355597 0.649428 6.041127
-1.767149 1.022784 5.964399
-1.770076 1.025475 5.963963
-2.173795 1.362363 5.798109
-2.176474 1.364206 5.795779
-2.542033 1.579436 5.429659
-2.544939 1.580565 5.427154
-2.966382 1.711474 5.081023
-1.377923 0.669875 6.037555
-1.744839 1.002288 5.967777
-1.792340 1.046103 5.961123
-2.153378 1.348322 5.815864
-2.196890 1.378247 5.778023
-2.520406 1.569980 5.448916
-2.567090 1.589168 5.408060
-2.943254 1.704911 5.099765
-1.426187 0.713795 6.028967
-1.480270 0.762713 6.018441
-1.534391 0.811422 6.007166
-1.588508 0.860152 5.995963
-1.642604 0.908999 5.985182
-1.696663 0.958030 5.975070
-1.840415 1.090645 5.954992
-1.894442 1.139810 5.945384
-1.948575 1.187595 5.931255
-2.002617 1.233574 5.911871
-2.056044 1.276420 5.884695
-2.108038 1.315600 5.850378
-2.239241 1.405638 5.735778
-2.285927 1.435022 5.686955
-2.332016 1.463291 5.636900
-2.378588 1.491679 5.587363
-2.426244 1.519866 5.538761
-2.475167 1.547192 5.490950
-2.615358 1.606880 5.366994
-2.670839 1.623842 5.321574
-2.726802 1.639803 5.276385
-2.782608 1.656128 5.231134
-2.838136 1.673063 5.185762
-2.893458 1.690377 5.140281
-4.090326 1.938674 4.191920
-5.264831 2.200152 3.388810
-6.093362 3.138287 2.721302
-6.755508 4.265253 2.096032
-7.508208 5.305718 1.426494
-8.386459 6.196179 0.698186
-9.403789 6.859948 -0.087653
-10.528904 7.256911 -0.906053
-11.712607 7.398302 -1.727081
-2.969417 1.712335 5.078564
-4.088790 1.938344 4.193158
-4.091861 1.939004 4.190682
-5.263208 2.199571 3.389825
-5.266454 2.200733 3.387796
-6.092484 3.136700 2.722144
-6.094241 3.139874 2.720459
-6.754543 4.263743 2.096921
-6.756473 4.266763 2.095144
-7.507074 5.304386 1.427464
-7.509341 5.307050 1.425525
-8.385172 6.195054 0.699224
-8.387759 6.197282 0.697142
-9.402294 6.859227 -0.086537
-9.405284 6.860669 -0.088769
-10.527299 7.256552 -0.904915
-10.530509 7.257271 -0.907190
-11.710954 7.398253 -1.725956
-2.992722 1.718444 5.059898
-4.065316 1.933334 4.211950
-4.115269 1.944035 4.171813
-5.238474 2.190720 3.405289
-5.291188 2.209583 3.372332
-6.079093 3.112511 2.734984
-6.107665 3.164026 2.707585
-6.739875 4.240691 2.110436
-6.771186 4.289775 2.081607
-7.489792 5.284084 1.442243
-7.526623 5.327352 1.410746
-8.365555 6.177911 0.715053
-8.407700 6.213917 0.681176
-9.379509 6.848236 -0.069528
-9.428069 6.871659 -0.105778
-10.502832 7.251072 -0.887578
-10.554986 7.262709 -0.924528
-11.685788 7.397240 -1.708785
-3.101253 1.741534 4.975370
-3.275304 1.773365 4.842889
-3.448028 1.807651 4.709290
-3.618012 1.841918 4.572216
-3.787312 1.875825 4.434204
-3.957579 1.910628 4.297615
-4.222267 1.967053 4.085309
-4.395217 2.002827 3.952436
-4.575355 2.035773 3.828667
-4.757612 2.066832 3.707530
-4.939863 2.108248 3.589621
-5.123069 2.156921 3.475941
-5.399146 2.261881 3.301397
-5.555183 2.371711 3.190354
-5.695579 2.503936 3.082605
-5.822970 2.651639 2.978894
-5.927508 2.821115 2.883549
-6.018618 3.001166 2.793342
-6.169095 3.274509 2.648583
-6.266873 3.449109 2.554704
-6.366333 3.622348 2.460073
-6.466760 3.794778 2.364986
-6.569343 3.965332 2.268832
-6.673655 4.134361 2.171838
-6.839416 4.394235 2.019210
-6.949466 4.557897 1.919395
-7.060322 4.720766 1.819188
-7.175714 4.879030 1.716762
-7.292472 5.035877 1.613681
-7.411368 5.190393 1.509566
-7.605042 5.421056 1.343430
-7.731079 5.567359 1.235929
-7.863802 5.705228 1.125349
-7.996852 5.842690 1.014620
-8.133810 5.974727 0.902144
-8.275927 6.099233 0.787427
-8.500049 6.288244 0.607662
-8.650239 6.399446 0.489624
-8.801494 6.508743 0.371162
-8.957078 6.609820 0.251062
-9.115765 6.704599 0.129844
-9.276321 6.795284 0.007982
-9.532740 6.920932 -0.183735
-9.700154 6.994832 -0.307695
-9.870077 7.061588 -0.432285
-10.042121 7.121738 -0.557336
-10.215811 7.176294 -0.682682
-10.391159 7.224680 -0.808248
-10.667273 7.286320 -1.003871
-10.845962 7.319887 -1.129557
-11.026099 7.345391 -1.255070
-11.206816 7.367278 -1.380456
-11.388288 7.383617 -1.505562
-11.570650 7.392240 -1.630173
166 NaN NaN
-1.325872 0.622204 6.045882
-1.399745 0.689862 6.034064
-1.473780 0.756872 6.019793
-1.547875 0.823558 6.004357
-1.621964 0.890282 5.989053
-1.695975 0.957398 5.975174
-1.769799 1.025219 5.963998
-1.843472 1.093478 5.954603
-1.917438 1.160714 5.941225
-1.991584 1.224726 5.917483
-2.064670 1.283337 5.880307
-2.135428 1.335976 5.831475
-2.202951 1.382416 5.772752
-2.267418 1.423667 5.707071
-2.330494 1.462363 5.638519
-2.394252 1.501227 5.570702
-2.460244 1.539675 5.504816
-2.529560 1.574591 5.440411
-2.602840 1.603052 5.377243
-2.678791 1.626274 5.315064
-2.755518 1.647896 5.253251
-2.831577 1.671010 5.191155
-2.907315 1.694714 5.128888
-2.983845 1.716429 5.066872
-3.061926 1.734156 5.005529
-3.141098 1.749010 4.944815
-3.220668 1.763091 4.884434
-3.300079 1.778024 4.824050
-3.379080 1.793689 4.763315
-3.457491 1.809567 4.701875
-3.535241 1.825279 4.639558
-3.612563 1.840827 4.576669
-3.689747 1.856281 4.513588
-3.767023 1.871738 4.450621
-3.844496 1.887345 4.387933
-3.922249 1.903257 4.325670
-4.000211 1.919524 4.263761
-4.078075 1.936041 4.201795
-4.155532 1.952688 4.139356
-4.232847 1.969330 4.076740
-4.310962 1.985815 4.015084
-4.390773 2.001977 3.955558
-4.472319 2.017587 3.898273
-4.554936 2.032379 3.842319
-4.638005 2.046185 3.786782
-4.721221 2.060002 3.731469
-4.804476 2.075628 3.676704
-4.887617 2.094624 3.622844
-4.970747 2.116303 3.569981
-5.054207 2.138821 3.517994
-5.138209 2.160900 3.466695
-5.221875 2.184781 3.415666
-5.303704 2.214062 3.364508
-5.382012 2.251500 3.313180
-5.456356 2.296544 3.262051
-5.526890 2.347868 3.211432
-5.593905 2.404341 3.161507
-5.657852 2.464895 3.112338
-5.719330 2.528514 3.063887
-5.778418 2.594927 3.016226
-5.833748 2.665359 2.969863
-5.883544 2.741017 2.925532
-5.927641 2.821358 2.883422
-5.968882 2.903788 2.842440
-6.010461 2.985944 2.801250
-6.053780 3.066784 2.759256
-6.098090 3.146826 2.716769
-6.142556 3.226698 2.674122
-6.186914 3.306609 2.631436
-6.231417 3.386379 2.588640
-6.276322 3.465825 2.545661
-6.321638 3.544943 2.502507
-6.367204 3.623857 2.459245
-6.412885 3.702676 2.415928
-6.458781 3.781308 2.372501
-6.505126 3.859553 2.328851
-6.552097 3.937249 2.284893
-6.599549 4.014520 2.240701
-6.647205 4.091609 2.196412
-6.694886 4.168678 2.152113
-6.742864 4.245476 2.107667
-6.791548 4.321624 2.062871
-6.841167 4.396890 2.017613
-6.891360 4.471605 1.972075
-6.941640 4.546237 1.926496
-6.991805 4.620981 1.880976
-7.042388 4.695317 1.835249
-7.094027 4.768596 1.789003
-7.146913 4.840589 1.742150
-7.200387 4.911962 1.695013
-7.253720 4.983487 1.647948
-7.306813 5.055267 1.600999
-7.360519 5.126390 1.553752
-7.415717 5.195868 1.505786
-7.472396 5.263648 1.457119
-7.529584 5.330830 1.408214
-7.586336 5.398527 1.359516
-7.642813 5.466548 1.310947
-7.700144 5.533554 1.261974
-7.759346 5.598247 1.212131
-7.820111 5.660913 1.161577
-7.881316 5.722991 1.110826
-7.942011 5.785753 1.060306
-8.002599 5.848657 1.009832
-8.064173 5.910225 0.958912
-8.127567 5.969221 0.907189
-8.192265 6.026279 0.854904
-8.257305 6.082816 0.802476
-8.322014 6.139860 0.750186
-8.386927 6.196588 0.697808
-8.452910 6.251633 0.644978
-8.520460 6.304096 0.591504
-8.589021 6.354811 0.537629
-8.657872 6.405012 0.483639
-8.726652 6.455337 0.429675
-8.795848 6.504907 0.375546
-8.866051 6.552598 0.321032
-8.937462 6.597928 0.266072
-9.009641 6.641686 0.210838
-9.082123 6.684805 0.155498
-9.154776 6.727553 0.100095
-9.227923 6.769223 0.044523
-9.301886 6.809049 -0.011319
-9.376694 6.846878 -0.067426
-9.452091 6.883246 -0.123710
-9.527843 6.918704 -0.180099
-9.603919 6.953308 -0.236581
-9.680445 6.986697 -0.293187
-9.757531 7.018518 -0.349935
-9.835166 7.048730 -0.406814
-9.913272 7.077495 -0.463799
-9.991781 7.104969 -0.520867
-10.070650 7.131242 -0.578005
-10.149850 7.156373 -0.635198
-10.229362 7.180387 -0.692438
-10.309222 7.203105 -0.749723
-10.389475 7.224273 -0.807051
-10.470134 7.243750 -0.864409
-10.551098 7.261882 -0.921779
-10.632251 7.279148 -0.979152
-10.713534 7.295793 -1.036522
-10.795043 7.311320 -1.093885
-10.876884 7.325089 -1.151220
-10.959073 7.336859 -1.208506
-11.041468 7.347347 -1.265746
-11.123929 7.357398 -1.322970
-11.206422 7.367236 -1.380184
-11.289070 7.375996 -1.437348
-11.371983 7.382717 -1.494403
-11.455138 7.387308 -1.551318
-11.538400 7.390847 -1.608155
-11.621655 7.394444 -1.664996
-11.704908 7.398074 -1.721840
-11.788265 7.400549 -1.778590
-11.871798 7.400715 -1.835132
-11.955454 7.398812 -1.891464
-12.039146 7.396170 -1.947714
-12.122816 7.393994 -2.004017
-12.206481 7.391935 -2.060332
-12.290196 7.388709 -2.116515
-12.373977 7.383207 -2.172420
-12.457782 7.375714 -2.228059
-12.541587 7.367143 -2.283545
-12.625391 7.358406 -2.339007
-12.709197 7.350414 -2.394576
-12.792992 7.344081 -2.450373
