-1.680063 0.805619 13.052453
-1.682322 0.808250 13.038048
-1.684581 0.810881 13.023644
-1.777846 0.919489 12.428979
-1.870060 1.026872 11.841031
-1.962374 1.134305 11.253108
-2.056840 1.242801 10.665791
-1.685939 0.812462 13.014983
-1.777542 0.919134 12.430924
-1.778151 0.919844 12.427035
-1.869755 1.026517 11.842976
-1.870364 1.027227 11.839086
-1.962075 1.133953 11.255054
-1.962673 1.134657 11.251162
-2.056585 1.242471 10.667747
-1.690900 0.818240 12.983348
-1.772581 0.913357 12.462559
-1.783112 0.925622 12.395400
-1.864804 1.020744 11.874613
-1.875316 1.033000 11.807449
-1.957211 1.128223 11.286713
-1.967537 1.140386 11.219504
-2.052448 1.237105 10.699572
-1.701650 0.830759 12.914802
-1.713686 0.844775 12.838062
-1.725723 0.858791 12.761323
-1.737760 0.872807 12.684584
-1.749796 0.886823 12.607845
-1.761831 0.900838 12.531105
-1.793861 0.938140 12.326853
-1.805895 0.952155 12.250113
-1.817933 0.966172 12.173374
-1.829976 0.980191 12.096636
-1.842020 0.994211 12.019899
-1.854058 1.008228 11.943160
-1.886039 1.045505 11.738896
-1.898053 1.059510 11.662151
-1.910094 1.073528 11.585413
-1.922207 1.087582 11.508693
-1.934360 1.101656 11.431982
-1.946472 1.115710 11.355262
-1.977923 1.152723 11.150868
-1.989578 1.166549 11.074036
-2.001485 1.180501 10.997265
-2.014222 1.194865 10.920704
-2.027811 1.209652 10.844371
-2.041219 1.224349 10.767988
-3.033330 1.739844 9.769000
-4.452247 2.057554 9.227106
-5.846653 2.554117 8.835003
-6.657721 3.814772 8.482508
-7.431183 5.104741 8.102927
-8.360020 6.273014 7.684613
-9.491426 7.224397 7.223153
-10.807727 7.877253 6.735174
-12.237262 8.221755 6.247004
-13.711761 8.309555 5.775169
-2.057094 1.243131 10.663834
-3.031542 1.739307 9.769715
-3.035119 1.740381 9.768284
-4.450407 2.057137 9.227771
-4.454086 2.057972 9.226441
-5.845270 2.552734 8.835420
-5.848037 2.555500 8.834586
-6.656788 3.813067 8.482980
-6.658655 3.816477 8.482036
-7.430106 5.103135 8.103437
-7.432260 5.106347 8.102417
-8.358714 6.271609 7.685177
-8.361326 6.274420 7.684049
-9.489852 7.223327 7.223768
-9.493000 7.225467 7.222538
-10.805947 7.876597 6.735809
-10.809507 7.877908 6.734540
-12.235379 8.221492 6.247624
-12.239145 8.222018 6.246383
-13.709853 8.309527 5.775770
-2.061231 1.248497 10.632009
-3.002440 1.730567 9.781355
-3.064462 1.748464 9.756789
-4.420516 2.050342 9.238683
-4.484011 2.064763 9.215617
-5.822759 2.530240 8.842205
-5.870492 2.578052 8.827814
-6.641713 3.785266 8.490636
-6.673839 3.844212 8.474359
-7.412582 5.077005 8.111736
-7.449785 5.132477 8.094118
-8.337470 6.248736 7.694359
-8.382658 6.297203 7.674848
-9.464248 7.205921 7.233779
-9.518604 7.242872 7.212527
-10.776990 7.865931 6.746127
-10.838502 7.888470 6.724222
-12.204795 8.216913 6.257739
-12.269781 8.226295 6.236288
-13.678818 8.309072 5.785535
-2.073936 1.269966 10.484700
-2.129896 1.321508 10.263643
-2.278348 1.418101 10.110128
-2.459016 1.532831 10.009332
-2.659123 1.623411 9.922088
-2.869297 1.689378 9.835268
-3.200550 1.781637 9.704796
-3.418651 1.825797 9.623858
-3.635533 1.872803 9.541256
-3.851236 1.921192 9.456389
-4.067367 1.969835 9.372768
-4.283981 2.019084 9.290764
-4.622602 2.095741 9.169153
-4.845468 2.142502 9.104250
-5.068667 2.189006 9.040341
-5.288137 2.255843 8.982367
-5.504151 2.336793 8.928918
-5.711299 2.436595 8.874585
-5.972850 2.682458 8.797009
-6.133090 2.848931 8.745857
-6.251915 3.045657 8.691077
-6.355730 3.251146 8.635800
-6.465951 3.453363 8.580743
-6.573191 3.657173 8.525673
-6.743714 3.971504 8.439065
-6.855344 4.172620 8.382832
-6.970836 4.371239 8.325552
-7.088207 4.568619 8.267781
-7.207433 4.764729 8.209521
-7.332380 4.956791 8.149781
-7.531208 5.251767 8.055767
-7.664098 5.437768 7.994032
-7.801990 5.619678 7.931078
-7.943101 5.798838 7.867352
-8.087593 5.974972 7.802831
-8.239774 6.143826 7.736555
-8.481563 6.400860 7.632390
-8.645233 6.557519 7.563649
-8.814292 6.707899 7.493823
-8.986170 6.854783 7.423460
-9.163440 6.994586 7.352105
-9.346907 7.125594 7.279712
-9.637236 7.321151 7.166400
-9.831652 7.434202 7.092469
-10.030369 7.539296 7.018049
-10.230609 7.641324 6.943497
-10.435937 7.732341 6.868572
-10.644407 7.815860 6.793512
-10.972448 7.934764 6.676839
-11.187408 7.999810 6.601876
-11.404436 8.057908 6.527076
-11.622213 8.113198 6.452369
-11.842793 8.156726 6.378173
-12.064617 8.194256 6.304297
-12.410727 8.244327 6.190039
-12.634911 8.266846 6.117209
-12.859592 8.285163 6.044724
-13.084655 8.299664 5.972574
-13.310310 8.306439 5.901159
-13.536240 8.308025 5.830274
180 NaN NaN
-1.678933 0.804304 13.059655
-1.694289 0.822186 12.961739
-1.709646 0.840070 12.863824
-1.725004 0.857953 12.765909
-1.740362 0.875837 12.667993
-1.755719 0.893721 12.570078
-1.771075 0.911603 12.472162
-1.786429 0.929485 12.374246
-1.801783 0.947367 12.276329
-1.817142 0.965251 12.178414
-1.832508 0.983139 12.080501
-1.847876 1.001027 11.982588
-1.863229 1.018909 11.884672
-1.878556 1.036777 11.786748
-1.893870 1.054639 11.688822
-1.909227 1.072522 11.590907
-1.924682 1.090454 11.493016
-1.940202 1.108419 11.395141
-1.955594 1.126319 11.297234
-1.970649 1.144052 11.199244
-1.985393 1.161630 11.101179
-2.000497 1.179387 11.003202
-2.016749 1.197715 10.905514
-2.034357 1.216716 10.808190
-2.051013 1.235244 10.710611
-2.063817 1.251851 10.612120
-2.071375 1.265812 10.512673
-2.080454 1.280541 10.413482
-2.101818 1.301371 10.317489
-2.145839 1.332942 10.233069
-2.207990 1.373135 10.165028
-2.278852 1.418423 10.109735
-2.353449 1.467330 10.063031
-2.431009 1.516939 10.022245
-2.512292 1.563062 9.984768
-2.597677 1.601605 9.947901
-2.685914 1.632919 9.910833
-2.775406 1.660569 9.873827
-2.865031 1.688036 9.837007
-2.954573 1.716191 9.800501
-3.044645 1.743242 9.764474
-3.135826 1.767269 9.729114
-3.228129 1.787759 9.694433
-3.320965 1.806331 9.660089
-3.413803 1.824777 9.625681
-3.506293 1.844248 9.590904
-3.598446 1.864495 9.555678
-3.690331 1.885079 9.519947
-3.782036 1.905661 9.483760
-3.873714 1.926236 9.447498
-3.965528 1.946872 9.411617
-4.057592 1.967623 9.376452
-4.149791 1.988490 9.341708
-4.241937 2.009459 9.306888
-4.333895 2.030510 9.271622
-4.425947 2.051585 9.236618
-4.518568 2.072606 9.203118
-4.612145 2.093472 9.172293
-4.706584 2.113958 9.143933
-4.801526 2.133770 9.116794
-4.896649 2.152673 9.089640
-4.991679 2.171652 9.062216
-5.086352 2.192992 9.035316
-5.180232 2.219020 9.009839
-5.272990 2.250230 8.986108
-5.364990 2.284324 8.963384
-5.456857 2.318866 8.940792
-5.548537 2.353618 8.917775
-5.638121 2.393257 8.894523
-5.722413 2.443177 8.871557
-5.798179 2.505678 8.849615
-5.867845 2.575292 8.828615
-5.936074 2.646432 8.807955
-6.006443 2.715366 8.787011
-6.076419 2.784506 8.765447
-6.141240 2.858196 8.743039
-6.196022 2.939382 8.719873
-6.242247 3.025704 8.696404
-6.284946 3.113830 8.672876
-6.328943 3.201314 8.649358
-6.375315 3.287579 8.625887
-6.422585 3.373369 8.602464
-6.469271 3.459488 8.579079
-6.514970 3.546137 8.555700
-6.560362 3.632933 8.532267
-6.606167 3.719481 8.508721
-6.652702 3.805604 8.485045
-6.699699 3.891451 8.461284
-6.746848 3.977204 8.437483
-6.794038 4.062926 8.413651
-6.841593 4.148414 8.389707
-6.889890 4.233428 8.365561
-6.939135 4.317825 8.341166
-6.988986 4.401820 8.316613
-7.038996 4.485709 8.292020
-7.088849 4.569701 8.267465
-7.138918 4.653549 8.242853
-7.189786 4.736852 8.218032
-7.241945 4.819250 8.192876
-7.295217 4.900845 8.167433
-7.349112 4.981981 8.141832
-7.403181 5.062987 8.116188
-7.457422 5.143864 8.090501
-7.512157 5.224368 8.064689
-7.567701 5.304250 8.038675
-7.624209 5.383373 8.012420
-7.681670 5.461729 7.985932
-7.740062 5.539316 7.959218
-7.799275 5.616209 7.932306
-7.859057 5.692614 7.905259
-7.919150 5.768747 7.878137
-7.979540 5.844620 7.850944
-8.040756 5.919756 7.823556
-8.103388 5.993592 7.795841
-8.167745 6.065778 7.767735
-8.233247 6.136829 7.739373
-8.299146 6.207475 7.710922
-8.364901 6.278269 7.682503
-8.430984 6.348728 7.654013
-8.498197 6.418005 7.625279
-8.567208 6.485327 7.596165
-8.637806 6.550841 7.566724
-8.709380 6.615199 7.537089
-8.781379 6.679044 7.507372
-8.853722 6.742467 7.477591
-8.926669 6.805140 7.447694
-9.000475 6.866719 7.417634
-9.075317 6.926939 7.387382
-9.151290 6.985620 7.356930
-9.228479 7.042583 7.326275
-9.306758 7.097944 7.295445
-9.385694 7.152306 7.264513
-9.464849 7.206330 7.233544
-9.544100 7.260203 7.202558
-9.624053 7.312965 7.171470
-9.705380 7.363461 7.140193
-9.788427 7.410934 7.108702
-9.872623 7.456257 7.077083
-9.957263 7.500715 7.045418
-10.041819 7.545339 7.013763
-10.126543 7.589632 6.982093
-10.211943 7.632559 6.950363
-10.298435 7.673172 6.918547
-10.385929 7.711528 6.886667
-10.474118 7.748232 6.854755
-10.562736 7.783881 6.822832
-10.651678 7.818707 6.790902
-10.740956 7.852659 6.758968
-10.830584 7.885671 6.727030
-10.920638 7.917500 6.695092
-11.011257 7.947695 6.663166
-11.102558 7.975792 6.631272
-11.194489 8.001814 6.599422
-11.286769 8.026620 6.567606
-11.379124 8.051150 6.535798
-11.471447 8.075799 6.503985
-11.564002 8.099594 6.472200
-11.657082 8.121346 6.440491
-11.750823 8.140263 6.408910
-11.844994 8.157120 6.377438
-11.939341 8.173074 6.346017
-12.033678 8.189081 6.314594
-12.128056 8.204867 6.283184
-12.222607 8.219709 6.251833
-12.317429 8.232947 6.220587
-12.412504 8.244544 6.189457
-12.507766 8.254807 6.158427
-12.603159 8.264044 6.127478
-12.698649 8.272469 6.096595
-12.794214 8.280226 6.065769
-12.889836 8.287447 6.034989
-12.985523 8.294017 6.004266
-13.081307 8.299524 5.973639
-13.177210 8.303542 5.943152
-13.273216 8.305958 5.912823
-13.369283 8.307203 5.882614
-13.465380 8.307761 5.852478
-13.561485 8.308118 5.822363
-13.657578 8.308760 5.792218
-13.753638 8.310170 5.761993
