TITLE Motor Axon Soma

: 11 January 2020
: Nathan GREINER
:
: This file is coming from Marco CAPOGROSSO.

INDEPENDENT {t FROM 0 TO 1 WITH 1 (ms)}

NEURON {
	SUFFIX motoneuron
	NONSPECIFIC_CURRENT ina
	NONSPECIFIC_CURRENT ikrect
	NONSPECIFIC_CURRENT ikca
	NONSPECIFIC_CURRENT il
	NONSPECIFIC_CURRENT icaN
	NONSPECIFIC_CURRENT icaL
	RANGE  gnabar, gl, ena, ek, el, gkrect, gcaN, gcaL, gcak
	RANGE p_inf, m_inf, h_inf, n_inf, mc_inf, hc_inf
	RANGE tau_p, tau_m, tau_h, tau_n, tau_mc, tau_hc
}


UNITS {
	(mA) = (milliamp)
	(mV) = (millivolt)
}

PARAMETER {
	:SOMA PARAMETERS
	gnabar = 0.05	 (mho/cm2)
	gl	   = 0.002   (mho/cm2)
	gkrect = 0.3     (mho/cm2)
	gcaN   = 0.05    (mho/cm2)
	gcaL   = 0.0001  (mho/cm2)
	gcak   = 0.3     (mho/cm2)
	ena    = 50.0    (mV)
	ek     = -80.0   (mV)
	el	   = -70.0   (mV)
	dt               (ms)
	v                (mV)
	ca0 = 2  
	amA = 0.4
	amB = 66
	amC = 5
	bmA = 0.4
	bmB = 32
	bmC = 5
	R   = 8.314472
	F   = 96485.34
}

STATE {
	 p m h n cai mc hc
}

ASSIGNED {
	ina	    (mA/cm2)
	il      (mA/cm2)
	ikrect  (mA/cm2)
	icaN    (mA/cm2)
	icaL    (mA/cm2)
	ikca    (mA/cm2)
	Eca     (mV)
	m_inf
	mc_inf
	h_inf
	hc_inf
	n_inf
	p_inf
	tau_m
	tau_h
	tau_p
	tau_n
	tau_mc
	tau_hc
}

BREAKPOINT {
	SOLVE states METHOD cnexp
	ina    = gnabar * m * m * m * h * (v - ena)
	ikrect = gkrect * n * n * n * n * (v - ek)
	il     = gl * (v - el)
	Eca    = ((1000 * R * 309.15) / (2 * F)) * log(ca0 / cai)
	icaN   = gcaN * mc * mc * hc * (v - Eca)
	icaL   = gcaL * p * (v - Eca)
	ikca   = gcak * (cai * cai) / (cai * cai + 0.014 * 0.014) * (v - ek)
}

DERIVATIVE states {  
    evaluate_fct(v)
	m'   = (m_inf - m) / tau_m
	h'   = (h_inf - h) / tau_h
	p'   = (p_inf - p) / tau_p
	n'   = (n_inf - n) / tau_n
	mc'  = (mc_inf - mc) / tau_mc
	hc'  = (hc_inf - hc) / tau_hc
	cai' = 0.01 * ( - (icaN + icaL) - 4 * cai)
}

UNITSOFF

INITIAL {
	evaluate_fct(v)
	m   = m_inf
	h   = h_inf
	p   = p_inf
	n   = n_inf
	mc  = mc_inf
	hc  = hc_inf
	cai = 0.0001
}

PROCEDURE evaluate_fct(v(mV)) { LOCAL a,b,v2
	 
	:FAST SODIUM - m
	a     = alpham(v)
	b     = betam(v)
	tau_m = 1 / (a + b)
	m_inf = a / (a + b)

	:FAST SODIUM - h
	tau_h = 30 / (Exp((v + 60) / 15) + Exp( - (v + 60) / 16))
	h_inf = 1 / (1 + Exp((v + 65) / 7))
	
	:DELAYED RECTIFIER POTASSIUM 
	tau_n = 5 / (Exp((v + 50) / 40) + Exp( - (v + 50) / 50))
	n_inf = 1 / (1 + Exp( - (v + 38) / 15))

	:CALCIUM DYNAMICS - N-type
	tau_mc = 15
	mc_inf = 1 / (1 + Exp( - (v + 32) / 5))
	tau_hc = 50
	hc_inf =  1 / (1 + Exp((v + 50) / 5))
	
	:CALCIUM DYNAMICS - L-type
	tau_p = 400
	p_inf = 1 / (1 + Exp( - (v + 55.8) / 3.7))

}

FUNCTION alpham(x) {
	if (fabs((x + amB) / amC) < 1e-6) {
		alpham = amA * amC
	}else{
		alpham = (amA * (x + amB)) / (1 - Exp( - (x + amB) / amC))
	}
}

FUNCTION betam(x) {
	if (fabs((x + bmB) / bmC) < 1e-6) {
		betam = - bmA * bmC
	}else{
		betam = (bmA * ( - (x + bmB))) / (1 - Exp((x + bmB) / bmC))
	}
}

FUNCTION Exp(x) {
	if (x < - 100) {
		Exp = 0
	}else{
		Exp = exp(x)
	}
}

UNITSON
