-1.285976 0.669833 21.476826
-1.286075 0.673498 21.468564
-1.286173 0.677162 21.460303
-1.290702 0.864647 21.036417
-1.295360 1.050647 20.616274
-1.303502 1.239581 20.197573
-1.298873 1.416526 19.776463
-1.286239 0.679603 21.454801
-1.290683 0.863838 21.038246
-1.290722 0.865456 21.034588
-1.295351 1.049848 20.618107
-1.295368 1.051447 20.614441
-1.303430 1.238728 20.199381
-1.303573 1.240434 20.195765
-1.298486 1.415429 19.778089
-1.286512 0.689750 21.431926
-1.290441 0.853717 21.061133
-1.290972 0.875583 21.011704
-1.295244 1.039843 20.641046
-1.295476 1.061452 20.591502
-1.302537 1.228059 20.222001
-1.303899 1.250624 20.172913
-1.293636 1.401700 19.798443
-1.287089 0.711393 21.383120
-1.287680 0.735560 21.328498
-1.288256 0.759715 21.273870
-1.288814 0.783853 21.219235
-1.289369 0.807989 21.164598
-1.289924 0.832125 21.109962
-1.291537 0.897216 20.962894
-1.292195 0.921440 20.908298
-1.292898 0.945703 20.853719
-1.293593 0.969958 20.799137
-1.294283 0.994209 20.744554
-1.294819 1.018330 20.689910
-1.295693 1.082788 20.542559
-1.295910 1.106635 20.487793
-1.296429 1.130741 20.433144
-1.297141 1.155011 20.378569
-1.298802 1.180082 20.324379
-1.300633 1.205297 20.270260
-1.304345 1.272156 20.124057
-1.302963 1.294599 20.068767
-1.300068 1.315717 20.012967
-1.295342 1.335170 19.956697
-1.291009 1.354974 19.900545
-1.289777 1.377566 19.845263
-2.146510 2.130424 19.656211
-3.203499 2.640275 19.728136
-4.064658 3.404427 19.722581
-4.238602 4.551983 19.782349
-4.354728 5.720911 19.837119
-4.584558 6.872235 19.897356
-4.983372 7.974880 19.964915
-5.581965 8.981784 20.039558
-6.377259 9.842169 20.119045
-7.323399 10.533317 20.199944
-8.363504 11.074749 20.279934
-9.461315 11.488562 20.357918
-1.299261 1.417623 19.774836
-2.144681 2.129631 19.656046
-2.148338 2.131217 19.656375
-3.201704 2.639393 19.728098
-3.205293 2.641157 19.728174
-4.063706 3.402668 19.722610
-4.065609 3.406186 19.722552
-4.238473 4.549989 19.782255
-4.238732 4.553976 19.782442
-4.354436 5.718935 19.837021
-4.355020 5.722887 19.837217
-4.584056 6.870302 19.897248
-4.585061 6.874168 19.897463
-4.982542 7.973064 19.964794
-4.984202 7.976695 19.965036
-5.580764 8.980191 20.039426
-5.583166 8.983378 20.039691
-6.375791 9.840818 20.118908
-6.378727 9.843520 20.119182
-7.321699 10.532271 20.199807
-7.325098 10.534363 20.200082
-8.361680 11.073940 20.279800
-8.365329 11.075557 20.280069
-9.459422 11.487930 20.357787
-1.304111 1.431352 19.754482
-2.121789 2.119725 19.654013
-2.171222 2.141136 19.658432
-3.179248 2.628358 19.727618
-3.227607 2.652476 19.728598
-4.051801 3.380659 19.722972
-4.077515 3.428196 19.722191
-4.236849 4.525045 19.781056
-4.240352 4.578922 19.783613
-4.350780 5.694207 19.835798
-4.358751 5.747602 19.838444
-4.577768 6.846117 19.895902
-4.591349 6.898354 19.898809
-4.972106 7.950368 19.963280
-4.994588 7.999414 19.966547
-5.565737 8.960247 20.037773
-5.598366 9.003189 20.041348
-6.357419 9.823912 20.117194
-6.397100 9.860426 20.120896
-7.300433 10.519191 20.198089
-7.346358 10.547453 20.201799
-8.338851 11.063825 20.278116
-8.388237 11.085490 20.281749
-9.435739 11.480013 20.356146
-1.351838 1.508343 19.689846
-1.459782 1.643562 19.646263
-1.575307 1.779415 19.630624
-1.706307 1.901058 19.629149
-1.857254 1.997140 19.634369
-2.018393 2.074688 19.645224
-2.274254 2.186933 19.667558
-2.435950 2.262851 19.681749
-2.597089 2.339747 19.697009
-2.758029 2.417190 19.711556
-2.917838 2.497740 19.720506
-3.077768 2.578420 19.725320
-3.327123 2.706189 19.730071
-3.477972 2.802787 19.730611
-3.624995 2.905221 19.729114
-3.772170 3.007347 19.726813
-3.900856 3.130886 19.725086
-3.997900 3.281208 19.724136
-4.128156 3.529332 19.721042
-4.182728 3.699416 19.724793
-4.202933 3.876831 19.736163
-4.210780 4.055282 19.750460
-4.219001 4.233762 19.764203
-4.229533 4.412308 19.775228
-4.247717 4.691688 19.788803
-4.260720 4.870230 19.796822
-4.277162 5.048479 19.805043
-4.295423 5.226547 19.813433
-4.313599 5.404625 19.821794
-4.334914 5.582338 19.830303
-4.375957 5.859273 19.844006
-4.403780 6.036077 19.852844
-4.434661 6.212361 19.861828
-4.469865 6.387820 19.871018
-4.508625 6.562522 19.880373
-4.550191 6.736572 19.889856
-4.621215 7.007289 19.904957
-4.674117 7.178196 19.914936
-4.731179 7.347760 19.925090
-4.789058 7.517045 19.935277
-4.851815 7.684550 19.945660
-4.924484 7.847985 19.956422
-5.041800 8.101988 19.973391
-5.121270 8.262177 19.984395
-5.210249 8.417279 19.995714
-5.303519 8.569862 20.007167
-5.398225 8.721549 20.018662
-5.498774 8.869384 20.030321
-5.668017 9.092010 20.048865
-5.780850 9.230704 20.060827
-5.897301 9.366366 20.072864
-6.018446 9.497827 20.084988
-6.145158 9.623921 20.097200
-6.275004 9.746809 20.109454
-6.481723 9.935090 20.128659
-6.621587 10.046396 20.140993
-6.764253 10.154126 20.153335
-6.906884 10.261899 20.165677
-7.052964 10.364910 20.178016
-7.204253 10.460145 20.190325
-7.442697 10.606237 20.209562
-7.597295 10.695989 20.221831
-7.754843 10.780478 20.234048
-7.914019 10.861880 20.246230
-8.074296 10.941095 20.258383
-8.235953 11.017451 20.270497
-8.492190 11.129459 20.289329
-8.657680 11.197145 20.301301
-8.823569 11.263850 20.313256
-8.990680 11.327423 20.325150
-9.159497 11.386339 20.336950
-9.328853 11.443715 20.348716
167 NaN NaN
-1.285927 0.668000 21.480957
-1.287027 0.708876 21.388809
-1.288024 0.749663 21.296620
-1.288966 0.790403 21.204409
-1.289900 0.831137 21.112196
-1.290876 0.871907 21.019999
-1.291943 0.912753 20.927837
-1.293130 0.953703 20.835723
-1.294295 0.994633 20.743599
-1.295195 1.035338 20.651373
-1.295628 1.075643 20.558968
-1.295994 1.115890 20.466538
-1.297195 1.156851 20.374430
-1.300129 1.199275 20.283028
-1.303725 1.242254 20.191906
-1.304567 1.282903 20.099672
-1.299682 1.318532 20.005528
-1.291230 1.350930 19.910439
-1.289153 1.389012 19.817254
-1.308535 1.443874 19.735918
-1.356593 1.515422 19.684786
-1.416797 1.591191 19.657012
-1.479949 1.668134 19.641220
-1.544137 1.745331 19.632259
-1.612109 1.819658 19.628694
-1.686858 1.887213 19.628689
-1.768933 1.945639 19.630633
-1.855896 1.996456 19.634287
-1.945810 2.041706 19.639667
-2.037366 2.083309 19.646677
-2.129641 2.123112 19.654695
-2.221826 2.163071 19.662979
-2.313292 2.204702 19.670967
-2.404165 2.247632 19.678866
-2.494790 2.291025 19.687086
-2.585462 2.334203 19.695889
-2.676119 2.377428 19.704624
-2.766549 2.421326 19.712277
-2.856537 2.466415 19.717929
-2.946244 2.512257 19.721700
-3.036103 2.557884 19.724319
-3.126508 2.602442 19.726492
-3.216970 2.646895 19.728423
-3.306226 2.693727 19.729888
-3.392794 2.745351 19.730645
-3.476397 2.801676 19.730624
-3.558773 2.859789 19.729981
-3.641896 2.916816 19.728892
-3.725702 2.972833 19.727563
-3.806602 3.032921 19.726257
-3.879461 3.102432 19.725273
-3.939995 3.182938 19.724742
-3.991569 3.269534 19.724256
-4.039625 3.358151 19.723342
-4.087586 3.446812 19.721885
-4.132055 3.537262 19.720961
-4.167600 3.631520 19.721980
-4.189488 3.729760 19.726050
-4.200470 3.829734 19.732515
-4.205719 3.930106 19.740289
-4.209720 4.030507 19.748473
-4.214014 4.130906 19.756526
-4.218864 4.231322 19.764042
-4.224496 4.331760 19.770648
-4.230777 4.432215 19.776360
-4.237349 4.532686 19.781443
-4.243875 4.633177 19.786160
-4.250474 4.733672 19.790700
-4.257697 4.834126 19.795186
-4.266101 4.934485 19.799735
-4.275750 5.034727 19.804396
-4.286034 5.134904 19.809115
-4.296298 5.235082 19.813835
-4.306333 5.335285 19.818532
-4.316828 5.435440 19.823244
-4.328579 5.535451 19.828018
-4.342061 5.635240 19.832881
-4.356789 5.734850 19.837809
-4.372101 5.834370 19.842765
-4.387508 5.933876 19.847725
-4.403315 6.033318 19.852705
-4.420054 6.132604 19.857729
-4.438192 6.231641 19.862820
-4.457745 6.330405 19.867978
-4.478540 6.428912 19.873194
-4.500407 6.527184 19.878460
-4.523210 6.625241 19.883768
-4.546834 6.723101 19.889114
-4.571181 6.820783 19.894492
-4.596512 6.918211 19.899914
-4.623412 7.015212 19.905406
-4.652461 7.111586 19.910990
-4.683581 7.207306 19.916661
-4.715836 7.302649 19.922380
-4.748246 7.397939 19.928105
-4.780614 7.493244 19.933828
-4.814263 7.588098 19.939603
-4.850676 7.681915 19.945488
-4.890585 7.774293 19.951507
-4.932638 7.865712 19.957605
-4.975159 7.956915 19.963719
-5.016999 8.048434 19.969809
-5.059285 8.139745 19.975915
-5.103766 8.229998 19.982099
-5.151841 8.318378 19.988404
-5.202824 8.405112 19.994802
-5.255232 8.490990 20.001243
-5.307763 8.576794 20.007687
-5.360553 8.662438 20.014140
-5.414622 8.747276 20.020630
-5.470933 8.830635 20.027183
-5.529629 8.912328 20.033799
-5.590165 8.992666 20.040461
-5.652003 9.072003 20.047154
-5.714860 9.150534 20.053870
-5.778752 9.228224 20.060608
-5.843715 9.305018 20.067369
-5.909885 9.380772 20.074154
-5.977586 9.455156 20.080967
-6.047147 9.527800 20.087812
-6.118618 9.598565 20.094685
-6.191339 9.668044 20.101575
-6.264564 9.736992 20.108471
-6.337836 9.805892 20.115367
-6.411845 9.873995 20.122272
-6.487559 9.940192 20.129192
-6.565663 10.003546 20.136129
-6.645496 10.064716 20.143072
-6.725948 10.125069 20.150016
-6.806077 10.185851 20.156959
-6.886168 10.246684 20.163903
-6.967227 10.306216 20.170847
-7.050154 10.363111 20.177786
-7.134848 10.417350 20.184715
-7.220457 10.470137 20.191635
-7.306191 10.522722 20.198554
-7.391836 10.575453 20.205474
-7.477879 10.627530 20.212389
-7.564829 10.678075 20.219292
-7.652890 10.726665 20.226177
-7.741773 10.773737 20.233045
-7.831166 10.819838 20.239902
-7.920860 10.865352 20.246752
-8.010885 10.910206 20.253593
-8.101309 10.954253 20.260424
-8.192193 10.997346 20.267241
-8.283591 11.039339 20.274041
-8.375552 11.080087 20.280822
-8.468092 11.119505 20.287581
-8.561061 11.157905 20.294323
-8.654255 11.195760 20.301054
-8.747506 11.233475 20.307783
-8.840922 11.270780 20.314504
-8.934763 11.307003 20.321205
-9.029251 11.341508 20.327872
-9.124300 11.374447 20.334505
-9.219603 11.406648 20.341123
-9.314873 11.438944 20.347743
-9.410078 11.471435 20.354367
-9.505484 11.503327 20.360978
-9.601363 11.533774 20.367557
-9.697797 11.562428 20.374092
-9.794590 11.589852 20.380598
-9.891544 11.616707 20.387089
-9.988471 11.643657 20.393583
-10.085183 11.671363 20.400096
-10.181475 11.700486 20.406643
