0.010330
14
0.009240
5
0.004620
39
0.010330
16
0.002313
14
A3
0.001874
19
A1
0.003020
11
D4
0.002264
15
D8
0.003923
8
D10
0.003067
11
D11
0.003357
10
D13
0.002708
12
D14
0.002095
16
D16
0.002166
16
D19
0.002372
14
D21
0.002820
12
D24
0.002355
14
D30
0.001745
15
D36
