-2.338041 -1.505313 15.271375
-1.687423 -1.485871 16.536669
-1.175009 -1.420047 17.860602
-0.979734 -1.257475 19.256285
-0.970231 -1.043017 20.662976
-0.908007 -0.842685 22.070428
-0.852713 -0.640483 23.477862
-2.337105 -1.505293 15.273142
-1.688275 -1.485920 16.534860
-1.686572 -1.485822 16.538478
-1.175538 -1.420200 17.858680
-1.174479 -1.419893 17.862525
-0.979781 -1.257767 19.254307
-0.979688 -1.257182 19.258263
-0.970282 -1.043308 20.660998
-0.970181 -1.042726 20.664954
-0.908110 -0.842962 22.068450
-0.907903 -0.842408 22.072406
-0.852747 -0.640779 23.475885
-2.323073 -1.505000 15.299612
-1.701156 -1.486612 16.507819
-1.673813 -1.485088 16.565577
-1.183563 -1.422472 17.829904
-1.166549 -1.417592 17.891325
-0.980478 -1.262150 19.224677
-0.978991 -1.252799 19.287893
-0.971044 -1.047674 20.631367
-0.969419 -1.038360 20.694586
-0.909660 -0.847115 22.038819
-0.906353 -0.838255 22.102037
-0.853257 -0.645212 23.446258
-2.258879 -1.503675 15.420610
-2.157158 -1.501579 15.612318
-2.055916 -1.499314 15.804278
-1.955748 -1.496674 15.996795
-1.857173 -1.493478 16.190124
-1.760723 -1.489545 16.384507
-1.616068 -1.481533 16.689736
-1.527558 -1.474890 16.887786
-1.443335 -1.466809 17.087643
-1.364001 -1.457112 17.289416
-1.290214 -1.445608 17.493186
-1.222713 -1.432091 17.698997
-1.131912 -1.406575 18.023388
-1.084249 -1.386929 18.234192
-1.045935 -1.364507 18.446614
-1.017400 -1.339256 18.660251
-0.997721 -1.311505 18.874583
-0.985324 -1.281743 19.089196
-0.976764 -1.232504 19.423340
-0.975837 -1.199657 19.637870
-0.976540 -1.166379 19.852337
-0.977358 -1.133071 20.066798
-0.976794 -1.100127 20.281315
-0.973961 -1.067785 20.495905
-0.965401 -1.018544 20.830063
-0.957713 -0.987502 21.044727
-0.948698 -0.956819 21.259391
-0.938661 -0.926413 21.474050
-0.927912 -0.896200 21.688702
-0.916761 -0.866097 21.903348
-0.899353 -0.819246 22.237509
-0.888620 -0.789029 22.452160
-0.878606 -0.758616 22.666819
-0.869620 -0.727925 22.881484
-0.861970 -0.696874 23.096148
-0.855999 -0.665370 23.310800
88 NaN NaN
-2.338276 -1.505318 15.270933
-2.291099 -1.504333 15.359927
-2.243864 -1.503368 15.448890
-2.196630 -1.502403 15.537854
-2.149456 -1.501418 15.626849
-2.102397 -1.500391 15.715905
-2.055510 -1.499305 15.805050
-2.008849 -1.498139 15.894313
-1.962468 -1.496875 15.983721
-1.916422 -1.495495 16.073299
-1.870763 -1.493979 16.163074
-1.825547 -1.492310 16.253070
-1.780827 -1.490469 16.343309
-1.736659 -1.488438 16.433817
-1.693100 -1.486198 16.524613
-1.650205 -1.483730 16.615720
-1.608034 -1.481016 16.707156
-1.566646 -1.478037 16.798942
-1.526102 -1.474773 16.891094
-1.486466 -1.471204 16.983629
-1.447802 -1.467312 17.076561
-1.410178 -1.463076 17.169903
-1.373660 -1.458475 17.263667
-1.338322 -1.453490 17.357862
-1.304235 -1.448098 17.452495
-1.271475 -1.442281 17.547570
-1.240118 -1.436015 17.643088
-1.210245 -1.429281 17.739049
-1.181935 -1.422056 17.835448
-1.155273 -1.414321 17.932275
-1.130341 -1.406054 18.029518
-1.107225 -1.397234 18.127161
-1.086010 -1.387843 18.225180
-1.066783 -1.377861 18.323551
-1.049629 -1.367269 18.422241
-1.034629 -1.356052 18.521212
-1.021762 -1.344224 18.620412
-1.010881 -1.331833 18.719781
-1.001826 -1.318930 18.819268
-0.994437 -1.305565 18.918833
-0.988551 -1.291788 19.018441
-0.984007 -1.277645 19.118069
-0.980643 -1.263183 19.217698
-0.978298 -1.248447 19.317316
-0.976815 -1.233481 19.416917
-0.976035 -1.218329 19.516497
-0.975802 -1.203031 19.616059
-0.975962 -1.187630 19.715604
-0.976360 -1.172166 19.815139
-0.976842 -1.156680 19.914670
-0.977256 -1.141212 20.014204
-0.977449 -1.125802 20.113748
-0.977265 -1.110492 20.213308
-0.976575 -1.095315 20.312885
-0.975373 -1.080275 20.412478
-0.973688 -1.065363 20.512084
-0.971549 -1.050572 20.611699
-0.968989 -1.035894 20.711321
-0.966036 -1.021321 20.810947
-0.962723 -1.006846 20.910576
-0.959080 -0.992459 21.010207
-0.955137 -0.978153 21.109838
-0.950926 -0.963920 21.209468
-0.946479 -0.949750 21.309097
-0.941826 -0.935637 21.408724
-0.936999 -0.921570 21.508350
-0.932029 -0.907543 21.607975
-0.926948 -0.893546 21.707598
-0.921788 -0.879570 21.807220
-0.916579 -0.865608 21.906842
-0.911353 -0.851650 22.006463
-0.906142 -0.837688 22.106084
-0.900977 -0.823713 22.205706
-0.895890 -0.809718 22.305329
-0.890912 -0.795693 22.404954
-0.886075 -0.781629 22.504579
-0.881410 -0.767519 22.604207
-0.876949 -0.753353 22.703836
-0.872722 -0.739124 22.803466
-0.868761 -0.724823 22.903097
-0.865097 -0.710442 23.002727
-0.861762 -0.695972 23.102357
-0.858786 -0.681406 23.201983
-0.856199 -0.666735 23.301605
-0.854033 -0.651951 23.401221
-0.852318 -0.637047 23.500827
-0.851083 -0.622015 23.600421
-0.850360 -0.606848 23.700000
-2.338029 -1.505414 15.270509
-1.987612 -1.637962 14.633506
-1.677600 -1.743875 13.971193
-1.423614 -1.814077 13.281037
-1.246359 -1.836981 12.564498
-1.163859 -1.803394 11.831414
-1.141225 -1.734344 11.095924
-1.116098 -1.665169 10.360510
-1.074596 -1.606120 9.624910
-1.043974 -1.546405 8.888862
-1.035354 -1.480969 8.152696
-1.036484 -1.413333 7.416663
-1.037902 -1.346183 6.680585
-1.038924 -1.279436 5.944470
-1.039975 -1.212661 5.208357
-1.041477 -1.145425 4.472288
-2.337043 -1.505798 15.268812
-1.988509 -1.637637 14.635264
-1.986714 -1.638287 14.631749
-1.678375 -1.743629 13.973020
-1.676825 -1.744121 13.969366
-1.424195 -1.813953 13.282946
-1.423033 -1.814201 13.279127
-1.246711 -1.836996 12.566466
-1.246008 -1.836965 12.562529
-1.163978 -1.803546 11.833404
-1.163741 -1.803241 11.829423
-1.141265 -1.734545 11.097913
-1.141185 -1.734143 11.093934
-1.116200 -1.665338 10.362501
-1.115997 -1.665000 10.358520
-1.074708 -1.606275 9.626901
-1.074485 -1.605964 9.622919
-1.044020 -1.546576 8.890854
-1.043927 -1.546234 8.886870
-1.035358 -1.481151 8.154688
-1.035350 -1.480787 8.150704
-1.036479 -1.413516 7.418655
-1.036489 -1.413150 7.414671
-1.037899 -1.346364 6.682577
-1.037905 -1.346002 6.678593
-1.038922 -1.279617 5.946462
-1.038927 -1.279256 5.942478
-1.039971 -1.212842 5.210349
-1.039978 -1.212480 5.206366
-1.041472 -1.145608 4.474279
-2.326964 -1.509727 15.251475
-1.997681 -1.634317 14.653220
-1.977543 -1.641606 14.613792
-1.686296 -1.741121 13.991690
-1.668903 -1.746629 13.950697
-1.430365 -1.812544 13.302376
-1.417092 -1.815467 13.259616
-1.250306 -1.837149 12.586582
-1.242412 -1.836812 12.542413
-1.165189 -1.805103 11.853744
-1.162529 -1.801685 11.809084
-1.141665 -1.736602 11.118240
-1.140776 -1.732088 11.073607
-1.117238 -1.667066 10.382836
-1.114959 -1.663273 10.338185
-1.075847 -1.607864 9.647242
-1.073355 -1.604375 9.602578
-1.044516 -1.548319 8.911208
-1.043456 -1.544485 8.866515
-1.035399 -1.483009 8.175038
-1.035310 -1.478929 8.130354
-1.036429 -1.415383 7.439004
-1.036537 -1.411284 7.394322
-1.037867 -1.348213 6.702928
-1.037936 -1.344154 6.658242
-1.038895 -1.281460 5.966813
-1.038954 -1.277412 5.922127
-1.039939 -1.214692 5.230700
-1.040012 -1.210629 5.186015
-1.041420 -1.147478 4.494628
-2.290647 -1.523882 15.189004
-2.237294 -1.544502 15.095749
-2.184645 -1.564643 15.001991
-2.132715 -1.584300 14.907731
-2.081542 -1.603448 14.812954
-2.031167 -1.622066 14.717645
-1.944734 -1.653411 14.548937
-1.896788 -1.670425 14.452089
-1.849802 -1.686811 14.354664
-1.803823 -1.702542 14.256652
-1.758901 -1.717589 14.158044
-1.715086 -1.731923 14.058834
-1.641053 -1.755227 13.883077
-1.600603 -1.767413 13.782166
-1.561474 -1.778763 13.680638
-1.523731 -1.789240 13.578493
-1.487457 -1.798796 13.475727
-1.452800 -1.807344 13.372316
-1.395709 -1.820018 13.189302
-1.365656 -1.825724 13.084268
-1.337406 -1.830327 12.978682
-1.311037 -1.833786 12.872568
-1.286629 -1.836059 12.765956
-1.264261 -1.837105 12.658879
-1.230156 -1.835845 12.469817
-1.213869 -1.833270 12.361674
-1.199855 -1.829354 12.253254
-1.187975 -1.824185 12.144630
-1.178025 -1.817883 12.035870
-1.169794 -1.810573 11.927029
-1.158934 -1.795620 11.735788
-1.154346 -1.786163 11.626895
-1.150673 -1.776159 11.518017
-1.147708 -1.765724 11.409157
-1.145258 -1.754965 11.300315
-1.143079 -1.744018 11.191487
-1.139287 -1.724689 11.000360
-1.136773 -1.713830 10.891531
-1.133744 -1.703221 10.782689
-1.130052 -1.692950 10.673836
-1.125707 -1.683020 10.564975
-1.120799 -1.673396 10.456111
-1.111096 -1.657126 10.264909
-1.105111 -1.648160 10.156042
-1.098913 -1.639361 10.047174
-1.092595 -1.630691 9.938301
-1.086251 -1.622114 9.829424
-1.079972 -1.613590 9.720538
-1.069414 -1.598634 9.529273
-1.063815 -1.590062 9.420354
-1.058636 -1.581402 9.311421
-1.053989 -1.572611 9.202475
-1.049967 -1.563653 9.093517
-1.046540 -1.554533 8.984552
-1.041806 -1.538171 8.793171
-1.039804 -1.528670 8.684203
-1.038229 -1.519058 8.575238
-1.037039 -1.509348 8.466277
-1.036188 -1.499552 8.357321
-1.035632 -1.489685 8.248369
-1.035241 -1.472217 8.057026
-1.035273 -1.462217 7.948085
-1.035433 -1.452194 7.839146
-1.035678 -1.442160 7.730208
-1.035964 -1.432129 7.621270
-1.036249 -1.422113 7.512330
-1.036705 -1.404567 7.320995
-1.036942 -1.394601 7.212050
-1.037164 -1.384650 7.103105
-1.037371 -1.374714 6.994158
-1.037565 -1.364791 6.885209
-1.037749 -1.354879 6.776260
-1.038048 -1.337494 6.584910
-1.038208 -1.327607 6.475958
-1.038361 -1.317725 6.367006
-1.038510 -1.307849 6.258053
-1.038655 -1.297975 6.149101
-1.038799 -1.288104 6.040147
-1.039050 -1.270768 5.848793
-1.039196 -1.260895 5.739840
-1.039344 -1.251019 5.630887
-1.039497 -1.241138 5.521935
-1.039656 -1.231251 5.412983
-1.039821 -1.221357 5.304032
-1.040135 -1.203957 5.112683
-1.040328 -1.194035 5.003735
-1.040534 -1.184101 4.894788
-1.040755 -1.174151 4.785842
-1.040990 -1.164186 4.676898
-1.041242 -1.154205 4.567955
112 NaN NaN
-2.338276 -1.505318 15.270933
-2.288688 -1.524646 15.185633
-2.239649 -1.543600 15.099933
-2.191186 -1.562162 15.013820
-2.143329 -1.580315 14.927282
-2.096108 -1.598041 14.840307
-2.049554 -1.615322 14.752884
-2.003699 -1.632139 14.665003
-1.958574 -1.648472 14.576653
-1.914216 -1.664301 14.487826
-1.870658 -1.679606 14.398511
-1.827939 -1.694364 14.308701
-1.786095 -1.708554 14.218389
-1.745166 -1.722153 14.127567
-1.705194 -1.735136 14.036231
-1.666222 -1.747478 13.944376
-1.628293 -1.759156 13.851999
-1.591455 -1.770141 13.759097
-1.555755 -1.780407 13.665670
-1.521242 -1.789926 13.571718
-1.487969 -1.798669 13.477246
-1.455989 -1.806605 13.382258
-1.425357 -1.813705 13.286761
-1.396129 -1.819937 13.190764
-1.368365 -1.825269 13.094280
-1.342125 -1.829670 12.997324
-1.317468 -1.833105 12.899914
-1.294459 -1.835542 12.802073
-1.273159 -1.836949 12.703825
-1.253634 -1.837291 12.605199
-1.235946 -1.836536 12.506230
-1.220160 -1.834652 12.406955
-1.206332 -1.831612 12.307417
-1.194404 -1.827454 12.207674
-1.184218 -1.822274 12.107785
-1.175608 -1.816169 12.007799
-1.168406 -1.809238 11.907756
-1.162446 -1.801577 11.807685
-1.157558 -1.793285 11.707605
-1.153575 -1.784454 11.607531
-1.150331 -1.775181 11.507470
-1.147661 -1.765558 11.407426
-1.145401 -1.755676 11.307396
-1.143386 -1.745627 11.207378
-1.141455 -1.735501 11.107365
-1.139445 -1.725389 11.007353
-1.137192 -1.715381 10.907336
-1.134536 -1.705568 10.807309
-1.131321 -1.696035 10.707272
-1.127525 -1.686803 10.607227
-1.123220 -1.677844 10.507177
-1.118478 -1.669129 10.407126
-1.113371 -1.660630 10.307074
-1.107972 -1.652316 10.207022
-1.102356 -1.644160 10.106969
-1.096595 -1.636130 10.006914
-1.090762 -1.628199 9.906855
-1.084932 -1.620335 9.806791
-1.079178 -1.612509 9.706719
-1.073573 -1.604693 9.606638
-1.068192 -1.596855 9.506546
-1.063109 -1.588966 9.406443
-1.058396 -1.580996 9.306329
-1.054129 -1.572917 9.206203
-1.050373 -1.564700 9.106067
-1.047130 -1.556344 9.005926
-1.044366 -1.547859 8.905781
-1.042045 -1.539255 8.805634
-1.040131 -1.530543 8.705489
-1.038591 -1.521733 8.605345
-1.037388 -1.512837 8.505205
-1.036489 -1.503863 8.405068
-1.035857 -1.494823 8.304935
-1.035459 -1.485727 8.204806
-1.035258 -1.476585 8.104681
-1.035221 -1.467408 8.004559
-1.035312 -1.458205 7.904439
-1.035497 -1.448987 7.804320
-1.035741 -1.439764 7.704202
-1.036010 -1.430547 7.604084
-1.036270 -1.421344 7.503964
-1.036515 -1.412157 7.403843
-1.036745 -1.402985 7.303721
-1.036960 -1.393828 7.203597
-1.037163 -1.384683 7.103472
-1.037354 -1.375551 7.003345
-1.037535 -1.366430 6.903218
-1.037705 -1.357318 6.803090
-1.037867 -1.348216 6.702961
-1.038022 -1.339121 6.602831
-1.038169 -1.330032 6.502701
-1.038312 -1.320950 6.402570
-1.038450 -1.311871 6.302438
-1.038585 -1.302796 6.202307
-1.038717 -1.293724 6.102175
-1.038849 -1.284652 6.002043
-1.038980 -1.275581 5.901911
-1.039112 -1.266508 5.801779
-1.039247 -1.257434 5.701648
-1.039384 -1.248356 5.601517
-1.039526 -1.239274 5.501386
-1.039673 -1.230187 5.401255
-1.039826 -1.221093 5.301125
-1.039986 -1.211992 5.200996
-1.040155 -1.202882 5.100868
-1.040334 -1.193763 5.000740
-1.040523 -1.184633 4.900614
-1.040723 -1.175490 4.800488
-1.040937 -1.166335 4.700364
-1.041164 -1.157166 4.600241
-1.041406 -1.147982 4.500120
-1.041664 -1.138782 4.400000
-2.338593 -1.505703 15.270912
-3.685798 -1.633596 15.138984
-4.481655 -0.413058 14.963809
-4.965867 1.005973 14.799908
-5.450898 2.425389 14.642574
-5.974420 3.838153 14.577692
-6.653001 5.181412 14.502736
-7.591293 6.354046 14.416440
-8.816657 7.218903 14.320743
-10.232207 7.719373 14.223058
-11.722605 7.918158 14.128788
-13.227417 7.904340 14.039223
-2.339862 -1.507247 15.270828
-3.684153 -1.634710 15.139216
-3.687443 -1.632483 15.138752
-4.481094 -0.414965 14.964034
-4.482216 -0.411152 14.963585
-4.965224 1.004091 14.800126
-4.966510 1.007854 14.799690
-5.450254 2.423499 14.642694
-5.451543 2.427278 14.642455
-5.973651 3.836309 14.577784
-5.975189 3.839996 14.577600
-6.651951 5.179713 14.502842
-6.654051 5.183111 14.502630
-7.589850 6.352666 14.416562
-7.592735 6.355426 14.416318
-8.814876 7.218002 14.320873
-8.818438 7.219803 14.320613
-10.230261 7.718933 14.223186
-10.234154 7.719813 14.222930
-11.720611 7.918056 14.128910
-11.724598 7.918260 14.128667
-13.225425 7.904470 14.039339
-2.359962 -1.531682 15.269492
-3.658106 -1.652343 15.142892
-3.712489 -1.613465 15.135078
-4.472210 -0.445152 14.967586
-4.491609 -0.381114 14.960084
-4.955041 0.974304 14.803572
-4.976700 1.037640 14.796255
-5.440051 2.393581 14.644593
-5.461751 2.457201 14.640653
-5.961470 3.807114 14.579241
-5.987380 3.869188 14.576142
-6.635329 5.152811 14.504527
-6.670674 5.210013 14.500945
-7.567010 6.330816 14.418492
-7.615576 6.377276 14.414388
-8.786675 7.203742 14.322931
-8.846638 7.234064 14.318556
-10.199437 7.711960 14.225210
-10.264978 7.726786 14.220905
-11.689043 7.916439 14.130839
-11.756166 7.919876 14.126738
-13.193875 7.906495 14.041171
-2.459549 -1.636743 15.262647
-2.651343 -1.761515 15.248169
-2.869598 -1.829943 15.229906
-3.097541 -1.846114 15.208795
-3.323389 -1.812317 15.185292
-3.535293 -1.727818 15.159675
-3.824686 -1.522859 15.118272
-3.993222 -1.368453 15.091986
-4.148076 -1.200454 15.065725
-4.276845 -1.012162 15.038742
-4.367573 -0.802913 15.011165
-4.432893 -0.583974 14.984097
-4.536959 -0.244066 14.944257
-4.613821 -0.028563 14.919686
-4.690453 0.187017 14.895056
-4.763613 0.403753 14.870002
-4.835554 0.620871 14.844719
-4.908455 0.837668 14.819430
-5.023447 1.174246 14.780613
-5.097304 1.390807 14.756083
-5.171012 1.607363 14.731076
-5.244887 1.823684 14.704567
-5.319023 2.039890 14.677847
-5.393252 2.256494 14.654940
-5.508698 2.594476 14.634156
-5.583865 2.811829 14.626243
-5.660757 3.028565 14.618025
-5.740023 3.244358 14.607798
-5.821818 3.459164 14.596755
-5.906389 3.672904 14.585932
-6.044583 4.002503 14.569399
-6.138313 4.212380 14.558460
-6.236311 4.420281 14.547224
-6.339222 4.625781 14.535756
-6.447203 4.828649 14.524088
-6.560638 5.028503 14.512183
-6.749042 5.332025 14.493122
-6.878313 5.521969 14.480507
-7.014191 5.707224 14.467617
-7.157171 5.887031 14.454440
-7.307196 6.060977 14.440989
-7.464231 6.228600 14.427276
-7.722518 6.475116 14.405464
-7.897419 6.623939 14.391156
-8.078785 6.764796 14.376662
-8.266466 6.897105 14.362008
-8.459981 7.020710 14.347226
-8.658743 7.135672 14.332352
-8.977202 7.296935 14.309111
-9.187332 7.389492 14.294135
-9.400955 7.473683 14.279166
-9.617659 7.549607 14.264229
-9.837053 7.617382 14.249344
-10.058638 7.677622 14.234524
-10.406736 7.756934 14.211644
-10.632476 7.799112 14.197049
-10.859314 7.834968 14.182555
-11.087030 7.864806 14.168166
-11.315454 7.888700 14.153890
-11.544380 7.907260 14.139724
-11.900988 7.926146 14.117920
-12.130606 7.932153 14.104041
-12.360304 7.933816 14.090271
-12.590001 7.931376 14.076609
-12.819627 7.924879 14.063056
-13.049124 7.914677 14.049608
169 NaN NaN
-2.338276 -1.505318 15.270933
-2.402340 -1.583202 15.266675
-2.475941 -1.652083 15.261493
-2.557695 -1.710981 15.255443
-2.646027 -1.759366 15.248600
-2.739363 -1.797092 15.241045
-2.836251 -1.824270 15.232853
-2.935410 -1.841138 15.224090
-3.035719 -1.847961 15.214806
-3.136170 -1.844961 15.205039
-3.235818 -1.832280 15.194819
-3.333712 -1.809964 15.184169
-3.428832 -1.777966 15.173111
-3.520160 -1.736451 15.161696
-3.607286 -1.686746 15.150062
-3.690350 -1.630515 15.138342
-3.769827 -1.569306 15.126624
-3.846396 -1.504477 15.114967
-3.920842 -1.437199 15.103403
-3.993605 -1.368090 15.091926
-4.064000 -1.296574 15.080457
-4.131018 -1.221903 15.068915
-4.193457 -1.143391 15.057238
-4.249893 -1.060495 15.045385
-4.298718 -0.972937 15.033351
-4.339309 -0.881274 15.021216
-4.373329 -0.786954 15.009118
-4.402859 -0.691108 14.997149
-4.429976 -0.594525 14.985360
-4.456714 -0.497809 14.973784
-4.485050 -0.401524 14.962452
-4.515768 -0.305942 14.951361
-4.548303 -0.210942 14.940454
-4.582008 -0.116335 14.929666
-4.616233 -0.021910 14.918929
-4.650325 0.072561 14.908172
-4.683688 0.167283 14.897329
-4.716251 0.262271 14.886391
-4.748238 0.357446 14.875379
-4.779876 0.452733 14.864313
-4.811391 0.548055 14.853213
-4.843010 0.643342 14.842097
-4.874914 0.738534 14.830987
-4.907083 0.833639 14.819898
-4.939445 0.928683 14.808849
-4.971925 1.023694 14.797858
-5.004451 1.118698 14.786941
-5.036947 1.213722 14.776116
-5.069373 1.308779 14.765366
-5.101746 1.403853 14.754606
-5.134095 1.498923 14.743741
-5.166447 1.593969 14.732677
-5.198828 1.688971 14.721320
-5.231264 1.783908 14.709586
-5.263762 1.878794 14.697613
-5.296305 1.973680 14.685763
-5.328879 2.068616 14.674413
-5.361467 2.163648 14.663938
-5.394046 2.258812 14.654715
-5.426596 2.354128 14.647098
-5.459141 2.449557 14.641040
-5.491746 2.545036 14.636206
-5.524483 2.640511 14.632248
-5.557422 2.735937 14.628822
-5.590640 2.831273 14.625582
-5.624209 2.926479 14.622184
-5.658199 3.021520 14.618343
-5.692639 3.116380 14.614072
-5.727547 3.211054 14.609486
-5.762942 3.305537 14.604697
-5.798844 3.399824 14.599818
-5.835271 3.493911 14.594962
-5.872248 3.587788 14.590198
-5.909811 3.681435 14.585505
-5.948000 3.774830 14.580851
-5.986853 3.867952 14.576205
-6.026408 3.960776 14.571532
-6.066701 4.053280 14.566803
-6.107770 4.145437 14.562005
-6.149649 4.237227 14.557145
-6.192373 4.328623 14.552228
-6.235976 4.419600 14.547262
-6.280491 4.510132 14.542254
-6.325952 4.600191 14.537208
-6.372393 4.689746 14.532126
-6.419848 4.778766 14.527002
-6.468352 4.867215 14.521835
-6.517938 4.955060 14.516619
-6.568639 5.042264 14.511352
-6.620484 5.128788 14.506032
-6.673504 5.214593 14.500658
-6.727727 5.299641 14.495230
-6.783179 5.383889 14.489747
-6.839888 5.467292 14.484211
-6.897876 5.549807 14.478621
-6.957167 5.631387 14.472977
-7.017775 5.711990 14.467280
-7.079716 5.791569 14.461528
-7.143006 5.870075 14.455724
-7.207656 5.947461 14.449865
-7.273678 6.023677 14.443954
-7.341072 6.098676 14.437991
-7.409837 6.172418 14.431978
-7.479969 6.244855 14.425916
-7.551464 6.315944 14.419805
-7.624317 6.385638 14.413649
-7.698515 6.453892 14.407448
-7.774039 6.520673 14.401206
-7.850864 6.585948 14.394923
-7.928968 6.649685 14.388603
-8.008326 6.711849 14.382248
-8.088913 6.772408 14.375859
-8.170698 6.831336 14.369441
-8.253641 6.888619 14.362995
-8.337705 6.944243 14.356524
-8.422849 6.998194 14.350031
-8.509039 7.050458 14.343519
-8.596234 7.101023 14.336991
-8.684392 7.149890 14.330448
-8.773466 7.197062 14.323894
-8.863414 7.242547 14.317332
-8.954193 7.286349 14.310763
-9.045761 7.328476 14.304190
-9.138076 7.368939 14.297616
-9.231096 7.407754 14.291042
-9.324779 7.444942 14.284471
-9.419084 7.480523 14.277904
-9.513972 7.514518 14.271344
-9.609408 7.546950 14.264792
-9.705353 7.577842 14.258249
-9.801773 7.607222 14.251718
-9.898634 7.635116 14.245199
-9.995903 7.661554 14.238694
-10.093551 7.686564 14.232203
-10.191547 7.710175 14.225729
-10.289864 7.732416 14.219271
-10.388476 7.753316 14.212830
-10.487359 7.772906 14.206408
-10.586487 7.791215 14.200005
-10.685840 7.808274 14.193621
-10.785395 7.824113 14.187256
-10.885135 7.838759 14.180913
-10.985039 7.852242 14.174589
-11.085092 7.864588 14.168287
-11.185277 7.875828 14.162006
-11.285578 7.885990 14.155746
-11.385981 7.895099 14.149508
-11.486474 7.903182 14.143291
-11.587043 7.910264 14.137096
-11.687678 7.916370 14.130922
-11.788367 7.921525 14.124771
-11.889101 7.925754 14.118640
-11.989870 7.929080 14.112532
-12.090665 7.931525 14.106444
-12.191479 7.933111 14.100378
-12.292304 7.933860 14.094334
-12.393133 7.933794 14.088310
-12.493960 7.932934 14.082307
-12.594778 7.931298 14.076325
-12.695583 7.928904 14.070364
-12.796368 7.925769 14.064423
-12.897129 7.921912 14.058502
-12.997862 7.917349 14.052602
-13.098563 7.912100 14.046721
-13.199228 7.906181 14.040859
-13.299853 7.899610 14.035017
-13.400436 7.892406 14.029194
-13.500975 7.884584 14.023390
-13.601466 7.876164 14.017604
-0.969946 -1.042707 20.663245
-0.871935 -0.932067 20.757697
-0.783214 -0.814195 20.852498
-0.706528 -0.688057 20.947171
-0.647610 -0.551877 21.040524
-0.609758 -0.406644 21.130811
-0.599040 -0.253498 21.215182
-0.621986 -0.096499 21.289084
-0.675816 0.058299 21.350371
-0.758191 0.205670 21.397165
-0.862872 0.342282 21.430034
-0.982530 0.468503 21.451891
-1.113635 0.584349 21.464053
-0.968805 -1.041465 20.664320
-0.873016 -0.933358 20.756618
-0.870853 -0.930777 20.758775
-0.784144 -0.815597 20.851416
-0.782283 -0.812793 20.853579
-0.707361 -0.689522 20.946093
-0.705694 -0.686593 20.948249
-0.648192 -0.553474 21.039469
-0.647027 -0.550280 21.041578
-0.609994 -0.408365 21.129819
-0.609521 -0.404923 21.131802
-0.599068 -0.255264 21.214245
-0.599012 -0.251732 21.216120
-0.621560 -0.098290 21.288302
-0.622412 -0.094709 21.289866
-0.674968 0.056584 21.349785
-0.676664 0.060013 21.350956
-0.757169 0.204021 21.396679
-0.759214 0.207319 21.397651
-0.861584 0.340783 21.429725
-0.864160 0.343780 21.430343
-0.981066 0.467150 21.451724
-0.983993 0.469857 21.452058
-1.112108 0.583062 21.463944
-0.964447 -1.036721 20.668428
-0.877148 -0.938289 20.752496
-0.866722 -0.925845 20.762897
-0.787698 -0.820953 20.847286
-0.778730 -0.807437 20.857709
-0.710545 -0.695115 20.941976
-0.702795 -0.680838 20.952346
-0.650417 -0.559573 21.035442
-0.644802 -0.544181 21.045606
-0.610899 -0.414939 21.126033
-0.608616 -0.398349 21.135589
-0.599177 -0.262012 21.210662
-0.598903 -0.244984 21.219703
-0.619934 -0.105132 21.285315
-0.624039 -0.087867 21.292854
-0.671728 0.050036 21.347550
-0.679903 0.066561 21.353191
-0.753263 0.197723 21.394822
-0.763119 0.213618 21.399508
-0.856664 0.335058 21.428546
-0.869081 0.349505 21.431522
-0.975476 0.461981 21.451085
-0.989583 0.475026 21.452697
-1.106275 0.578145 21.463527
-0.954104 -1.025463 20.678176
-0.940425 -1.010574 20.691068
-0.926746 -0.995685 20.703961
-0.913067 -0.980795 20.716853
-0.899919 -0.965468 20.729778
-0.886952 -0.949991 20.742715
-0.856918 -0.914144 20.772678
-0.844475 -0.898265 20.785632
-0.832341 -0.882148 20.798595
-0.820207 -0.866031 20.811558
-0.808072 -0.849915 20.824522
-0.796131 -0.833662 20.837485
-0.770297 -0.794728 20.867511
-0.759143 -0.777918 20.880474
-0.748081 -0.761049 20.893434
-0.738088 -0.743495 20.906358
-0.728094 -0.725941 20.919281
-0.718101 -0.708387 20.932205
-0.696280 -0.666973 20.962043
-0.687664 -0.648634 20.974867
-0.679048 -0.630295 20.987692
-0.670431 -0.611955 21.000516
-0.662681 -0.593190 21.013243
-0.655697 -0.574047 21.025884
-0.639522 -0.529707 21.055163
-0.633335 -0.510239 21.067679
-0.628272 -0.490311 21.080019
-0.623210 -0.470383 21.092359
-0.618147 -0.450455 21.104699
-0.613085 -0.430527 21.117039
-0.606469 -0.382750 21.144575
-0.603629 -0.362117 21.156460
-0.600789 -0.341484 21.168345
-0.600117 -0.320379 21.179673
-0.599776 -0.299201 21.190917
-0.599435 -0.278024 21.202161
-0.600673 -0.228747 21.227570
-0.603025 -0.207269 21.237972
-0.605378 -0.185791 21.248374
-0.607730 -0.164313 21.258776
-0.610969 -0.142837 21.268847
-0.616074 -0.121366 21.278225
-0.627898 -0.071633 21.299944
-0.633554 -0.050229 21.309082
-0.641310 -0.029081 21.317305
-0.649066 -0.007932 21.325529
-0.656822 0.013216 21.333752
-0.664579 0.034364 21.341976
-0.687591 0.082101 21.358496
-0.697758 0.102654 21.365512
-0.707926 0.123206 21.372528
-0.719478 0.143240 21.378758
-0.731737 0.163008 21.384587
-0.743995 0.182777 21.390415
-0.773345 0.228080 21.403306
-0.787354 0.246962 21.408020
-0.801363 0.265845 21.412734
-0.815372 0.284728 21.417448
-0.829545 0.303505 21.422046
-0.844988 0.321473 21.425747
-0.880757 0.363090 21.434321
-0.896200 0.381058 21.438022
-0.912803 0.398131 21.440823
-0.929409 0.415203 21.443623
-0.946014 0.432275 21.446423
-0.962619 0.449347 21.449223
-1.002848 0.487291 21.454214
-1.020392 0.503515 21.456220
-1.037937 0.519738 21.458226
-1.055824 0.535607 21.459918
-1.074129 0.551041 21.461228
-1.092435 0.566475 21.462537
22 NaN NaN
-0.970231 -1.043017 20.662976
-0.909590 -0.977011 20.720130
-0.852106 -0.908401 20.777478
-0.798316 -0.836957 20.834944
-0.748874 -0.762441 20.892409
-0.704576 -0.684630 20.949695
-0.666385 -0.603344 21.006539
-0.635433 -0.518498 21.062565
-0.612997 -0.430182 21.117252
-0.600413 -0.338751 21.169919
-0.598902 -0.244915 21.219740
-0.609325 -0.149754 21.265827
-0.631943 -0.054622 21.307373
-0.666308 0.039080 21.343810
-0.711362 0.130151 21.374899
-0.765685 0.217755 21.400728
-0.827772 0.301442 21.421621
-0.896219 0.381080 21.438027
-0.969822 0.456753 21.450438
-1.047593 0.528667 21.459330
-1.128740 0.597086 21.465134
-1.212638 0.662290 21.468229
-1.174696 -1.419677 17.860725
-1.070259 -1.293626 17.902518
-0.971552 -1.163420 17.945422
-0.880664 -1.028079 17.989679
-0.799712 -0.887080 18.035389
-0.731004 -0.740187 18.082557
-0.680737 -0.586573 18.131258
-0.651807 -0.427948 18.180883
-0.653695 -0.266747 18.230407
-0.688949 -0.109076 18.277879
-0.758104 0.038428 18.321243
-0.857219 0.169557 18.358703
-0.976307 0.284772 18.390689
-1.111189 0.382902 18.416964
-1.255145 0.468353 18.439077
-1.405883 0.542331 18.457464
-1.173444 -1.418196 17.861217
-1.071469 -1.295138 17.902018
-1.069049 -1.292114 17.903018
-0.972659 -1.165003 17.944903
-0.970445 -1.161837 17.945941
-0.881706 -1.029702 17.989150
-0.879622 -1.026456 17.990209
-0.800589 -0.888791 18.034838
-0.798836 -0.885369 18.035941
-0.731773 -0.741946 18.081994
-0.730235 -0.738429 18.083120
-0.681222 -0.588423 18.130675
-0.680251 -0.584722 18.131842
-0.651891 -0.429857 18.180293
-0.651723 -0.426039 18.181472
-0.653535 -0.268653 18.229825
-0.653856 -0.264840 18.230989
-0.688263 -0.110878 18.277345
-0.689634 -0.107275 18.278413
-0.757174 0.036728 18.320747
-0.759035 0.040128 18.321739
-0.855902 0.168108 18.358295
-0.858536 0.171007 18.359110
-0.974743 0.283568 18.390364
-0.977871 0.285976 18.391014
-1.109541 0.381807 18.416675
-1.112837 0.383998 18.417254
-1.253381 0.467439 18.438847
-1.256909 0.469267 18.439307
-1.404078 0.541493 18.457259
-1.168804 -1.412709 17.863039
-1.075955 -1.300742 17.900164
-1.064564 -1.286510 17.904871
-0.976762 -1.170871 17.942980
-0.966342 -1.155970 17.947864
-0.885570 -1.035717 17.987188
-0.875758 -1.020441 17.992171
-0.803838 -0.895133 18.032793
-0.795587 -0.879026 18.037986
-0.734623 -0.748463 18.079907
-0.727521 -0.731861 18.085219
-0.683020 -0.595283 18.128513
-0.678454 -0.577862 18.134003
-0.652202 -0.436934 18.178107
-0.651412 -0.418961 18.183658
-0.652939 -0.275721 18.227669
-0.654452 -0.257772 18.233145
-0.685721 -0.117554 18.275365
-0.692176 -0.100598 18.280393
-0.753726 0.030428 18.318909
-0.762483 0.046428 18.323576
-0.851021 0.162737 18.356784
-0.863417 0.176378 18.360621
-0.969258 0.278765 18.389046
-0.983667 0.290438 18.392219
-1.103433 0.377744 18.415602
-1.118945 0.388061 18.418326
-1.246841 0.464052 18.437994
-1.263448 0.472653 18.440159
-1.397389 0.538389 18.456498
-1.157889 -1.399801 17.867325
-1.143462 -1.382739 17.872990
-1.129035 -1.365678 17.878655
-1.114608 -1.348616 17.884321
-1.100452 -1.331350 17.890041
-1.086506 -1.313925 17.895804
-1.054013 -1.273327 17.909231
-1.040216 -1.255796 17.915023
-1.026821 -1.237977 17.920891
-1.013427 -1.220159 17.926759
-1.000033 -1.202341 17.932627
-0.986638 -1.184522 17.938495
-0.956692 -1.142167 17.952389
-0.943935 -1.123923 17.958369
-0.931179 -1.105679 17.964350
-0.918684 -1.087274 17.970372
-0.906671 -1.068570 17.976473
-0.894658 -1.049867 17.982573
-0.866721 -1.006262 17.996793
-0.855582 -0.987066 18.003020
-0.844444 -0.967869 18.009246
-0.833306 -0.948673 18.015473
-0.822167 -0.929476 18.021700
-0.811480 -0.910052 18.027983
-0.787945 -0.864107 18.042795
-0.777843 -0.844387 18.049153
-0.767917 -0.824590 18.055529
-0.759054 -0.804325 18.062019
-0.750191 -0.784060 18.068508
-0.741328 -0.763795 18.074997
-0.721941 -0.716115 18.090223
-0.714564 -0.695302 18.096838
-0.707188 -0.674489 18.103453
-0.699812 -0.653677 18.110068
-0.692839 -0.632747 18.116706
-0.687249 -0.611419 18.123428
-0.674224 -0.561726 18.139089
-0.668634 -0.540398 18.145810
-0.665032 -0.518672 18.152597
-0.661571 -0.496918 18.159388
-0.658110 -0.475164 18.166178
-0.654650 -0.453409 18.172969
-0.650680 -0.402314 18.188799
-0.649713 -0.380309 18.195595
-0.648745 -0.358304 18.202391
-0.647835 -0.336299 18.209185
-0.649687 -0.314323 18.215890
-0.651539 -0.292347 18.222596
-0.655852 -0.241146 18.238218
-0.659910 -0.219464 18.244769
-0.664785 -0.197891 18.251263
-0.669660 -0.176318 18.257757
-0.674535 -0.154744 18.264251
-0.679741 -0.133260 18.270708
-0.698156 -0.084893 18.285050
-0.706060 -0.064133 18.291206
-0.713964 -0.043373 18.297362
-0.724175 -0.023572 18.303157
-0.734895 -0.003982 18.308871
-0.745616 0.015607 18.314586
-0.771885 0.060508 18.327635
-0.785051 0.078697 18.332848
-0.798216 0.096886 18.338060
-0.811382 0.115074 18.343273
-0.824548 0.133263 18.348486
-0.839539 0.150102 18.353231
-0.874900 0.189013 18.364174
-0.890077 0.205714 18.368871
-0.906238 0.221515 18.373263
-0.923014 0.236755 18.377465
-0.939790 0.251995 18.381666
-0.956566 0.267235 18.385867
-0.997303 0.300934 18.395052
-1.015326 0.314807 18.398797
-1.033350 0.328680 18.402542
-1.051373 0.342553 18.406287
-1.070074 0.355557 18.409744
-1.089066 0.368188 18.413079
-1.133313 0.397617 18.420849
-1.152610 0.409795 18.424036
-1.172354 0.421314 18.427007
-1.192098 0.432834 18.429978
-1.211842 0.444353 18.432949
-1.231585 0.455872 18.435920
-1.278831 0.480620 18.442164
-1.299164 0.491151 18.444814
-1.319497 0.501681 18.447464
-1.340058 0.511781 18.449974
-1.360856 0.521433 18.452341
-1.381654 0.531086 18.454707
26 NaN NaN
-1.175009 -1.420047 17.860602
-1.108303 -1.341160 17.886796
-1.043822 -1.260593 17.913443
-0.981892 -1.178208 17.940574
-0.922912 -1.093857 17.968225
-0.867371 -1.007383 17.996430
-0.815875 -0.918631 18.025217
-0.769173 -0.827462 18.054610
-0.728200 -0.733777 18.084610
-0.694102 -0.637565 18.115188
-0.668262 -0.538979 18.146258
-0.652268 -0.438436 18.177644
-0.647798 -0.336747 18.209049
-0.656353 -0.235204 18.240031
-0.678876 -0.135532 18.270034
-0.715393 -0.039618 18.298476
-0.764928 0.050896 18.324880
-0.825767 0.134948 18.348969
-0.895912 0.212134 18.370677
-0.973454 0.282576 18.390097
-1.056770 0.346708 18.407408
-1.144566 0.405102 18.422825
-1.235844 0.458357 18.436561
-1.329850 0.507043 18.448813
-1.426009 0.551671 18.459754
-1.523886 0.592692 18.469536
-1.687027 -1.485611 16.536512
-1.470939 -1.338034 16.450063
-1.263570 -1.177374 16.365714
-1.069886 -0.998916 16.284860
-0.898265 -0.797076 16.210029
-0.765564 -0.564789 16.146609
-0.705463 -0.300762 16.106303
-0.745230 -0.030234 16.100501
-0.877135 0.208787 16.129269
-1.058251 0.410029 16.178029
-1.266422 0.579926 16.238551
-1.685442 -1.484568 16.535880
-1.472482 -1.339145 16.450684
-1.469397 -1.336923 16.449442
-1.265019 -1.178616 16.366312
-1.262121 -1.176131 16.365116
-1.071239 -1.000273 16.285433
-1.068533 -0.997559 16.284287
-0.899374 -0.798662 16.210533
-0.897156 -0.795489 16.209525
-0.766382 -0.566566 16.147025
-0.764746 -0.563012 16.146193
-0.705529 -0.302754 16.106471
-0.705398 -0.298770 16.106134
-0.744690 -0.032159 16.100452
-0.745916 -0.028364 16.100605
-0.875970 0.207188 16.128978
-0.878301 0.210386 16.129561
-1.056792 0.408726 16.177613
-1.059710 0.411332 16.178445
-1.264858 0.578769 16.238087
-1.676606 -1.478754 16.532361
-1.481079 -1.345337 16.454147
-1.460800 -1.330730 16.445979
-1.273094 -1.185539 16.369645
-1.254046 -1.169208 16.361783
-1.078780 -1.007835 16.288626
-1.060992 -0.989997 16.281095
-0.905553 -0.807504 16.213342
-0.890977 -0.786648 16.206716
-0.770942 -0.576469 16.149344
-0.760186 -0.553108 16.143873
-0.705895 -0.313855 16.107409
-0.705031 -0.287669 16.105196
-0.741680 -0.042888 16.100180
-0.750356 -0.018171 16.101416
-0.869474 0.198277 16.127352
-0.884797 0.219298 16.131186
-1.048659 0.401464 16.175294
-1.067843 0.418593 16.180764
-1.256139 0.572322 16.235504
-1.653764 -1.463726 16.523265
-1.623374 -1.443730 16.511163
-1.593103 -1.423543 16.499088
-1.563095 -1.402927 16.487074
-1.533088 -1.382310 16.475060
-1.503304 -1.361346 16.463099
-1.438575 -1.314722 16.437027
-1.409462 -1.292746 16.425228
-1.380400 -1.270695 16.413440
-1.351398 -1.248559 16.401668
-1.322926 -1.225674 16.390026
-1.294455 -1.202790 16.378385
-1.233171 -1.151311 16.353166
-1.205397 -1.127499 16.341701
-1.178200 -1.102969 16.330386
-1.151258 -1.078121 16.319138
-1.124316 -1.053273 16.307889
-1.098274 -1.027385 16.296880
-1.041849 -0.970074 16.272937
-1.017144 -0.942759 16.262292
-0.992438 -0.915443 16.251646
-0.968478 -0.887414 16.241210
-0.945301 -0.858634 16.230993
-0.922125 -0.829854 16.220776
-0.875003 -0.763791 16.199454
-0.853947 -0.733238 16.189850
-0.835141 -0.701046 16.180916
-0.816335 -0.668854 16.171981
-0.798411 -0.636133 16.163317
-0.782729 -0.602071 16.155340
-0.751064 -0.526284 16.138722
-0.739335 -0.490409 16.131998
-0.727607 -0.454534 16.125273
-0.720136 -0.417351 16.119945
-0.713261 -0.379985 16.114812
-0.706842 -0.342553 16.109833
-0.704084 -0.258971 16.102772
-0.705645 -0.220860 16.100539
-0.710328 -0.182825 16.099405
-0.715011 -0.144791 16.098272
-0.723545 -0.107526 16.098543
-0.733898 -0.070624 16.099478
-0.761832 0.008177 16.103514
-0.777100 0.043233 16.106306
-0.793465 0.077687 16.109525
-0.812710 0.110559 16.113868
-0.831955 0.143431 16.118211
-0.852682 0.175240 16.123151
-0.901589 0.242335 16.135387
-0.925999 0.271164 16.141835
-0.950719 0.299722 16.148410
-0.975570 0.328143 16.155042
-1.002119 0.354805 16.162396
-1.028669 0.381467 16.169751
-1.088866 0.437366 16.186758
-1.116837 0.462343 16.194733
-1.145552 0.486331 16.203042
-1.174643 0.509819 16.211518
-1.203735 0.533306 16.219994
-1.233601 0.555656 16.228825
29 NaN NaN
-1.687423 -1.485871 16.536669
-1.602372 -1.429912 16.502799
-1.518391 -1.372213 16.469176
-1.435637 -1.312605 16.435844
-1.354302 -1.250893 16.402855
-1.274622 -1.186849 16.370276
-1.196894 -1.120210 16.338191
-1.121495 -1.050672 16.306711
-1.048912 -0.977883 16.275980
-0.979776 -0.901444 16.246190
-0.914922 -0.820909 16.217601
-0.855455 -0.735819 16.190567
-0.802839 -0.645753 16.165570
-0.758971 -0.550468 16.143255
-0.726168 -0.450132 16.124448
-0.706945 -0.345653 16.110095
-0.703422 -0.238911 16.101077
-0.716514 -0.132585 16.097908
-0.745461 -0.029409 16.100522
-0.788160 0.068626 16.108327
-0.841992 0.160575 16.120476
-0.904497 0.246324 16.136115
-0.973662 0.326227 16.154513
-1.047953 0.400833 16.175092
-1.126226 0.470727 16.197411
-1.207636 0.536457 16.221131
-1.291555 0.598510 16.245998
-1.377507 0.657309 16.271815
-1.465133 0.713215 16.298429
-1.987185 -1.637726 14.633617
-1.823067 -1.545704 14.676465
-1.661899 -1.449064 14.720296
-1.504377 -1.347082 14.765238
-1.351453 -1.238854 14.811445
-1.205068 -1.122580 14.859216
-1.067170 -0.997074 14.908680
-0.941034 -0.860520 14.960002
-0.831780 -0.710823 15.013231
-0.749733 -0.545288 15.068044
-0.706299 -0.366104 15.122636
-0.711231 -0.181124 15.173795
-0.765771 -0.002077 15.218115
-0.862086 0.160975 15.253604
-0.985356 0.306491 15.281378
-1.125827 0.436785 15.303104
-1.277814 0.554372 15.320077
-1.438000 0.661135 15.333170
-1.985477 -1.636784 14.634058
-1.824759 -1.546673 14.676018
-1.821376 -1.544736 14.676912
-1.663553 -1.450091 14.719837
-1.660246 -1.448037 14.720756
-1.505980 -1.348179 14.764764
-1.502773 -1.345985 14.765712
-1.352989 -1.240037 14.810954
-1.349917 -1.237672 14.811936
-1.206561 -1.123812 14.858716
-1.203575 -1.121347 14.859717
-1.068549 -0.998425 14.908159
-1.065790 -0.995723 14.909202
-0.942242 -0.862019 14.959457
-0.939826 -0.859022 14.960546
-0.832717 -0.712497 15.012666
-0.830843 -0.709149 15.013797
-0.750480 -0.547053 15.067473
-0.748985 -0.543523 15.068615
-0.706534 -0.368010 15.122079
-0.706064 -0.364197 15.123193
-0.710850 -0.183025 15.173304
-0.711612 -0.179223 15.174286
-0.764864 -0.003817 15.217724
-0.766677 -0.000338 15.218507
-0.860985 0.159340 15.253262
-0.863186 0.162610 15.253946
-0.983985 0.305058 15.281121
-0.986727 0.307924 15.281636
-1.124290 0.435519 15.302911
-1.127363 0.438051 15.303297
-1.276173 0.553239 15.319932
-1.279455 0.555506 15.320222
-1.436320 0.660057 15.333044
-1.978429 -1.632894 14.635881
-1.831742 -1.550669 14.674172
-1.814393 -1.540740 14.678758
-1.670377 -1.454329 14.717940
-1.653422 -1.443798 14.722653
-1.512598 -1.352708 14.762808
-1.496155 -1.341456 14.767669
-1.359464 -1.244752 14.808960
-1.343576 -1.232790 14.813962
-1.212724 -1.128900 14.856651
-1.197412 -1.116259 14.861782
-1.074242 -1.004000 14.906006
-1.060097 -0.990147 14.911354
-0.947226 -0.868202 14.957209
-0.934842 -0.852839 14.962794
-0.836960 -0.719180 15.010356
-0.826974 -0.702241 15.016131
-0.753564 -0.554338 15.065116
-0.745901 -0.536239 15.070972
-0.707504 -0.375878 15.119780
-0.705095 -0.356329 15.125492
-0.709277 -0.190870 15.171277
-0.713185 -0.171378 15.176314
-0.761367 -0.011090 15.216057
-0.770417 0.006841 15.220121
-0.856444 0.152594 15.251852
-0.867728 0.169356 15.255356
-0.978327 0.299142 15.280060
-0.992385 0.313840 15.282697
-1.117951 0.430294 15.302113
-1.133703 0.443276 15.304095
-1.269398 0.548561 15.319332
-1.286229 0.560184 15.320821
-1.429386 0.655608 15.332525
-1.961350 -1.623468 14.640298
-1.938727 -1.610983 14.646149
-1.916104 -1.598498 14.652000
-1.893483 -1.586009 14.657851
-1.871072 -1.573181 14.663775
-1.848661 -1.560354 14.669700
-1.797509 -1.531001 14.683242
-1.775336 -1.517802 14.689245
-1.753163 -1.504602 14.695249
-1.730990 -1.491403 14.701252
-1.708817 -1.478203 14.707255
-1.686912 -1.464600 14.713343
-1.636886 -1.433527 14.727249
-1.615023 -1.419864 14.733349
-1.593427 -1.405816 14.739529
-1.571832 -1.391768 14.745709
-1.550236 -1.377720 14.751889
-1.528641 -1.363672 14.758069
-1.480119 -1.330483 14.772409
-1.458877 -1.315947 14.778688
-1.437683 -1.301350 14.784980
-1.416852 -1.286277 14.791366
-1.396021 -1.271204 14.797753
-1.375190 -1.256132 14.804139
-1.328213 -1.220961 14.818871
-1.307863 -1.205293 14.825373
-1.287513 -1.189625 14.831876
-1.267220 -1.173890 14.838391
-1.247439 -1.157560 14.845019
-1.227658 -1.141229 14.851647
-1.182638 -1.103757 14.866817
-1.163539 -1.086687 14.873581
-1.144439 -1.069617 14.880344
-1.125340 -1.052548 14.887108
-1.106311 -1.035407 14.893883
-1.088038 -1.017511 14.900791
-1.046302 -0.976637 14.916569
-1.028252 -0.958537 14.923510
-1.010993 -0.939717 14.930571
-0.993733 -0.920898 14.937631
-0.976474 -0.902078 14.944691
-0.959304 -0.883185 14.951762
-0.922763 -0.837856 14.968241
-0.906764 -0.818010 14.975457
-0.891092 -0.797931 14.982703
-0.876676 -0.776958 14.990067
-0.862260 -0.755986 14.997432
-0.847844 -0.735013 15.004796
-0.817600 -0.685502 15.021786
-0.805183 -0.663330 15.029277
-0.792767 -0.641157 15.036768
-0.780837 -0.618751 15.044273
-0.770938 -0.595370 15.051838
-0.761038 -0.571989 15.059404
-0.739454 -0.518227 15.076677
-0.732663 -0.493756 15.084222
-0.725872 -0.469284 15.091768
-0.719081 -0.444813 15.099313
-0.712965 -0.420197 15.106828
-0.709853 -0.394943 15.114208
-0.702745 -0.337264 15.131063
-0.700941 -0.311923 15.138331
-0.701891 -0.286397 15.145363
-0.702841 -0.260871 15.152394
-0.703791 -0.235345 15.159425
-0.705465 -0.209880 15.166364
-0.716996 -0.152368 15.181226
-0.722045 -0.127187 15.187733
-0.728279 -0.102287 15.194037
-0.737091 -0.078000 15.199902
-0.745903 -0.053713 15.205766
-0.754715 -0.029426 15.211630
-0.779481 0.024236 15.224034
-0.791487 0.047278 15.229217
-0.803492 0.070319 15.234399
-0.816284 0.092937 15.239381
-0.830862 0.114591 15.243908
-0.845439 0.136246 15.248435
-0.879624 0.185095 15.258510
-0.896217 0.205372 15.262441
-0.912810 0.225648 15.266372
-0.929403 0.245924 15.270303
-0.946456 0.265822 15.274081
-0.964617 0.284808 15.277488
-1.006095 0.328173 15.285269
-1.024781 0.346658 15.288481
-1.044165 0.364475 15.291434
-1.063549 0.382292 15.294386
-1.082934 0.400109 15.297339
-1.102588 0.417633 15.300181
-1.149065 0.455938 15.306027
-1.169414 0.472709 15.308586
-1.190083 0.489094 15.311005
-1.211203 0.504936 15.313224
-1.232322 0.520777 15.315444
-1.253442 0.536618 15.317663
-1.302644 0.571519 15.322273
-1.324387 0.586534 15.324197
-1.346130 0.601549 15.326120
-1.368077 0.616270 15.327940
-1.390332 0.630549 15.329604
-1.412586 0.644828 15.331269
32 NaN NaN
-1.987612 -1.637962 14.633506
-1.893735 -1.586153 14.657784
-1.800738 -1.532924 14.682368
-1.708729 -1.478151 14.707279
-1.617840 -1.421697 14.732543
-1.528228 -1.363403 14.758188
-1.440085 -1.303088 14.784243
-1.353647 -1.240543 14.810744
-1.269204 -1.175528 14.837726
-1.187124 -1.107766 14.865229
-1.107874 -1.036938 14.893293
-1.032053 -0.962682 14.921956
-0.960443 -0.884597 14.951248
-0.894066 -0.802257 14.981183
-0.834260 -0.715251 15.011735
-0.782755 -0.623279 15.042808
-0.741697 -0.526310 15.074185
-0.713537 -0.424838 15.105472
-0.700635 -0.320140 15.136067
-0.704574 -0.214328 15.165215
-0.725503 -0.109939 15.192190
-0.762039 -0.009240 15.216504
-0.811827 0.086315 15.237997
-0.872290 0.176134 15.256773
-0.941124 0.260247 15.273080
-1.016467 0.339017 15.287215
-1.096893 0.412940 15.299465
-1.181326 0.482526 15.310085
-1.268957 0.548256 15.319293
-1.359178 0.610560 15.327274
-1.451520 0.669810 15.334181
-1.545625 0.726331 15.340141
-1.677210 -1.743563 13.971220
-1.538849 -1.631450 13.980921
-1.404046 -1.515165 13.991429
-1.273789 -1.393897 14.002917
-1.149571 -1.266587 14.015619
-1.032389 -1.132921 14.029634
-0.925513 -0.991078 14.045403
-0.831962 -0.840435 14.063173
-0.755892 -0.680525 14.083227
-0.707365 -0.510738 14.106174
-0.690914 -0.335533 14.131576
-0.714369 -0.161312 14.158877
-0.777361 0.002611 14.186662
-0.870436 0.151923 14.213802
-0.987885 0.283448 14.239526
-1.120220 0.400300 14.263815
-1.263076 0.504489 14.286747
-1.413790 0.597292 14.308376
-1.675649 -1.742317 13.971326
-1.540386 -1.632724 13.980808
-1.537312 -1.630175 13.981033
-1.405526 -1.516505 13.991304
-1.402567 -1.513825 13.991554
-1.275234 -1.395274 14.002784
-1.272345 -1.392519 14.003049
-1.150928 -1.268049 14.015469
-1.148215 -1.265124 14.015768
-1.033623 -1.134485 14.029463
-1.031155 -1.131356 14.029805
-0.926667 -0.992701 14.045219
-0.924359 -0.989455 14.045587
-0.832901 -0.842188 14.062958
-0.831023 -0.838682 14.063387
-0.756686 -0.682345 14.082995
-0.755098 -0.678704 14.083459
-0.707768 -0.512679 14.105904
-0.706961 -0.508798 14.106443
-0.690795 -0.337507 14.131274
-0.691033 -0.333560 14.131878
-0.713968 -0.163247 14.158567
-0.714771 -0.159378 14.159187
-0.776454 0.000855 14.186353
-0.778268 0.004366 14.186972
-0.869173 0.150401 14.213509
-0.871700 0.153445 14.214094
-0.986496 0.282038 14.239243
-0.989275 0.284859 14.239808
-1.118654 0.399084 14.263553
-1.121786 0.401515 14.264078
-1.261448 0.503356 14.286494
-1.264705 0.505622 14.287000
-1.412071 0.596298 14.308139
-1.669607 -1.737493 13.971739
-1.546335 -1.637660 13.980374
-1.531362 -1.625239 13.981467
-1.411253 -1.521692 13.990820
-1.396840 -1.508637 13.992037
-1.280825 -1.400605 14.002272
-1.266754 -1.387188 14.003561
-1.156178 -1.273709 14.014891
-1.142965 -1.259464 14.016347
-1.038400 -1.140542 14.028801
-1.026377 -1.125300 14.030468
-0.931136 -0.998983 14.044507
-0.919890 -0.983172 14.046299
-0.836537 -0.848973 14.062128
-0.827387 -0.831897 14.064217
-0.759761 -0.689394 14.082097
-0.752525 -0.671471 14.084411
-0.709331 -0.520189 14.104859
-0.705399 -0.501288 14.107488
-0.690333 -0.345146 14.130106
-0.691495 -0.325920 14.133046
-0.712413 -0.170736 14.157365
-0.716326 -0.151889 14.160389
-0.772942 -0.005940 14.185155
-0.781779 0.011162 14.188170
-0.864473 0.144366 14.212364
-0.876592 0.159338 14.215228
-0.981117 0.276577 14.238150
-0.994654 0.290319 14.240902
-1.112590 0.394379 14.262537
-1.127850 0.406221 14.265093
-1.255143 0.498970 14.285514
-1.271050 0.509947 14.287974
-1.405415 0.592451 14.307222
-1.655217 -1.726003 13.972723
-1.636178 -1.710802 13.974024
-1.617139 -1.695601 13.975325
-1.598101 -1.680400 13.976626
-1.579255 -1.664967 13.977971
-1.560506 -1.649415 13.979340
-1.517191 -1.613484 13.982502
-1.498594 -1.597757 13.983904
-1.480174 -1.581825 13.985346
-1.461754 -1.565892 13.986789
-1.443334 -1.549959 13.988231
-1.424914 -1.534026 13.989673
-1.383199 -1.496281 13.993189
-1.365153 -1.479933 13.994712
-1.347106 -1.463586 13.996236
-1.329378 -1.446903 13.997826
-1.311760 -1.430103 13.999440
-1.294142 -1.413303 14.001053
-1.253704 -1.374223 14.004834
-1.236582 -1.356928 14.006547
-1.219459 -1.339633 14.008260
-1.202336 -1.322339 14.009973
-1.185229 -1.305030 14.011688
-1.168684 -1.287192 14.013512
-1.130459 -1.245981 14.017726
-1.113914 -1.228144 14.019550
-1.097930 -1.209816 14.021476
-1.082066 -1.191383 14.023423
-1.066202 -1.172950 14.025371
-1.050338 -1.154518 14.027319
-1.014999 -1.110874 14.032045
-0.999944 -1.091788 14.034132
-0.984890 -1.072703 14.036220
-0.969941 -1.053541 14.038324
-0.955860 -1.033744 14.040567
-0.941779 -1.013947 14.042811
-0.909247 -0.968209 14.047995
-0.896234 -0.947716 14.050397
-0.883333 -0.927150 14.052817
-0.870433 -0.906584 14.055236
-0.857533 -0.886018 14.057655
-0.845198 -0.865133 14.060152
-0.818727 -0.815737 14.066194
-0.807269 -0.794357 14.068809
-0.796147 -0.772819 14.071466
-0.786459 -0.750607 14.074296
-0.776771 -0.728395 14.077127
-0.767083 -0.706183 14.079958
-0.746837 -0.654082 14.086724
-0.739312 -0.631077 14.089785
-0.731787 -0.608072 14.092845
-0.724261 -0.585067 14.095905
-0.717975 -0.561746 14.099077
-0.713052 -0.538079 14.102369
-0.701678 -0.483398 14.109978
-0.697590 -0.459620 14.113330
-0.695697 -0.435550 14.116839
-0.693804 -0.411481 14.120347
-0.691911 -0.387412 14.123856
-0.690019 -0.363342 14.127364
-0.692595 -0.307723 14.135828
-0.694050 -0.283649 14.139509
-0.695505 -0.259575 14.143190
-0.698909 -0.235770 14.146931
-0.703809 -0.212171 14.150717
-0.708709 -0.188573 14.154503
-0.721230 -0.134393 14.163261
-0.729405 -0.111724 14.167076
-0.737579 -0.089056 14.170891
-0.745753 -0.066388 14.174706
-0.753928 -0.043719 14.178521
-0.764578 -0.022126 14.182302
-0.790143 0.027347 14.191023
-0.801209 0.048761 14.194798
-0.813856 0.069247 14.198516
-0.827333 0.089247 14.202203
-0.840810 0.109248 14.205890
-0.854286 0.129248 14.209577
-0.888245 0.173374 14.217928
-0.903661 0.191943 14.221500
-0.919078 0.210512 14.225072
-0.934494 0.229081 14.228644
-0.951356 0.246365 14.232098
-0.968306 0.263571 14.235544
-1.007465 0.303325 14.243507
-1.025308 0.319605 14.246861
-1.043463 0.335561 14.250182
-1.061619 0.351516 14.253503
-1.079774 0.367472 14.256824
-1.098147 0.383170 14.260117
-1.142293 0.417429 14.267513
-1.161401 0.432257 14.270714
-1.180528 0.447060 14.273912
-1.200394 0.460881 14.277001
-1.220261 0.474702 14.280090
-1.240127 0.488523 14.283179
-1.286528 0.519716 14.290230
-1.307004 0.532640 14.293216
-1.327481 0.545563 14.296202
-1.347958 0.558487 14.299188
-1.368588 0.571163 14.302145
-1.389562 0.583287 14.305036
30 NaN NaN
-1.677600 -1.743875 13.971193
-1.591669 -1.675265 13.977065
-1.507050 -1.605072 13.983242
-1.423912 -1.533160 13.989752
-1.342460 -1.459377 13.996628
-1.262942 -1.383553 14.003910
-1.185661 -1.305496 14.011641
-1.110989 -1.224989 14.019872
-1.039390 -1.141797 14.028663
-0.971449 -1.055663 14.038083
-0.907902 -0.966318 14.048209
-0.849685 -0.873508 14.059127
-0.797983 -0.777029 14.070929
-0.754270 -0.676806 14.083701
-0.720320 -0.573017 14.097508
-0.698112 -0.466255 14.112363
-0.689575 -0.357696 14.128187
-0.696136 -0.249127 14.144787
-0.718233 -0.142704 14.161863
-0.755100 -0.040467 14.179068
-0.805013 0.056123 14.196096
-0.865812 0.146353 14.212730
-0.935370 0.230136 14.228847
-1.011853 0.307780 14.244400
-1.093783 0.379784 14.259386
-1.180016 0.446703 14.273832
-1.269675 0.509079 14.287773
-1.362091 0.567407 14.301249
-1.456750 0.622125 14.314299
-1.553256 0.673617 14.326960
-1.246052 -1.836587 12.564524
-1.162168 -1.728105 12.571968
-1.081490 -1.617262 12.579941
-1.004474 -1.503887 12.588499
-0.932012 -1.387607 12.597753
-0.865127 -1.268103 12.607819
-0.804207 -1.145533 12.618704
-0.750289 -1.019807 12.630496
-0.705934 -0.890526 12.643433
-0.672120 -0.758242 12.657516
-0.650187 -0.623626 12.672759
-0.642271 -0.487605 12.689204
-0.652118 -0.351894 12.706908
-0.678424 -0.218571 12.725516
-0.721198 -0.089660 12.744777
-0.780829 0.032333 12.764404
-0.855135 0.146009 12.784063
-0.940762 0.251469 12.803522
-1.035710 0.348751 12.822639
-1.139163 0.437076 12.841256
-1.248430 0.518204 12.859398
-1.362271 0.592910 12.877071
-1.479946 0.661563 12.894267
-1.244822 -1.835013 12.564631
-1.163361 -1.729707 12.571855
-1.160976 -1.726504 12.572081
-1.082642 -1.618893 12.579821
-1.080338 -1.615631 12.580061
-1.005579 -1.505549 12.588372
-1.003368 -1.502225 12.588626
-0.933006 -1.389336 12.597609
-0.931017 -1.385877 12.597897
-0.866054 -1.269869 12.607666
-0.864200 -1.266338 12.607972
-0.805057 -1.147336 12.618541
-0.803357 -1.143730 12.618868
-0.751051 -1.021648 12.630322
-0.749528 -1.017966 12.630671
-0.706478 -0.892440 12.643233
-0.705391 -0.888612 12.643633
-0.672530 -0.760188 12.657302
-0.671710 -0.756296 12.657729
-0.650446 -0.625596 12.672532
-0.649929 -0.621656 12.672987
-0.642176 -0.489586 12.688949
-0.642367 -0.485623 12.689458
-0.651828 -0.353854 12.706641
-0.652409 -0.349933 12.707174
-0.677933 -0.220491 12.725240
-0.678914 -0.216652 12.725792
-0.720512 -0.091517 12.744494
-0.721883 -0.087802 12.745059
-0.779794 0.030646 12.764117
-0.781863 0.034021 12.764691
-0.853956 0.144419 12.783778
-0.856315 0.147599 12.784348
-0.939459 0.249978 12.803240
-0.942065 0.252959 12.803804
-1.034303 0.347358 12.822361
-1.037118 0.350145 12.822916
-1.137596 0.435861 12.840990
-1.140729 0.438290 12.841523
-1.246804 0.517070 12.859138
-1.250057 0.519338 12.859659
-1.360595 0.591850 12.876816
-1.363948 0.593971 12.877326
-1.478192 0.660632 12.894022
-1.240945 -1.830051 12.564969
-1.167123 -1.734756 12.571498
-1.157214 -1.721454 12.572438
-1.086273 -1.624035 12.579443
-1.076706 -1.610489 12.580439
-1.009065 -1.510790 12.587971
-0.999882 -1.496985 12.589027
-0.936141 -1.394790 12.597156
-0.927882 -1.380424 12.598350
-0.868977 -1.275436 12.607182
-0.861277 -1.260770 12.608455
-0.807737 -1.153022 12.618025
-0.800677 -1.138044 12.619383
-0.753452 -1.027454 12.629771
-0.747192 -1.012136 12.631230
-0.708191 -0.898477 12.642603
-0.703677 -0.882575 12.644263
-0.673822 -0.766324 12.656629
-0.670417 -0.750160 12.658403
-0.651261 -0.631808 12.671814
-0.649114 -0.615443 12.673705
-0.642258 -0.495838 12.688172
-0.642667 -0.479375 12.690262
-0.650911 -0.360037 12.705800
-0.653325 -0.343750 12.708015
-0.676388 -0.226543 12.724370
-0.680459 -0.210600 12.726663
-0.718351 -0.097375 12.743603
-0.724045 -0.081945 12.745950
-0.776532 0.025324 12.763213
-0.785125 0.039342 12.765595
-0.850237 0.139405 12.782879
-0.860034 0.152612 12.785248
-0.935349 0.245278 12.802351
-0.946175 0.257660 12.804692
-1.029864 0.342963 12.821487
-1.041785 0.354296 12.823777
-1.132656 0.432032 12.840149
-1.145670 0.442119 12.842363
-1.241675 0.513494 12.858315
-1.255186 0.522915 12.860482
-1.355308 0.588506 12.876011
-1.369234 0.597315 12.878131
-1.472668 0.657689 12.893250
-1.232296 -1.818983 12.565722
-1.220911 -1.804412 12.566713
-1.209525 -1.789841 12.567704
-1.198140 -1.775269 12.568695
-1.186754 -1.760698 12.569686
-1.175512 -1.746019 12.570701
-1.148825 -1.710192 12.573234
-1.137780 -1.695364 12.574282
-1.126736 -1.680537 12.575330
-1.115700 -1.665703 12.576380
-1.105037 -1.650603 12.577490
-1.094373 -1.635504 12.578600
-1.068607 -1.599020 12.581282
-1.057943 -1.583920 12.582392
-1.047548 -1.568640 12.583544
-1.037312 -1.553253 12.584722
-1.027076 -1.537865 12.585899
-1.016840 -1.522478 12.587076
-0.992219 -1.485227 12.589938
-0.982466 -1.469535 12.591189
-0.972712 -1.453842 12.592440
-0.962959 -1.438150 12.593690
-0.953206 -1.422458 12.594941
-0.943453 -1.406766 12.596192
-0.920890 -1.368261 12.599361
-0.911684 -1.352248 12.600692
-0.902478 -1.336235 12.602023
-0.893272 -1.320222 12.603354
-0.884078 -1.304202 12.604687
-0.875496 -1.287854 12.606105
-0.854758 -1.248352 12.609532
-0.846175 -1.232004 12.610951
-0.837592 -1.215656 12.612369
-0.829454 -1.199092 12.613847
-0.821584 -1.182397 12.615361
-0.813715 -1.165703 12.616875
-0.794699 -1.125364 12.620533
-0.787015 -1.108589 12.622071
-0.779963 -1.091543 12.623688
-0.772912 -1.074496 12.625306
-0.765860 -1.057449 12.626924
-0.758808 -1.040402 12.628542
-0.742550 -0.998923 12.632544
-0.736439 -0.981528 12.634274
-0.730328 -0.964133 12.636005
-0.724216 -0.946737 12.637735
-0.718105 -0.929342 12.639465
-0.712012 -0.911941 12.641197
-0.699856 -0.869111 12.645669
-0.694825 -0.851385 12.647519
-0.689794 -0.833659 12.649370
-0.684763 -0.815934 12.651220
-0.680500 -0.798027 12.653149
-0.676705 -0.780010 12.655127
-0.667535 -0.736475 12.659905
-0.663740 -0.718458 12.661882
-0.660260 -0.700390 12.663889
-0.657866 -0.682148 12.665997
-0.655473 -0.663906 12.668105
-0.653079 -0.645664 12.670213
-0.647296 -0.601587 12.675306
-0.646200 -0.583244 12.677522
-0.645372 -0.564880 12.679759
-0.644543 -0.546516 12.681997
-0.643715 -0.528151 12.684235
-0.642887 -0.509787 12.686472
-0.643336 -0.465440 12.692055
-0.644217 -0.447093 12.694416
-0.645098 -0.428747 12.696776
-0.645979 -0.410401 12.699137
-0.646860 -0.392054 12.701497
-0.648867 -0.373827 12.703925
-0.655370 -0.329960 12.709890
-0.658061 -0.311805 12.712359
-0.660752 -0.293650 12.714828
-0.663863 -0.275583 12.717317
-0.668402 -0.257812 12.719872
-0.672940 -0.240041 12.722428
-0.683907 -0.197102 12.728604
-0.688445 -0.179331 12.731160
-0.694489 -0.162036 12.733766
-0.700836 -0.144837 12.736383
-0.707183 -0.127638 12.738999
-0.713530 -0.110439 12.741616
-0.729609 -0.069201 12.747952
-0.737653 -0.052733 12.750601
-0.745697 -0.036264 12.753250
-0.753741 -0.019796 12.755899
-0.761786 -0.003327 12.758549
-0.769830 0.013141 12.761198
-0.792400 0.051211 12.767612
-0.801978 0.066836 12.770268
-0.811556 0.082461 12.772924
-0.821134 0.098086 12.775580
-0.831022 0.113502 12.778232
-0.841942 0.128224 12.780873
-0.868328 0.163794 12.787253
-0.879248 0.178515 12.789894
-0.890169 0.193236 12.792535
-0.902048 0.207189 12.795150
-0.914115 0.220992 12.797759
-0.926183 0.234794 12.800369
-0.955341 0.268144 12.806675
-0.967833 0.281551 12.809266
-0.980866 0.294454 12.811834
-0.993899 0.307357 12.814401
-1.006932 0.320260 12.816969
-1.019965 0.333163 12.819537
-1.052295 0.363446 12.825690
-1.066133 0.375492 12.828210
-1.079971 0.387538 12.830729
-1.093808 0.399584 12.833248
-1.107646 0.411630 12.835767
-1.121638 0.423491 12.838275
-1.156688 0.450660 12.844238
-1.171194 0.461904 12.846705
-1.185700 0.473148 12.849173
-1.200205 0.484392 12.851641
-1.215174 0.495016 12.854065
-1.230235 0.505517 12.856480
-1.266626 0.530891 12.862316
-1.281687 0.541392 12.864732
-1.296950 0.551594 12.867125
-1.312472 0.561413 12.869488
-1.327995 0.571231 12.871852
-1.343518 0.581049 12.874216
-1.381041 0.604747 12.879925
-1.396949 0.613939 12.882238
-1.412858 0.623131 12.884552
-1.428767 0.632323 12.886865
-1.444676 0.641515 12.889179
-1.460584 0.650707 12.891492
30 NaN NaN
-1.246359 -1.836981 12.564498
-1.180169 -1.752271 12.570260
-1.115962 -1.666073 12.576353
-1.053970 -1.578295 12.582806
-0.994465 -1.488841 12.589650
-0.937767 -1.397617 12.596921
-0.884250 -1.304530 12.604658
-0.834358 -1.209495 12.612904
-0.788611 -1.112448 12.621704
-0.747620 -1.013356 12.631109
-0.712097 -0.912241 12.641166
-0.682855 -0.809209 12.651922
-0.660797 -0.704487 12.663415
-0.646886 -0.598466 12.675667
-0.642073 -0.491740 12.688672
-0.647192 -0.385123 12.702389
-0.662832 -0.279623 12.716736
-0.689205 -0.176357 12.731587
-0.726087 -0.076411 12.746792
-0.772834 0.019291 12.762187
-0.828496 0.110098 12.777621
-0.891963 0.195655 12.792969
-0.962102 0.275876 12.808137
-1.037855 0.350875 12.823061
-1.118289 0.420896 12.837705
-1.202610 0.486256 12.852050
-1.290159 0.547299 12.866091
-1.380394 0.604373 12.879831
-1.472876 0.657809 12.893280
-1.567244 0.707914 12.906450
-1.140933 -1.733941 11.095876
-0.711404 -0.956866 11.024095
-0.694733 -0.081144 11.016796
-1.246071 0.601429 11.099967
-1.139766 -1.732328 11.095683
-0.712036 -0.958761 11.024205
-0.710773 -0.954972 11.023985
-0.694090 -0.083036 11.016705
-0.695375 -0.079253 11.016888
-1.244456 0.600275 11.099719
-1.127467 -1.715332 11.093656
-0.718692 -0.978726 11.025359
-0.704117 -0.935006 11.022831
-0.687317 -0.102973 11.015745
-0.702148 -0.059316 11.017848
-1.227687 0.587776 11.097146
-1.076777 -1.645119 11.085300
-1.001673 -1.533825 11.072880
-0.930581 -1.419867 11.061077
-0.864106 -1.303089 11.049987
-0.803321 -1.183177 11.039776
-0.749666 -1.059832 11.030669
-0.679136 -0.851824 11.018453
-0.648899 -0.720601 11.012992
-0.629996 -0.587208 11.009304
-0.625727 -0.452533 11.007913
-0.636392 -0.318245 11.008875
-0.662063 -0.186059 11.012212
-0.737323 0.020078 11.022963
-0.801436 0.138219 11.032427
-0.878452 0.248219 11.043967
-0.964822 0.350845 11.057019
-1.058941 0.446266 11.071330
-1.159734 0.534454 11.086730
29 NaN NaN
-1.141225 -1.734344 11.095924
-1.078892 -1.648209 11.085649
-1.018807 -1.560453 11.075720
-0.961237 -1.470984 11.066177
-0.906499 -1.379713 11.057071
-0.854957 -1.286553 11.048458
-0.807041 -1.191430 11.040406
-0.763249 -1.094291 11.032992
-0.724157 -0.995117 11.026307
-0.690427 -0.893945 11.020456
-0.662803 -0.790893 11.015556
-0.642093 -0.686191 11.011737
-0.629142 -0.580217 11.009132
-0.624763 -0.473525 11.007873
-0.629658 -0.366853 11.008075
-0.644308 -0.261096 11.009817
-0.668883 -0.157235 11.013132
-0.703195 -0.056234 11.017996
-0.746712 0.041074 11.024329
-0.798643 0.134067 11.032010
-0.858044 0.222370 11.040892
-0.923935 0.305830 11.050821
-0.995373 0.384480 11.061650
-1.071510 0.458482 11.073244
-1.151605 0.528075 11.085484
-1.235030 0.593538 11.098271
-1.321260 0.655165 11.111520
-1.409860 0.713245 11.125161
-1.500471 0.768055 11.139136
-1.037645 -1.345768 6.680694
-0.912829 -1.131184 6.736901
-0.810138 -0.905903 6.795624
-0.737751 -0.669852 6.856801
-0.708469 -0.425328 6.919713
-0.730720 -0.180199 6.982263
-0.809804 0.053772 7.041384
-0.941238 0.264759 7.094093
-1.110070 0.449322 7.139659
-1.305022 0.608132 7.178367
-1.036618 -1.344108 6.681129
-0.913722 -1.132915 6.736448
-0.911936 -1.129453 6.737353
-0.810857 -0.907709 6.795154
-0.809419 -0.904097 6.796094
-0.738102 -0.671759 6.856309
-0.737400 -0.667946 6.857292
-0.708493 -0.427266 6.919217
-0.708446 -0.423391 6.920210
-0.730364 -0.182107 6.981778
-0.731075 -0.178292 6.982748
-0.808893 0.052045 7.040951
-0.810716 0.055499 7.041817
-0.940033 0.263210 7.093708
-0.942442 0.266309 7.094477
-1.108650 0.447954 7.139323
-1.111490 0.450689 7.139994
-1.303392 0.607005 7.178094
-1.031271 -1.335467 6.683396
-0.918372 -1.141928 6.734093
-0.907286 -1.120440 6.739708
-0.814598 -0.917113 6.792708
-0.805678 -0.894693 6.798539
-0.740453 -0.681573 6.853772
-0.735572 -0.658020 6.859852
-0.708614 -0.437351 6.916633
-0.708324 -0.413306 6.922794
-0.728516 -0.192037 6.979254
-0.732924 -0.168362 6.985272
-0.804409 0.042942 7.038665
-0.815461 0.064488 7.044071
-0.933762 0.255144 7.091706
-0.948713 0.274375 7.096480
-1.101257 0.440835 7.137574
-1.118883 0.457809 7.141743
-1.294910 0.601135 7.176677
-1.017622 -1.313410 6.689182
-0.999479 -1.284088 6.696873
-0.981386 -1.254737 6.704571
-0.964349 -1.224798 6.712410
-0.947311 -1.194858 6.720248
-0.930273 -1.164918 6.728086
-0.895416 -1.097434 6.745718
-0.879797 -1.066778 6.753726
-0.865456 -1.035535 6.761871
-0.851116 -1.004292 6.770016
-0.836841 -0.973023 6.778167
-0.824147 -0.941115 6.786466
-0.796461 -0.870576 6.804808
-0.785653 -0.838019 6.813254
-0.774846 -0.805462 6.821700
-0.764264 -0.772841 6.830160
-0.755613 -0.739680 6.838739
-0.746961 -0.706519 6.847318
-0.730906 -0.632686 6.866387
-0.724704 -0.599009 6.875074
-0.718971 -0.565267 6.883772
-0.715521 -0.531215 6.892527
-0.712071 -0.497163 6.901282
-0.708924 -0.463093 6.910038
-0.708014 -0.387563 6.929389
-0.708376 -0.353366 6.938143
-0.711236 -0.319247 6.946851
-0.714095 -0.285129 6.955560
-0.717523 -0.251080 6.964244
-0.723796 -0.217385 6.972810
-0.738684 -0.143246 6.991646
-0.748389 -0.110315 6.999982
-0.758095 -0.077385 7.008317
-0.768573 -0.044707 7.016580
-0.781594 -0.012860 7.024604
-0.794614 0.018986 7.032629
-0.827573 0.087433 7.049825
-0.843674 0.117935 7.057475
-0.860603 0.147981 7.064999
-0.879469 0.176962 7.072230
-0.898335 0.205943 7.079462
-0.917754 0.234554 7.086594
-0.964721 0.294964 7.101592
-0.986755 0.321740 7.108227
-1.010099 0.347484 7.114585
-1.033443 0.373228 7.120943
-1.057300 0.398504 7.127176
-1.082386 0.422662 7.133110
-1.138383 0.475330 7.146034
-1.164928 0.497977 7.151567
-1.191472 0.520624 7.157099
-1.218456 0.542760 7.162497
-1.246220 0.563990 7.167654
-1.273983 0.585220 7.172811
23 NaN NaN
-1.037902 -1.346183 6.680585
-0.982177 -1.256127 6.704207
-0.929850 -1.164174 6.728281
-0.881390 -1.070248 6.752821
-0.837347 -0.974296 6.777836
-0.798363 -0.876305 6.803322
-0.765173 -0.776322 6.829260
-0.738605 -0.674488 6.855605
-0.719560 -0.571073 6.882279
-0.708965 -0.466512 6.909162
-0.707700 -0.361439 6.936082
-0.716479 -0.256685 6.962820
-0.735740 -0.153233 6.989118
-0.765538 -0.052130 7.014709
-0.805514 0.045645 7.039346
-0.854950 0.139296 7.062831
-0.912877 0.228281 7.085037
-0.978219 0.312325 7.105902
-1.049903 0.391380 7.125426
-1.126939 0.465567 7.143649
-1.208460 0.535116 7.160640
-1.293725 0.600315 7.176479
-1.382118 0.661477 7.191252
