-1.385311 0.750130 14.598360
-1.391363 0.755509 14.603337
-1.397416 0.760888 14.608314
-1.703686 1.032066 14.854733
-2.007693 1.300956 15.098004
-2.377670 1.561011 15.126700
-2.771083 1.788169 15.000837
-1.401397 0.764426 14.611588
-1.702403 1.030930 14.853702
-1.704966 1.033201 14.855770
-2.006360 1.299801 15.097062
-2.009027 1.302112 15.098945
-2.376058 1.560047 15.127388
-2.379281 1.561976 15.126012
-2.769201 1.787595 15.001195
-1.417789 0.778993 14.625066
-1.685890 1.016312 14.840429
-1.721384 1.047779 14.869204
-1.989196 1.284931 15.084945
-2.026191 1.316982 15.111063
-2.355319 1.547638 15.136246
-2.400020 1.574385 15.117154
-2.745659 1.778562 15.006133
-1.452869 0.810149 14.653804
-1.492323 0.845094 14.685610
-1.531847 0.880068 14.717297
-1.571431 0.915068 14.748881
-1.611026 0.950072 14.780446
-1.650594 0.985065 14.812057
-1.756478 1.078941 14.897918
-1.795538 1.113718 14.930386
-1.834515 1.148460 14.962993
-1.873597 1.183247 14.995425
-1.912980 1.218161 15.027346
-1.952765 1.253244 15.058583
-2.065156 1.349262 15.132641
-2.109815 1.385409 15.154243
-2.157776 1.421565 15.167730
-2.207761 1.456290 15.171224
-2.259137 1.490032 15.167848
-2.310095 1.520597 15.151955
-2.444054 1.601694 15.098685
-2.492899 1.633376 15.078687
-2.542062 1.665972 15.061145
-2.591608 1.698568 15.044707
-2.643101 1.729164 15.030499
-2.696390 1.756715 15.017197
-3.942676 2.037580 14.819632
-5.079627 2.355351 14.631384
-5.501457 3.485259 14.600458
-5.979334 4.597282 14.544540
-6.588631 5.641995 14.483654
-7.370460 6.563006 14.416768
-8.329797 7.295824 14.344768
-9.424615 7.805057 14.270202
-10.595525 8.103458 14.195733
-11.797918 8.230672 14.122973
-13.007471 8.225485 14.052552
-2.772965 1.788744 15.000479
-3.940728 2.037215 14.819903
-3.944624 2.037944 14.819362
-5.078396 2.353795 14.631639
-5.080858 2.356906 14.631129
-5.500736 3.483396 14.600551
-5.502178 3.487123 14.600365
-5.978463 4.595484 14.544636
-5.980204 4.599080 14.544445
-6.587520 5.640335 14.483758
-6.589742 5.643655 14.483550
-7.369041 6.561602 14.416882
-7.371879 6.564411 14.416653
-8.328095 7.294782 14.344889
-8.331500 7.296867 14.344646
-9.422729 7.804402 14.270326
-9.426501 7.805712 14.270078
-10.593556 8.103129 14.195855
-10.597494 8.103786 14.195612
-11.795923 8.230582 14.123091
-11.799912 8.230762 14.122855
-13.005476 8.225568 14.052667
-2.797186 1.796137 14.995869
-3.915660 2.032526 14.823388
-3.969692 2.042636 14.815880
-5.062157 2.334230 14.635107
-5.096700 2.376927 14.627851
-5.491457 3.459417 14.601744
-5.511458 3.511102 14.599172
-5.967259 4.572343 14.545863
-5.991408 4.622222 14.543217
-6.573225 5.618971 14.485101
-6.604037 5.665018 14.482207
-7.350778 6.543522 14.418356
-7.390142 6.582490 14.415180
-8.306185 7.281364 14.346454
-8.353410 7.310285 14.343081
-9.398462 7.795969 14.271916
-9.450768 7.814145 14.268488
-10.568214 8.098900 14.197421
-10.622836 8.108016 14.194046
-11.770255 8.229421 14.124612
-11.825583 8.231883 14.121335
-12.979800 8.226641 14.054141
-2.908007 1.826001 14.975839
-3.086131 1.864993 14.946619
-3.264420 1.904036 14.918448
-3.443139 1.941679 14.891125
-3.622437 1.977178 14.864735
-3.802134 2.011284 14.839231
-4.083216 2.063928 14.800090
-4.262979 2.097891 14.774864
-4.442874 2.131524 14.750150
-4.623295 2.163895 14.727706
-4.801515 2.203672 14.700699
-4.968774 2.269517 14.659960
-5.155863 2.476076 14.618868
-5.217762 2.649779 14.618431
-5.270971 2.826609 14.620439
-5.326901 3.002591 14.619509
-5.387661 3.176909 14.614608
-5.450644 3.350348 14.607086
-5.554204 3.619427 14.593836
-5.623186 3.790533 14.585537
-5.692264 3.961598 14.577198
-5.764582 4.131298 14.568687
-5.841584 4.298926 14.560011
-5.918442 4.466623 14.551348
-6.044339 4.725925 14.537572
-6.132572 4.887898 14.528465
-6.220097 5.050259 14.519385
-6.310509 5.210994 14.510195
-6.409030 5.366885 14.500706
-6.509836 5.521322 14.491135
-6.671199 5.760090 14.476038
-6.784176 5.905816 14.466044
-6.898758 6.050297 14.455996
-7.015664 6.192869 14.445868
-7.140025 6.328954 14.435504
-7.268922 6.460786 14.425002
-7.474608 6.662547 14.408456
-7.614393 6.782717 14.397642
-7.757455 6.898985 14.386741
-7.902758 7.012417 14.375779
-8.052991 7.119188 14.364701
-8.207511 7.219691 14.353531
-8.453603 7.369451 14.335974
-8.615727 7.457133 14.324662
-8.780782 7.539166 14.313309
-8.947899 7.616911 14.301929
-9.117289 7.689552 14.290530
-9.288989 7.756556 14.279120
-9.561177 7.850861 14.261286
-9.737135 7.905745 14.249886
-9.914555 7.955683 14.238505
-10.093505 7.999833 14.227155
-10.273304 8.040429 14.215829
-10.453728 8.078131 14.204527
-10.737890 8.125419 14.186976
-10.920316 8.151883 14.175789
-11.103050 8.176101 14.164630
-11.286526 8.193813 14.153563
-11.470305 8.208246 14.142545
-11.654090 8.222588 14.131529
-11.941926 8.234659 14.114492
-12.126247 8.238266 14.103668
-12.310557 8.242368 14.092834
-12.494903 8.241210 14.082109
-12.679193 8.235877 14.071475
-12.863489 8.230729 14.060837
159 NaN NaN
-1.382284 0.747440 14.595872
-1.446280 0.804313 14.648493
-1.510689 0.861361 14.700416
-1.575310 0.918498 14.751976
-1.639951 0.975643 14.803503
-1.704421 1.032717 14.855324
-1.768520 1.089633 14.907772
-1.832138 1.146345 14.961021
-1.895940 1.203134 15.013966
-1.960886 1.260405 15.064958
-2.027887 1.318451 15.112261
-2.099208 1.377414 15.151261
-2.177319 1.436296 15.173225
-2.260891 1.491183 15.167733
-2.343983 1.540854 15.141088
-2.424947 1.589301 15.106508
-2.504669 1.641010 15.073868
-2.585083 1.694691 15.046507
-2.669114 1.744621 15.023321
-2.759030 1.784490 15.003131
-2.853557 1.813343 14.985141
-2.950105 1.835787 14.968647
-3.047171 1.856474 14.952856
-3.144166 1.877684 14.937328
-3.241171 1.899027 14.922046
-3.338305 1.919955 14.907015
-3.435630 1.940171 14.892242
-3.533125 1.959751 14.877739
-3.630766 1.978804 14.863522
-3.728526 1.997448 14.849575
-3.826361 2.015838 14.835826
-3.924232 2.034128 14.822194
-4.022103 2.052445 14.808600
-4.119956 2.070831 14.794974
-4.217776 2.089318 14.781244
-4.315574 2.107867 14.767440
-4.413458 2.126196 14.753954
-4.511551 2.143962 14.741269
-4.609840 2.161260 14.729473
-4.707645 2.180411 14.716630
-4.803867 2.204255 14.700300
-4.897010 2.235288 14.679059
-4.985124 2.277315 14.655609
-5.063980 2.335577 14.634622
-5.125613 2.413464 14.621867
-5.169234 2.503751 14.617542
-5.202190 2.598660 14.617694
-5.231471 2.694783 14.619079
-5.260173 2.791083 14.620271
-5.289397 2.887232 14.620724
-5.320181 2.982889 14.619938
-5.352615 3.077981 14.617868
-5.386132 3.172670 14.614781
-5.420198 3.267136 14.610935
-5.454696 3.361422 14.606574
-5.489913 3.455428 14.601943
-5.526142 3.549048 14.597283
-5.563323 3.642299 14.592716
-5.600947 3.735375 14.588205
-5.638487 3.828485 14.583701
-5.675897 3.921646 14.579168
-5.713954 4.014541 14.574588
-5.753507 4.106805 14.569946
-5.794865 4.198273 14.565242
-5.837139 4.289319 14.560510
-5.879291 4.380423 14.555783
-5.920803 4.471821 14.551080
-5.962746 4.563021 14.546358
-6.006487 4.653366 14.541564
-6.052910 4.742356 14.536668
-6.101013 4.830450 14.531709
-6.149339 4.918421 14.526742
-6.196795 5.006866 14.521808
-6.244281 5.095295 14.516872
-6.293404 5.182818 14.511873
-6.345483 5.268607 14.506765
-6.399864 5.352954 14.501573
-6.455026 5.436793 14.496354
-6.509627 5.520999 14.491155
-6.564078 5.605303 14.485961
-6.619889 5.688706 14.480717
-6.678456 5.770186 14.475377
-6.739624 5.849733 14.469948
-6.802040 5.928303 14.464478
-6.864419 6.006903 14.459010
-6.926687 6.085591 14.453544
-6.990076 6.163373 14.448040
-7.055824 6.239162 14.442460
-7.124167 6.312616 14.436799
-7.194046 6.384611 14.431092
-7.264374 6.456167 14.425371
-7.334761 6.527665 14.419648
-7.406060 6.598249 14.413896
-7.479229 6.666882 14.408090
-7.554700 6.732973 14.402220
-7.631767 6.797195 14.396310
-7.709616 6.860467 14.390378
-7.787755 6.923380 14.384438
-7.866642 6.985348 14.378477
-7.946911 7.045509 14.372482
-8.028972 7.103196 14.366446
-8.112467 7.158788 14.360380
-8.196868 7.212995 14.354295
-8.281770 7.266412 14.348198
-8.367311 7.318798 14.342088
-8.453814 7.369574 14.335959
-8.541533 7.418216 14.329811
-8.630359 7.464808 14.323647
-8.720026 7.509757 14.317471
-8.810308 7.553458 14.311286
-8.901168 7.595944 14.305094
-8.992680 7.637002 14.298895
-9.084912 7.676419 14.292692
-9.177857 7.714119 14.286485
-9.271462 7.750152 14.280276
-9.365671 7.784575 14.274066
-9.460415 7.817497 14.267856
-9.555611 7.849088 14.261647
-9.651184 7.879523 14.255442
-9.747120 7.908791 14.249241
-9.843491 7.936595 14.243045
-9.940359 7.962614 14.236857
-10.037704 7.986793 14.230679
-10.135376 8.009618 14.224510
-10.233233 8.031643 14.218348
-10.331210 8.053126 14.212189
-10.429418 8.073530 14.206040
-10.527973 8.092184 14.199906
-10.626911 8.108696 14.193795
-10.726089 8.123708 14.187700
-10.825361 8.138102 14.181612
-10.924630 8.152509 14.175524
-11.023981 8.166340 14.169444
-11.123535 8.178630 14.163383
-11.223348 8.188607 14.157355
-11.323323 8.196846 14.151354
-11.423347 8.204481 14.145362
-11.523341 8.212499 14.139364
-11.623337 8.220496 14.133366
-11.723420 8.227303 14.127388
-11.823633 8.231835 14.121449
-11.923921 8.234348 14.115549
-12.024228 8.236078 14.109663
-12.124526 8.238222 14.103769
-12.224813 8.240784 14.097868
-12.325117 8.242637 14.091980
-12.425438 8.242631 14.086130
-12.525742 8.240578 14.080324
-12.626022 8.237491 14.074542
-12.726303 8.234446 14.068759
-12.826596 8.231822 14.062966
-12.926879 8.228852 14.057181
-13.027119 8.224664 14.051424
-13.127279 8.218816 14.045708
-13.227366 8.211803 14.040020
-13.327414 8.204239 14.034347
-13.427467 8.196739 14.028671
-13.527567 8.189917 14.022979
-13.627744 8.184390 14.017255
