-1.680175 0.669423 14.771123
-1.687923 0.680590 14.775667
-1.695671 0.691758 14.780212
-2.033275 1.155690 14.957059
-2.465727 1.516738 14.953911
-2.998619 1.741118 14.841273
-3.576907 1.851855 14.763215
-1.700356 0.698510 14.782960
-2.032239 1.154119 14.956379
-2.034310 1.157260 14.957739
-2.464058 1.515770 14.954439
-2.467396 1.517707 14.953384
-2.996680 1.740716 14.841555
-3.000558 1.741521 14.840991
-3.574951 1.851516 14.763458
-1.717647 0.723430 14.793101
-2.015664 1.129014 14.945527
-2.050872 1.182369 14.968605
-2.437221 1.500748 14.963159
-2.494079 1.533190 14.944955
-2.965788 1.733902 14.846236
-3.031559 1.747958 14.836487
-3.543725 1.845889 14.767470
-1.756273 0.777013 14.813806
-1.800530 0.836676 14.835911
-1.845546 0.896074 14.857191
-1.890584 0.955464 14.878447
-1.934915 1.015101 14.900471
-1.978138 1.075093 14.923669
-2.088118 1.236360 14.990680
-2.132829 1.295704 15.011982
-2.185276 1.351513 15.023900
-2.247103 1.397261 15.018844
-2.312062 1.436205 15.004281
-2.378246 1.470849 14.983690
-2.551802 1.567372 14.927915
-2.616500 1.606533 14.910984
-2.683445 1.642670 14.896148
-2.753387 1.672811 14.882254
-2.825455 1.697853 14.869119
-2.899101 1.718496 14.856675
-3.098729 1.761704 14.826867
-3.174094 1.776531 14.816488
-3.249569 1.790963 14.806358
-3.325067 1.805301 14.796261
-3.400590 1.819535 14.786202
-3.476147 1.833629 14.776207
-5.039010 2.187051 14.576582
-5.692602 3.496470 14.507811
-6.326636 4.879064 14.435183
-7.191590 6.127081 14.352997
-8.350662 7.104420 14.260769
-9.735683 7.721997 14.164171
-11.225973 8.014238 14.069138
-12.745506 8.059131 13.978250
-3.578863 1.852195 14.762971
-5.037242 2.186166 14.576885
-5.040778 2.187936 14.576279
-5.691868 3.494611 14.507902
-5.693335 3.498328 14.507719
-6.325677 4.877312 14.435284
-6.327595 4.880816 14.435082
-7.190271 6.125582 14.353112
-7.192908 6.128581 14.352882
-8.348973 7.103358 14.260895
-8.352352 7.105483 14.260644
-9.733774 7.721411 14.164297
-9.737591 7.722582 14.164044
-11.223984 8.014065 14.069260
-11.227962 8.014412 14.069017
-12.743510 8.059186 13.978366
-3.610138 1.857629 14.759078
-5.009215 2.171540 14.581651
-5.069046 2.202085 14.571434
-5.680141 3.464893 14.509361
-5.705062 3.528046 14.506261
-6.310341 4.849294 14.436896
-6.342931 4.908834 14.433470
-7.169184 6.101608 14.354947
-7.214157 6.152408 14.351041
-8.321954 7.086364 14.262899
-8.379609 7.122088 14.258635
-9.703290 7.711957 14.166324
-9.768104 7.731943 14.162018
-11.192215 8.010982 14.071211
-11.259763 8.017181 14.067071
-12.711595 8.060065 13.980232
-3.753766 1.882028 14.741511
-3.981663 1.919212 14.714175
-4.209232 1.958078 14.686475
-4.436964 1.995983 14.658924
-4.666074 2.024647 14.631993
-4.882410 2.100656 14.602323
-5.197785 2.268958 14.549730
-5.338486 2.445488 14.532351
-5.395866 2.670645 14.534837
-5.469543 2.891035 14.533688
-5.549584 3.109208 14.526038
-5.628628 3.327651 14.515954
-5.760197 3.663868 14.499524
-5.847556 3.879092 14.488861
-5.937815 4.093088 14.478060
-6.036152 4.303492 14.466907
-6.134225 4.514024 14.455765
-6.239776 4.720846 14.444299
-6.413432 5.037316 14.426069
-6.532674 5.236515 14.414028
-6.659617 5.430933 14.401674
-6.789329 5.623486 14.389210
-6.929453 5.808552 14.376346
-7.074654 5.989695 14.363291
-7.314797 6.258850 14.342486
-7.478398 6.423506 14.328794
-7.648029 6.581885 14.314910
-7.826007 6.730816 14.300782
-8.009436 6.872977 14.286505
-8.198965 7.006860 14.272078
-8.505657 7.196643 14.249397
-8.708807 7.308781 14.234707
-8.916933 7.411343 14.219958
-9.129434 7.504539 14.205177
-9.344446 7.591794 14.190391
-9.563584 7.668038 14.175625
-9.908437 7.773812 14.152728
-10.133429 7.830504 14.138083
-10.360145 7.880044 14.123505
-10.587579 7.926091 14.108968
-10.817070 7.960516 14.094585
-11.046879 7.992889 14.080232
-11.405811 8.028288 14.058174
-11.637234 8.045908 14.044075
-11.868941 8.058818 14.030071
-12.101016 8.062786 14.016259
-12.333083 8.067186 14.002436
-12.565169 8.064496 13.988782
155 NaN NaN
-1.676301 0.663840 14.768850
-1.730635 0.742150 14.800720
-1.787630 0.819654 14.829812
-1.846005 0.896681 14.857408
-1.904410 0.973696 14.884972
-1.961491 1.051172 14.913972
-2.015963 1.129444 14.945701
-2.068012 1.208355 14.979850
-2.123902 1.286205 15.009953
-2.191684 1.358332 15.025356
-2.273252 1.415630 15.015771
-2.359116 1.461151 14.990350
-2.444727 1.504553 14.960545
-2.528568 1.553202 14.934060
-2.612266 1.604248 14.911922
-2.699047 1.651092 14.892690
-2.790875 1.687795 14.875055
-2.886078 1.715487 14.858714
-2.982884 1.737851 14.843559
-3.080313 1.758082 14.829403
-3.178045 1.777308 14.815944
-3.275928 1.795996 14.802825
-3.373843 1.814538 14.789745
-3.471817 1.832843 14.776766
-3.569923 1.850642 14.764084
-3.668213 1.867718 14.751850
-3.766650 1.884183 14.739954
-3.865163 1.900276 14.728184
-3.963688 1.916252 14.716352
-4.062162 1.932466 14.704425
-4.160522 1.949315 14.692434
-4.258735 1.966983 14.680418
-4.357048 1.984126 14.668463
-4.455779 1.998774 14.656678
-4.555007 2.009830 14.645129
-4.654080 2.022055 14.633493
-4.751525 2.043115 14.621303
-4.844061 2.079807 14.608321
-4.931526 2.127358 14.594641
-5.017985 2.176527 14.580185
-5.106818 2.220991 14.564961
-5.194995 2.266835 14.550156
-5.274146 2.327077 14.538078
-5.327795 2.411159 14.532427
-5.357646 2.507010 14.532215
-5.379067 2.605193 14.533977
-5.404046 2.702516 14.535255
-5.435332 2.798021 14.535147
-5.470023 2.892340 14.533667
-5.505032 2.986517 14.530947
-5.539388 3.080902 14.527297
-5.573419 3.175383 14.523096
-5.607471 3.269847 14.518693
-5.641983 3.364141 14.514225
-5.677451 3.458076 14.509695
-5.714306 3.551472 14.505111
-5.752220 3.644443 14.500491
-5.790361 3.737320 14.495867
-5.827980 3.830411 14.491264
-5.865441 3.923567 14.486666
-5.903909 4.016307 14.482021
-5.944465 4.108147 14.477283
-5.986847 4.199157 14.472468
-6.029816 4.289890 14.467627
-6.072210 4.380895 14.462811
-6.114275 4.472053 14.458009
-6.157374 4.562723 14.453162
-6.202803 4.652240 14.448213
-6.250425 4.740608 14.443172
-6.298950 4.828482 14.438093
-6.347147 4.916537 14.433027
-6.395140 5.004705 14.427970
-6.444245 5.092252 14.422866
-6.495737 5.178410 14.417663
-6.549583 5.263112 14.412364
-6.604600 5.347057 14.407018
-6.659649 5.430982 14.401671
-6.714741 5.514879 14.396322
-6.771009 5.597986 14.390926
-6.829563 5.679489 14.385441
-6.890455 5.759258 14.379868
-6.952718 5.837960 14.374244
-7.015409 5.916321 14.368604
-7.078451 5.994397 14.362951
-7.142690 6.071487 14.357253
-7.208961 6.146830 14.351485
-7.277360 6.220242 14.345643
-7.347209 6.292274 14.339753
-7.417841 6.363536 14.333837
-7.489133 6.434137 14.327900
-7.561580 6.503548 14.321925
-7.635676 6.571188 14.315900
-7.711516 6.636863 14.309824
-7.788738 6.700906 14.303709
-7.866979 6.763697 14.297565
-7.946112 6.825359 14.291397
-8.026290 6.885651 14.285202
-8.107673 6.944304 14.278978
-8.190312 7.001170 14.272726
-8.274128 7.056282 14.266448
-8.359040 7.109690 14.260148
-8.444951 7.161473 14.253828
-8.531746 7.211758 14.247493
-8.619318 7.260677 14.241147
-8.707659 7.308192 14.234789
-8.796898 7.353993 14.228421
-8.887159 7.397743 14.222042
-8.978397 7.439419 14.215656
-9.070337 7.479526 14.209265
-9.162710 7.518623 14.202874
-9.255454 7.556832 14.196483
-9.348813 7.593510 14.190092
-9.443025 7.627934 14.183705
-9.538092 7.659930 14.177325
-9.633681 7.690332 14.170952
-9.729473 7.720092 14.164583
-9.825370 7.749512 14.158216
-9.921643 7.777676 14.151856
-10.018562 7.803523 14.145513
-10.116158 7.826698 14.139194
-10.214120 7.848287 14.132891
-10.312153 7.869549 14.126591
-10.410150 7.890980 14.120290
-10.508349 7.911463 14.113999
-10.606994 7.929675 14.107736
-10.706119 7.945077 14.101510
-10.805480 7.958912 14.095308
-10.904852 7.972662 14.089108
-11.004141 7.986999 14.082898
-11.103519 8.000696 14.076698
-11.203169 8.012252 14.070533
-11.303113 8.020957 14.064419
-11.403184 8.028100 14.058333
-11.503254 8.035273 14.052248
-11.603257 8.043299 14.046145
-11.703288 8.050980 14.040050
-11.803444 8.056790 14.033991
-11.903725 8.059895 14.027990
-12.004047 8.061422 14.022023
-12.104370 8.062834 14.016059
-12.204679 8.064994 14.010078
-12.304991 8.067006 14.004101
-12.405322 8.067648 13.998155
-12.505647 8.066175 13.992260
-12.605947 8.063346 13.986399
-12.706238 8.060213 13.980545
-12.806539 8.057450 13.974682
-12.906835 8.054478 13.968824
-13.007094 8.050455 13.962994
-13.107279 8.044813 13.957207
-13.207389 8.037955 13.951453
-13.307458 8.030496 13.945716
-13.407528 8.023049 13.939979
-13.507642 8.016229 13.934224
-13.607829 8.010650 13.928435
