0.147009 0.147002 0.146887 0.146391 0.145604 0.144847 0.144090 0.143333 0.142568 0.142085 0.141979 0.141972 0.141965 0.141860 0.141384 0.140631 0.139895 0.139158 0.138422 0.137698 0.137242 0.137143 0.137136 0.137130 0.137031 0.136581 0.135868 0.135171 0.134475 0.133778 0.133106 0.132682 0.132591 0.132585 0.132579 0.132489 0.132080 0.131433 0.130825 0.130216 0.129608 0.129041 0.128684 0.128608 0.128603 0.128598 0.128522 0.128188 0.127658 0.127174 0.126691 0.126207 0.125764 0.125485 0.125426 0.125422 0.125418 0.125359 0.125099 0.124686 0.124307 0.123927 0.123548 0.123197 0.122976 0.122929 0.122926 
0.147015 0.147029 0.147179 0.147691 0.148451 0.149140 0.149829 0.150518 0.151151 0.151577 0.151693 0.151705 0.151716 0.151832 0.152244 0.152856 0.153477 0.154098 0.154719 0.155359 0.155789 0.155910 0.155922 0.155934 0.156056 0.156502 0.157164 0.157854 0.158545 0.159236 0.159955 0.160439 0.160576 0.160589 0.160603 0.160740 0.161241 0.161985 0.162761 0.163537 0.164314 0.165120 0.165663 0.165816 0.165831 0.165846 0.165999 0.166559 0.167390 0.168250 0.169110 0.169969 0.170855 0.171451 0.171618 0.171634 0.171651 0.171818 0.172430 0.173338 0.174268 0.175197 0.176126 0.177078 0.177719 0.177900 0.177917 0.177935 0.178117 0.178771 0.179744 0.180740 0.181737 0.182734 0.183751 0.184435 0.184628 0.184647 0.184666 0.184859 0.185547 0.186569 0.187622 0.188674 0.189726 0.190796 0.191517 0.191718 0.191738 0.191758 0.191960 0.192689 0.193773 0.194874 0.195974 0.197075 0.198189 0.198939 0.199150 0.199171 0.199191 0.199402 0.200166 0.201300 0.202431 0.203562 0.204693 0.205816 0.206572 0.206780 0.206800 0.206820 0.207027 0.207765 0.208860 0.209865 0.210870 0.211875 0.212797 0.213418 0.213579 0.213595 0.213611 0.213771 0.214314 0.215121 0.215722 0.216323 0.216924 0.217307 0.217564 0.217623 0.217629 0.217634 0.217690 0.217820 0.218012 0.217990 0.217968 0.217946 0.217715 0.217559 0.217502 0.217497 0.217491 0.217430 0.217152 0.216741 0.216134 0.215528 0.214921 0.214164 0.213655 0.213501 0.213486 0.213471 0.213316 0.212727 0.211853 0.210883 0.209914 0.208945 0.207878 0.207159 0.206954 0.206934 
0.147010 0.147007 0.146948 0.146700 0.146307 0.145759 0.145211 0.144663 0.144160 0.143843 0.143781 0.143777 0.143773 0.143709 0.143453 0.143046 0.142739 0.142431 0.142123 0.141844 0.141668 0.141630 0.141627 0.141625 0.141587 0.141396 0.141093 0.140629 0.140165 0.139701 0.138857 0.138324 0.138174 0.138164 0.138154 0.137999 0.137139 0.135776 0.133821 0.131865 0.129909 0.127515 0.126003 0.125702 0.125683 0.125665 0.125371 0.124214 0.122380 0.121312 0.120245 0.119177 0.118582 0.118207 0.118140 0.118135 0.118131 0.118066 0.117816 0.117421 0.117156 0.116891 0.116627 0.116436 0.116315 0.116291 0.116290 0.116288 0.116265 0.116167 0.116011 0.115885 0.115759 0.115633 0.115530 0.115465 0.115452 0.115451 0.115450 0.115437 0.115382 0.115295 0.115223 0.115152 0.115080 0.115021 0.114984 0.114977 0.114976 0.114976 0.114968 0.114937 0.114887 0.114846 0.114804 0.114763 0.114729 0.114707 0.114703 0.114703 0.114703 0.114698 0.114680 0.114650 0.114626 0.114601 0.114577 0.114556 0.114543 0.114540 0.114540 0.114540 0.114537 0.114525 0.114507 0.114490 0.114474 0.114458 0.114442 0.114432 0.114429 0.114429 
0.128602 0.128599 0.128589 0.128563 0.128530 0.128496 0.128462 0.128428 0.128394 0.128367 0.128356 0.128353 0.128350 0.128339 0.128312 0.128276 0.128239 0.128201 0.128164 0.128125 0.128096 0.128084 0.128080 0.128077 0.128065 0.128034 0.127994 0.127953 0.127911 0.127870 0.127827 0.127795 0.127782 0.127778 0.127774 0.127760 0.127727 0.127682 0.127637 0.127592 0.127546 0.127499 0.127464 0.127449 0.127445 0.127441 0.127426 0.127390 0.127342 0.127293 0.127244 0.127195 0.127144 0.127106 0.127090 0.127086 0.127082 0.127065 0.127026 0.126975 0.126923 0.126871 0.126820 0.126773 0.126738 0.126725 0.126722 0.126719 0.126707 0.126679 0.126642 0.126605 0.126569 0.126533 0.126498 0.126473 0.126462 0.126459 0.126456 0.126445 0.126420 0.126386 0.126355 0.126323 0.126292 0.126261 0.126237 0.126228 0.126225 0.126223 0.126214 0.126191 0.126162 0.126134 0.126105 0.126077 0.126050 0.126029 0.126021 0.126018 0.126016 0.126007 0.125988 0.125962 0.125937 0.125912 0.125886 0.125863 0.125846 0.125839 0.125837 0.125835 0.125827 0.125810 0.125787 0.125765 0.125744 0.125723 0.125702 0.125686 0.125680 0.125679 0.125677 0.125671 0.125656 0.125637 0.125618 0.125599 0.125580 0.125562 0.125549 0.125543 0.125542 
0.137136 0.137133 0.137123 0.137099 0.137067 0.137034 0.137000 0.136966 0.136929 0.136901 0.136889 0.136886 0.136883 0.136871 0.136842 0.136805 0.136765 0.136726 0.136686 0.136645 0.136614 0.136600 0.136597 0.136593 0.136579 0.136547 0.136504 0.136459 0.136414 0.136369 0.136322 0.136287 0.136271 0.136267 0.136263 0.136248 0.136210 0.136161 0.136109 0.136057 0.136006 0.135951 0.135910 0.135892 0.135887 0.135882 0.135864 0.135821 0.135764 0.135704 0.135644 0.135584 0.135522 0.135475 0.135454 0.135449 0.135444 0.135423 0.135373 0.135307 0.135240 0.135172 0.135105 0.135034 0.134980 0.134958 0.134951 0.134945 0.134922 0.134868 0.134797 0.134722 0.134648 0.134573 0.134498 0.134441 0.134416 0.134409 0.134402 0.134377 0.134318 0.134240 0.134181 0.134123 0.134064 0.134012 0.133972 0.133955 0.133951 0.133946 0.133929 0.133891 0.133840 0.133791 0.133742 0.133693 0.133646 0.133611 0.133596 0.133592 0.133588 0.133574 0.133540 0.133494 0.133451 0.133408 0.133364 0.133322 0.133290 0.133277 0.133273 0.133270 0.133256 0.133227 0.133188 0.133149 0.133110 0.133070 0.133035 0.133008 0.132997 0.132994 0.132991 0.132979 0.132952 0.132917 0.132884 0.132851 0.132819 0.132787 0.132762 0.132752 0.132750 0.132747 0.132738 0.132716 0.132686 0.132658 0.132629 0.132601 0.132574 0.132554 0.132546 0.132543 0.132541 0.132532 0.132513 0.132487 0.132463 0.132439 0.132414 0.132391 0.132373 0.132366 0.132364 0.132362 0.132355 0.132338 0.132316 0.132294 0.132273 0.132251 0.132231 0.132216 0.132209 0.132207 
0.141973 0.141976 0.141992 0.142030 0.142081 0.142117 0.142154 0.142190 0.142215 0.142234 0.142240 0.142241 0.142242 0.142247 0.142256 0.142269 0.142270 0.142271 0.142273 0.142267 0.142263 0.142260 0.142259 0.142258 0.142255 0.142247 0.142237 0.142231 0.142224 0.142218 0.142214 0.142211 0.142211 0.142211 0.142211 0.142211 0.142204 0.142194 0.142171 0.142148 0.142124 0.142085 0.142056 0.142041 0.142038 0.142036 0.142021 0.141979 0.141924 0.141849 0.141774 0.141700 0.141607 0.141538 0.141510 0.141505 0.141500 0.141472 0.141388 0.141276 0.141169 0.141061 0.140953 0.140865 0.140800 0.140774 0.140770 0.140765 0.140740 0.140676 0.140591 0.140507 0.140423 0.140339 0.140257 0.140195 0.140171 0.140167 0.140163 0.140140 0.140079 0.139998 0.139918 0.139838 0.139758 0.139679 0.139620 0.139597 0.139593 0.139589 0.139566 0.139507 0.139430 0.139354 0.139277 0.139201 0.139126 0.139069 0.139048 0.139044 0.139040 0.139019 0.138963 0.138889 0.138815 0.138742 0.138668 0.138595 0.138539 0.138518 0.138514 
0.151704 0.151701 0.151690 0.151660 0.151620 0.151574 0.151527 0.151481 0.151428 0.151387 0.151369 0.151365 0.151360 0.151341 0.151293 0.151229 0.151160 0.151091 0.151022 0.150947 0.150889 0.150865 0.150859 0.150853 0.150828 0.150767 0.150685 0.150597 0.150508 0.150420 0.150329 0.150261 0.150232 0.150225 0.150218 0.150189 0.150119 0.150027 0.149931 0.149835 0.149739 0.149641 0.149567 0.149537 0.149529 0.149522 0.149490 0.149414 0.149312 0.149211 0.149110 0.149009 0.148910 0.148836 0.148806 0.148799 0.148791 0.148762 0.148690 0.148594 0.148504 0.148414 0.148324 0.148237 0.148171 0.148144 0.148137 0.148131 0.148104 0.148038 0.147951 0.147859 0.147767 0.147674 0.147574 0.147498 0.147465 0.147457 0.147449 0.147416 0.147335 0.147227 0.147112 0.146996 0.146881 0.146761 0.146671 0.146632 0.146623 0.146613 0.146573 0.146475 0.146346 0.146211 0.146077 0.145942 0.145802 0.145697 0.145653 0.145642 0.145632 0.145588 0.145478 0.145332 0.145185 0.145037 0.144890 0.144757 0.144657 0.144621 0.144613 0.144604 0.144568 0.144484 0.144372 0.144269 0.144166 0.144063 0.143968 0.143896 0.143868 0.143861 0.143855 0.143827 0.143759 0.143669 0.143588 0.143507 0.143425 0.143347 0.143288 0.143266 0.143260 0.143255 0.143234 0.143181 0.143112 0.143045 0.142979 0.142913 0.142851 0.142804 0.142784 0.142780 0.142775 0.142755 0.142713 0.142657 0.142602 0.142547 0.142492 0.142442 0.142404 0.142389 0.142385 0.142381 0.142365 0.142328 0.142279 0.142233 0.142187 0.142142 0.142098 0.142065 0.142052 0.142049 0.142046 0.142033 0.142001 0.141958 0.141918 0.141878 0.141838 0.141797 0.141766 0.141754 0.141751 0.141749 0.141737 0.141708 0.141669 0.141630 0.141592 0.141553 0.141515 0.141486 0.141473 0.141470 
0.155922 0.155919 0.155908 0.155880 0.155842 0.155799 0.155755 0.155711 0.155660 0.155622 0.155604 0.155600 0.155595 0.155578 0.155535 0.155478 0.155414 0.155350 0.155286 0.155217 0.155164 0.155142 0.155136 0.155130 0.155107 0.155050 0.154975 0.154895 0.154814 0.154733 0.154649 0.154585 0.154558 0.154551 0.154544 0.154516 0.154448 0.154358 0.154265 0.154173 0.154080 0.153983 0.153910 0.153879 0.153871 0.153862 0.153831 0.153758 0.153660 0.153558 0.153455 0.153353 0.153255 0.153181 0.153148 0.153140 0.153132 0.153099 0.153022 0.152920 0.152816 0.152711 0.152606 0.152498 0.152416 0.152381 0.152372 0.152364 0.152330 0.152246 0.152136 0.152021 0.151907 0.151792 0.151671 0.151580 0.151541 0.151531 0.151520 0.151481 0.151386 0.151261 0.151129 0.150997 0.150865 0.150729 0.150627 0.150584 0.150573 0.150561 0.150516 0.150408 0.150264 0.150119 0.149973 0.149828 0.149678 0.149565 0.149517 0.149505 0.149493 0.149445 0.149331 0.149180 0.149027 0.148874 0.148721 0.148590 0.148490 0.148456 0.148448 0.148439 0.148406 0.148328 0.148225 0.148129 0.148034 0.147939 0.147851 0.147784 0.147756 0.147749 0.147742 0.147715 0.147655 0.147576 0.147500 0.147423 0.147347 0.147279 0.147227 0.147206 0.147201 0.147195 0.147174 0.147123 0.147056 0.146996 0.146936 0.146876 0.146817 0.146772 0.146754 0.146750 0.146746 0.146729 0.146689 0.146636 0.146584 0.146532 0.146481 0.146433 0.146396 0.146381 0.146377 0.146373 0.146358 0.146323 0.146277 0.146233 0.146190 0.146146 0.146105 0.146073 0.146061 0.146058 0.146054 0.146042 0.146012 0.145972 0.145933 0.145895 0.145857 0.145819 0.145790 0.145778 0.145775 0.145772 0.145760 0.145734 0.145698 0.145663 0.145627 0.145592 0.145558 0.145533 0.145522 0.145519 
0.165830 0.165823 0.165802 0.165753 0.165688 0.165618 0.165548 0.165478 0.165402 0.165344 0.165317 0.165309 0.165300 0.165273 0.165210 0.165128 0.165041 0.164954 0.164867 0.164774 0.164703 0.164671 0.164661 0.164650 0.164618 0.164544 0.164447 0.164345 0.164243 0.164140 0.164034 0.163954 0.163917 0.163905 0.163893 0.163856 0.163772 0.163660 0.163544 0.163427 0.163311 0.163193 0.163103 0.163062 0.163049 0.163036 0.162994 0.162901 0.162779 0.162654 0.162529 0.162405 0.162276 0.162178 0.162133 0.162119 0.162105 0.162061 0.161961 0.161830 0.161697 0.161565 0.161432 0.161297 0.161195 0.161149 0.161134 0.161120 0.161074 0.160971 0.160835 0.160697 0.160559 0.160421 0.160282 0.160176 0.160129 0.160114 0.160099 0.160051 0.159942 0.159799 0.159655 0.159511 0.159368 0.159224 0.159115 0.159065 0.159049 0.159034 0.158984 0.158873 0.158728 0.158581 0.158435 0.158288 0.158140 0.158028 0.157977 0.157961 0.157945 0.157895 0.157782 0.157634 0.157484 0.157335 0.157186 0.157037 0.156923 0.156872 0.156856 0.156840 0.156789 0.156675 0.156526 0.156377 0.156228 0.156079 0.155930 0.155818 0.155767 0.155752 0.155736 0.155686 0.155575 0.155429 0.155284 0.155139 0.154994 0.154852 0.154744 0.154696 0.154681 0.154666 0.154618 0.154522 0.154396 0.154306 0.154216 0.154126 0.154043 0.153980 0.153952 0.153943 0.153934 0.153906 0.153845 0.153765 0.153693 0.153622 0.153550 0.153480 0.153427 0.153403 0.153396 0.153388 0.153364 0.153317 0.153253 0.153192 0.153131 0.153070 0.153011 0.152966 0.152947 0.152941 0.152936 0.152917 0.152875 0.152820 0.152765 0.152711 0.152656 0.152608 0.152572 0.152556 0.152551 0.152545 0.152529 0.152492 0.152444 0.152398 0.152353 0.152307 0.152263 0.152229 0.152214 0.152209 0.152204 0.152189 0.152156 0.152111 0.152070 0.152029 0.151988 0.151947 0.151916 0.151902 0.151898 0.151894 0.151881 0.151853 0.151816 0.151779 0.151741 0.151704 0.151668 0.151641 0.151630 0.151626 0.151622 0.151611 0.151585 0.151550 0.151516 0.151482 0.151448 0.151416 0.151392 0.151381 0.151377 0.151374 0.151363 0.151338 0.151305 0.151274 0.151243 0.151213 0.151182 0.151158 0.151148 0.151144 0.151141 0.151130 0.151107 0.151077 0.151048 0.151018 0.150989 0.150959 0.150936 0.150927 0.150924 
0.177914 0.177901 0.177762 0.177081 0.176025 0.174678 0.173331 0.171984 0.170518 0.169573 0.169338 0.169316 0.169294 0.169063 0.168122 0.166663 0.165284 0.163905 0.162526 0.161766 0.161276 0.161177 0.161168 0.161159 0.161061 0.160725 0.160205 0.159805 0.159405 0.159005 0.158669 0.158452 0.158402 0.158397 
0.217601 0.217492 0.216924 0.215529 0.213674 0.211967 0.210259 0.208552 0.207006 0.205842 0.205408 0.205324 0.205242 0.204815 0.203754 0.202344 0.201069 0.199794 0.198519 0.197362 0.196492 0.196163 0.196100 0.196038 0.195714 0.194926 0.193879 0.192936 0.191993 0.191050 0.190171 0.189509 0.189257 0.189209 0.189162 0.188915 0.188299 0.187480 0.186721 0.185961 0.185202 0.184497 0.183966 0.183768 0.183730 0.183692 0.183494 0.183012 0.182370 0.181827 0.181284 0.180741 0.180293 0.179956 0.179828 0.179803 0.179778 0.179651 0.179358 0.178968 0.178625 0.178283 0.177940 0.177637 0.177408 0.177328 0.177313 0.177298 0.177221 0.177023 0.176761 0.176528 0.176296 0.176063 0.175858 0.175703 0.175647 0.175636 0.175625 0.175568 0.175425 0.175235 0.175066 0.174896 0.174727 0.174575 0.174460 0.174415 0.174406 0.174397 0.174352 0.174248 0.174110 0.173979 0.173848 0.173717 0.173591 0.173495 0.173462 0.173455 
